k-mers:	AAGCCT	CTAAGCC	GAAGCCA	

gene_name	counts_in_c.elegans	oocyte gene?	sperm gene?
C35D10.11		1		0	1
F36H12.6		1		0	0
F43G6.1		1		0	0
Y13C8A.1		1		1	0
F21H7.5		1		0	1
Y13C8A.1		1		1	0
F58A6.8		0		0	1
Y53G8AM.6		0		0	0
T23D8.9		0		1	0
Y50E8A.2		0		0	1
Y50E8A.2		0		0	1
Y50E8A.2		0		0	1
C33F10.9		0		0	1
Y50E8A.2		0		0	1
ZK484.5		0		0	1
Y50E8A.2		0		0	1
F31E3.4		0		0	0
Y50E8A.2		0		0	1
T08B2.12		0		0	1
Y46G5A.4		0		1	0
Y50E8A.2		0		0	1
M110.4		0		0	0
ZK354.11		0		0	1
Y50E8A.2		0		0	1
Y50E8A.2		0		0	1
Y50E8A.2		0		0	1
Y50E8A.2		0		0	1
Y46H3C.4		0		0	0
Y50E8A.2		0		0	1
C39E9.12		0		1	0
C08F11.14		0		0	0
F47B8.11		0		0	1
F47B8.11		0		0	1
Y50E8A.2		0		0	1
Y50E8A.2		0		0	1
F47B8.11		0		0	1
Y46H3C.4		0		0	0
Y50E8A.2		0		0	1
Y51A2D.11		0		0	0
Y50E8A.2		0		0	1
