AC8.1 
B0001.2
B0001.3
B0001.7
B0035.1
B0035.12
B0035.6
B0205.1
B0240.4 
B0280.9
B0334.8 
B0336.3
B0336.5
B0336.6 
B0336.7
B0365.1
B0379.3 
B0457.1 
B0464.2
B0464.6
B0464.9
B0491.1
B0511.12
B0523.5 
C01B10.8
C01C7.1 
C01G10.7
C01G5.2 
C01H6.9
C02B10.4
C02B10.5
C02F4.1 
C02F5.1 
C03B8.4 
C03D6.3 
C03D6.4 
C04A2.7 
C04F5.1 
C04H5.1
C05B10.1 
C05C10.2
C05C10.6 
C05C8.4 
C05D11.2 
C05D11.7
C05D2.5 
C06A1.1 
C06A5.1
C06A5.10
C06C3.1 
C06G3.2 
C07A9.3 
C07A9.7 
C07E3.1 
C07H6.4
C07H6.5 
C08B11.2 
C08B11.3
C09D4.4
C09G4.5 
C10C6.1 
C10H11.10 
C10H11.9 
C13B4.1
C13B4.2 
C13G3.3 
C14A4.11
C14A4.3
C14B1.7
C14B9.4 
C14C11.6 
C15F1.3 
C16A11.2
C16A3.7 
C16A3.8 
C16C10.1
C16C10.2
C16C10.4
C17B7.7
C17B7.7
C17E4.6
C18A3.2
C18E3.7 
C18E9.3 
C18F10.7
C18F3.2 
C18G1.4 
C23G10.4 
C23G10.8
C24H12.2
C24H12.5
C25G4.5 
C25H3.6
C26B2.1 
C26D10.1 
C26E6.3
C26E6.7
C26H9A.1 
C27B7.5
C27C7.1
C28A5.1
C28A5.2
C28H8.9
C29E4.2 
C29E4.4 
C29H12.5
C30B5.4
C30G12.6
C32D5.10
C32D5.3
C32E8.8 
C33H5.4 
C33H5.7
C34B2.7 
C34C6.2
C34E10.8
C35D10.9 
C35E7.8
C36A4.4
C36A4.8 
C36B1.5 
C36B1.8
C36F7.2
C37A2.2 
C38C10.5 
C38D4.1
C38D4.3 
C38D4.5 
C39E9.12
C39E9.13 
C41H7.6
C43E11.10 
C43E11.3 
C43E11.8 
C44B9.4 
C44E4.8
C45G3.1 
C46F11.4
C47D12.2
C47D12.8
C47E8.8 
C47G2.5
C48G7.3 
C49H3.10 
C50F2.2
C50F2.3
C53A5.3 
C53B4.4
C53D6.4
C54G10.2 
C55B7.1 
CD4.4 
D1007.7 
D1022.1 
D1044.6
D1054.15 
D2005.4
D2013.5 
D2023.6
D2045.2
D2092.2 
D2096.12
E01A2.4
E01G4.4 
E03A3.2 
EEED8.5 
F01F1.4 
F01F1.7 
F01G4.4
F02A9.6 
F07A11.2
F07A11.3 
F07C6.4
F08F1.9
F08F3.2 
F08F8.10
F09E8.3 
F09G2.4 
F09G2.9
F10B5.6 
F10B5.7 
F10C2.4
F10C5.1 
F10E7.11
F10E7.8 
F10E9.8 
F10G7.3 
F10G7.4 
F11A10.1 
F11A10.5
F11A10.8 
F11E6.7
F12F6.1
F13D12.5
F13H10.4
F15D4.1 
F16D3.2 
F17A9.2
F18A1.5 
F18A1.6
F18E2.3 
F19F10.9
F20D12.1 
F20D12.2
F20D12.4 
F20G4.1 
F20G4.2
F20G4.3 
F20H11.1
F21G4.2 
F22B5.7 
F22D6.6 
F22E5.9
F23B2.6 
F23C8.4 
F23F1.5
F23H11.2
F23H11.4
F25D7.2 
F25D7.4
F25G6.9
F25H2.13 
F25H8.2
F26B1.2
F26B1.3 
F26E4.4
F26F4.1 
F26F4.7 
F26G5.9 
F26H11.2 
F28B12.3 
F28B3.7 
F28D1.10 
F29C12.3
F29C12.3
F29D11.2
F29G9.1
F30A10.10
F31C3.2
F31C3.3
F31E3.4
F31E8.6
F32A11.4
F32A5.1 
F32A7.4
F32A7.5
F32D1.10 
F32E10.1 
F32E10.2
F32H2.1 
F32H2.3 
F33E11.3
F33G12.3
F33H2.1 
F33H2.2
F33H2.5
F35G12.11
F35G12.3 
F35G12.8 
F36A2.1 
F36A2.13
F37A4.6
F37E3.1 
F38A5.13 
F38B7.5 
F39B2.1
F39B2.4 
F39F10.3
F40E3.2
F40F8.11
F41E6.4 
F41H10.3
F41H10.6
F42A6.3
F42A6.5
F42A9.2 
F42G9.6
F42H10.7
F42H11.2 
F43G6.1 
F43G6.9 
F43G9.12
F43G9.5
F44A2.1 
F44B9.6 
F44B9.7 
F44C4.4 
F44G4.4 
F45E12.2 
F45E12.3 
F45F2.10
F46F11.10
F48A11.4
F48A11.5 
F49C12.9
F52B5.3
F52B5.6 
F52C12.1
F52C6.10 
F52C6.4
F52C6.9 
F52C9.7
F52G2.1 
F52H3.2
F53A2.8 
F53F10.5 
F54D11.3
F54D5.2
F54E7.3 
F54F2.5 
F55A11.2 
F55A11.3 
F55A11.7
F55A3.3
F55A3.3
F55F8.4 
F55H2.4 
F56A3.3 
F56A3.4 
F56A6.1 
F56C9.10
F56C9.11
F56D1.4 
F56D12.6
F56D2.7 
F56G4.4
F56H1.4 
F57A10.1 
F57B10.6 
F57B9.10 
F57B9.2 
F57C9.4
F58A4.9
F58B3.7
F58B6.3 
F58G1.1
F58G1.1
F58G1.2
F58G11.1 
F58G11.5 
F59A2.1 
F59A3.2
F59A3.4
F59B2.7 
F59E10.1 
F59E12.1
F59G1.3 
F59H5.3 
F59H6.10 
F59H6.3
F59H6.7 
F59H6.9 
H04D03.1
H04D03.2
H05C05.2
H06H21.6 
H11L12.1
H12C20.2 
H20J04.2
H28O16.2
H38K22.2 
H43I07.2
JC8.10 
K02B12.5
K02E7.3
K02F2.1 
K02F6.7
K03D7.1
K03D7.1
K04B12.3
K04C2.4 
K04G2.6
K04G7.1
K06A5.1
K06A5.4 
K06B9.2
K06B9.2
K06B9.4
K06B9.4
K07A1.12 
K07A12.2
K07C5.6
K07F5.13 
K08B12.5 
K08E3.5
K08E4.1 
K09H11.3 
K10D2.3 
K11D12.2 
K11H3.4
K12D12.1 
K12D12.1 
K12D12.2 
K12D12.5
K12H4.8 
M01B12.4
M01E11.3
M01E11.6 
M01E5.3
M01E5.4
M01F1.8
M03C11.2
M03C11.8
M03F8.3
M04B2.1 
M106.1 
M116.5
M151.3
M151.7
M18.8
M4.1
PAR2.4 
R01H10.7
R05D3.8
R05H10.3
R06A4.2
R06F6.5 
R06F6.8
R07E5.1
R07G3.3 
R07G3.9 
R08C7.10 
R08C7.3 
R08D7.2
R09A1.1 
R09B3.1 
R10D12.14
R10E4.4 
R10E4.5 
R119.1
R119.7 
R11A8.1
R11E3.6 
R11E3.7 
R12B2.4 
R12C12.2 
R12E2.3 
R13A5.1 
R13H4.4 
R151.8
R17.2
T01B11.3 
T01C3.1
T01C3.8 
T01D3.5
T01G9.4 
T01G9.5 
T02C12.2
T02C12.3
T02E1.2
T02G5.12
T03F1.9 
T04A11.6 
T05A12.3
T05C12.5 
T05C12.6 
T05E8.3
T05F1.6 
T05G5.8
T05G5.9
T05H10.1
T05H10.5 
T05H4.1 
T06D8.8 
T07C4.3
T07D4.4 
T07E3.3
T08B2.5
T08D2.3
T08D2.3
T08D2.5
T08D2.5
T09A5.10 
T09A5.8
T09E8.2 
T09F3.2
T10G3.5 
T12A2.8
T12D8.1 
T12E12.2
T12E12.3
T12E12.4 
T12G3.7
T13C2.6
T16G12.3
T16G12.5 
T16G12.6
T17E9.1 
T19B4.2 
T19B4.5
T19C3.8 
T19E10.1 
T20F5.6
T20F5.7
T20G5.11 
T21B10.3
T21B10.5 
T22A3.5 
T22D1.10 
T22D1.9 
T22F3.3
T23B5.1
T23D8.9 
T23E1.2
T23G5.1 
T23G5.2
T23H2.3
T24B8.7
T24D1.1 
T24F1.2
T24H10.1
T24H10.3 
T26A5.4
T26A5.5
T26A8.4
T27A3.7
T27F2.1 
T28A8.4
T28A8.6
T28A8.7 
T28D9.2 
T28F3.1
VW02B12L.3 
W01D2.5
W01G7.5 
W02A2.6 
W02D3.4
W02D9.1 
W02D9.3
W03A3.2 
W03A3.2 
W03A5.6
W03D2.4 
W03F9.5 
W03G1.6 
W03G9.2
W04A4.5
W04A8.1
W04D2.4
W04D2.6
W05F2.2
W05G11.2
W06D4.6 
W06H3.1
W07A8.2
W08F4.8 
W09B6.3 
W09B6.3 
W09D10.2 
W09G10.4 
W09G3.6
W10C6.1 
Y102E9.2
Y105E8A.15
Y105E8A.17 
Y105E8A.8
Y105E8B.2 
Y106G6D.7
Y106G6H.12 
Y110A2AL.13
Y110A7A.17 
Y110A7A.8
Y110A7A.9
Y111B2A.3
Y116A8C.36 
Y119D3B.11
Y14H12B.1
Y14H12B.2
Y17G7A.1 
Y17G7B.5 
Y18D10A.17 
Y18D10A.20 
Y18H1A.6 
Y18H1A.7
Y23H5B.6
Y2H9A.1 
Y32B12B.2
Y32B12B.4
Y34D9A.3
Y34D9A.4 
Y37A1B.2 
Y37D8A.12
Y37D8A.12
Y37D8A.12
Y37D8A.9 
Y38A8.3 
Y39A1A.15 
Y39A1B.3 
Y39B6A.49
Y39G10AR.13 
Y39G10AR.14 
Y39G10AR.7
Y39G10AR.9
Y39H10A.7 
Y40B1B.6 
Y40B1B.8
Y41D4B.12 
Y41D4B.19 
Y41D4B.4
Y41E3.12 
Y43F4B.3 
Y43F4B.6 
Y43H11AL.3 
Y44A6C.2
Y45F10D.9 
Y46H3C.4
Y47D3A.26 
Y47D3A.29
Y47G6A.12 
Y47G6A.27
Y47G6A.28 
Y47G6A.4
Y47G6A.8 
Y48A6B.11 
Y48C3A.8
Y48C3A.9
Y48G10A.4
Y48G1A.5 
Y48G1C.1
Y48G1C.8
Y49E10.3 
Y49E10.4
Y49F6B.4 
Y49F6B.9
Y51H1A.7
Y51H4A.12 
Y52B11A.9
Y53C10A.6
Y53C12A.6
Y53C12B.3 
Y53F4B.9
Y53G8AR.2
Y54E10A.12
Y54E10A.15 
Y54E10BR.2
Y54E2A.12 
Y54E5A.4 
Y54E5A.7
Y54E5B.3 
Y55D9A.1 
Y55F3AM.4 
Y55F3AM.4 
Y55F3BR.1
Y55F3BR.4 
Y56A3A.17 
Y56A3A.20 
Y56A3A.29 
Y57A10A.13
Y57A10A.19 
Y57A10A.25
Y57A10A.31
Y57A10A.4
Y57G11C.13 
Y65B4A.1
Y65B4BL.5 
Y66A7A.5
Y67D8A.2
Y69H2.7
Y71F9B.10 
Y71F9B.10 
Y71F9B.6
Y71F9B.7 
Y73B6A.4 
Y75B12A.1
Y76A2A.2 
Y76A2B.1 
Y76B12C.2 
Y76B12C.6
Y76G2A.1
Y77E11A.6
Y77E11A.7
ZC302.1 
ZC308.1 
ZC308.1 
ZC376.6
ZC404.3 
ZC404.9 
ZK1055.1 
ZK1058.5
ZK1067.3
ZK1128.5 
ZK1248.10 
ZK1248.14 
ZK1248.3 
ZK1248.7
ZK1248.9
ZK328.4
ZK353.8 
ZK370.4
ZK381.4 
ZK546.1 
ZK546.13 
ZK550.4
ZK632.1 
ZK637.7 
ZK686.4
ZK742.1 
ZK930.1
ZK973.3
ZK973.5 
