%!PS-Adobe-2.0 EPSF-1.2
%%Creator: MATLAB, The Mathworks, Inc. Version 7.6.0.324 (R2008a). Operating System: Linux 2.6.18.8-0.10-default #1 SMP Wed Jun 4 15:46:34 UTC 2008 x86_64.
%%Title: figs1/ACGTG.eps
%%CreationDate: 12/13/2009  22:28:28
%%DocumentNeededFonts: Helvetica
%%DocumentProcessColors: Cyan Magenta Yellow Black
%%Extensions: CMYK
%%Pages: 1
%%BoundingBox:    47   174   557   618
%%EndComments

%%BeginProlog
% MathWorks dictionary
/MathWorks 160 dict begin
% definition operators
/bdef {bind def} bind def
/ldef {load def} bind def
/xdef {exch def} bdef
/xstore {exch store} bdef
% operator abbreviations
/c  /clip ldef
/cc /concat ldef
/cp /closepath ldef
/gr /grestore ldef
/gs /gsave ldef
/mt /moveto ldef
/np /newpath ldef
/cm /currentmatrix ldef
/sm /setmatrix ldef
/rm /rmoveto ldef
/rl /rlineto ldef
/s {show newpath} bdef
/sc {setcmykcolor} bdef
/sr /setrgbcolor ldef
/sg /setgray ldef
/w /setlinewidth ldef
/j /setlinejoin ldef
/cap /setlinecap ldef
/rc {rectclip} bdef
/rf {rectfill} bdef
% page state control
/pgsv () def
/bpage {/pgsv save def} bdef
/epage {pgsv restore} bdef
/bplot /gsave ldef
/eplot {stroke grestore} bdef
% orientation switch
/portraitMode 0 def /landscapeMode 1 def /rotateMode 2 def
% coordinate system mappings
/dpi2point 0 def
% font control
/FontSize 0 def
/FMS {/FontSize xstore findfont [FontSize 0 0 FontSize neg 0 0]
  makefont setfont} bdef
/reencode {exch dup where {pop load} {pop StandardEncoding} ifelse
  exch dup 3 1 roll findfont dup length dict begin
  { 1 index /FID ne {def}{pop pop} ifelse } forall
  /Encoding exch def currentdict end definefont pop} bdef
/isroman {findfont /CharStrings get /Agrave known} bdef
/FMSR {3 1 roll 1 index dup isroman {reencode} {pop pop} ifelse
  exch FMS} bdef
/csm {1 dpi2point div -1 dpi2point div scale neg translate
 dup landscapeMode eq {pop -90 rotate}
  {rotateMode eq {90 rotate} if} ifelse} bdef
% line types: solid, dotted, dashed, dotdash
/SO { [] 0 setdash } bdef
/DO { [.5 dpi2point mul 4 dpi2point mul] 0 setdash } bdef
/DA { [6 dpi2point mul] 0 setdash } bdef
/DD { [.5 dpi2point mul 4 dpi2point mul 6 dpi2point mul 4
  dpi2point mul] 0 setdash } bdef
% macros for lines and objects
/L {lineto stroke} bdef
/MP {3 1 roll moveto 1 sub {rlineto} repeat} bdef
/AP {{rlineto} repeat} bdef
/PDlw -1 def
/W {/PDlw currentlinewidth def setlinewidth} def
/PP {closepath eofill} bdef
/DP {closepath stroke} bdef
/MR {4 -2 roll moveto dup  0 exch rlineto exch 0 rlineto
  neg 0 exch rlineto closepath} bdef
/FR {MR stroke} bdef
/PR {MR fill} bdef
/L1i {{currentfile picstr readhexstring pop} image} bdef
/tMatrix matrix def
/MakeOval {newpath tMatrix currentmatrix pop translate scale
0 0 1 0 360 arc tMatrix setmatrix} bdef
/FO {MakeOval stroke} bdef
/PO {MakeOval fill} bdef
/PD {currentlinewidth 2 div 0 360 arc fill
   PDlw -1 eq not {PDlw w /PDlw -1 def} if} def
/FA {newpath tMatrix currentmatrix pop translate scale
  0 0 1 5 -2 roll arc tMatrix setmatrix stroke} bdef
/PA {newpath tMatrix currentmatrix pop	translate 0 0 moveto scale
  0 0 1 5 -2 roll arc closepath tMatrix setmatrix fill} bdef
/FAn {newpath tMatrix currentmatrix pop translate scale
  0 0 1 5 -2 roll arcn tMatrix setmatrix stroke} bdef
/PAn {newpath tMatrix currentmatrix pop translate 0 0 moveto scale
  0 0 1 5 -2 roll arcn closepath tMatrix setmatrix fill} bdef
/vradius 0 def /hradius 0 def /lry 0 def
/lrx 0 def /uly 0 def /ulx 0 def /rad 0 def
/MRR {/vradius xdef /hradius xdef /lry xdef /lrx xdef /uly xdef
  /ulx xdef newpath tMatrix currentmatrix pop ulx hradius add uly
  vradius add translate hradius vradius scale 0 0 1 180 270 arc 
  tMatrix setmatrix lrx hradius sub uly vradius add translate
  hradius vradius scale 0 0 1 270 360 arc tMatrix setmatrix
  lrx hradius sub lry vradius sub translate hradius vradius scale
  0 0 1 0 90 arc tMatrix setmatrix ulx hradius add lry vradius sub
  translate hradius vradius scale 0 0 1 90 180 arc tMatrix setmatrix
  closepath} bdef
/FRR {MRR stroke } bdef
/PRR {MRR fill } bdef
/MlrRR {/lry xdef /lrx xdef /uly xdef /ulx xdef /rad lry uly sub 2 div def
  newpath tMatrix currentmatrix pop ulx rad add uly rad add translate
  rad rad scale 0 0 1 90 270 arc tMatrix setmatrix lrx rad sub lry rad
  sub translate rad rad scale 0 0 1 270 90 arc tMatrix setmatrix
  closepath} bdef
/FlrRR {MlrRR stroke } bdef
/PlrRR {MlrRR fill } bdef
/MtbRR {/lry xdef /lrx xdef /uly xdef /ulx xdef /rad lrx ulx sub 2 div def
  newpath tMatrix currentmatrix pop ulx rad add uly rad add translate
  rad rad scale 0 0 1 180 360 arc tMatrix setmatrix lrx rad sub lry rad
  sub translate rad rad scale 0 0 1 0 180 arc tMatrix setmatrix
  closepath} bdef
/FtbRR {MtbRR stroke } bdef
/PtbRR {MtbRR fill } bdef
/stri 6 array def /dtri 6 array def
/smat 6 array def /dmat 6 array def
/tmat1 6 array def /tmat2 6 array def /dif 3 array def
/asub {/ind2 exch def /ind1 exch def dup dup
  ind1 get exch ind2 get sub exch } bdef
/tri_to_matrix {
  2 0 asub 3 1 asub 4 0 asub 5 1 asub
  dup 0 get exch 1 get 7 -1 roll astore } bdef
/compute_transform {
  dmat dtri tri_to_matrix tmat1 invertmatrix 
  smat stri tri_to_matrix tmat2 concatmatrix } bdef
/ds {stri astore pop} bdef
/dt {dtri astore pop} bdef
/db {2 copy /cols xdef /rows xdef mul dup 3 mul string
  currentfile exch readhexstring pop
  dup 0 3 index getinterval /rbmap xdef
  dup 2 index dup getinterval /gbmap xdef
  1 index dup 2 mul exch getinterval /bbmap xdef pop pop}bdef
/it {gs np dtri aload pop moveto lineto lineto cp c
  cols rows 8 compute_transform 
  rbmap gbmap bbmap true 3 colorimage gr}bdef
/il {newpath moveto lineto stroke}bdef
currentdict end def
%%EndProlog

%%BeginSetup
MathWorks begin

0 cap

end
%%EndSetup

%%Page: 1 1
%%BeginPageSetup
%%PageBoundingBox:    47   174   557   618
MathWorks begin
bpage
%%EndPageSetup

%%BeginObject: obj1
bplot

/dpi2point 12 def
portraitMode 0552 7500 csm

   19    79  6117  5328 MR c np
76 dict begin %Colortable dictionary
/c0 { 0.000000 0.000000 0.000000 sr} bdef
/c1 { 1.000000 1.000000 1.000000 sr} bdef
/c2 { 0.900000 0.000000 0.000000 sr} bdef
/c3 { 0.000000 0.820000 0.000000 sr} bdef
/c4 { 0.000000 0.000000 0.800000 sr} bdef
/c5 { 0.910000 0.820000 0.320000 sr} bdef
/c6 { 1.000000 0.260000 0.820000 sr} bdef
/c7 { 0.000000 0.820000 0.820000 sr} bdef
c0
1 j
1 sg
   0    0 6241 5521 PR
6 w
0 1681 4836 0 0 -1681 811 2246 4 MP
PP
-4836 0 0 1681 4836 0 0 -1681 811 2246 5 MP stroke
4 w
DO
SO
6 w
0 sg
 811 2246 mt 5647 2246 L
 811  565 mt 5647  565 L
 811 2246 mt  811  565 L
5647 2246 mt 5647  565 L
 811 2246 mt 5647 2246 L
 811 2246 mt  811  565 L
 811 2246 mt  811 2197 L
 811  565 mt  811  613 L
%%IncludeResource: font Helvetica
/Helvetica /ISOLatin1Encoding 192 FMSR

 758 2458 mt 
(0) s
1294 2246 mt 1294 2197 L
1294  565 mt 1294  613 L
1188 2458 mt 
(50) s
1778 2246 mt 1778 2197 L
1778  565 mt 1778  613 L
1618 2458 mt 
(100) s
2261 2246 mt 2261 2197 L
2261  565 mt 2261  613 L
2101 2458 mt 
(150) s
2745 2246 mt 2745 2197 L
2745  565 mt 2745  613 L
2585 2458 mt 
(200) s
3229 2246 mt 3229 2197 L
3229  565 mt 3229  613 L
3069 2458 mt 
(250) s
3712 2246 mt 3712 2197 L
3712  565 mt 3712  613 L
3552 2458 mt 
(300) s
4196 2246 mt 4196 2197 L
4196  565 mt 4196  613 L
4036 2458 mt 
(350) s
4679 2246 mt 4679 2197 L
4679  565 mt 4679  613 L
4519 2458 mt 
(400) s
5163 2246 mt 5163 2197 L
5163  565 mt 5163  613 L
5003 2458 mt 
(450) s
5647 2246 mt 5647 2197 L
5647  565 mt 5647  613 L
5487 2458 mt 
(500) s
 811 2246 mt  859 2246 L
5647 2246 mt 5598 2246 L
 670 2317 mt 
(0) s
 811 1405 mt  859 1405 L
5647 1405 mt 5598 1405 L
 403 1476 mt 
(0.05) s
 811  565 mt  859  565 L
5647  565 mt 5598  565 L
 510  636 mt 
(0.1) s
 811 2246 mt 5647 2246 L
 811  565 mt 5647  565 L
 811 2246 mt  811  565 L
5647 2246 mt 5647  565 L
gs 811 565 4837 1682 MR c np
0 0 77 0 0 0 772 2246 4 MP
PP
1 sg
-77 0 0 0 77 0 0 0 772 2246 5 MP stroke
0 sg
0 0 77 0 0 0 869 2246 4 MP
PP
1 sg
-77 0 0 0 77 0 0 0 869 2246 5 MP stroke
0 sg
0 50 78 0 0 -50 965 2246 4 MP
PP
1 sg
-78 0 0 50 78 0 0 -50 965 2246 5 MP stroke
0 sg
0 420 77 0 0 -420 1062 2246 4 MP
PP
1 sg
-77 0 0 420 77 0 0 -420 1062 2246 5 MP stroke
0 sg
0 839 77 0 0 -839 1159 2246 4 MP
PP
1 sg
-77 0 0 839 77 0 0 -839 1159 2246 5 MP stroke
0 sg
0 814 78 0 0 -814 1255 2246 4 MP
PP
1 sg
-78 0 0 814 78 0 0 -814 1255 2246 5 MP stroke
0 sg
0 1430 78 0 0 -1430 1352 2246 4 MP
PP
1 sg
-78 0 0 1430 78 0 0 -1430 1352 2246 5 MP stroke
0 sg
0 1307 77 0 0 -1307 1449 2246 4 MP
PP
1 sg
-77 0 0 1307 77 0 0 -1307 1449 2246 5 MP stroke
0 sg
0 1331 77 0 0 -1331 1546 2246 4 MP
PP
1 sg
-77 0 0 1331 77 0 0 -1331 1546 2246 5 MP stroke
0 sg
0 1307 78 0 0 -1307 1642 2246 4 MP
PP
1 sg
-78 0 0 1307 78 0 0 -1307 1642 2246 5 MP stroke
0 sg
0 986 77 0 0 -986 1739 2246 4 MP
PP
1 sg
-77 0 0 986 77 0 0 -986 1739 2246 5 MP stroke
0 sg
0 789 77 0 0 -789 1836 2246 4 MP
PP
1 sg
-77 0 0 789 77 0 0 -789 1836 2246 5 MP stroke
0 sg
0 395 78 0 0 -395 1932 2246 4 MP
PP
1 sg
-78 0 0 395 78 0 0 -395 1932 2246 5 MP stroke
0 sg
0 469 78 0 0 -469 2029 2246 4 MP
PP
1 sg
-78 0 0 469 78 0 0 -469 2029 2246 5 MP stroke
0 sg
0 691 77 0 0 -691 2126 2246 4 MP
PP
1 sg
-77 0 0 691 77 0 0 -691 2126 2246 5 MP stroke
0 sg
0 395 77 0 0 -395 2223 2246 4 MP
PP
1 sg
-77 0 0 395 77 0 0 -395 2223 2246 5 MP stroke
0 sg
0 395 78 0 0 -395 2319 2246 4 MP
PP
1 sg
-78 0 0 395 78 0 0 -395 2319 2246 5 MP stroke
0 sg
0 395 77 0 0 -395 2416 2246 4 MP
PP
1 sg
-77 0 0 395 77 0 0 -395 2416 2246 5 MP stroke
0 sg
0 420 77 0 0 -420 2513 2246 4 MP
PP
1 sg
-77 0 0 420 77 0 0 -420 2513 2246 5 MP stroke
0 sg
0 247 78 0 0 -247 2609 2246 4 MP
PP
1 sg
-78 0 0 247 78 0 0 -247 2609 2246 5 MP stroke
0 sg
0 173 78 0 0 -173 2706 2246 4 MP
PP
1 sg
-78 0 0 173 78 0 0 -173 2706 2246 5 MP stroke
0 sg
0 296 77 0 0 -296 2803 2246 4 MP
PP
1 sg
-77 0 0 296 77 0 0 -296 2803 2246 5 MP stroke
0 sg
0 198 77 0 0 -198 2900 2246 4 MP
PP
1 sg
-77 0 0 198 77 0 0 -198 2900 2246 5 MP stroke
0 sg
0 124 78 0 0 -124 2996 2246 4 MP
PP
1 sg
-78 0 0 124 78 0 0 -124 2996 2246 5 MP stroke
0 sg
0 74 77 0 0 -74 3093 2246 4 MP
PP
1 sg
-77 0 0 74 77 0 0 -74 3093 2246 5 MP stroke
0 sg
0 74 77 0 0 -74 3190 2246 4 MP
PP
1 sg
-77 0 0 74 77 0 0 -74 3190 2246 5 MP stroke
0 sg
0 198 77 0 0 -198 3287 2246 4 MP
PP
1 sg
-77 0 0 198 77 0 0 -198 3287 2246 5 MP stroke
0 sg
0 198 78 0 0 -198 3383 2246 4 MP
PP
1 sg
-78 0 0 198 78 0 0 -198 3383 2246 5 MP stroke
0 sg
0 173 77 0 0 -173 3480 2246 4 MP
PP
1 sg
-77 0 0 173 77 0 0 -173 3480 2246 5 MP stroke
0 sg
0 198 77 0 0 -198 3577 2246 4 MP
PP
1 sg
-77 0 0 198 77 0 0 -198 3577 2246 5 MP stroke
0 sg
0 173 78 0 0 -173 3673 2246 4 MP
PP
1 sg
-78 0 0 173 78 0 0 -173 3673 2246 5 MP stroke
0 sg
0 74 78 0 0 -74 3770 2246 4 MP
PP
1 sg
-78 0 0 74 78 0 0 -74 3770 2246 5 MP stroke
0 sg
0 25 77 0 0 -25 3867 2246 4 MP
PP
1 sg
-77 0 0 25 77 0 0 -25 3867 2246 5 MP stroke
0 sg
0 148 77 0 0 -148 3964 2246 4 MP
PP
1 sg
-77 0 0 148 77 0 0 -148 3964 2246 5 MP stroke
0 sg
0 173 78 0 0 -173 4060 2246 4 MP
PP
1 sg
-78 0 0 173 78 0 0 -173 4060 2246 5 MP stroke
0 sg
0 50 77 0 0 -50 4157 2246 4 MP
PP
1 sg
-77 0 0 50 77 0 0 -50 4157 2246 5 MP stroke
0 sg
0 173 77 0 0 -173 4254 2246 4 MP
PP
1 sg
-77 0 0 173 77 0 0 -173 4254 2246 5 MP stroke
0 sg
0 50 78 0 0 -50 4350 2246 4 MP
PP
1 sg
-78 0 0 50 78 0 0 -50 4350 2246 5 MP stroke
0 sg
0 50 78 0 0 -50 4447 2246 4 MP
PP
1 sg
-78 0 0 50 78 0 0 -50 4447 2246 5 MP stroke
0 sg
0 74 77 0 0 -74 4544 2246 4 MP
PP
1 sg
-77 0 0 74 77 0 0 -74 4544 2246 5 MP stroke
0 sg
0 148 77 0 0 -148 4641 2246 4 MP
PP
1 sg
-77 0 0 148 77 0 0 -148 4641 2246 5 MP stroke
0 sg
0 272 78 0 0 -272 4737 2246 4 MP
PP
1 sg
-78 0 0 272 78 0 0 -272 4737 2246 5 MP stroke
0 sg
0 198 77 0 0 -198 4834 2246 4 MP
PP
1 sg
-77 0 0 198 77 0 0 -198 4834 2246 5 MP stroke
0 sg
0 74 77 0 0 -74 4931 2246 4 MP
PP
1 sg
-77 0 0 74 77 0 0 -74 4931 2246 5 MP stroke
0 sg
0 148 78 0 0 -148 5027 2246 4 MP
PP
1 sg
-78 0 0 148 78 0 0 -148 5027 2246 5 MP stroke
0 sg
0 173 78 0 0 -173 5124 2246 4 MP
PP
1 sg
-78 0 0 173 78 0 0 -173 5124 2246 5 MP stroke
0 sg
0 198 77 0 0 -198 5221 2246 4 MP
PP
1 sg
-77 0 0 198 77 0 0 -198 5221 2246 5 MP stroke
0 sg
0 74 77 0 0 -74 5318 2246 4 MP
PP
1 sg
-77 0 0 74 77 0 0 -74 5318 2246 5 MP stroke
0 sg
0 74 78 0 0 -74 5414 2246 4 MP
PP
1 sg
-78 0 0 74 78 0 0 -74 5414 2246 5 MP stroke
0 sg
0 99 77 0 0 -99 5511 2246 4 MP
PP
1 sg
-77 0 0 99 77 0 0 -99 5511 2246 5 MP stroke
0 sg
0 0 77 0 0 0 5608 2246 4 MP
PP
1 sg
-77 0 0 0 77 0 0 0 5608 2246 5 MP stroke
0 sg
4836 0 811 2246 2 MP stroke
gr

%%IncludeResource: font Helvetica
/Helvetica /ISOLatin1Encoding 264 FMSR

 690  397 mt 
(Distance of ACGTG to TSS in sperm genes) s
1944 2707 mt 
(Distance to TSS \(bps\)) s
 289 2495 mt  -90 rotate
(Fraction of k-mers) s
90 rotate
1 sg
0 1681 4836 0 0 -1681 811 4862 4 MP
PP
-4836 0 0 1681 4836 0 0 -1681 811 4862 5 MP stroke
4 w
DO
SO
6 w
0 sg
 811 4862 mt 5647 4862 L
 811 3181 mt 5647 3181 L
 811 4862 mt  811 3181 L
5647 4862 mt 5647 3181 L
 811 4862 mt 5647 4862 L
 811 4862 mt  811 3181 L
 811 4862 mt  811 4813 L
 811 3181 mt  811 3229 L
%%IncludeResource: font Helvetica
/Helvetica /ISOLatin1Encoding 192 FMSR

 758 5074 mt 
(0) s
1294 4862 mt 1294 4813 L
1294 3181 mt 1294 3229 L
1188 5074 mt 
(50) s
1778 4862 mt 1778 4813 L
1778 3181 mt 1778 3229 L
1618 5074 mt 
(100) s
2261 4862 mt 2261 4813 L
2261 3181 mt 2261 3229 L
2101 5074 mt 
(150) s
2745 4862 mt 2745 4813 L
2745 3181 mt 2745 3229 L
2585 5074 mt 
(200) s
3229 4862 mt 3229 4813 L
3229 3181 mt 3229 3229 L
3069 5074 mt 
(250) s
3712 4862 mt 3712 4813 L
3712 3181 mt 3712 3229 L
3552 5074 mt 
(300) s
4196 4862 mt 4196 4813 L
4196 3181 mt 4196 3229 L
4036 5074 mt 
(350) s
4679 4862 mt 4679 4813 L
4679 3181 mt 4679 3229 L
4519 5074 mt 
(400) s
5163 4862 mt 5163 4813 L
5163 3181 mt 5163 3229 L
5003 5074 mt 
(450) s
5647 4862 mt 5647 4813 L
5647 3181 mt 5647 3229 L
5487 5074 mt 
(500) s
 811 4862 mt  859 4862 L
5647 4862 mt 5598 4862 L
 670 4933 mt 
(0) s
 811 4021 mt  859 4021 L
5647 4021 mt 5598 4021 L
 403 4092 mt 
(0.05) s
 811 3181 mt  859 3181 L
5647 3181 mt 5598 3181 L
 510 3252 mt 
(0.1) s
 811 4862 mt 5647 4862 L
 811 3181 mt 5647 3181 L
 811 4862 mt  811 3181 L
5647 4862 mt 5647 3181 L
gs 811 3181 4837 1682 MR c np
0 0 77 0 0 0 772 4862 4 MP
PP
1 sg
-77 0 0 0 77 0 0 0 772 4862 5 MP stroke
0 sg
0 0 77 0 0 0 869 4862 4 MP
PP
1 sg
-77 0 0 0 77 0 0 0 869 4862 5 MP stroke
0 sg
0 106 78 0 0 -106 965 4862 4 MP
PP
1 sg
-78 0 0 106 78 0 0 -106 965 4862 5 MP stroke
0 sg
0 260 77 0 0 -260 1062 4862 4 MP
PP
1 sg
-77 0 0 260 77 0 0 -260 1062 4862 5 MP stroke
0 sg
0 477 77 0 0 -477 1159 4862 4 MP
PP
1 sg
-77 0 0 477 77 0 0 -477 1159 4862 5 MP stroke
0 sg
0 483 78 0 0 -483 1255 4862 4 MP
PP
1 sg
-78 0 0 483 78 0 0 -483 1255 4862 5 MP stroke
0 sg
0 472 78 0 0 -472 1352 4862 4 MP
PP
1 sg
-78 0 0 472 78 0 0 -472 1352 4862 5 MP stroke
0 sg
0 495 77 0 0 -495 1449 4862 4 MP
PP
1 sg
-77 0 0 495 77 0 0 -495 1449 4862 5 MP stroke
0 sg
0 530 77 0 0 -530 1546 4862 4 MP
PP
1 sg
-77 0 0 530 77 0 0 -530 1546 4862 5 MP stroke
0 sg
0 548 78 0 0 -548 1642 4862 4 MP
PP
1 sg
-78 0 0 548 78 0 0 -548 1642 4862 5 MP stroke
0 sg
0 354 77 0 0 -354 1739 4862 4 MP
PP
1 sg
-77 0 0 354 77 0 0 -354 1739 4862 5 MP stroke
0 sg
0 460 77 0 0 -460 1836 4862 4 MP
PP
1 sg
-77 0 0 460 77 0 0 -460 1836 4862 5 MP stroke
0 sg
0 360 78 0 0 -360 1932 4862 4 MP
PP
1 sg
-78 0 0 360 78 0 0 -360 1932 4862 5 MP stroke
0 sg
0 383 78 0 0 -383 2029 4862 4 MP
PP
1 sg
-78 0 0 383 78 0 0 -383 2029 4862 5 MP stroke
0 sg
0 318 77 0 0 -318 2126 4862 4 MP
PP
1 sg
-77 0 0 318 77 0 0 -318 2126 4862 5 MP stroke
0 sg
0 430 77 0 0 -430 2223 4862 4 MP
PP
1 sg
-77 0 0 430 77 0 0 -430 2223 4862 5 MP stroke
0 sg
0 383 78 0 0 -383 2319 4862 4 MP
PP
1 sg
-78 0 0 383 78 0 0 -383 2319 4862 5 MP stroke
0 sg
0 354 77 0 0 -354 2416 4862 4 MP
PP
1 sg
-77 0 0 354 77 0 0 -354 2416 4862 5 MP stroke
0 sg
0 383 77 0 0 -383 2513 4862 4 MP
PP
1 sg
-77 0 0 383 77 0 0 -383 2513 4862 5 MP stroke
0 sg
0 401 78 0 0 -401 2609 4862 4 MP
PP
1 sg
-78 0 0 401 78 0 0 -401 2609 4862 5 MP stroke
0 sg
0 377 78 0 0 -377 2706 4862 4 MP
PP
1 sg
-78 0 0 377 78 0 0 -377 2706 4862 5 MP stroke
0 sg
0 419 77 0 0 -419 2803 4862 4 MP
PP
1 sg
-77 0 0 419 77 0 0 -419 2803 4862 5 MP stroke
0 sg
0 324 77 0 0 -324 2900 4862 4 MP
PP
1 sg
-77 0 0 324 77 0 0 -324 2900 4862 5 MP stroke
0 sg
0 301 78 0 0 -301 2996 4862 4 MP
PP
1 sg
-78 0 0 301 78 0 0 -301 2996 4862 5 MP stroke
0 sg
0 360 77 0 0 -360 3093 4862 4 MP
PP
1 sg
-77 0 0 360 77 0 0 -360 3093 4862 5 MP stroke
0 sg
0 413 77 0 0 -413 3190 4862 4 MP
PP
1 sg
-77 0 0 413 77 0 0 -413 3190 4862 5 MP stroke
0 sg
0 330 77 0 0 -330 3287 4862 4 MP
PP
1 sg
-77 0 0 330 77 0 0 -330 3287 4862 5 MP stroke
0 sg
0 442 78 0 0 -442 3383 4862 4 MP
PP
1 sg
-78 0 0 442 78 0 0 -442 3383 4862 5 MP stroke
0 sg
0 307 77 0 0 -307 3480 4862 4 MP
PP
1 sg
-77 0 0 307 77 0 0 -307 3480 4862 5 MP stroke
0 sg
0 301 77 0 0 -301 3577 4862 4 MP
PP
1 sg
-77 0 0 301 77 0 0 -301 3577 4862 5 MP stroke
0 sg
0 283 78 0 0 -283 3673 4862 4 MP
PP
1 sg
-78 0 0 283 78 0 0 -283 3673 4862 5 MP stroke
0 sg
0 242 78 0 0 -242 3770 4862 4 MP
PP
1 sg
-78 0 0 242 78 0 0 -242 3770 4862 5 MP stroke
0 sg
0 313 77 0 0 -313 3867 4862 4 MP
PP
1 sg
-77 0 0 313 77 0 0 -313 3867 4862 5 MP stroke
0 sg
0 307 77 0 0 -307 3964 4862 4 MP
PP
1 sg
-77 0 0 307 77 0 0 -307 3964 4862 5 MP stroke
0 sg
0 366 78 0 0 -366 4060 4862 4 MP
PP
1 sg
-78 0 0 366 78 0 0 -366 4060 4862 5 MP stroke
0 sg
0 383 77 0 0 -383 4157 4862 4 MP
PP
1 sg
-77 0 0 383 77 0 0 -383 4157 4862 5 MP stroke
0 sg
0 389 77 0 0 -389 4254 4862 4 MP
PP
1 sg
-77 0 0 389 77 0 0 -389 4254 4862 5 MP stroke
0 sg
0 336 78 0 0 -336 4350 4862 4 MP
PP
1 sg
-78 0 0 336 78 0 0 -336 4350 4862 5 MP stroke
0 sg
0 224 78 0 0 -224 4447 4862 4 MP
PP
1 sg
-78 0 0 224 78 0 0 -224 4447 4862 5 MP stroke
0 sg
0 324 77 0 0 -324 4544 4862 4 MP
PP
1 sg
-77 0 0 324 77 0 0 -324 4544 4862 5 MP stroke
0 sg
0 330 77 0 0 -330 4641 4862 4 MP
PP
1 sg
-77 0 0 330 77 0 0 -330 4641 4862 5 MP stroke
0 sg
0 289 78 0 0 -289 4737 4862 4 MP
PP
1 sg
-78 0 0 289 78 0 0 -289 4737 4862 5 MP stroke
0 sg
0 271 77 0 0 -271 4834 4862 4 MP
PP
1 sg
-77 0 0 271 77 0 0 -271 4834 4862 5 MP stroke
0 sg
0 336 77 0 0 -336 4931 4862 4 MP
PP
1 sg
-77 0 0 336 77 0 0 -336 4931 4862 5 MP stroke
0 sg
0 201 78 0 0 -201 5027 4862 4 MP
PP
1 sg
-78 0 0 201 78 0 0 -201 5027 4862 5 MP stroke
0 sg
0 318 78 0 0 -318 5124 4862 4 MP
PP
1 sg
-78 0 0 318 78 0 0 -318 5124 4862 5 MP stroke
0 sg
0 295 77 0 0 -295 5221 4862 4 MP
PP
1 sg
-77 0 0 295 77 0 0 -295 5221 4862 5 MP stroke
0 sg
0 254 77 0 0 -254 5318 4862 4 MP
PP
1 sg
-77 0 0 254 77 0 0 -254 5318 4862 5 MP stroke
0 sg
0 260 78 0 0 -260 5414 4862 4 MP
PP
1 sg
-78 0 0 260 78 0 0 -260 5414 4862 5 MP stroke
0 sg
0 254 77 0 0 -254 5511 4862 4 MP
PP
1 sg
-77 0 0 254 77 0 0 -254 5511 4862 5 MP stroke
0 sg
0 89 77 0 0 -89 5608 4862 4 MP
PP
1 sg
-77 0 0 89 77 0 0 -89 5608 4862 5 MP stroke
0 sg
4836 0 811 4862 2 MP stroke
gr

%%IncludeResource: font Helvetica
/Helvetica /ISOLatin1Encoding 264 FMSR

 392 3013 mt 
(Distance of ACGTG to TSS in non-sperm genes) s
1944 5323 mt 
(Distance to TSS \(bps\)) s
 289 5111 mt  -90 rotate
(Fraction of k-mers) s
90 rotate

end %%Color Dict

eplot
%%EndObject

epage
end

showpage

%%Trailer
%%EOF
