%!PS-Adobe-2.0 EPSF-1.2
%%Creator: MATLAB, The Mathworks, Inc. Version 7.6.0.324 (R2008a). Operating System: Linux 2.6.18.8-0.10-default #1 SMP Wed Jun 4 15:46:34 UTC 2008 x86_64.
%%Title: figs1/oocyte_pval.eps
%%CreationDate: 12/15/2009  00:13:55
%%DocumentNeededFonts: Helvetica
%%DocumentProcessColors: Cyan Magenta Yellow Black
%%Extensions: CMYK
%%Pages: 1
%%BoundingBox:     6   142   586   658
%%EndComments

%%BeginProlog
% MathWorks dictionary
/MathWorks 160 dict begin
% definition operators
/bdef {bind def} bind def
/ldef {load def} bind def
/xdef {exch def} bdef
/xstore {exch store} bdef
% operator abbreviations
/c  /clip ldef
/cc /concat ldef
/cp /closepath ldef
/gr /grestore ldef
/gs /gsave ldef
/mt /moveto ldef
/np /newpath ldef
/cm /currentmatrix ldef
/sm /setmatrix ldef
/rm /rmoveto ldef
/rl /rlineto ldef
/s {show newpath} bdef
/sc {setcmykcolor} bdef
/sr /setrgbcolor ldef
/sg /setgray ldef
/w /setlinewidth ldef
/j /setlinejoin ldef
/cap /setlinecap ldef
/rc {rectclip} bdef
/rf {rectfill} bdef
% page state control
/pgsv () def
/bpage {/pgsv save def} bdef
/epage {pgsv restore} bdef
/bplot /gsave ldef
/eplot {stroke grestore} bdef
% orientation switch
/portraitMode 0 def /landscapeMode 1 def /rotateMode 2 def
% coordinate system mappings
/dpi2point 0 def
% font control
/FontSize 0 def
/FMS {/FontSize xstore findfont [FontSize 0 0 FontSize neg 0 0]
  makefont setfont} bdef
/reencode {exch dup where {pop load} {pop StandardEncoding} ifelse
  exch dup 3 1 roll findfont dup length dict begin
  { 1 index /FID ne {def}{pop pop} ifelse } forall
  /Encoding exch def currentdict end definefont pop} bdef
/isroman {findfont /CharStrings get /Agrave known} bdef
/FMSR {3 1 roll 1 index dup isroman {reencode} {pop pop} ifelse
  exch FMS} bdef
/csm {1 dpi2point div -1 dpi2point div scale neg translate
 dup landscapeMode eq {pop -90 rotate}
  {rotateMode eq {90 rotate} if} ifelse} bdef
% line types: solid, dotted, dashed, dotdash
/SO { [] 0 setdash } bdef
/DO { [.5 dpi2point mul 4 dpi2point mul] 0 setdash } bdef
/DA { [6 dpi2point mul] 0 setdash } bdef
/DD { [.5 dpi2point mul 4 dpi2point mul 6 dpi2point mul 4
  dpi2point mul] 0 setdash } bdef
% macros for lines and objects
/L {lineto stroke} bdef
/MP {3 1 roll moveto 1 sub {rlineto} repeat} bdef
/AP {{rlineto} repeat} bdef
/PDlw -1 def
/W {/PDlw currentlinewidth def setlinewidth} def
/PP {closepath eofill} bdef
/DP {closepath stroke} bdef
/MR {4 -2 roll moveto dup  0 exch rlineto exch 0 rlineto
  neg 0 exch rlineto closepath} bdef
/FR {MR stroke} bdef
/PR {MR fill} bdef
/L1i {{currentfile picstr readhexstring pop} image} bdef
/tMatrix matrix def
/MakeOval {newpath tMatrix currentmatrix pop translate scale
0 0 1 0 360 arc tMatrix setmatrix} bdef
/FO {MakeOval stroke} bdef
/PO {MakeOval fill} bdef
/PD {currentlinewidth 2 div 0 360 arc fill
   PDlw -1 eq not {PDlw w /PDlw -1 def} if} def
/FA {newpath tMatrix currentmatrix pop translate scale
  0 0 1 5 -2 roll arc tMatrix setmatrix stroke} bdef
/PA {newpath tMatrix currentmatrix pop	translate 0 0 moveto scale
  0 0 1 5 -2 roll arc closepath tMatrix setmatrix fill} bdef
/FAn {newpath tMatrix currentmatrix pop translate scale
  0 0 1 5 -2 roll arcn tMatrix setmatrix stroke} bdef
/PAn {newpath tMatrix currentmatrix pop translate 0 0 moveto scale
  0 0 1 5 -2 roll arcn closepath tMatrix setmatrix fill} bdef
/vradius 0 def /hradius 0 def /lry 0 def
/lrx 0 def /uly 0 def /ulx 0 def /rad 0 def
/MRR {/vradius xdef /hradius xdef /lry xdef /lrx xdef /uly xdef
  /ulx xdef newpath tMatrix currentmatrix pop ulx hradius add uly
  vradius add translate hradius vradius scale 0 0 1 180 270 arc 
  tMatrix setmatrix lrx hradius sub uly vradius add translate
  hradius vradius scale 0 0 1 270 360 arc tMatrix setmatrix
  lrx hradius sub lry vradius sub translate hradius vradius scale
  0 0 1 0 90 arc tMatrix setmatrix ulx hradius add lry vradius sub
  translate hradius vradius scale 0 0 1 90 180 arc tMatrix setmatrix
  closepath} bdef
/FRR {MRR stroke } bdef
/PRR {MRR fill } bdef
/MlrRR {/lry xdef /lrx xdef /uly xdef /ulx xdef /rad lry uly sub 2 div def
  newpath tMatrix currentmatrix pop ulx rad add uly rad add translate
  rad rad scale 0 0 1 90 270 arc tMatrix setmatrix lrx rad sub lry rad
  sub translate rad rad scale 0 0 1 270 90 arc tMatrix setmatrix
  closepath} bdef
/FlrRR {MlrRR stroke } bdef
/PlrRR {MlrRR fill } bdef
/MtbRR {/lry xdef /lrx xdef /uly xdef /ulx xdef /rad lrx ulx sub 2 div def
  newpath tMatrix currentmatrix pop ulx rad add uly rad add translate
  rad rad scale 0 0 1 180 360 arc tMatrix setmatrix lrx rad sub lry rad
  sub translate rad rad scale 0 0 1 0 180 arc tMatrix setmatrix
  closepath} bdef
/FtbRR {MtbRR stroke } bdef
/PtbRR {MtbRR fill } bdef
/stri 6 array def /dtri 6 array def
/smat 6 array def /dmat 6 array def
/tmat1 6 array def /tmat2 6 array def /dif 3 array def
/asub {/ind2 exch def /ind1 exch def dup dup
  ind1 get exch ind2 get sub exch } bdef
/tri_to_matrix {
  2 0 asub 3 1 asub 4 0 asub 5 1 asub
  dup 0 get exch 1 get 7 -1 roll astore } bdef
/compute_transform {
  dmat dtri tri_to_matrix tmat1 invertmatrix 
  smat stri tri_to_matrix tmat2 concatmatrix } bdef
/ds {stri astore pop} bdef
/dt {dtri astore pop} bdef
/db {2 copy /cols xdef /rows xdef mul dup 3 mul string
  currentfile exch readhexstring pop
  dup 0 3 index getinterval /rbmap xdef
  dup 2 index dup getinterval /gbmap xdef
  1 index dup 2 mul exch getinterval /bbmap xdef pop pop}bdef
/it {gs np dtri aload pop moveto lineto lineto cp c
  cols rows 8 compute_transform 
  rbmap gbmap bbmap true 3 colorimage gr}bdef
/il {newpath moveto lineto stroke}bdef
currentdict end def
%%EndProlog

%%BeginSetup
MathWorks begin

0 cap

end
%%EndSetup

%%Page: 1 1
%%BeginPageSetup
%%PageBoundingBox:     6   142   586   658
MathWorks begin
bpage
%%EndPageSetup

%%BeginObject: obj1
bplot

/dpi2point 12 def
portraitMode -0288 7872 csm

  370   -32  6959  6192 MR c np
76 dict begin %Colortable dictionary
/c0 { 0.000000 0.000000 0.000000 sr} bdef
/c1 { 1.000000 1.000000 1.000000 sr} bdef
/c2 { 0.900000 0.000000 0.000000 sr} bdef
/c3 { 0.000000 0.820000 0.000000 sr} bdef
/c4 { 0.000000 0.000000 0.800000 sr} bdef
/c5 { 0.910000 0.820000 0.320000 sr} bdef
/c6 { 1.000000 0.260000 0.820000 sr} bdef
/c7 { 0.000000 0.820000 0.820000 sr} bdef
c0
1 j
1 sg
   0    0 7920 6241 PR
6 w
0 5086 6137 0 0 -5086 1029 5554 4 MP
PP
-6137 0 0 5086 6137 0 0 -5086 1029 5554 5 MP stroke
4 w
DO
SO
6 w
0 sg
1029 5554 mt 7166 5554 L
1029  468 mt 7166  468 L
1029 5554 mt 1029  468 L
7166 5554 mt 7166  468 L
1029 5554 mt 7166 5554 L
1029 5554 mt 1029  468 L
1029 5554 mt 1029 5492 L
1029  468 mt 1029  529 L
%%IncludeResource: font Helvetica
/Helvetica /ISOLatin1Encoding 216 FMSR

 843 5789 mt 
(-6) s
2052 5554 mt 2052 5492 L
2052  468 mt 2052  529 L
1866 5789 mt 
(-4) s
3075 5554 mt 3075 5492 L
3075  468 mt 3075  529 L
2889 5789 mt 
(-2) s
4098 5554 mt 4098 5492 L
4098  468 mt 4098  529 L
4038 5789 mt 
(0) s
5121 5554 mt 5121 5492 L
5121  468 mt 5121  529 L
5061 5789 mt 
(2) s
6144 5554 mt 6144 5492 L
6144  468 mt 6144  529 L
6084 5789 mt 
(4) s
7167 5554 mt 7167 5492 L
7167  468 mt 7167  529 L
7107 5789 mt 
(6) s
1029 5554 mt 1090 5554 L
7167 5554 mt 7105 5554 L
 874 5634 mt 
(0) s
1029 4988 mt 1090 4988 L
7167 4988 mt 7105 4988 L
 874 5068 mt 
(2) s
1029 4423 mt 1090 4423 L
7167 4423 mt 7105 4423 L
 874 4503 mt 
(4) s
1029 3858 mt 1090 3858 L
7167 3858 mt 7105 3858 L
 874 3938 mt 
(6) s
1029 3293 mt 1090 3293 L
7167 3293 mt 7105 3293 L
 874 3373 mt 
(8) s
1029 2728 mt 1090 2728 L
7167 2728 mt 7105 2728 L
 754 2808 mt 
(10) s
1029 2163 mt 1090 2163 L
7167 2163 mt 7105 2163 L
 754 2243 mt 
(12) s
1029 1598 mt 1090 1598 L
7167 1598 mt 7105 1598 L
 754 1678 mt 
(14) s
1029 1033 mt 1090 1033 L
7167 1033 mt 7105 1033 L
 754 1113 mt 
(16) s
1029  468 mt 1090  468 L
7167  468 mt 7105  468 L
 754  548 mt 
(18) s
1029 5554 mt 7166 5554 L
1029  468 mt 7166  468 L
1029 5554 mt 1029  468 L
7166 5554 mt 7166  468 L
gs 1029 468 6139 5087 MR c np
gr

gs 2641 949 4638 4787 MR c np
60 W
2822 5553 PD
60 W
2953 5554 PD
60 W
3108 5528 PD
60 W
3137 5553 PD
60 W
3137 5518 PD
60 W
3147 5553 PD
60 W
3158 5553 PD
60 W
3173 5551 PD
60 W
3218 5553 PD
60 W
3323 5553 PD
60 W
3329 5553 PD
60 W
3345 5553 PD
60 W
3359 5553 PD
60 W
3366 5527 PD
60 W
3366 5553 PD
60 W
3368 5553 PD
60 W
3375 5553 PD
60 W
3381 5553 PD
60 W
3388 5553 PD
60 W
3395 5551 PD
60 W
3401 5553 PD
60 W
3403 5546 PD
60 W
3411 5553 PD
60 W
3414 5512 PD
60 W
3414 5544 PD
60 W
3421 5553 PD
60 W
3424 5533 PD
60 W
3432 5533 PD
60 W
3433 5545 PD
60 W
3437 5507 PD
60 W
3441 5553 PD
60 W
3441 5526 PD
60 W
3450 5553 PD
60 W
3456 5553 PD
60 W
3457 5553 PD
60 W
3458 5553 PD
60 W
3460 5552 PD
60 W
3462 5515 PD
60 W
3463 5553 PD
60 W
3468 5515 PD
60 W
3472 5553 PD
60 W
3478 5553 PD
60 W
3480 5553 PD
60 W
3482 5552 PD
60 W
3482 5543 PD
60 W
3483 5553 PD
60 W
3484 5553 PD
60 W
3490 5550 PD
60 W
3492 5551 PD
60 W
3493 5552 PD
60 W
3493 5538 PD
60 W
3493 5506 PD
60 W
3494 5553 PD
60 W
3505 5553 PD
60 W
3520 5346 PD
60 W
3524 5553 PD
60 W
3525 5553 PD
60 W
3525 5546 PD
60 W
3526 5553 PD
60 W
3527 5504 PD
60 W
3530 5545 PD
60 W
3531 5553 PD
60 W
3534 5552 PD
60 W
3537 5553 PD
60 W
3539 5532 PD
60 W
3540 5550 PD
60 W
3541 5537 PD
60 W
3543 5553 PD
60 W
3545 5553 PD
60 W
3546 5553 PD
60 W
3547 5553 PD
60 W
3548 5553 PD
60 W
3551 5553 PD
60 W
3552 5545 PD
60 W
3552 5483 PD
60 W
3557 5534 PD
60 W
3558 5531 PD
60 W
3560 5550 PD
60 W
3561 5504 PD
60 W
3565 5542 PD
60 W
3566 5552 PD
60 W
3567 5553 PD
60 W
3569 5553 PD
60 W
3571 5553 PD
60 W
3571 5523 PD
60 W
3575 5553 PD
60 W
3576 5545 PD
60 W
3576 5553 PD
60 W
3577 5540 PD
60 W
3579 5463 PD
60 W
3581 5514 PD
60 W
3581 5546 PD
60 W
3582 5552 PD
60 W
3583 5553 PD
60 W
3584 5550 PD
60 W
3585 5483 PD
60 W
3589 5544 PD
60 W
3593 5474 PD
60 W
3600 5548 PD
60 W
3600 5553 PD
60 W
3601 5553 PD
60 W
3602 5553 PD
60 W
3602 5513 PD
60 W
3603 5461 PD
60 W
3603 5553 PD
60 W
3606 5471 PD
60 W
3606 5553 PD
60 W
3607 5553 PD
60 W
3608 5451 PD
60 W
3608 5407 PD
60 W
3610 5553 PD
60 W
3614 5535 PD
60 W
3616 5517 PD
60 W
3618 5527 PD
60 W
3620 5553 PD
60 W
3620 5550 PD
60 W
3622 5553 PD
60 W
3622 5549 PD
60 W
3625 5487 PD
60 W
3625 5522 PD
60 W
3626 5553 PD
60 W
3628 5553 PD
60 W
3629 5551 PD
60 W
3629 5509 PD
60 W
3629 5552 PD
60 W
3629 5548 PD
60 W
3630 5550 PD
60 W
3631 5536 PD
60 W
3632 5540 PD
60 W
3633 5547 PD
60 W
3633 5549 PD
60 W
3634 5495 PD
60 W
3634 5476 PD
60 W
3639 5430 PD
60 W
3639 5320 PD
60 W
3640 5546 PD
60 W
3641 5553 PD
60 W
3642 5552 PD
60 W
3642 5544 PD
60 W
3642 5552 PD
60 W
3643 5407 PD
60 W
3643 5375 PD
60 W
3644 5553 PD
60 W
3645 5552 PD
60 W
3645 5543 PD
60 W
3646 5553 PD
60 W
3649 5455 PD
60 W
3652 5551 PD
60 W
3652 5440 PD
60 W
3653 5523 PD
60 W
3653 5553 PD
60 W
3655 5538 PD
60 W
3657 5553 PD
60 W
3657 5443 PD
60 W
3657 5550 PD
60 W
3657 5553 PD
60 W
3658 5532 PD
60 W
3659 5553 PD
60 W
3659 5550 PD
60 W
3659 5332 PD
60 W
3660 5551 PD
60 W
3661 5553 PD
60 W
3662 5399 PD
60 W
3662 5552 PD
60 W
3663 5544 PD
60 W
3664 5553 PD
60 W
3665 5463 PD
60 W
3667 5538 PD
60 W
3668 5337 PD
60 W
3669 5550 PD
60 W
3670 5465 PD
60 W
3670 5553 PD
60 W
3672 5378 PD
60 W
3672 5553 PD
60 W
3674 5553 PD
60 W
3677 5548 PD
60 W
3677 5553 PD
60 W
3677 5540 PD
60 W
3678 5553 PD
60 W
3678 5548 PD
60 W
3679 5540 PD
60 W
3679 5490 PD
60 W
3680 5553 PD
60 W
3682 5543 PD
60 W
3682 5552 PD
60 W
3683 5544 PD
60 W
3685 5540 PD
60 W
3685 5552 PD
60 W
3685 5518 PD
60 W
3685 5444 PD
60 W
3687 5553 PD
60 W
3688 5553 PD
60 W
3689 5553 PD
60 W
3690 5553 PD
60 W
3692 4986 PD
60 W
3693 5551 PD
60 W
3693 5538 PD
60 W
3694 5539 PD
60 W
3695 5546 PD
60 W
3695 5552 PD
60 W
3695 5553 PD
60 W
3696 5545 PD
60 W
3696 5547 PD
60 W
3697 5548 PD
60 W
3697 5526 PD
60 W
3698 5494 PD
60 W
3699 5497 PD
60 W
3700 5553 PD
60 W
3700 5545 PD
60 W
3703 5550 PD
60 W
3703 5439 PD
60 W
3703 5552 PD
60 W
3704 5517 PD
60 W
3705 5529 PD
60 W
3705 5476 PD
60 W
3705 5547 PD
60 W
3707 5553 PD
60 W
3707 5543 PD
60 W
3708 5520 PD
60 W
3709 5551 PD
60 W
3710 5402 PD
60 W
3710 5553 PD
60 W
3710 5548 PD
60 W
3710 5499 PD
60 W
3711 5528 PD
60 W
3711 5458 PD
60 W
3713 5466 PD
60 W
3713 5554 PD
60 W
3714 5232 PD
60 W
3715 5539 PD
60 W
3716 5549 PD
60 W
3716 5551 PD
60 W
3717 5544 PD
60 W
3719 5552 PD
60 W
3720 5425 PD
60 W
3720 5552 PD
60 W
3721 5464 PD
60 W
3722 5535 PD
60 W
3723 5520 PD
60 W
3725 5340 PD
60 W
3725 5547 PD
60 W
3725 5485 PD
60 W
3726 5551 PD
60 W
3726 5534 PD
60 W
3726 5540 PD
60 W
3728 5535 PD
60 W
3728 5553 PD
60 W
3729 5553 PD
60 W
3729 4832 PD
60 W
3730 5552 PD
60 W
3730 5549 PD
60 W
3731 5551 PD
60 W
3731 5553 PD
60 W
3731 5551 PD
60 W
3731 5543 PD
60 W
3732 5535 PD
60 W
3733 5553 PD
60 W
3734 5484 PD
60 W
3734 5548 PD
60 W
3734 5531 PD
60 W
3734 5553 PD
60 W
3734 5521 PD
60 W
3736 5553 PD
60 W
3736 5512 PD
60 W
3737 5553 PD
60 W
3737 5552 PD
60 W
3738 5529 PD
60 W
3738 5553 PD
60 W
3738 5552 PD
60 W
3738 5550 PD
60 W
3739 5553 PD
60 W
3739 5367 PD
60 W
3740 5543 PD
60 W
3740 5438 PD
60 W
3740 5535 PD
60 W
3741 5551 PD
60 W
3741 5549 PD
60 W
3742 5553 PD
60 W
3742 5549 PD
60 W
3742 5339 PD
60 W
3742 5553 PD
60 W
3743 2976 PD
60 W
3743 5553 PD
60 W
3743 5424 PD
60 W
3744 5552 PD
60 W
3744 5553 PD
60 W
3745 5550 PD
60 W
3745 5381 PD
60 W
3745 5525 PD
60 W
3746 5390 PD
60 W
3746 5539 PD
60 W
3746 5553 PD
60 W
3746 5428 PD
60 W
3748 5369 PD
60 W
3748 5554 PD
60 W
3748 5553 PD
60 W
3748 5406 PD
60 W
3749 5553 PD
60 W
3749 5484 PD
60 W
3749 5520 PD
60 W
3750 5549 PD
60 W
3751 5435 PD
60 W
3751 5553 PD
60 W
3752 5546 PD
60 W
3753 5546 PD
60 W
3753 5548 PD
60 W
3755 5550 PD
60 W
3756 5553 PD
60 W
3756 5538 PD
60 W
3757 5548 PD
60 W
3757 5551 PD
60 W
3757 5553 PD
60 W
3758 5553 PD
60 W
3759 5551 PD
60 W
3760 5553 PD
60 W
3760 5521 PD
60 W
3760 5547 PD
60 W
3761 5508 PD
60 W
3761 5553 PD
60 W
3763 5553 PD
60 W
3764 5553 PD
60 W
3764 5448 PD
60 W
3764 5534 PD
60 W
3764 5350 PD
60 W
3764 5553 PD
60 W
3765 5553 PD
60 W
3765 5538 PD
60 W
3766 5553 PD
60 W
3767 5553 PD
60 W
3767 5544 PD
60 W
3767 5549 PD
60 W
3768 5481 PD
60 W
3768 5553 PD
60 W
3769 5485 PD
60 W
3769 5451 PD
60 W
3770 5550 PD
60 W
3771 5553 PD
60 W
3771 5494 PD
60 W
3771 5553 PD
60 W
3771 5530 PD
60 W
3771 5502 PD
60 W
3774 5553 PD
60 W
3774 5509 PD
60 W
3774 5512 PD
60 W
3774 5453 PD
60 W
3774 5439 PD
60 W
3775 5491 PD
60 W
3775 5435 PD
60 W
3776 5372 PD
60 W
3776 5552 PD
60 W
3776 5519 PD
60 W
3776 5522 PD
60 W
3778 5553 PD
60 W
3778 5548 PD
60 W
3778 4963 PD
60 W
3779 4906 PD
60 W
3780 5553 PD
60 W
3780 5548 PD
60 W
3780 5553 PD
60 W
3781 5549 PD
60 W
3781 5250 PD
60 W
3781 5367 PD
60 W
3781 5547 PD
60 W
3781 5546 PD
60 W
3781 5536 PD
60 W
3782 5550 PD
60 W
3782 5434 PD
60 W
3783 5544 PD
60 W
3783 5519 PD
60 W
3783 5529 PD
60 W
3783 5553 PD
60 W
3784 5492 PD
60 W
3785 5552 PD
60 W
3785 5516 PD
60 W
3786 5548 PD
60 W
3786 5470 PD
60 W
3786 5535 PD
60 W
3786 5553 PD
60 W
3786 5431 PD
60 W
3787 5465 PD
60 W
3787 5553 PD
60 W
3788 5164 PD
60 W
3788 5294 PD
60 W
3788 5551 PD
60 W
3789 5551 PD
60 W
3790 5553 PD
60 W
3790 5551 PD
60 W
3791 5494 PD
60 W
3791 5553 PD
60 W
3792 5361 PD
60 W
3792 5553 PD
60 W
3792 5531 PD
60 W
3792 5553 PD
60 W
3793 5462 PD
60 W
3793 5553 PD
60 W
3794 5363 PD
60 W
3794 5519 PD
60 W
3794 5542 PD
60 W
3794 5527 PD
60 W
3794 5552 PD
60 W
3794 5553 PD
60 W
3795 5553 PD
60 W
3796 5553 PD
60 W
3796 5551 PD
60 W
3797 5519 PD
60 W
3797 5162 PD
60 W
3798 5552 PD
60 W
3798 5483 PD
60 W
3799 5501 PD
60 W
3799 5546 PD
60 W
3800 5528 PD
60 W
3800 5543 PD
60 W
3800 5472 PD
60 W
3800 5548 PD
60 W
3800 5550 PD
60 W
3801 5553 PD
60 W
3801 5461 PD
60 W
3801 5288 PD
60 W
3802 5552 PD
60 W
3802 5548 PD
60 W
3803 5507 PD
60 W
3803 5553 PD
60 W
3803 5545 PD
60 W
3804 5535 PD
60 W
3804 5553 PD
60 W
3805 5553 PD
60 W
3806 5491 PD
60 W
3806 5553 PD
60 W
3807 5454 PD
60 W
3807 5553 PD
60 W
3807 5546 PD
60 W
3808 5543 PD
60 W
3809 5553 PD
60 W
3811 5511 PD
60 W
3811 5278 PD
60 W
3811 5550 PD
60 W
3812 5545 PD
60 W
3812 5502 PD
60 W
3814 5543 PD
60 W
3814 5500 PD
60 W
3814 5466 PD
60 W
3815 4760 PD
60 W
3815 5553 PD
60 W
3816 5551 PD
60 W
3816 5552 PD
60 W
3817 5517 PD
60 W
3817 5553 PD
60 W
3817 5442 PD
60 W
3818 5553 PD
60 W
3819 5542 PD
60 W
3819 5553 PD
60 W
3819 5550 PD
60 W
3820 5553 PD
60 W
3821 5207 PD
60 W
3821 5545 PD
60 W
3821 5553 PD
60 W
3821 5550 PD
60 W
3821 5542 PD
60 W
3821 5553 PD
60 W
3821 5551 PD
60 W
3822 5551 PD
60 W
3822 5502 PD
60 W
3822 5532 PD
60 W
3822 5457 PD
60 W
3823 5478 PD
60 W
3823 5529 PD
60 W
3823 5400 PD
60 W
3823 5523 PD
60 W
3823 5488 PD
60 W
3824 5536 PD
60 W
3824 5553 PD
60 W
3825 5546 PD
60 W
3825 5528 PD
60 W
3826 5496 PD
60 W
3826 5534 PD
60 W
3826 5553 PD
60 W
3827 5448 PD
60 W
3828 5552 PD
60 W
3829 5479 PD
60 W
3830 5551 PD
60 W
3831 5553 PD
60 W
3831 5552 PD
60 W
3831 5375 PD
60 W
3831 5551 PD
60 W
3832 5551 PD
60 W
3832 5553 PD
60 W
3832 5501 PD
60 W
3834 4990 PD
60 W
3834 5502 PD
60 W
3834 5451 PD
60 W
3834 5517 PD
60 W
3834 5518 PD
60 W
3834 5513 PD
60 W
3835 5484 PD
60 W
3835 5553 PD
60 W
3835 5534 PD
60 W
3835 5553 PD
60 W
3836 5498 PD
60 W
3836 5553 PD
60 W
3836 5521 PD
60 W
3837 5552 PD
60 W
3837 5461 PD
60 W
3837 5551 PD
60 W
3837 5537 PD
60 W
3837 5549 PD
60 W
3837 5545 PD
60 W
3837 5540 PD
60 W
3839 5496 PD
60 W
3839 5533 PD
60 W
3840 5553 PD
60 W
3840 5552 PD
60 W
3840 5553 PD
60 W
3840 5542 PD
60 W
3840 5549 PD
60 W
3841 5553 PD
60 W
3841 5550 PD
60 W
3842 5553 PD
60 W
3842 5549 PD
60 W
3842 5553 PD
60 W
3843 5245 PD
60 W
3844 5547 PD
60 W
3844 5549 PD
60 W
3845 5500 PD
60 W
3845 5546 PD
60 W
3845 5538 PD
60 W
3846 5483 PD
60 W
3847 5553 PD
60 W
3847 5521 PD
60 W
3847 5494 PD
60 W
3847 5553 PD
60 W
3848 5489 PD
60 W
3848 5537 PD
60 W
3848 5548 PD
60 W
3848 5549 PD
60 W
3848 5530 PD
60 W
3849 5551 PD
60 W
3849 5183 PD
60 W
3849 5550 PD
60 W
3849 5547 PD
60 W
3849 5553 PD
60 W
3850 5543 PD
60 W
3850 5463 PD
60 W
3850 5514 PD
60 W
3850 5553 PD
60 W
3850 5547 PD
60 W
3850 5542 PD
60 W
3851 5518 PD
60 W
3852 5552 PD
60 W
3852 5553 PD
60 W
3852 5552 PD
60 W
3853 5519 PD
60 W
3853 5553 PD
60 W
3854 5541 PD
60 W
3854 5553 PD
60 W
3854 5552 PD
60 W
3854 5493 PD
60 W
3855 5550 PD
60 W
3855 5549 PD
60 W
3855 5552 PD
60 W
3855 5535 PD
60 W
3856 5547 PD
60 W
3856 5553 PD
60 W
3857 5548 PD
60 W
3857 5553 PD
60 W
3858 5464 PD
60 W
3858 5402 PD
60 W
3858 5414 PD
60 W
3858 5552 PD
60 W
3858 5553 PD
60 W
3858 5552 PD
60 W
3859 5552 PD
60 W
3859 5529 PD
60 W
3860 5518 PD
60 W
3860 5371 PD
60 W
3860 5358 PD
60 W
3860 5545 PD
60 W
3861 5170 PD
60 W
3861 5553 PD
60 W
3861 5328 PD
60 W
3861 5482 PD
60 W
3862 5317 PD
60 W
3862 5553 PD
60 W
3863 5426 PD
60 W
3863 5525 PD
60 W
3863 5522 PD
60 W
3863 5370 PD
60 W
3863 5540 PD
60 W
3864 5514 PD
60 W
3864 5553 PD
60 W
3864 5414 PD
60 W
3864 5549 PD
60 W
3865 5528 PD
60 W
3865 5481 PD
60 W
3865 5491 PD
60 W
3865 5424 PD
60 W
3865 5553 PD
60 W
3866 5530 PD
60 W
3866 5553 PD
60 W
3866 5405 PD
60 W
3866 5553 PD
60 W
3867 5465 PD
60 W
3867 5553 PD
60 W
3868 5548 PD
60 W
3868 5471 PD
60 W
3868 5472 PD
60 W
3868 5550 PD
60 W
3868 5553 PD
60 W
3869 5479 PD
60 W
3869 5540 PD
60 W
3870 5553 PD
60 W
3870 5508 PD
60 W
3870 5548 PD
60 W
3870 5550 PD
60 W
3870 5322 PD
60 W
3871 5518 PD
60 W
3871 5103 PD
60 W
3871 5513 PD
60 W
3871 5445 PD
60 W
3871 5532 PD
60 W
3872 5551 PD
60 W
3873 5390 PD
60 W
3873 5516 PD
60 W
3873 5494 PD
60 W
3873 5552 PD
60 W
3873 5476 PD
60 W
3874 5550 PD
60 W
3874 5543 PD
60 W
3874 5545 PD
60 W
3874 5513 PD
60 W
3874 5553 PD
60 W
3875 5553 PD
60 W
3875 5548 PD
60 W
3875 5443 PD
60 W
3875 5331 PD
60 W
3875 5495 PD
60 W
3876 5317 PD
60 W
3876 5553 PD
60 W
3876 5549 PD
60 W
3876 5513 PD
60 W
3876 5464 PD
60 W
3877 5512 PD
60 W
3878 5196 PD
60 W
3878 5553 PD
60 W
3878 5471 PD
60 W
3878 5476 PD
60 W
3878 5530 PD
60 W
3879 5442 PD
60 W
3879 3925 PD
60 W
3879 5547 PD
60 W
3880 5516 PD
60 W
3880 5540 PD
60 W
3880 5553 PD
60 W
3881 5553 PD
60 W
3881 5549 PD
60 W
3881 5551 PD
60 W
3881 5206 PD
60 W
3881 5534 PD
60 W
3881 5511 PD
60 W
3881 5502 PD
60 W
3882 5532 PD
60 W
3882 5537 PD
60 W
3882 5386 PD
60 W
3882 5553 PD
60 W
3883 5552 PD
60 W
3883 5551 PD
60 W
3883 5552 PD
60 W
3883 5432 PD
60 W
3883 5377 PD
60 W
3884 5553 PD
60 W
3884 5514 PD
60 W
3884 4922 PD
60 W
3885 5522 PD
60 W
3885 5535 PD
60 W
3885 5438 PD
60 W
3885 5551 PD
60 W
3885 5399 PD
60 W
3886 5553 PD
60 W
3886 5508 PD
60 W
3886 5523 PD
60 W
3886 5524 PD
60 W
3886 5462 PD
60 W
3886 5442 PD
60 W
3887 5553 PD
60 W
3887 5429 PD
60 W
3887 5500 PD
60 W
3887 5479 PD
60 W
3887 5542 PD
60 W
3888 5447 PD
60 W
3888 5543 PD
60 W
3889 5456 PD
60 W
3889 5547 PD
60 W
3889 5553 PD
60 W
3889 5386 PD
60 W
3889 5412 PD
60 W
3890 5540 PD
60 W
3890 5546 PD
60 W
3891 5544 PD
60 W
3891 5553 PD
60 W
3892 5429 PD
60 W
3892 5527 PD
60 W
3892 5552 PD
60 W
3892 5539 PD
60 W
3892 5418 PD
60 W
3893 5186 PD
60 W
3893 5505 PD
60 W
3893 5553 PD
60 W
3894 5550 PD
60 W
3895 5484 PD
60 W
3895 5516 PD
60 W
3895 5553 PD
60 W
3895 5550 PD
60 W
3896 5552 PD
60 W
3896 5553 PD
60 W
3896 5549 PD
60 W
3896 5548 PD
60 W
3896 5261 PD
60 W
3896 5553 PD
60 W
3896 5173 PD
60 W
3896 5553 PD
60 W
3896 5538 PD
60 W
3897 5549 PD
60 W
3897 5442 PD
60 W
3897 5523 PD
60 W
3897 5553 PD
60 W
3898 5379 PD
60 W
3898 3852 PD
60 W
3899 5330 PD
60 W
3899 5548 PD
60 W
3899 5552 PD
60 W
3900 5405 PD
60 W
3900 5378 PD
60 W
3901 5551 PD
60 W
3901 5528 PD
60 W
3901 5553 PD
60 W
3902 5512 PD
60 W
3902 5551 PD
60 W
3902 5460 PD
60 W
3902 5547 PD
60 W
3902 5341 PD
60 W
3903 5531 PD
60 W
3903 5545 PD
60 W
3903 5036 PD
60 W
3903 5415 PD
60 W
3903 5551 PD
60 W
3903 5548 PD
60 W
3904 5536 PD
60 W
3904 5425 PD
60 W
3904 5528 PD
60 W
3904 5304 PD
60 W
3904 5546 PD
60 W
3904 5457 PD
60 W
3905 5540 PD
60 W
3905 5539 PD
60 W
3905 5516 PD
60 W
3905 5540 PD
60 W
3905 5553 PD
60 W
3905 5544 PD
60 W
3906 5539 PD
60 W
3906 5551 PD
60 W
3906 5409 PD
60 W
3906 5536 PD
60 W
3907 5525 PD
60 W
3907 5542 PD
60 W
3907 5552 PD
60 W
3907 5537 PD
60 W
3907 5553 PD
60 W
3908 5518 PD
60 W
3908 5485 PD
60 W
3908 5553 PD
60 W
3908 5550 PD
60 W
3908 5461 PD
60 W
3908 5412 PD
60 W
3908 5450 PD
60 W
3908 5422 PD
60 W
3909 5527 PD
60 W
3909 5541 PD
60 W
3909 5543 PD
60 W
3909 5553 PD
60 W
3910 5547 PD
60 W
3910 5552 PD
60 W
3910 5553 PD
60 W
3910 5543 PD
60 W
3911 5537 PD
60 W
3911 5547 PD
60 W
3911 5546 PD
60 W
3912 5541 PD
60 W
3912 5523 PD
60 W
3912 5530 PD
60 W
3912 5429 PD
60 W
3912 5549 PD
60 W
3912 5320 PD
60 W
3913 5535 PD
60 W
3913 5469 PD
60 W
3913 5553 PD
60 W
3914 5541 PD
60 W
3914 5413 PD
60 W
3915 5525 PD
60 W
3915 5510 PD
60 W
3915 5527 PD
60 W
3915 5402 PD
60 W
3915 5437 PD
60 W
3915 5529 PD
60 W
3916 5552 PD
60 W
3916 5452 PD
60 W
3916 5553 PD
60 W
3917 5553 PD
60 W
3917 5552 PD
60 W
3917 5539 PD
60 W
3917 5499 PD
60 W
3917 5467 PD
60 W
3917 5552 PD
60 W
3918 5547 PD
60 W
3919 5501 PD
60 W
3919 5523 PD
60 W
3919 5552 PD
60 W
3919 5531 PD
60 W
3920 5533 PD
60 W
3920 5525 PD
60 W
3920 5502 PD
60 W
3920 5540 PD
60 W
3920 5548 PD
60 W
3921 5552 PD
60 W
3921 5518 PD
60 W
3921 5544 PD
60 W
3921 5488 PD
60 W
3922 5553 PD
60 W
3922 5395 PD
60 W
3922 5551 PD
60 W
3922 5553 PD
60 W
3922 5536 PD
60 W
3922 5391 PD
60 W
3923 5538 PD
60 W
3923 5553 PD
60 W
3923 5043 PD
60 W
3924 5062 PD
60 W
3924 5518 PD
60 W
3924 5522 PD
60 W
3924 5507 PD
60 W
3924 5548 PD
60 W
3924 5445 PD
60 W
3924 5483 PD
60 W
3924 5545 PD
60 W
3925 5553 PD
60 W
3925 5552 PD
60 W
3925 5553 PD
60 W
3925 5427 PD
60 W
3925 5553 PD
60 W
3926 5541 PD
60 W
3926 5552 PD
60 W
3926 5509 PD
60 W
3926 5549 PD
60 W
3926 5543 PD
60 W
3926 5548 PD
60 W
3926 5472 PD
60 W
3927 5551 PD
60 W
3927 5550 PD
60 W
3927 5505 PD
60 W
3928 5550 PD
60 W
3929 5503 PD
60 W
3929 5542 PD
60 W
3929 5553 PD
60 W
3930 5553 PD
60 W
3930 5543 PD
60 W
3930 5464 PD
60 W
3930 5552 PD
60 W
3931 5551 PD
60 W
3932 5552 PD
60 W
3932 5538 PD
60 W
3932 5535 PD
60 W
3932 5452 PD
60 W
3933 5542 PD
60 W
3933 5551 PD
60 W
3934 5356 PD
60 W
3934 5513 PD
60 W
3935 5530 PD
60 W
3935 5534 PD
60 W
3935 5368 PD
60 W
3935 5495 PD
60 W
3935 4957 PD
60 W
3935 5475 PD
60 W
3936 5550 PD
60 W
3936 5365 PD
60 W
3936 5545 PD
60 W
3936 5336 PD
60 W
3936 5548 PD
60 W
3937 5489 PD
60 W
3937 5532 PD
60 W
3937 5540 PD
60 W
3937 4593 PD
60 W
3937 5154 PD
60 W
3937 5487 PD
60 W
3938 5540 PD
60 W
3938 5454 PD
60 W
3938 5550 PD
60 W
3939 5426 PD
60 W
3939 5553 PD
60 W
3939 5537 PD
60 W
3940 5550 PD
60 W
3940 5489 PD
60 W
3940 5553 PD
60 W
3940 5536 PD
60 W
3941 5553 PD
60 W
3941 5477 PD
60 W
3941 5441 PD
60 W
3941 5498 PD
60 W
3941 5272 PD
60 W
3941 5520 PD
60 W
3941 5530 PD
60 W
3942 5510 PD
60 W
3942 5489 PD
60 W
3942 5385 PD
60 W
3942 5542 PD
60 W
3943 5199 PD
60 W
3943 5553 PD
60 W
3943 5452 PD
60 W
3943 5553 PD
60 W
3943 5547 PD
60 W
3943 5542 PD
60 W
3943 5553 PD
60 W
3943 5549 PD
60 W
3944 5402 PD
60 W
3944 5509 PD
60 W
3944 5023 PD
60 W
3944 5503 PD
60 W
3944 5529 PD
60 W
3945 5430 PD
60 W
3945 5532 PD
60 W
3945 5436 PD
60 W
3945 5500 PD
60 W
3946 5477 PD
60 W
3946 5547 PD
60 W
3946 5548 PD
60 W
3946 5553 PD
60 W
3946 5514 PD
60 W
3947 5386 PD
60 W
3947 5526 PD
60 W
3947 5547 PD
60 W
3947 5418 PD
60 W
3948 5552 PD
60 W
3948 5549 PD
60 W
3948 5521 PD
60 W
3949 5449 PD
60 W
3949 5553 PD
60 W
3949 5552 PD
60 W
3949 5551 PD
60 W
3949 5449 PD
60 W
3950 5550 PD
60 W
3950 5167 PD
60 W
3950 5551 PD
60 W
3950 5464 PD
60 W
3950 5533 PD
60 W
3950 5454 PD
60 W
3951 5323 PD
60 W
3951 5541 PD
60 W
3951 5553 PD
60 W
3951 5528 PD
60 W
3951 5284 PD
60 W
3951 5458 PD
60 W
3951 5500 PD
60 W
3951 5553 PD
60 W
3951 5522 PD
60 W
3951 5358 PD
60 W
3952 5547 PD
60 W
3953 5476 PD
60 W
3953 5466 PD
60 W
3953 5440 PD
60 W
3953 5540 PD
60 W
3953 5502 PD
60 W
3953 5538 PD
60 W
3953 5547 PD
60 W
3953 5192 PD
60 W
3954 5503 PD
60 W
3954 5489 PD
60 W
3954 5407 PD
60 W
3954 5548 PD
60 W
3954 5553 PD
60 W
3954 5394 PD
60 W
3955 5553 PD
60 W
3955 5552 PD
60 W
3955 5397 PD
60 W
3956 5551 PD
60 W
3956 5486 PD
60 W
3956 5551 PD
60 W
3956 5394 PD
60 W
3956 5511 PD
60 W
3956 5540 PD
60 W
3956 5553 PD
60 W
3957 5551 PD
60 W
3957 5553 PD
60 W
3957 5536 PD
60 W
3958 5529 PD
60 W
3958 5553 PD
60 W
3958 5360 PD
60 W
3958 5314 PD
60 W
3958 5464 PD
60 W
3958 5553 PD
60 W
3958 5532 PD
60 W
3959 5550 PD
60 W
3959 4618 PD
60 W
3959 5527 PD
60 W
3959 5553 PD
60 W
3960 5543 PD
60 W
3960 5547 PD
60 W
3960 5276 PD
60 W
3960 5271 PD
60 W
3960 5545 PD
60 W
3960 5552 PD
60 W
3960 5162 PD
60 W
3961 5549 PD
60 W
3961 5522 PD
60 W
3961 5527 PD
60 W
3961 5526 PD
60 W
3961 5530 PD
60 W
3961 5543 PD
60 W
3961 5553 PD
60 W
3961 5539 PD
60 W
3962 5553 PD
60 W
3962 5534 PD
60 W
3962 5552 PD
60 W
3962 5508 PD
60 W
3962 5547 PD
60 W
3962 5525 PD
60 W
3962 5537 PD
60 W
3963 5553 PD
60 W
3963 5543 PD
60 W
3963 5553 PD
60 W
3963 5485 PD
60 W
3963 5552 PD
60 W
3963 5548 PD
60 W
3964 5516 PD
60 W
3964 5517 PD
60 W
3964 5493 PD
60 W
3964 5551 PD
60 W
3964 5520 PD
60 W
3965 5493 PD
60 W
3965 5518 PD
60 W
3965 5413 PD
60 W
3965 5537 PD
60 W
3965 5530 PD
60 W
3965 5454 PD
60 W
3965 5553 PD
60 W
3966 5460 PD
60 W
3966 5465 PD
60 W
3966 5547 PD
60 W
3966 5424 PD
60 W
3966 5464 PD
60 W
3967 5220 PD
60 W
3967 5496 PD
60 W
3967 5491 PD
60 W
3967 5490 PD
60 W
3967 5549 PD
60 W
3968 5545 PD
60 W
3968 5078 PD
60 W
3968 5553 PD
60 W
3968 5519 PD
60 W
3968 5222 PD
60 W
3968 5552 PD
60 W
3968 5534 PD
60 W
3968 5502 PD
60 W
3969 5552 PD
60 W
3969 5527 PD
60 W
3969 5543 PD
60 W
3969 5522 PD
60 W
3970 5431 PD
60 W
3970 5411 PD
60 W
3970 5489 PD
60 W
3971 5544 PD
60 W
3971 5355 PD
60 W
3971 5310 PD
60 W
3971 5405 PD
60 W
3971 5503 PD
60 W
3972 5547 PD
60 W
3972 5206 PD
60 W
3973 5520 PD
60 W
3973 5515 PD
60 W
3974 5493 PD
60 W
3974 5539 PD
60 W
3974 5506 PD
60 W
3974 5329 PD
60 W
3975 5523 PD
60 W
3975 5385 PD
60 W
3975 5513 PD
60 W
3976 5469 PD
60 W
3977 5525 PD
60 W
3977 5553 PD
60 W
3977 5536 PD
60 W
3977 5553 PD
60 W
3977 5547 PD
60 W
3977 5552 PD
60 W
3977 5273 PD
60 W
3977 5475 PD
60 W
3978 5547 PD
60 W
3978 5551 PD
60 W
3978 5443 PD
60 W
3978 5522 PD
60 W
3978 5316 PD
60 W
3978 5438 PD
60 W
3979 5553 PD
60 W
3979 5552 PD
60 W
3979 5473 PD
60 W
3979 5523 PD
60 W
3979 5409 PD
60 W
3979 5552 PD
60 W
3979 5546 PD
60 W
3979 5547 PD
60 W
3980 5541 PD
60 W
3981 5366 PD
60 W
3981 5465 PD
60 W
3981 5553 PD
60 W
3982 5553 PD
60 W
3982 4898 PD
60 W
3982 5050 PD
60 W
3982 5542 PD
60 W
3982 5257 PD
60 W
3982 5553 PD
60 W
3982 5536 PD
60 W
3983 5345 PD
60 W
3984 5543 PD
60 W
3984 5537 PD
60 W
3984 5468 PD
60 W
3984 5540 PD
60 W
3985 5520 PD
60 W
3985 5430 PD
60 W
3985 5548 PD
60 W
3985 5508 PD
60 W
3985 5476 PD
60 W
3986 5553 PD
60 W
3986 5507 PD
60 W
3986 5532 PD
60 W
3986 5531 PD
60 W
3987 5540 PD
60 W
3987 5510 PD
60 W
3987 5545 PD
60 W
3987 5516 PD
60 W
3987 5553 PD
60 W
3987 5551 PD
60 W
3987 5537 PD
60 W
3987 5549 PD
60 W
3988 5536 PD
60 W
3988 5428 PD
60 W
3988 5446 PD
60 W
3988 5314 PD
60 W
3989 5509 PD
60 W
3989 5517 PD
60 W
3989 5466 PD
60 W
3989 4598 PD
60 W
3990 5553 PD
60 W
3990 5550 PD
60 W
3990 5518 PD
60 W
3990 5465 PD
60 W
3991 5407 PD
60 W
3991 5470 PD
60 W
3991 5553 PD
60 W
3991 5551 PD
60 W
3991 5543 PD
60 W
3992 5553 PD
60 W
3992 5541 PD
60 W
3992 5539 PD
60 W
3992 5553 PD
60 W
3993 5449 PD
60 W
3993 5548 PD
60 W
3993 5446 PD
60 W
3993 4469 PD
60 W
3994 5553 PD
60 W
3994 5456 PD
60 W
3994 5549 PD
60 W
3994 5551 PD
60 W
3994 5547 PD
60 W
3997 5549 PD
60 W
3997 5553 PD
60 W
3997 5043 PD
60 W
3997 5550 PD
60 W
3997 5467 PD
60 W
3997 5509 PD
60 W
3997 5553 PD
60 W
3997 5537 PD
60 W
3998 5552 PD
60 W
3998 5540 PD
60 W
3998 5553 PD
60 W
3998 5510 PD
60 W
3999 5482 PD
60 W
3999 5548 PD
60 W
3999 5443 PD
60 W
3999 5553 PD
60 W
3999 5367 PD
60 W
4000 4961 PD
60 W
4000 5511 PD
60 W
4001 5503 PD
60 W
4001 5539 PD
60 W
4002 5546 PD
60 W
4002 5483 PD
60 W
4002 5514 PD
60 W
4002 5067 PD
60 W
4002 5551 PD
60 W
4002 5553 PD
60 W
4002 5551 PD
60 W
4002 5525 PD
60 W
4003 5553 PD
60 W
4003 5537 PD
60 W
4003 5551 PD
60 W
4003 5553 PD
60 W
4003 5496 PD
60 W
4004 5553 PD
60 W
4004 5325 PD
60 W
4004 5515 PD
60 W
4004 5407 PD
60 W
4005 5553 PD
60 W
4005 5427 PD
60 W
4005 5548 PD
60 W
4006 5552 PD
60 W
4006 5551 PD
60 W
4006 5377 PD
60 W
4007 5550 PD
60 W
4007 5302 PD
60 W
4007 5483 PD
60 W
4007 5481 PD
60 W
4007 5421 PD
60 W
4007 5505 PD
60 W
4008 5527 PD
60 W
4008 5541 PD
60 W
4008 5435 PD
60 W
4008 5488 PD
60 W
4009 5546 PD
60 W
4009 5543 PD
60 W
4009 5513 PD
60 W
4009 5497 PD
60 W
4010 5385 PD
60 W
4010 5552 PD
60 W
4010 5546 PD
60 W
4010 5429 PD
60 W
4011 5527 PD
60 W
4011 5540 PD
60 W
4011 5526 PD
60 W
4011 5543 PD
60 W
4012 5516 PD
60 W
4012 5552 PD
60 W
4012 5540 PD
60 W
4013 5509 PD
60 W
4013 5528 PD
60 W
4013 5482 PD
60 W
4013 5553 PD
60 W
4013 5479 PD
60 W
4013 5549 PD
60 W
4014 5545 PD
60 W
4014 5462 PD
60 W
4014 5516 PD
60 W
4014 5533 PD
60 W
4015 5512 PD
60 W
4015 5254 PD
60 W
4015 5553 PD
60 W
4015 5208 PD
60 W
4015 5531 PD
60 W
4015 5401 PD
60 W
4016 5526 PD
60 W
4016 5505 PD
60 W
4016 5419 PD
60 W
4016 5291 PD
60 W
4017 5550 PD
60 W
4017 5378 PD
60 W
4017 5553 PD
60 W
4017 5233 PD
60 W
4017 5540 PD
60 W
4017 5539 PD
60 W
4018 5468 PD
60 W
4018 5463 PD
60 W
4018 5530 PD
60 W
4018 5546 PD
60 W
4019 5519 PD
60 W
4019 5552 PD
60 W
4019 5553 PD
60 W
4019 5468 PD
60 W
4020 5483 PD
60 W
4020 4970 PD
60 W
4020 5536 PD
60 W
4020 5530 PD
60 W
4021 5542 PD
60 W
4021 5541 PD
60 W
4021 5532 PD
60 W
4021 5351 PD
60 W
4022 5507 PD
60 W
4022 4948 PD
60 W
4022 5553 PD
60 W
4022 5552 PD
60 W
4022 5550 PD
60 W
4022 5553 PD
60 W
4022 5359 PD
60 W
4023 5533 PD
60 W
4023 5539 PD
60 W
4023 5530 PD
60 W
4023 5350 PD
60 W
4024 5529 PD
60 W
4024 5317 PD
60 W
4024 5504 PD
60 W
4024 5525 PD
60 W
4025 5538 PD
60 W
4025 5547 PD
60 W
4025 5553 PD
60 W
4025 5409 PD
60 W
4025 5474 PD
60 W
4025 5552 PD
60 W
4026 5534 PD
60 W
4026 5321 PD
60 W
4026 5545 PD
60 W
4026 5542 PD
60 W
4026 5274 PD
60 W
4027 5497 PD
60 W
4027 5553 PD
60 W
4027 5474 PD
60 W
4027 5480 PD
60 W
4027 5553 PD
60 W
4027 5418 PD
60 W
4028 5516 PD
60 W
4028 5522 PD
60 W
4029 5524 PD
60 W
4029 5553 PD
60 W
4029 4937 PD
60 W
4029 5551 PD
60 W
4029 5252 PD
60 W
4030 5547 PD
60 W
4030 5553 PD
60 W
4030 5548 PD
60 W
4031 5551 PD
60 W
4031 5553 PD
60 W
4031 5097 PD
60 W
4031 5511 PD
60 W
4032 5547 PD
60 W
4032 5544 PD
60 W
4032 5373 PD
60 W
4032 5183 PD
60 W
4032 5485 PD
60 W
4032 5419 PD
60 W
4033 5543 PD
60 W
4033 5547 PD
60 W
4033 5475 PD
60 W
4033 5518 PD
60 W
4033 5530 PD
60 W
4033 5518 PD
60 W
4033 5533 PD
60 W
4034 5466 PD
60 W
4034 4495 PD
60 W
4034 5483 PD
60 W
4034 5553 PD
60 W
4034 5540 PD
60 W
4035 5421 PD
60 W
4035 5448 PD
60 W
4035 5361 PD
60 W
4035 5516 PD
60 W
4035 5369 PD
60 W
4036 5478 PD
60 W
4036 5543 PD
60 W
4036 5482 PD
60 W
4037 5542 PD
60 W
4037 5449 PD
60 W
4038 5552 PD
60 W
4038 5515 PD
60 W
4038 5553 PD
60 W
4039 5505 PD
60 W
4039 5510 PD
60 W
4039 5531 PD
60 W
4039 5539 PD
60 W
4039 5550 PD
60 W
4040 4720 PD
60 W
4040 5517 PD
60 W
4040 5515 PD
60 W
4040 5251 PD
60 W
4040 5553 PD
60 W
4041 5456 PD
60 W
4041 5518 PD
60 W
4041 5553 PD
60 W
4041 5550 PD
60 W
4041 5531 PD
60 W
4041 5537 PD
60 W
4041 5386 PD
60 W
4042 5550 PD
60 W
4042 5553 PD
60 W
4042 5534 PD
60 W
4042 5475 PD
60 W
4042 5452 PD
60 W
4042 5498 PD
60 W
4043 5499 PD
60 W
4043 5458 PD
60 W
4043 5552 PD
60 W
4043 5537 PD
60 W
4043 5550 PD
60 W
4044 5445 PD
60 W
4044 5549 PD
60 W
4044 5497 PD
60 W
4044 5548 PD
60 W
4044 5451 PD
60 W
4044 5553 PD
60 W
4045 5539 PD
60 W
4045 5523 PD
60 W
4045 5325 PD
60 W
4045 5553 PD
60 W
4045 5522 PD
60 W
4046 5320 PD
60 W
4046 5286 PD
60 W
4047 5548 PD
60 W
4047 5462 PD
60 W
4047 5424 PD
60 W
4047 5357 PD
60 W
4047 5553 PD
60 W
4048 5553 PD
60 W
4048 5341 PD
60 W
4048 5551 PD
60 W
4048 5549 PD
60 W
4048 5547 PD
60 W
4049 5536 PD
60 W
4049 5377 PD
60 W
4049 5308 PD
60 W
4049 5204 PD
60 W
4050 5547 PD
60 W
4050 5553 PD
60 W
4051 5324 PD
60 W
4051 5384 PD
60 W
4051 5552 PD
60 W
4051 5373 PD
60 W
4052 5472 PD
60 W
4052 5349 PD
60 W
4052 5463 PD
60 W
4053 5553 PD
60 W
4053 5540 PD
60 W
4053 5548 PD
60 W
4054 5525 PD
60 W
4054 5536 PD
60 W
4054 5553 PD
60 W
4054 5188 PD
60 W
4055 5544 PD
60 W
4055 5444 PD
60 W
4055 5404 PD
60 W
4056 5331 PD
60 W
4056 4981 PD
60 W
4056 5491 PD
60 W
4056 5343 PD
60 W
4057 5390 PD
60 W
4057 5125 PD
60 W
4057 5552 PD
60 W
4058 5550 PD
60 W
4058 5228 PD
60 W
4058 5487 PD
60 W
4059 5537 PD
60 W
4060 5507 PD
60 W
4060 5249 PD
60 W
4060 5330 PD
60 W
4060 5549 PD
60 W
4060 5533 PD
60 W
4060 5508 PD
60 W
4060 5518 PD
60 W
4060 5548 PD
60 W
4060 5523 PD
60 W
4061 5214 PD
60 W
4061 5553 PD
60 W
4061 5486 PD
60 W
4061 5461 PD
60 W
4061 5374 PD
60 W
4061 5552 PD
60 W
4062 5552 PD
60 W
4062 5448 PD
60 W
4062 5543 PD
60 W
4062 5536 PD
60 W
4062 5247 PD
60 W
4062 5553 PD
60 W
4063 5499 PD
60 W
4063 4888 PD
60 W
4064 5521 PD
60 W
4065 5277 PD
60 W
4065 5515 PD
60 W
4065 2776 PD
60 W
4065 5547 PD
60 W
4065 5406 PD
60 W
4065 5512 PD
60 W
4066 5553 PD
60 W
4066 5521 PD
60 W
4066 5466 PD
60 W
4066 5433 PD
60 W
4067 5537 PD
60 W
4067 5502 PD
60 W
4067 5353 PD
60 W
4067 5451 PD
60 W
4067 5522 PD
60 W
4067 5528 PD
60 W
4067 5435 PD
60 W
4068 5514 PD
60 W
4068 5458 PD
60 W
4068 5482 PD
60 W
4068 5528 PD
60 W
4068 5537 PD
60 W
4068 5544 PD
60 W
4068 5497 PD
60 W
4069 5455 PD
60 W
4069 5435 PD
60 W
4069 5468 PD
60 W
4069 5402 PD
60 W
4069 5477 PD
60 W
4069 5553 PD
60 W
4069 5493 PD
60 W
4070 5321 PD
60 W
4070 5548 PD
60 W
4070 5489 PD
60 W
4070 5491 PD
60 W
4070 5500 PD
60 W
4070 5401 PD
60 W
4070 5545 PD
60 W
4070 5543 PD
60 W
4071 5469 PD
60 W
4071 5435 PD
60 W
4072 5544 PD
60 W
4072 5553 PD
60 W
4072 5530 PD
60 W
4072 5114 PD
60 W
4073 5379 PD
60 W
4073 5472 PD
60 W
4073 5512 PD
60 W
4073 5498 PD
60 W
4074 5553 PD
60 W
4074 5231 PD
60 W
4074 5263 PD
60 W
4074 5494 PD
60 W
4075 5474 PD
60 W
4075 5424 PD
60 W
4075 5504 PD
60 W
4076 5544 PD
60 W
4076 5534 PD
60 W
4076 5537 PD
60 W
4076 5553 PD
60 W
4076 5433 PD
60 W
4076 5469 PD
60 W
4076 5455 PD
60 W
4076 5547 PD
60 W
4076 5545 PD
60 W
4077 5537 PD
60 W
4077 5546 PD
60 W
4077 5479 PD
60 W
4077 5408 PD
60 W
4077 5133 PD
60 W
4077 5392 PD
60 W
4078 5383 PD
60 W
4078 5539 PD
60 W
4078 5425 PD
60 W
4078 5418 PD
60 W
4078 5526 PD
60 W
4079 5538 PD
60 W
4079 5332 PD
60 W
4079 5527 PD
60 W
4079 5294 PD
60 W
4079 5372 PD
60 W
4080 5457 PD
60 W
4080 5306 PD
60 W
4080 4879 PD
60 W
4080 5430 PD
60 W
4080 5491 PD
60 W
4081 5472 PD
60 W
4081 5253 PD
60 W
4081 5552 PD
60 W
4081 5543 PD
60 W
4081 5415 PD
60 W
4081 5511 PD
60 W
4082 5553 PD
60 W
4082 5365 PD
60 W
4082 5240 PD
60 W
4082 5529 PD
60 W
4082 5478 PD
60 W
4082 5275 PD
60 W
4082 5553 PD
60 W
4083 5540 PD
60 W
4083 5484 PD
60 W
4083 5551 PD
60 W
4083 5539 PD
60 W
4084 5442 PD
60 W
4084 5192 PD
60 W
4084 5538 PD
60 W
4084 5522 PD
60 W
4084 5353 PD
60 W
4084 5520 PD
60 W
4085 5509 PD
60 W
4085 5444 PD
60 W
4085 5467 PD
60 W
4086 5547 PD
60 W
4086 5484 PD
60 W
4086 5242 PD
60 W
4086 5350 PD
60 W
4086 5414 PD
60 W
4087 5543 PD
60 W
4087 5522 PD
60 W
4087 5523 PD
60 W
4087 5475 PD
60 W
4088 5480 PD
60 W
4088 5551 PD
60 W
4088 5552 PD
60 W
4088 5437 PD
60 W
4088 5529 PD
60 W
4088 5465 PD
60 W
4088 5553 PD
60 W
4088 5490 PD
60 W
4089 5481 PD
60 W
4089 5542 PD
60 W
4089 5483 PD
60 W
4089 5532 PD
60 W
4089 5553 PD
60 W
4089 5550 PD
60 W
4090 5541 PD
60 W
4090 5553 PD
60 W
4090 5369 PD
60 W
4090 5414 PD
60 W
4090 5534 PD
60 W
4091 5547 PD
60 W
4091 5552 PD
60 W
4091 5464 PD
60 W
4091 5530 PD
60 W
4091 2680 PD
60 W
4092 5543 PD
60 W
4092 5552 PD
60 W
4092 5232 PD
60 W
4092 5553 PD
60 W
4093 5424 PD
60 W
4093 5553 PD
60 W
4093 5527 PD
60 W
4094 5213 PD
60 W
4094 5546 PD
60 W
4094 5544 PD
60 W
4094 5434 PD
60 W
4094 5524 PD
60 W
4094 5306 PD
60 W
4095 5524 PD
60 W
4095 4997 PD
60 W
4095 5501 PD
60 W
4095 5550 PD
60 W
4095 5548 PD
60 W
4096 5549 PD
60 W
4096 5548 PD
60 W
4096 5550 PD
60 W
4096 5553 PD
60 W
4097 5140 PD
60 W
4097 5383 PD
60 W
4097 5553 PD
60 W
4098 5460 PD
60 W
4098 5499 PD
60 W
4098 5272 PD
60 W
4098 5538 PD
60 W
4098 5412 PD
60 W
4098 5427 PD
60 W
4098 5553 PD
60 W
4098 5528 PD
60 W
4098 5549 PD
60 W
4098 5528 PD
60 W
4098 5495 PD
60 W
4098 5552 PD
60 W
4098 5518 PD
60 W
4098 5500 PD
60 W
4098 5472 PD
60 W
4098 5509 PD
60 W
4098 4812 PD
60 W
4098 5330 PD
60 W
4098 5494 PD
60 W
4098 4861 PD
60 W
4098 4971 PD
60 W
4098 4780 PD
60 W
4098 5244 PD
60 W
4098 5211 PD
60 W
4098 5304 PD
60 W
4098 5320 PD
60 W
4098 5553 PD
60 W
4098 5465 PD
60 W
4098 5419 PD
60 W
4098 5482 PD
60 W
4098 5547 PD
60 W
4098 5471 PD
60 W
4098 5550 PD
60 W
4098 5460 PD
60 W
4098 5315 PD
60 W
4098 5468 PD
60 W
4098 5409 PD
60 W
4098 5537 PD
60 W
4098 5414 PD
60 W
4098 5380 PD
60 W
4098 5551 PD
60 W
4098 5550 PD
60 W
4098 5500 PD
60 W
4098 5437 PD
60 W
4098 4922 PD
60 W
4098 5470 PD
60 W
4098 5553 PD
60 W
4098 5512 PD
60 W
4098 5533 PD
60 W
4098 5239 PD
60 W
4098 5553 PD
60 W
4098 5529 PD
60 W
4098 5416 PD
60 W
4098 5327 PD
60 W
4098 5553 PD
60 W
4098 5528 PD
60 W
4098 5553 PD
60 W
4098 5463 PD
60 W
4098 5396 PD
60 W
4098 5290 PD
60 W
4098 4686 PD
60 W
4098 5552 PD
60 W
4098 4809 PD
60 W
4098 5485 PD
60 W
4098 5466 PD
60 W
4098 5421 PD
60 W
4098 5281 PD
60 W
4098 5406 PD
60 W
4098 5530 PD
60 W
4098 5500 PD
60 W
4098 5444 PD
60 W
4098 5443 PD
60 W
4098 5517 PD
60 W
4098 5453 PD
60 W
4098 5177 PD
60 W
4098 5504 PD
60 W
4098 5502 PD
60 W
4098 4923 PD
60 W
4098 5546 PD
60 W
4098 5191 PD
60 W
4098 5392 PD
60 W
4098 5553 PD
60 W
4098 5491 PD
60 W
4098 5530 PD
60 W
4098 5481 PD
60 W
4098 5513 PD
60 W
4098 5504 PD
60 W
4098 5247 PD
60 W
4098 5454 PD
60 W
4098 5512 PD
60 W
4098 5352 PD
60 W
4098 5513 PD
60 W
4098 5471 PD
60 W
4098 5030 PD
60 W
4098 5549 PD
60 W
4098 5404 PD
60 W
4098 5151 PD
60 W
4098 4463 PD
60 W
4098 5264 PD
60 W
4098 5534 PD
60 W
4098 5513 PD
60 W
4098 5536 PD
60 W
4098 5553 PD
60 W
4098 5523 PD
60 W
4098 5356 PD
60 W
4098 5430 PD
60 W
4098 5520 PD
60 W
4098 5064 PD
60 W
4098 5412 PD
60 W
4098 5347 PD
60 W
4098 5219 PD
60 W
4098 5339 PD
60 W
4098 4840 PD
60 W
4098 5476 PD
60 W
4098 5468 PD
60 W
4098 5541 PD
60 W
4098 5294 PD
60 W
4098 4972 PD
60 W
4098 5352 PD
60 W
4098 5513 PD
60 W
4098 5536 PD
60 W
4098 5528 PD
60 W
4098 5150 PD
60 W
4098 5480 PD
60 W
4098 5526 PD
60 W
4098 5545 PD
60 W
4098 5360 PD
60 W
4098 5541 PD
60 W
4098 5343 PD
60 W
4098 5499 PD
60 W
4098 5418 PD
60 W
4098 5523 PD
60 W
4098 5382 PD
60 W
4098 5402 PD
60 W
4098 5297 PD
60 W
4098 5389 PD
60 W
4098 5363 PD
60 W
4098 5318 PD
60 W
4098 5463 PD
60 W
4098 5551 PD
60 W
4098 5493 PD
60 W
4098 4307 PD
60 W
4098 5490 PD
60 W
4098 5319 PD
60 W
4098 5536 PD
60 W
4098 5348 PD
60 W
4098 5307 PD
60 W
4098 5474 PD
60 W
4098 5510 PD
60 W
4098 5525 PD
60 W
4098 5426 PD
60 W
4098 5545 PD
60 W
4098 5447 PD
60 W
4098 5553 PD
60 W
4098 5053 PD
60 W
4098 5418 PD
60 W
4098 5348 PD
60 W
4098 5538 PD
60 W
4098 5525 PD
60 W
4098 5393 PD
60 W
4098 5398 PD
60 W
4098 5537 PD
60 W
4098 3779 PD
60 W
4098 5215 PD
60 W
4098 5449 PD
60 W
4098 5212 PD
60 W
4098 5040 PD
60 W
4098 5014 PD
60 W
4098 5288 PD
60 W
4098 5419 PD
60 W
4098 5516 PD
60 W
4098 5535 PD
60 W
4098 5086 PD
60 W
4098 5538 PD
60 W
4098 5377 PD
60 W
4098 5549 PD
60 W
4098 5553 PD
60 W
4098 5550 PD
60 W
4098 5520 PD
60 W
4098 5531 PD
60 W
4098 5541 PD
60 W
4098 5549 PD
60 W
4098 5550 PD
60 W
4098 5374 PD
60 W
4098 5551 PD
60 W
4098 5527 PD
60 W
4098 5518 PD
60 W
4098 5553 PD
60 W
4098 5534 PD
60 W
4098 5197 PD
60 W
4098 5450 PD
60 W
4098 5060 PD
60 W
4098 5472 PD
60 W
4098 5521 PD
60 W
4098 5486 PD
60 W
4098 5538 PD
60 W
4098 5462 PD
60 W
4098 5487 PD
60 W
4098 5423 PD
60 W
4098 5450 PD
60 W
4098 5190 PD
60 W
4098 5536 PD
60 W
4098 5355 PD
60 W
4098 5220 PD
60 W
4098 5321 PD
60 W
4098 2858 PD
60 W
4098 5542 PD
60 W
4098 5383 PD
60 W
4098 5353 PD
60 W
4098 5528 PD
60 W
4098 5330 PD
60 W
4098 5528 PD
60 W
4098 5465 PD
60 W
4098 5404 PD
60 W
4098 5514 PD
60 W
4098 5506 PD
60 W
4098 5474 PD
60 W
4098 5297 PD
60 W
4098 5365 PD
60 W
4098 5553 PD
60 W
4098 5552 PD
60 W
4098 5270 PD
60 W
4098 5496 PD
60 W
4098 5529 PD
60 W
4098 5071 PD
60 W
4098 5549 PD
60 W
4098 4596 PD
60 W
4098 4947 PD
60 W
4098 5537 PD
60 W
4098 5494 PD
60 W
4098 5389 PD
60 W
4098 5553 PD
60 W
4098 5467 PD
60 W
4098 5445 PD
60 W
4098 5548 PD
60 W
4098 5496 PD
60 W
4098 5505 PD
60 W
4098 5469 PD
60 W
4098 5525 PD
60 W
4098 5553 PD
60 W
4098 5532 PD
60 W
4098 5553 PD
60 W
4098 5433 PD
60 W
4098 5490 PD
60 W
4098 5541 PD
60 W
4098 5461 PD
60 W
4098 5492 PD
60 W
4098 5525 PD
60 W
4098 5204 PD
60 W
4098 5357 PD
60 W
4098 5513 PD
60 W
4098 5550 PD
60 W
4098 4871 PD
60 W
4098 5502 PD
60 W
4098 5487 PD
60 W
4098 5430 PD
60 W
4098 5488 PD
60 W
4098 5023 PD
60 W
4098 5544 PD
60 W
4098 5506 PD
60 W
4098 5467 PD
60 W
4098 5456 PD
60 W
4098 5550 PD
60 W
4098 5374 PD
60 W
4098 5466 PD
60 W
4098 5219 PD
60 W
4098 5553 PD
60 W
4098 5552 PD
60 W
4098 5513 PD
60 W
4098 5412 PD
60 W
4098 5391 PD
60 W
4098 5100 PD
60 W
4098 5505 PD
60 W
4098 5397 PD
60 W
4098 5544 PD
60 W
4098 5552 PD
60 W
4098 4311 PD
60 W
4098 4912 PD
60 W
4098 5500 PD
60 W
4098 5264 PD
60 W
4098 5506 PD
60 W
4098 5103 PD
60 W
4098 5553 PD
60 W
4098 5344 PD
60 W
4098 5428 PD
60 W
4098 5553 PD
60 W
4098 5511 PD
60 W
4098 5552 PD
60 W
4098 5399 PD
60 W
4098 5519 PD
60 W
4098 5505 PD
60 W
4098 5047 PD
60 W
4098 5535 PD
60 W
4098 5399 PD
60 W
4098 5546 PD
60 W
4098 5395 PD
60 W
4098 5538 PD
60 W
4098 5331 PD
60 W
4098 5407 PD
60 W
4098 5466 PD
60 W
4098 5208 PD
60 W
4098 5336 PD
60 W
4098 5552 PD
60 W
4098 5443 PD
60 W
4098 5132 PD
60 W
4098 5278 PD
60 W
4098 5432 PD
60 W
4098 5462 PD
60 W
4098 5553 PD
60 W
4098 5505 PD
60 W
4098 5515 PD
60 W
4098 5535 PD
60 W
4098 5399 PD
60 W
4098 5293 PD
60 W
4098 5548 PD
60 W
4098 5541 PD
60 W
4098 5510 PD
60 W
4098 5471 PD
60 W
4098 5407 PD
60 W
4098 5499 PD
60 W
4098 5431 PD
60 W
4098 5292 PD
60 W
4098 5265 PD
60 W
4098 5420 PD
60 W
4098 5520 PD
60 W
4098 5552 PD
60 W
4098 5440 PD
60 W
4098 4949 PD
60 W
4098 5512 PD
60 W
4098 5182 PD
60 W
4098 5274 PD
60 W
4098 5278 PD
60 W
4098 5465 PD
60 W
4098 5550 PD
60 W
4098 5302 PD
60 W
4098 5552 PD
60 W
4098 5433 PD
60 W
4098 5077 PD
60 W
4098 5535 PD
60 W
4098 4216 PD
60 W
4098 5406 PD
60 W
4098 5512 PD
60 W
4098 5543 PD
60 W
4098 5197 PD
60 W
4098 5553 PD
60 W
4098 5323 PD
60 W
4098 5490 PD
60 W
4098 5291 PD
60 W
4098 5504 PD
60 W
4098 5500 PD
60 W
4098 5240 PD
60 W
4098 5429 PD
60 W
4098 5336 PD
60 W
4098 5538 PD
60 W
4098 5536 PD
60 W
4098 5548 PD
60 W
4098 5418 PD
60 W
4098 5511 PD
60 W
4098 5243 PD
60 W
4098 5447 PD
60 W
4098 5428 PD
60 W
4098 5461 PD
60 W
4098 5433 PD
60 W
4098 5480 PD
60 W
4098 5536 PD
60 W
4098 5256 PD
60 W
4098 4923 PD
60 W
4098 5537 PD
60 W
4098 5423 PD
60 W
4098 5456 PD
60 W
4098 4595 PD
60 W
4098 5484 PD
60 W
4098 5549 PD
60 W
4098 5502 PD
60 W
4098 5506 PD
60 W
4098 5215 PD
60 W
4098 5204 PD
60 W
4098 5439 PD
60 W
4098 5550 PD
60 W
4098 5385 PD
60 W
4098 5088 PD
60 W
4098 5429 PD
60 W
4098 5529 PD
60 W
4098 5399 PD
60 W
4098 5444 PD
60 W
4098 5550 PD
60 W
4098 5329 PD
60 W
4098 5511 PD
60 W
4098 4844 PD
60 W
4098 5227 PD
60 W
4098 5352 PD
60 W
4098 5526 PD
60 W
4098 5465 PD
60 W
4098 5474 PD
60 W
4098 5290 PD
60 W
4098 5378 PD
60 W
4098 5534 PD
60 W
4098 5553 PD
60 W
4098 5550 PD
60 W
4098 5519 PD
60 W
4098 5553 PD
60 W
4098 5536 PD
60 W
4098 5437 PD
60 W
4098 5026 PD
60 W
4098 5410 PD
60 W
4098 5211 PD
60 W
4098 4978 PD
60 W
4098 5133 PD
60 W
4098 5539 PD
60 W
4098 5116 PD
60 W
4098 5316 PD
60 W
4098 5553 PD
60 W
4098 5317 PD
60 W
4098 5468 PD
60 W
4098 5380 PD
60 W
4098 5459 PD
60 W
4098 5381 PD
60 W
4098 5553 PD
60 W
4098 5529 PD
60 W
4098 5407 PD
60 W
4098 5547 PD
60 W
4098 5473 PD
60 W
4098 5529 PD
60 W
4098 5553 PD
60 W
4098 5329 PD
60 W
4098 5374 PD
60 W
4098 5103 PD
60 W
4098 5518 PD
60 W
4098 5508 PD
60 W
4098 5282 PD
60 W
4098 5416 PD
60 W
4098 5492 PD
60 W
4098 5296 PD
60 W
4098 5550 PD
60 W
4098 5507 PD
60 W
4098 5511 PD
60 W
4098 5481 PD
60 W
4098 5182 PD
60 W
4098 5019 PD
60 W
4098 5072 PD
60 W
4098 5262 PD
60 W
4098 5525 PD
60 W
4098 5515 PD
60 W
4098 5179 PD
60 W
4098 5420 PD
60 W
4098 5524 PD
60 W
4098 5339 PD
60 W
4098 5527 PD
60 W
4098 5540 PD
60 W
4098 5553 PD
60 W
4098 5528 PD
60 W
4098 5532 PD
60 W
4098 5530 PD
60 W
4098 5494 PD
60 W
4098 5421 PD
60 W
4098 5548 PD
60 W
4098 5552 PD
60 W
4098 5476 PD
60 W
4098 5549 PD
60 W
4098 5546 PD
60 W
4098 5208 PD
60 W
4098 5112 PD
60 W
4098 5381 PD
60 W
4098 5479 PD
60 W
4098 5546 PD
60 W
4098 5009 PD
60 W
4098 4897 PD
60 W
4098 5543 PD
60 W
4098 5550 PD
60 W
4098 5510 PD
60 W
4098 5530 PD
60 W
4098 5258 PD
60 W
4098 5536 PD
60 W
4098 5300 PD
60 W
4098 5492 PD
60 W
4098 5553 PD
60 W
4098 5505 PD
60 W
4098 5546 PD
60 W
4098 5380 PD
60 W
4098 5553 PD
60 W
4098 5509 PD
60 W
4098 5540 PD
60 W
4098 5515 PD
60 W
4098 5545 PD
60 W
4098 5469 PD
60 W
4098 5371 PD
60 W
4098 5348 PD
60 W
4098 5459 PD
60 W
4098 5553 PD
60 W
4098 5436 PD
60 W
4098 5491 PD
60 W
4098 5553 PD
60 W
4098 5533 PD
60 W
4098 4337 PD
60 W
4098 5297 PD
60 W
4098 5406 PD
60 W
4098 5440 PD
60 W
4098 5465 PD
60 W
4098 5381 PD
60 W
4098 5295 PD
60 W
4098 5497 PD
60 W
4098 5421 PD
60 W
4098 5298 PD
60 W
4098 5411 PD
60 W
4098 5494 PD
60 W
4098 5508 PD
60 W
4098 5541 PD
60 W
4098 5499 PD
60 W
4098 5209 PD
60 W
4098 5491 PD
60 W
4098 5525 PD
60 W
4098 5027 PD
60 W
4098 5050 PD
60 W
4098 5228 PD
60 W
4098 5535 PD
60 W
4098 5537 PD
60 W
4098 5443 PD
60 W
4098 5434 PD
60 W
4098 5282 PD
60 W
4098 5523 PD
60 W
4098 5402 PD
60 W
4098 5546 PD
60 W
4098 5310 PD
60 W
4098 5423 PD
60 W
4098 4597 PD
60 W
4098 5461 PD
60 W
4098 5494 PD
60 W
4098 5344 PD
60 W
4098 5545 PD
60 W
4098 5312 PD
60 W
4098 5498 PD
60 W
4098 5544 PD
60 W
4098 5547 PD
60 W
4098 5337 PD
60 W
4098 5468 PD
60 W
4098 5488 PD
60 W
4098 5379 PD
60 W
4098 5505 PD
60 W
4098 5139 PD
60 W
4098 5080 PD
60 W
4098 5553 PD
60 W
4098 5450 PD
60 W
4098 5549 PD
60 W
4098 5545 PD
60 W
4098 5471 PD
60 W
4098 5520 PD
60 W
4098 5430 PD
60 W
4098 5489 PD
60 W
4098 5553 PD
60 W
4098 5520 PD
60 W
4098 5528 PD
60 W
4098 5531 PD
60 W
4098 5544 PD
60 W
4098 5494 PD
60 W
4098 5548 PD
60 W
4098 5448 PD
60 W
4098 5553 PD
60 W
4098 5379 PD
60 W
4098 5506 PD
60 W
4098 5553 PD
60 W
4098 5468 PD
60 W
4098 5218 PD
60 W
4098 5240 PD
60 W
4098 5410 PD
60 W
4098 5353 PD
60 W
4098 5506 PD
60 W
4098 5292 PD
60 W
4098 5495 PD
60 W
4098 5548 PD
60 W
4098 5424 PD
60 W
4098 5133 PD
60 W
4098 5321 PD
60 W
4098 5359 PD
60 W
4098 5532 PD
60 W
4098 5480 PD
60 W
4098 5546 PD
60 W
4098 5541 PD
60 W
4098 5330 PD
60 W
4098 5484 PD
60 W
4098 5529 PD
60 W
4098 5553 PD
60 W
4098 5490 PD
60 W
4098 5553 PD
60 W
4098 5508 PD
60 W
4098 5406 PD
60 W
4098 5481 PD
60 W
4098 5413 PD
60 W
4098 5525 PD
60 W
4098 5472 PD
60 W
4098 5469 PD
60 W
4098 5460 PD
60 W
4098 5436 PD
60 W
4098 5507 PD
60 W
4098 5350 PD
60 W
4098 5367 PD
60 W
4098 5389 PD
60 W
4098 5516 PD
60 W
4098 5549 PD
60 W
4098 5527 PD
60 W
4098 5474 PD
60 W
4098 4831 PD
60 W
4098 5526 PD
60 W
4098 5537 PD
60 W
4098 5370 PD
60 W
4098 5387 PD
60 W
4098 5525 PD
60 W
4098 5551 PD
60 W
4098 5364 PD
60 W
4098 4055 PD
60 W
4098 5549 PD
60 W
4098 5324 PD
60 W
4098 5475 PD
60 W
4098 5549 PD
60 W
4098 5548 PD
60 W
4098 5418 PD
60 W
4098 5405 PD
60 W
4098 5552 PD
60 W
4098 5423 PD
60 W
4098 5516 PD
60 W
4098 4838 PD
60 W
4098 4928 PD
60 W
4098 5432 PD
60 W
4098 5317 PD
60 W
4098 5486 PD
60 W
4098 5514 PD
60 W
4098 5499 PD
60 W
4098 5491 PD
60 W
4098 5540 PD
60 W
4098 5502 PD
60 W
4098 5553 PD
60 W
4098 5481 PD
60 W
4098 5457 PD
60 W
4098 5532 PD
60 W
4098 5533 PD
60 W
4098 5506 PD
60 W
4098 5444 PD
60 W
4098 5552 PD
60 W
4098 5495 PD
60 W
4098 5550 PD
60 W
4098 5491 PD
60 W
4098 5099 PD
60 W
4098 5514 PD
60 W
4098 5544 PD
60 W
4098 5523 PD
60 W
4098 5463 PD
60 W
4098 5295 PD
60 W
4098 4930 PD
60 W
4098 5248 PD
60 W
4098 5251 PD
60 W
4098 5529 PD
60 W
4098 5409 PD
60 W
4098 5472 PD
60 W
4098 5477 PD
60 W
4098 5011 PD
60 W
4098 5549 PD
60 W
4098 5553 PD
60 W
4098 5523 PD
60 W
4098 5001 PD
60 W
4098 5507 PD
60 W
4098 5537 PD
60 W
4098 5015 PD
60 W
4098 5446 PD
60 W
4098 5537 PD
60 W
4098 5459 PD
60 W
4098 5449 PD
60 W
4098 5248 PD
60 W
4098 5453 PD
60 W
4098 5553 PD
60 W
4098 5547 PD
60 W
4098 5434 PD
60 W
4098 5553 PD
60 W
4098 5495 PD
60 W
4098 5530 PD
60 W
4098 5490 PD
60 W
4098 5509 PD
60 W
4098 5483 PD
60 W
4098 5531 PD
60 W
4098 5547 PD
60 W
4098 5398 PD
60 W
4098 5248 PD
60 W
4098 5446 PD
60 W
4098 5258 PD
60 W
4098 5526 PD
60 W
4098 5270 PD
60 W
4098 5379 PD
60 W
4098 5235 PD
60 W
4098 5323 PD
60 W
4098 5077 PD
60 W
4098 5553 PD
60 W
4098 5282 PD
60 W
4098 5523 PD
60 W
4098 5539 PD
60 W
4098 5149 PD
60 W
4098 5154 PD
60 W
4098 5507 PD
60 W
4098 5539 PD
60 W
4098 5553 PD
60 W
4098 5380 PD
60 W
4098 5543 PD
60 W
4098 5524 PD
60 W
4098 5434 PD
60 W
4098 5552 PD
60 W
4098 5454 PD
60 W
4098 4974 PD
60 W
4098 5140 PD
60 W
4098 5458 PD
60 W
4098 5534 PD
60 W
4098 5345 PD
60 W
4098 5536 PD
60 W
4098 5551 PD
60 W
4098 5452 PD
60 W
4098 5402 PD
60 W
4098 4974 PD
60 W
4098 5504 PD
60 W
4098 5434 PD
60 W
4098 5545 PD
60 W
4098 5404 PD
60 W
4098 5483 PD
60 W
4098 4993 PD
60 W
4098 5133 PD
60 W
4098 5543 PD
60 W
4098 5020 PD
60 W
4098 5513 PD
60 W
4098 5496 PD
60 W
4098 5330 PD
60 W
4098 5513 PD
60 W
4098 5449 PD
60 W
4098 5553 PD
60 W
4098 5492 PD
60 W
4098 5553 PD
60 W
4098 5493 PD
60 W
4098 5368 PD
60 W
4098 5553 PD
60 W
4098 5441 PD
60 W
4098 5502 PD
60 W
4098 5489 PD
60 W
4098 5057 PD
60 W
4098 4997 PD
60 W
4098 5503 PD
60 W
4098 5544 PD
60 W
4098 5531 PD
60 W
4098 4760 PD
60 W
4098 5503 PD
60 W
4098 4992 PD
60 W
4098 5407 PD
60 W
4098 5301 PD
60 W
4098 5449 PD
60 W
4098 5539 PD
60 W
4098 5347 PD
60 W
4098 5545 PD
60 W
4098 5452 PD
60 W
4098 5193 PD
60 W
4098 5529 PD
60 W
4098 5273 PD
60 W
4098 5496 PD
60 W
4098 5425 PD
60 W
4098 5286 PD
60 W
4098 5479 PD
60 W
4098 5544 PD
60 W
4098 5526 PD
60 W
4098 5546 PD
60 W
4098 5481 PD
60 W
4098 5415 PD
60 W
4098 5495 PD
60 W
4098 5550 PD
60 W
4098 5515 PD
60 W
4098 5486 PD
60 W
4098 5307 PD
60 W
4098 5551 PD
60 W
4098 5553 PD
60 W
4098 5549 PD
60 W
4098 5550 PD
60 W
4098 5548 PD
60 W
4098 5478 PD
60 W
4098 5553 PD
60 W
4098 5502 PD
60 W
4098 5497 PD
60 W
4098 5495 PD
60 W
4098 5552 PD
60 W
4098 5529 PD
60 W
4098 5397 PD
60 W
4098 5306 PD
60 W
4098 5329 PD
60 W
4098 5473 PD
60 W
4098 5409 PD
60 W
4098 5358 PD
60 W
4098 5504 PD
60 W
4098 5489 PD
60 W
4098 5458 PD
60 W
4098 5314 PD
60 W
4098 5035 PD
60 W
4098 5363 PD
60 W
4098 5486 PD
60 W
4098 5512 PD
60 W
4098 5540 PD
60 W
4098 5551 PD
60 W
4098 5533 PD
60 W
4098 5523 PD
60 W
4098 5188 PD
60 W
4098 5520 PD
60 W
4098 5468 PD
60 W
4098 5552 PD
60 W
4098 4854 PD
60 W
4098 5553 PD
60 W
4098 5537 PD
60 W
4098 5252 PD
60 W
4098 5547 PD
60 W
4098 5466 PD
60 W
4098 5505 PD
60 W
4098 5553 PD
60 W
4099 5522 PD
60 W
4099 5438 PD
60 W
4099 5488 PD
60 W
4100 5471 PD
60 W
4102 5244 PD
60 W
4102 5078 PD
60 W
4102 5546 PD
60 W
4103 4693 PD
60 W
4103 5289 PD
60 W
4103 5103 PD
60 W
4104 4977 PD
60 W
4104 5097 PD
60 W
4105 4896 PD
60 W
4105 5292 PD
60 W
4106 5463 PD
60 W
4106 5066 PD
60 W
4106 5282 PD
60 W
4106 5355 PD
60 W
4106 5550 PD
60 W
4106 5359 PD
60 W
4108 5487 PD
60 W
4108 5535 PD
60 W
4110 5314 PD
60 W
4110 5384 PD
60 W
4111 5216 PD
60 W
4111 5326 PD
60 W
4111 5551 PD
60 W
4112 5493 PD
60 W
4112 5519 PD
60 W
4112 5359 PD
60 W
4113 5408 PD
60 W
4113 5532 PD
60 W
4114 5424 PD
60 W
4115 5235 PD
60 W
4115 5551 PD
60 W
4115 5545 PD
60 W
4115 5348 PD
60 W
4116 5406 PD
60 W
4116 5244 PD
60 W
4116 5304 PD
60 W
4116 5066 PD
60 W
4116 5378 PD
60 W
4117 5184 PD
60 W
4118 5460 PD
60 W
4119 5215 PD
60 W
4119 5369 PD
60 W
4119 5553 PD
60 W
4122 5553 PD
60 W
4122 5357 PD
60 W
4122 5550 PD
60 W
4123 4051 PD
60 W
4123 5353 PD
60 W
4124 5341 PD
60 W
4124 5548 PD
60 W
4125 4999 PD
60 W
4126 5451 PD
60 W
4126 5524 PD
60 W
4127 5078 PD
60 W
4127 5413 PD
60 W
4128 5133 PD
60 W
4128 5389 PD
60 W
4129 5452 PD
60 W
4129 5456 PD
60 W
4130 5437 PD
60 W
4130 4639 PD
60 W
4131 5289 PD
60 W
4131 5425 PD
60 W
4132 5530 PD
60 W
4132 5305 PD
60 W
4135 5223 PD
60 W
4136 5494 PD
60 W
4136 5206 PD
60 W
4137 5415 PD
60 W
4137 5276 PD
60 W
4137 5259 PD
60 W
4137 5091 PD
60 W
4137 5340 PD
60 W
4139 5552 PD
60 W
4139 5439 PD
60 W
4141 3348 PD
60 W
4141 5315 PD
60 W
4141 5507 PD
60 W
4142 4976 PD
60 W
4143 5371 PD
60 W
4144 4996 PD
60 W
4144 5378 PD
60 W
4145 5553 PD
60 W
4145 5260 PD
60 W
4145 4999 PD
60 W
4146 5104 PD
60 W
4146 5288 PD
60 W
4147 5423 PD
60 W
4149 5153 PD
60 W
4149 4906 PD
60 W
4150 5484 PD
60 W
4151 5388 PD
60 W
4152 5395 PD
60 W
4152 4915 PD
60 W
4153 5193 PD
60 W
4154 5359 PD
60 W
4154 5487 PD
60 W
4154 5468 PD
60 W
4155 5445 PD
60 W
4155 4733 PD
60 W
4157 5040 PD
60 W
4158 5533 PD
60 W
4158 5550 PD
60 W
4158 5509 PD
60 W
4159 5547 PD
60 W
4160 5542 PD
60 W
4160 4945 PD
60 W
4160 5514 PD
60 W
4160 5534 PD
60 W
4162 5221 PD
60 W
4163 5390 PD
60 W
4163 5550 PD
60 W
4163 4803 PD
60 W
4164 5548 PD
60 W
4164 5181 PD
60 W
4166 5132 PD
60 W
4166 5412 PD
60 W
4166 4857 PD
60 W
4167 5399 PD
60 W
4167 5544 PD
60 W
4168 5383 PD
60 W
4170 3851 PD
60 W
4170 5474 PD
60 W
4170 5174 PD
60 W
4171 5005 PD
60 W
4171 5451 PD
60 W
4172 4685 PD
60 W
4172 5518 PD
60 W
4173 5410 PD
60 W
4174 5276 PD
60 W
4176 5356 PD
60 W
4177 5094 PD
60 W
4178 4496 PD
60 W
4178 4665 PD
60 W
4179 5400 PD
60 W
4179 5549 PD
60 W
4180 5489 PD
60 W
4180 5201 PD
60 W
4180 5553 PD
60 W
4181 5432 PD
60 W
4181 5479 PD
60 W
4182 4558 PD
60 W
4182 5501 PD
60 W
4182 5055 PD
60 W
4183 5460 PD
60 W
4183 5482 PD
60 W
4184 4990 PD
60 W
4184 5410 PD
60 W
4184 5283 PD
60 W
4186 5400 PD
60 W
4186 4941 PD
60 W
4186 5175 PD
60 W
4187 5473 PD
60 W
4187 3784 PD
60 W
4188 5320 PD
60 W
4188 4877 PD
60 W
4188 4743 PD
60 W
4190 5222 PD
60 W
4190 5495 PD
60 W
4190 5517 PD
60 W
4192 5436 PD
60 W
4193 5344 PD
60 W
4197 5164 PD
60 W
4197 5294 PD
60 W
4197 4769 PD
60 W
4197 5440 PD
60 W
4198 5553 PD
60 W
4198 5544 PD
60 W
4198 5494 PD
60 W
4199 5404 PD
60 W
4199 5395 PD
60 W
4200 5149 PD
60 W
4200 5426 PD
60 W
4200 5210 PD
60 W
4201 5553 PD
60 W
4201 5510 PD
60 W
4202 4817 PD
60 W
4202 5091 PD
gr

gs 1029 468 6139 5087 MR c np
gr

gs 2641 949 4638 4787 MR c np
60 W
4205 5434 PD
60 W
4206 5518 PD
60 W
4206 5375 PD
60 W
4207 5524 PD
60 W
4209 5457 PD
60 W
4209 5270 PD
60 W
4210 4777 PD
60 W
4211 5341 PD
60 W
4213 5067 PD
60 W
4213 5479 PD
60 W
4214 5467 PD
60 W
4215 5350 PD
60 W
4217 5242 PD
60 W
4217 4102 PD
60 W
4218 5526 PD
60 W
4219 5255 PD
60 W
4220 4814 PD
gr

gs 1029 468 6139 5087 MR c np
gr

gs 2641 949 4638 4787 MR c np
60 W
4221 5399 PD
60 W
4221 4388 PD
60 W
4221 5375 PD
60 W
4223 5538 PD
60 W
4225 5504 PD
60 W
4225 5070 PD
60 W
4226 5268 PD
60 W
4229 5318 PD
60 W
4231 5496 PD
60 W
4232 5442 PD
60 W
4234 5506 PD
60 W
4235 4109 PD
60 W
4235 5251 PD
60 W
4235 5171 PD
60 W
4236 5514 PD
60 W
4237 4144 PD
60 W
4237 5525 PD
60 W
4238 5526 PD
60 W
4238 4404 PD
60 W
4238 2642 PD
60 W
4239 4912 PD
60 W
4240 3647 PD
60 W
4241 5227 PD
60 W
4241 5549 PD
60 W
4243 5489 PD
60 W
4243 5480 PD
60 W
4244 5549 PD
60 W
4244 4828 PD
60 W
4245 5434 PD
60 W
4247 5553 PD
60 W
4249 5336 PD
60 W
4250 5441 PD
60 W
4251 5169 PD
60 W
4251 4813 PD
60 W
4251 4925 PD
60 W
4252 5339 PD
60 W
4252 4076 PD
60 W
4256 5232 PD
60 W
4256 5462 PD
60 W
4256 5549 PD
60 W
4256 4483 PD
60 W
4257 5537 PD
60 W
4259 3640 PD
60 W
4260 5492 PD
60 W
4261 5343 PD
60 W
4261 5236 PD
60 W
4262 5151 PD
60 W
4263 5337 PD
60 W
4263 5542 PD
60 W
4266 5220 PD
60 W
4266 5390 PD
60 W
4268 5229 PD
60 W
4268 5380 PD
60 W
4269 5268 PD
60 W
4270 5190 PD
60 W
4271 4620 PD
60 W
4272 4518 PD
60 W
4276 5323 PD
60 W
4276 5364 PD
60 W
4276 5448 PD
60 W
4277 3736 PD
60 W
4278 5496 PD
60 W
4278 5194 PD
60 W
4280 5147 PD
60 W
4280 5543 PD
60 W
4280 5361 PD
60 W
4281 4045 PD
60 W
4281 4474 PD
60 W
4282 5492 PD
60 W
4282 5081 PD
60 W
4282 4447 PD
60 W
4284 5263 PD
60 W
4284 5097 PD
60 W
4286 5485 PD
60 W
4286 5385 PD
60 W
4287 4656 PD
60 W
4288 5126 PD
60 W
4289 5260 PD
60 W
4292 5325 PD
60 W
4295 5247 PD
60 W
4295 4270 PD
60 W
4295 5495 PD
60 W
4297 5274 PD
60 W
4300 4506 PD
60 W
4300 5553 PD
60 W
4300 4040 PD
60 W
4302 4100 PD
60 W
4302 5123 PD
60 W
4303 4632 PD
60 W
4303 5499 PD
60 W
4303 5243 PD
60 W
4304 5512 PD
60 W
4307 5437 PD
60 W
4308 4725 PD
60 W
4309 5109 PD
60 W
4309 5451 PD
60 W
4311 4044 PD
60 W
4312 5348 PD
60 W
4318 5087 PD
60 W
4318 5549 PD
60 W
4320 5522 PD
60 W
4323 5007 PD
60 W
4324 4746 PD
60 W
4324 5201 PD
60 W
4325 5256 PD
60 W
4325 5446 PD
60 W
4326 5479 PD
60 W
4327 4665 PD
60 W
4327 5340 PD
60 W
4330 5197 PD
60 W
4331 5322 PD
60 W
4331 5352 PD
60 W
4331 5057 PD
60 W
4332 5180 PD
60 W
4333 5090 PD
60 W
4334 5539 PD
60 W
4335 5528 PD
60 W
4336 5041 PD
60 W
4339 4186 PD
60 W
4339 5428 PD
60 W
4342 4544 PD
60 W
4344 4692 PD
60 W
4345 4795 PD
60 W
4346 5060 PD
60 W
4347 1130 PD
60 W
4348 5367 PD
60 W
4350 5236 PD
60 W
4351 4450 PD
60 W
4352 4669 PD
60 W
4352 5075 PD
60 W
4352 5489 PD
60 W
4352 5281 PD
60 W
4352 5387 PD
60 W
4353 4458 PD
60 W
4354 3587 PD
60 W
4356 5359 PD
60 W
4357 5292 PD
60 W
4357 4960 PD
60 W
4357 5073 PD
60 W
4362 4526 PD
60 W
4363 5175 PD
60 W
4365 4479 PD
60 W
4365 5235 PD
60 W
4367 5281 PD
60 W
4376 5137 PD
60 W
4376 4572 PD
60 W
4376 5528 PD
60 W
4377 5548 PD
60 W
4377 4189 PD
60 W
4380 4292 PD
60 W
4380 5544 PD
60 W
4383 5095 PD
60 W
4384 4962 PD
60 W
4386 4579 PD
60 W
4386 4313 PD
60 W
4390 5180 PD
60 W
4394 4904 PD
60 W
4397 5258 PD
60 W
4398 5466 PD
60 W
4399 4906 PD
60 W
4399 4861 PD
60 W
4401 5185 PD
60 W
4402 5481 PD
60 W
4404 4983 PD
60 W
4406 4758 PD
60 W
4410 5289 PD
60 W
4410 5051 PD
60 W
4410 4571 PD
60 W
4411 4971 PD
60 W
4413 5363 PD
60 W
4413 5541 PD
60 W
4414 4848 PD
60 W
4418 5113 PD
60 W
4419 4381 PD
60 W
4420 5014 PD
60 W
4420 4830 PD
60 W
4425 5430 PD
60 W
4425 2883 PD
60 W
4426 5194 PD
60 W
4427 5459 PD
60 W
4428 4655 PD
60 W
4429 5309 PD
60 W
4429 5377 PD
60 W
4431 3988 PD
60 W
4435 4370 PD
60 W
4437 4941 PD
60 W
4437 5404 PD
60 W
4438 3760 PD
60 W
4438 4925 PD
60 W
4439 5546 PD
60 W
4439 5432 PD
60 W
4439 5405 PD
60 W
4441 5389 PD
60 W
4443 5385 PD
60 W
4443 4909 PD
60 W
4449 4163 PD
60 W
4450 5367 PD
60 W
4453 4953 PD
60 W
4454 3603 PD
60 W
4463 5223 PD
60 W
4463 5367 PD
60 W
4464 4774 PD
60 W
4471 4686 PD
60 W
4472 4658 PD
60 W
4478 5249 PD
60 W
4479 4790 PD
60 W
4481 5536 PD
60 W
4485 4843 PD
60 W
4485 4645 PD
60 W
4487 4823 PD
60 W
4488 4770 PD
60 W
4493 4732 PD
60 W
4498 1130 PD
60 W
4501 3966 PD
60 W
4502 1130 PD
60 W
4504 4819 PD
60 W
4505 5034 PD
60 W
4507 5455 PD
60 W
4507 2275 PD
60 W
4518 4584 PD
60 W
4520 4928 PD
60 W
4521 4752 PD
60 W
4521 4851 PD
60 W
4522 5360 PD
60 W
4524 5126 PD
60 W
4527 4098 PD
60 W
4528 3203 PD
60 W
4533 4743 PD
60 W
4534 2530 PD
60 W
4538 4247 PD
60 W
4539 5025 PD
60 W
4539 4125 PD
60 W
4545 5073 PD
60 W
4545 4280 PD
60 W
4546 4974 PD
60 W
4550 4958 PD
60 W
4553 4299 PD
60 W
4557 4126 PD
60 W
4559 4702 PD
60 W
4564 4833 PD
60 W
4566 5553 PD
60 W
4567 5076 PD
60 W
4569 4294 PD
60 W
4578 4245 PD
60 W
4586 5238 PD
60 W
4587 3376 PD
60 W
4588 5393 PD
60 W
4593 5319 PD
60 W
4595 5232 PD
60 W
4602 4969 PD
60 W
4604 4903 PD
60 W
4608 4148 PD
60 W
4610 5136 PD
60 W
4611 3980 PD
60 W
4612 3749 PD
60 W
4613 4674 PD
60 W
4621 1130 PD
60 W
4628 4610 PD
60 W
4630 4679 PD
60 W
4632 1130 PD
60 W
4634 1130 PD
60 W
4638 4855 PD
60 W
4640 5201 PD
60 W
4642 4223 PD
60 W
4656 1130 PD
60 W
4658 4830 PD
60 W
4660 5548 PD
60 W
4661 3998 PD
60 W
4668 4978 PD
60 W
4676 4781 PD
60 W
4679 4181 PD
60 W
4691 5069 PD
60 W
4692 3390 PD
60 W
4699 5077 PD
60 W
4702 5210 PD
60 W
4704 4015 PD
60 W
4709 5422 PD
60 W
4711 3903 PD
60 W
4712 4814 PD
60 W
4713 3443 PD
60 W
4726 3600 PD
60 W
4731 5506 PD
60 W
4736 5276 PD
60 W
4744 4809 PD
60 W
4747 4961 PD
60 W
4754 5424 PD
60 W
4768 5052 PD
60 W
4771 4584 PD
60 W
4778 4583 PD
60 W
4783 5401 PD
60 W
4785 3708 PD
60 W
4787 5502 PD
60 W
4810 4173 PD
60 W
4816 5220 PD
60 W
4817 3151 PD
60 W
4831 1130 PD
60 W
4836 5292 PD
60 W
4857 4399 PD
60 W
4870 5415 PD
60 W
4876 3849 PD
60 W
4878 4900 PD
60 W
4880 4909 PD
60 W
4887 4489 PD
60 W
4895 3311 PD
60 W
4918 4380 PD
60 W
4918 4090 PD
60 W
4920 5160 PD
60 W
4929 5059 PD
60 W
4950 3195 PD
gr

gs 1029 468 6139 5087 MR c np
gr

gs 2641 949 4638 4787 MR c np
60 W
4954 5457 PD
60 W
4955 2970 PD
60 W
4959 3710 PD
60 W
4975 1130 PD
60 W
4985 1130 PD
60 W
4986 1130 PD
60 W
4987 4848 PD
60 W
4992 3070 PD
60 W
4993 4612 PD
60 W
4995 4983 PD
60 W
5000 3336 PD
60 W
5004 4509 PD
60 W
5006 4048 PD
60 W
5011 3490 PD
60 W
5013 4682 PD
60 W
5015 4314 PD
60 W
5030 3841 PD
60 W
5031 3866 PD
60 W
5039 1130 PD
60 W
5052 5139 PD
60 W
5072 4623 PD
60 W
5115 1130 PD
60 W
5154 4521 PD
60 W
5159 3659 PD
60 W
5166 4015 PD
60 W
5167 1130 PD
60 W
5174 3315 PD
60 W
5203 4167 PD
60 W
5218 4138 PD
60 W
5234 1130 PD
60 W
5280 2801 PD
60 W
5286 4525 PD
60 W
5307 5290 PD
60 W
5319 3158 PD
60 W
5329 2769 PD
60 W
5331 1130 PD
60 W
5382 2153 PD
60 W
5388 1130 PD
60 W
5403 2916 PD
60 W
5421 3275 PD
60 W
5448 3341 PD
60 W
5460 3899 PD
60 W
5490 1130 PD
60 W
5492 1130 PD
60 W
5500 4716 PD
60 W
5534 4322 PD
60 W
5553 3249 PD
60 W
5553 4322 PD
60 W
5558 1130 PD
60 W
5595 3037 PD
60 W
5696 4111 PD
60 W
5719 1130 PD
60 W
5815 2917 PD
60 W
5857 1130 PD
60 W
5917 1130 PD
60 W
5927 1130 PD
60 W
6361 2665 PD
60 W
6395 1130 PD
60 W
6488 3984 PD
60 W
7097 1130 PD
gr

gs 1029 468 6139 5087 MR c np
gr

%%IncludeResource: font Helvetica
/Helvetica /ISOLatin1Encoding 264 FMSR

 938  286 mt 
(Hypergeometric k-mer enrichment p-value versus w1) s
3899 6038 mt 
(W1) s
 640 3963 mt  -90 rotate
(-log10\(p-value\)) s
90 rotate

end %%Color Dict

eplot
%%EndObject

epage
end

showpage

%%Trailer
%%EOF
