%!PS-Adobe-2.0 EPSF-1.2
%%Creator: MATLAB, The Mathworks, Inc. Version 7.6.0.324 (R2008a). Operating System: Linux 2.6.18.8-0.10-default #1 SMP Wed Jun 4 15:46:34 UTC 2008 x86_64.
%%Title: ../figs1/PCA_PLS1.eps
%%CreationDate: 12/14/2009  23:36:58
%%DocumentNeededFonts: Helvetica
%%DocumentProcessColors: Cyan Magenta Yellow Black
%%Extensions: CMYK
%%Pages: 1
%%BoundingBox:    23   143   599   660
%%EndComments

%%BeginProlog
% MathWorks dictionary
/MathWorks 160 dict begin
% definition operators
/bdef {bind def} bind def
/ldef {load def} bind def
/xdef {exch def} bdef
/xstore {exch store} bdef
% operator abbreviations
/c  /clip ldef
/cc /concat ldef
/cp /closepath ldef
/gr /grestore ldef
/gs /gsave ldef
/mt /moveto ldef
/np /newpath ldef
/cm /currentmatrix ldef
/sm /setmatrix ldef
/rm /rmoveto ldef
/rl /rlineto ldef
/s {show newpath} bdef
/sc {setcmykcolor} bdef
/sr /setrgbcolor ldef
/sg /setgray ldef
/w /setlinewidth ldef
/j /setlinejoin ldef
/cap /setlinecap ldef
/rc {rectclip} bdef
/rf {rectfill} bdef
% page state control
/pgsv () def
/bpage {/pgsv save def} bdef
/epage {pgsv restore} bdef
/bplot /gsave ldef
/eplot {stroke grestore} bdef
% orientation switch
/portraitMode 0 def /landscapeMode 1 def /rotateMode 2 def
% coordinate system mappings
/dpi2point 0 def
% font control
/FontSize 0 def
/FMS {/FontSize xstore findfont [FontSize 0 0 FontSize neg 0 0]
  makefont setfont} bdef
/reencode {exch dup where {pop load} {pop StandardEncoding} ifelse
  exch dup 3 1 roll findfont dup length dict begin
  { 1 index /FID ne {def}{pop pop} ifelse } forall
  /Encoding exch def currentdict end definefont pop} bdef
/isroman {findfont /CharStrings get /Agrave known} bdef
/FMSR {3 1 roll 1 index dup isroman {reencode} {pop pop} ifelse
  exch FMS} bdef
/csm {1 dpi2point div -1 dpi2point div scale neg translate
 dup landscapeMode eq {pop -90 rotate}
  {rotateMode eq {90 rotate} if} ifelse} bdef
% line types: solid, dotted, dashed, dotdash
/SO { [] 0 setdash } bdef
/DO { [.5 dpi2point mul 4 dpi2point mul] 0 setdash } bdef
/DA { [6 dpi2point mul] 0 setdash } bdef
/DD { [.5 dpi2point mul 4 dpi2point mul 6 dpi2point mul 4
  dpi2point mul] 0 setdash } bdef
% macros for lines and objects
/L {lineto stroke} bdef
/MP {3 1 roll moveto 1 sub {rlineto} repeat} bdef
/AP {{rlineto} repeat} bdef
/PDlw -1 def
/W {/PDlw currentlinewidth def setlinewidth} def
/PP {closepath eofill} bdef
/DP {closepath stroke} bdef
/MR {4 -2 roll moveto dup  0 exch rlineto exch 0 rlineto
  neg 0 exch rlineto closepath} bdef
/FR {MR stroke} bdef
/PR {MR fill} bdef
/L1i {{currentfile picstr readhexstring pop} image} bdef
/tMatrix matrix def
/MakeOval {newpath tMatrix currentmatrix pop translate scale
0 0 1 0 360 arc tMatrix setmatrix} bdef
/FO {MakeOval stroke} bdef
/PO {MakeOval fill} bdef
/PD {currentlinewidth 2 div 0 360 arc fill
   PDlw -1 eq not {PDlw w /PDlw -1 def} if} def
/FA {newpath tMatrix currentmatrix pop translate scale
  0 0 1 5 -2 roll arc tMatrix setmatrix stroke} bdef
/PA {newpath tMatrix currentmatrix pop	translate 0 0 moveto scale
  0 0 1 5 -2 roll arc closepath tMatrix setmatrix fill} bdef
/FAn {newpath tMatrix currentmatrix pop translate scale
  0 0 1 5 -2 roll arcn tMatrix setmatrix stroke} bdef
/PAn {newpath tMatrix currentmatrix pop translate 0 0 moveto scale
  0 0 1 5 -2 roll arcn closepath tMatrix setmatrix fill} bdef
/vradius 0 def /hradius 0 def /lry 0 def
/lrx 0 def /uly 0 def /ulx 0 def /rad 0 def
/MRR {/vradius xdef /hradius xdef /lry xdef /lrx xdef /uly xdef
  /ulx xdef newpath tMatrix currentmatrix pop ulx hradius add uly
  vradius add translate hradius vradius scale 0 0 1 180 270 arc 
  tMatrix setmatrix lrx hradius sub uly vradius add translate
  hradius vradius scale 0 0 1 270 360 arc tMatrix setmatrix
  lrx hradius sub lry vradius sub translate hradius vradius scale
  0 0 1 0 90 arc tMatrix setmatrix ulx hradius add lry vradius sub
  translate hradius vradius scale 0 0 1 90 180 arc tMatrix setmatrix
  closepath} bdef
/FRR {MRR stroke } bdef
/PRR {MRR fill } bdef
/MlrRR {/lry xdef /lrx xdef /uly xdef /ulx xdef /rad lry uly sub 2 div def
  newpath tMatrix currentmatrix pop ulx rad add uly rad add translate
  rad rad scale 0 0 1 90 270 arc tMatrix setmatrix lrx rad sub lry rad
  sub translate rad rad scale 0 0 1 270 90 arc tMatrix setmatrix
  closepath} bdef
/FlrRR {MlrRR stroke } bdef
/PlrRR {MlrRR fill } bdef
/MtbRR {/lry xdef /lrx xdef /uly xdef /ulx xdef /rad lrx ulx sub 2 div def
  newpath tMatrix currentmatrix pop ulx rad add uly rad add translate
  rad rad scale 0 0 1 180 360 arc tMatrix setmatrix lrx rad sub lry rad
  sub translate rad rad scale 0 0 1 0 180 arc tMatrix setmatrix
  closepath} bdef
/FtbRR {MtbRR stroke } bdef
/PtbRR {MtbRR fill } bdef
/stri 6 array def /dtri 6 array def
/smat 6 array def /dmat 6 array def
/tmat1 6 array def /tmat2 6 array def /dif 3 array def
/asub {/ind2 exch def /ind1 exch def dup dup
  ind1 get exch ind2 get sub exch } bdef
/tri_to_matrix {
  2 0 asub 3 1 asub 4 0 asub 5 1 asub
  dup 0 get exch 1 get 7 -1 roll astore } bdef
/compute_transform {
  dmat dtri tri_to_matrix tmat1 invertmatrix 
  smat stri tri_to_matrix tmat2 concatmatrix } bdef
/ds {stri astore pop} bdef
/dt {dtri astore pop} bdef
/db {2 copy /cols xdef /rows xdef mul dup 3 mul string
  currentfile exch readhexstring pop
  dup 0 3 index getinterval /rbmap xdef
  dup 2 index dup getinterval /gbmap xdef
  1 index dup 2 mul exch getinterval /bbmap xdef pop pop}bdef
/it {gs np dtri aload pop moveto lineto lineto cp c
  cols rows 8 compute_transform 
  rbmap gbmap bbmap true 3 colorimage gr}bdef
/il {newpath moveto lineto stroke}bdef
currentdict end def
%%EndProlog

%%BeginSetup
MathWorks begin

0 cap

end
%%EndSetup

%%Page: 1 1
%%BeginPageSetup
%%PageBoundingBox:    23   143   599   660
MathWorks begin
bpage
%%EndPageSetup

%%BeginObject: obj1
bplot

/dpi2point 12 def
portraitMode -0288 7872 csm

  568   -48  6918  6193 MR c np
76 dict begin %Colortable dictionary
/c0 { 0.000000 0.000000 0.000000 sr} bdef
/c1 { 1.000000 1.000000 1.000000 sr} bdef
/c2 { 0.900000 0.000000 0.000000 sr} bdef
/c3 { 0.000000 0.820000 0.000000 sr} bdef
/c4 { 0.000000 0.000000 0.800000 sr} bdef
/c5 { 0.910000 0.820000 0.320000 sr} bdef
/c6 { 1.000000 0.260000 0.820000 sr} bdef
/c7 { 0.000000 0.820000 0.820000 sr} bdef
c0
1 j
1 sg
   0    0 7920 6241 PR
6 w
0 5086 6138 0 0 -5086 1029 5554 4 MP
PP
-6138 0 0 5086 6138 0 0 -5086 1029 5554 5 MP stroke
4 w
DO
SO
6 w
0 sg
1029 5554 mt 7167 5554 L
1029  468 mt 7167  468 L
1029 5554 mt 1029  468 L
7167 5554 mt 7167  468 L
1029 5554 mt 7167 5554 L
1029 5554 mt 1029  468 L
1029 5554 mt 1029 5492 L
1029  468 mt 1029  529 L
%%IncludeResource: font Helvetica
/Helvetica /ISOLatin1Encoding 216 FMSR

 969 5789 mt 
(1) s
1587 5554 mt 1587 5492 L
1587  468 mt 1587  529 L
1527 5789 mt 
(2) s
2145 5554 mt 2145 5492 L
2145  468 mt 2145  529 L
2085 5789 mt 
(3) s
2703 5554 mt 2703 5492 L
2703  468 mt 2703  529 L
2643 5789 mt 
(4) s
3261 5554 mt 3261 5492 L
3261  468 mt 3261  529 L
3201 5789 mt 
(5) s
3819 5554 mt 3819 5492 L
3819  468 mt 3819  529 L
3759 5789 mt 
(6) s
4377 5554 mt 4377 5492 L
4377  468 mt 4377  529 L
4317 5789 mt 
(7) s
4935 5554 mt 4935 5492 L
4935  468 mt 4935  529 L
4875 5789 mt 
(8) s
5493 5554 mt 5493 5492 L
5493  468 mt 5493  529 L
5433 5789 mt 
(9) s
6051 5554 mt 6051 5492 L
6051  468 mt 6051  529 L
5931 5789 mt 
(10) s
6609 5554 mt 6609 5492 L
6609  468 mt 6609  529 L
6489 5789 mt 
(11) s
7167 5554 mt 7167 5492 L
7167  468 mt 7167  529 L
7047 5789 mt 
(12) s
1029 5554 mt 1090 5554 L
7167 5554 mt 7105 5554 L
 748 5634 mt 
(-1) s
1029 5045 mt 1090 5045 L
7167 5045 mt 7105 5045 L
 568 5125 mt 
(-0.8) s
1029 4536 mt 1090 4536 L
7167 4536 mt 7105 4536 L
 568 4616 mt 
(-0.6) s
1029 4028 mt 1090 4028 L
7167 4028 mt 7105 4028 L
 568 4108 mt 
(-0.4) s
1029 3519 mt 1090 3519 L
7167 3519 mt 7105 3519 L
 568 3599 mt 
(-0.2) s
1029 3011 mt 1090 3011 L
7167 3011 mt 7105 3011 L
 874 3091 mt 
(0) s
1029 2502 mt 1090 2502 L
7167 2502 mt 7105 2502 L
 694 2582 mt 
(0.2) s
1029 1993 mt 1090 1993 L
7167 1993 mt 7105 1993 L
 694 2073 mt 
(0.4) s
1029 1485 mt 1090 1485 L
7167 1485 mt 7105 1485 L
 694 1565 mt 
(0.6) s
1029  976 mt 1090  976 L
7167  976 mt 7105  976 L
 694 1056 mt 
(0.8) s
1029  468 mt 1090  468 L
7167  468 mt 7105  468 L
 874  548 mt 
(1) s
1029 5554 mt 7167 5554 L
1029  468 mt 7167  468 L
1029 5554 mt 1029  468 L
7167 5554 mt 7167  468 L
gs 1029 468 6139 5087 MR c np
60 w
0.5 sg
558 81 558 98 558 -54 558 -48 558 -324 558 -437 558 -496 558 -305 
558 -49 558 -74 558 35 1029 3943 12 MP stroke
gr

60 w
0.5 sg
gs 667 1829 6863 2512 MR c np
100 W
1029 3943 PD
100 W
1587 3978 PD
100 W
2145 3904 PD
100 W
2703 3855 PD
100 W
3261 3550 PD
100 W
3819 3054 PD
100 W
4377 2617 PD
100 W
4935 2293 PD
100 W
5493 2245 PD
100 W
6051 2191 PD
100 W
6609 2289 PD
100 W
7167 2370 PD
gr

gs 1029 468 6139 5087 MR c np
0 sg
558 -98 558 22 558 199 558 564 558 458 558 469 558 87 558 -776 
558 -781 558 -517 558 -222 1029 4095 12 MP stroke
gr

0 sg
gs 667 1437 6863 3021 MR c np
100 W
1029 4095 PD
100 W
1587 3873 PD
100 W
2145 3356 PD
100 W
2703 2575 PD
100 W
3261 1799 PD
100 W
3819 1886 PD
100 W
4377 2355 PD
100 W
4935 2813 PD
100 W
5493 3377 PD
100 W
6051 3576 PD
100 W
6609 3598 PD
100 W
7167 3500 PD
gr

gs 1029 468 6139 5087 MR c np
/c8 { 0.500000 0.500000 0.900000 sr} bdef
c8
558 941 558 814 558 -77 558 1043 558 -1119 558 305 558 -1017 558 -534 
558 2289 558 -1094 558 -51 1029 2960 12 MP stroke
gr

c8
gs 667 1377 6863 3446 MR c np
100 W
1029 2960 PD
100 W
1587 2909 PD
100 W
2145 1815 PD
100 W
2703 4104 PD
100 W
3261 3570 PD
100 W
3819 2553 PD
100 W
4377 2858 PD
100 W
4935 1739 PD
100 W
5493 2782 PD
100 W
6051 2705 PD
100 W
6609 3519 PD
100 W
7167 4460 PD
gr

gs 1029 468 6139 5087 MR c np
/c9 { 0.500000 0.850000 0.500000 sr} bdef
c9
558 -966 558 -153 558 -254 558 280 558 50 558 1653 558 -2670 558 1043 
558 585 558 -1399 558 1780 1029 2197 12 MP stroke
gr

c9
gs 667 1174 6863 3395 MR c np
100 W
1029 2197 PD
100 W
1587 3977 PD
100 W
2145 2578 PD
100 W
2703 3163 PD
100 W
3261 4206 PD
100 W
3819 1536 PD
100 W
4377 3189 PD
100 W
4935 3239 PD
100 W
5493 3519 PD
100 W
6051 3265 PD
100 W
6609 3112 PD
100 W
7167 2146 PD
gr

gs 1029 468 6139 5087 MR c np
gr

0 sg
%%IncludeResource: font Helvetica
/Helvetica /ISOLatin1Encoding 288 FMSR

3425 6056 mt 
(Time point) s
1958  281 mt 
(First 4 PCA principal components) s
%%IncludeResource: font Helvetica
/Helvetica /ISOLatin1Encoding 120 FMSR

1012 5597 mt 
( ) s
7151  510 mt 
( ) s
6 w
1 sg
0 1182 972 0 0 -1182 1089 1710 4 MP
PP
-972 0 0 1182 972 0 0 -1182 1089 1710 5 MP stroke
4 w
DO
SO
6 w
0 sg
1089 1710 mt 2061 1710 L
1089  528 mt 2061  528 L
1089 1710 mt 1089  528 L
2061 1710 mt 2061  528 L
1089 1710 mt 2061 1710 L
1089 1710 mt 1089  528 L
1089 1710 mt 2061 1710 L
1089  528 mt 2061  528 L
1089 1710 mt 1089  528 L
2061 1710 mt 2061  528 L
%%IncludeResource: font Helvetica
/Helvetica /ISOLatin1Encoding 240 FMSR

1552  776 mt 
(PC1) s
gs 1089 528 973 1183 MR c np
60 w
0.5 sg
355 0 1160 691 2 MP stroke
gr

60 w
0.5 sg
gs 975 329 725 725 MR c np
100 W
1337 691 PD
gr

gs 1089 528 973 1183 MR c np
gr

0 sg
1552 1062 mt 
(PC2) s
gs 1089 528 973 1183 MR c np
355 0 1160 976 2 MP stroke
gr

gs 975 614 725 725 MR c np
100 W
1337 976 PD
gr

gs 1089 528 973 1183 MR c np
gr

1552 1347 mt 
(PC3) s
gs 1089 528 973 1183 MR c np
c8
355 0 1160 1261 2 MP stroke
gr

c8
gs 975 899 725 725 MR c np
100 W
1337 1261 PD
gr

gs 1089 528 973 1183 MR c np
gr

0 sg
1552 1633 mt 
(PC4) s
gs 1089 528 973 1183 MR c np
c9
355 0 1160 1546 2 MP stroke
gr

c9
gs 975 1184 725 725 MR c np
100 W
1337 1546 PD
gr

gs 1089 528 973 1183 MR c np
6 w
gr

6 w

end %%Color Dict

eplot
%%EndObject

epage
end

showpage

%%Trailer
%%EOF
