%!PS-Adobe-2.0 EPSF-1.2
%%Creator: MATLAB, The Mathworks, Inc. Version 7.6.0.324 (R2008a). Operating System: Linux 2.6.18.8-0.10-default #1 SMP Wed Jun 4 15:46:34 UTC 2008 x86_64.
%%Title: figs1/PLS.eps
%%CreationDate: 03/09/2010  23:40:55
%%DocumentNeededFonts: Helvetica
%%DocumentProcessColors: Cyan Magenta Yellow Black
%%Extensions: CMYK
%%Pages: 1
%%BoundingBox:     2   145   596   659
%%EndComments

%%BeginProlog
% MathWorks dictionary
/MathWorks 160 dict begin
% definition operators
/bdef {bind def} bind def
/ldef {load def} bind def
/xdef {exch def} bdef
/xstore {exch store} bdef
% operator abbreviations
/c  /clip ldef
/cc /concat ldef
/cp /closepath ldef
/gr /grestore ldef
/gs /gsave ldef
/mt /moveto ldef
/np /newpath ldef
/cm /currentmatrix ldef
/sm /setmatrix ldef
/rm /rmoveto ldef
/rl /rlineto ldef
/s {show newpath} bdef
/sc {setcmykcolor} bdef
/sr /setrgbcolor ldef
/sg /setgray ldef
/w /setlinewidth ldef
/j /setlinejoin ldef
/cap /setlinecap ldef
/rc {rectclip} bdef
/rf {rectfill} bdef
% page state control
/pgsv () def
/bpage {/pgsv save def} bdef
/epage {pgsv restore} bdef
/bplot /gsave ldef
/eplot {stroke grestore} bdef
% orientation switch
/portraitMode 0 def /landscapeMode 1 def /rotateMode 2 def
% coordinate system mappings
/dpi2point 0 def
% font control
/FontSize 0 def
/FMS {/FontSize xstore findfont [FontSize 0 0 FontSize neg 0 0]
  makefont setfont} bdef
/reencode {exch dup where {pop load} {pop StandardEncoding} ifelse
  exch dup 3 1 roll findfont dup length dict begin
  { 1 index /FID ne {def}{pop pop} ifelse } forall
  /Encoding exch def currentdict end definefont pop} bdef
/isroman {findfont /CharStrings get /Agrave known} bdef
/FMSR {3 1 roll 1 index dup isroman {reencode} {pop pop} ifelse
  exch FMS} bdef
/csm {1 dpi2point div -1 dpi2point div scale neg translate
 dup landscapeMode eq {pop -90 rotate}
  {rotateMode eq {90 rotate} if} ifelse} bdef
% line types: solid, dotted, dashed, dotdash
/SO { [] 0 setdash } bdef
/DO { [.5 dpi2point mul 4 dpi2point mul] 0 setdash } bdef
/DA { [6 dpi2point mul] 0 setdash } bdef
/DD { [.5 dpi2point mul 4 dpi2point mul 6 dpi2point mul 4
  dpi2point mul] 0 setdash } bdef
% macros for lines and objects
/L {lineto stroke} bdef
/MP {3 1 roll moveto 1 sub {rlineto} repeat} bdef
/AP {{rlineto} repeat} bdef
/PDlw -1 def
/W {/PDlw currentlinewidth def setlinewidth} def
/PP {closepath eofill} bdef
/DP {closepath stroke} bdef
/MR {4 -2 roll moveto dup  0 exch rlineto exch 0 rlineto
  neg 0 exch rlineto closepath} bdef
/FR {MR stroke} bdef
/PR {MR fill} bdef
/L1i {{currentfile picstr readhexstring pop} image} bdef
/tMatrix matrix def
/MakeOval {newpath tMatrix currentmatrix pop translate scale
0 0 1 0 360 arc tMatrix setmatrix} bdef
/FO {MakeOval stroke} bdef
/PO {MakeOval fill} bdef
/PD {currentlinewidth 2 div 0 360 arc fill
   PDlw -1 eq not {PDlw w /PDlw -1 def} if} def
/FA {newpath tMatrix currentmatrix pop translate scale
  0 0 1 5 -2 roll arc tMatrix setmatrix stroke} bdef
/PA {newpath tMatrix currentmatrix pop	translate 0 0 moveto scale
  0 0 1 5 -2 roll arc closepath tMatrix setmatrix fill} bdef
/FAn {newpath tMatrix currentmatrix pop translate scale
  0 0 1 5 -2 roll arcn tMatrix setmatrix stroke} bdef
/PAn {newpath tMatrix currentmatrix pop translate 0 0 moveto scale
  0 0 1 5 -2 roll arcn closepath tMatrix setmatrix fill} bdef
/vradius 0 def /hradius 0 def /lry 0 def
/lrx 0 def /uly 0 def /ulx 0 def /rad 0 def
/MRR {/vradius xdef /hradius xdef /lry xdef /lrx xdef /uly xdef
  /ulx xdef newpath tMatrix currentmatrix pop ulx hradius add uly
  vradius add translate hradius vradius scale 0 0 1 180 270 arc 
  tMatrix setmatrix lrx hradius sub uly vradius add translate
  hradius vradius scale 0 0 1 270 360 arc tMatrix setmatrix
  lrx hradius sub lry vradius sub translate hradius vradius scale
  0 0 1 0 90 arc tMatrix setmatrix ulx hradius add lry vradius sub
  translate hradius vradius scale 0 0 1 90 180 arc tMatrix setmatrix
  closepath} bdef
/FRR {MRR stroke } bdef
/PRR {MRR fill } bdef
/MlrRR {/lry xdef /lrx xdef /uly xdef /ulx xdef /rad lry uly sub 2 div def
  newpath tMatrix currentmatrix pop ulx rad add uly rad add translate
  rad rad scale 0 0 1 90 270 arc tMatrix setmatrix lrx rad sub lry rad
  sub translate rad rad scale 0 0 1 270 90 arc tMatrix setmatrix
  closepath} bdef
/FlrRR {MlrRR stroke } bdef
/PlrRR {MlrRR fill } bdef
/MtbRR {/lry xdef /lrx xdef /uly xdef /ulx xdef /rad lrx ulx sub 2 div def
  newpath tMatrix currentmatrix pop ulx rad add uly rad add translate
  rad rad scale 0 0 1 180 360 arc tMatrix setmatrix lrx rad sub lry rad
  sub translate rad rad scale 0 0 1 0 180 arc tMatrix setmatrix
  closepath} bdef
/FtbRR {MtbRR stroke } bdef
/PtbRR {MtbRR fill } bdef
/stri 6 array def /dtri 6 array def
/smat 6 array def /dmat 6 array def
/tmat1 6 array def /tmat2 6 array def /dif 3 array def
/asub {/ind2 exch def /ind1 exch def dup dup
  ind1 get exch ind2 get sub exch } bdef
/tri_to_matrix {
  2 0 asub 3 1 asub 4 0 asub 5 1 asub
  dup 0 get exch 1 get 7 -1 roll astore } bdef
/compute_transform {
  dmat dtri tri_to_matrix tmat1 invertmatrix 
  smat stri tri_to_matrix tmat2 concatmatrix } bdef
/ds {stri astore pop} bdef
/dt {dtri astore pop} bdef
/db {2 copy /cols xdef /rows xdef mul dup 3 mul string
  currentfile exch readhexstring pop
  dup 0 3 index getinterval /rbmap xdef
  dup 2 index dup getinterval /gbmap xdef
  1 index dup 2 mul exch getinterval /bbmap xdef pop pop}bdef
/it {gs np dtri aload pop moveto lineto lineto cp c
  cols rows 8 compute_transform 
  rbmap gbmap bbmap true 3 colorimage gr}bdef
/il {newpath moveto lineto stroke}bdef
currentdict end def
%%EndProlog

%%BeginSetup
MathWorks begin

0 cap

end
%%EndSetup

%%Page: 1 1
%%BeginPageSetup
%%PageBoundingBox:     2   145   596   659
MathWorks begin
bpage
%%EndPageSetup

%%BeginObject: obj1
bplot

/dpi2point 8.33333 def
portraitMode -0200 5466 csm

  219   -32  4949  4284 MR c np
76 dict begin %Colortable dictionary
/c0 { 0.000000 0.000000 0.000000 sr} bdef
/c1 { 1.000000 1.000000 1.000000 sr} bdef
/c2 { 0.900000 0.000000 0.000000 sr} bdef
/c3 { 0.000000 0.820000 0.000000 sr} bdef
/c4 { 0.000000 0.000000 0.800000 sr} bdef
/c5 { 0.910000 0.820000 0.320000 sr} bdef
/c6 { 1.000000 0.260000 0.820000 sr} bdef
/c7 { 0.000000 0.820000 0.820000 sr} bdef
c0
1 j
1 sg
   0    0 5500 4334 PR
4.16667 w
0 3531 4262 0 0 -3531 715 3856 4 MP
PP
-4262 0 0 3531 4262 0 0 -3531 715 3856 5 MP stroke
2.77778 w
DO
SO
4.16667 w
0 sg
 715 3856 mt 4977 3856 L
 715  325 mt 4977  325 L
 715 3856 mt  715  325 L
4977 3856 mt 4977  325 L
 715 3856 mt 4977 3856 L
 715 3856 mt  715  325 L
 715 3856 mt  715 3813 L
 715  325 mt  715  367 L
%%IncludeResource: font Helvetica
/Helvetica /ISOLatin1Encoding 133.333 FMSR

 678 4004 mt 
(0) s
1567 3856 mt 1567 3813 L
1567  325 mt 1567  367 L
1530 4004 mt 
(2) s
2419 3856 mt 2419 3813 L
2419  325 mt 2419  367 L
2382 4004 mt 
(4) s
3272 3856 mt 3272 3813 L
3272  325 mt 3272  367 L
3235 4004 mt 
(6) s
4124 3856 mt 4124 3813 L
4124  325 mt 4124  367 L
4087 4004 mt 
(8) s
4977 3856 mt 4977 3813 L
4977  325 mt 4977  367 L
4903 4004 mt 
(10) s
 715 3856 mt  757 3856 L
4977 3856 mt 4934 3856 L
 506 3905 mt 
(0.8) s
 715 3267 mt  757 3267 L
4977 3267 mt 4934 3267 L
 506 3316 mt 
(0.9) s
 715 2679 mt  757 2679 L
4977 2679 mt 4934 2679 L
 617 2728 mt 
(1) s
 715 2090 mt  757 2090 L
4977 2090 mt 4934 2090 L
 506 2139 mt 
(1.1) s
 715 1501 mt  757 1501 L
4977 1501 mt 4934 1501 L
 506 1550 mt 
(1.2) s
 715  913 mt  757  913 L
4977  913 mt 4934  913 L
 506  962 mt 
(1.3) s
 715 3856 mt 4977 3856 L
 715  325 mt 4977  325 L
 715 3856 mt  715  325 L
4977 3856 mt 4977  325 L
gs 715 325 4263 3532 MR c np
16.6667 w
/c8 { 0.000000 0.000000 1.000000 sr} bdef
c8
427 -78 426 -99 426 -43 426 -124 426 -39 427 -153 426 47 426 11 
426 -26 426 420 715 2679 11 MP stroke
gr

16.6667 w
c8
gs 529 2410 4634 907 MR c np
54 W
715 2679 PD
54 W
1141 3099 PD
54 W
1567 3073 PD
54 W
1993 3084 PD
54 W
2419 3131 PD
54 W
2846 2978 PD
54 W
3272 2939 PD
54 W
3698 2815 PD
54 W
4124 2772 PD
54 W
4550 2673 PD
54 W
4977 2595 PD
gr

gs 715 325 4263 3532 MR c np
DA
427 -103 426 -111 426 -103 426 -114 426 -105 427 -80 426 -211 426 -139 
426 -176 426 -454 715 2710 11 MP stroke
gr

DA
gs 629 1028 4434 1768 MR c np
SO
 692 2687 mt  738 2733 L
 738 2687 mt  692 2733 L
1118 2233 mt 1164 2279 L
1164 2233 mt 1118 2279 L
1544 2057 mt 1590 2103 L
1590 2057 mt 1544 2103 L
1970 1918 mt 2016 1964 L
2016 1918 mt 1970 1964 L
2396 1707 mt 2442 1753 L
2442 1707 mt 2396 1753 L
2823 1627 mt 2869 1673 L
2869 1627 mt 2823 1673 L
3249 1522 mt 3295 1568 L
3295 1522 mt 3249 1568 L
3675 1408 mt 3721 1454 L
3721 1408 mt 3675 1454 L
4101 1305 mt 4147 1351 L
4147 1305 mt 4101 1351 L
4527 1194 mt 4573 1240 L
4573 1194 mt 4527 1240 L
4954 1091 mt 5000 1137 L
5000 1091 mt 4954 1137 L
DA
gr

gs 715 325 4263 3532 MR c np
SO
0 sg
427 -20 426 -13 426 5 426 -1 426 15 427 -43 426 54 426 31 
426 87 426 391 715 2679 11 MP stroke
gr

0 sg
SO
gs 529 2493 4634 936 MR c np
54 W
715 2679 PD
54 W
1141 3070 PD
54 W
1567 3157 PD
54 W
1993 3188 PD
54 W
2419 3242 PD
54 W
2846 3199 PD
54 W
3272 3214 PD
54 W
3698 3213 PD
54 W
4124 3218 PD
54 W
4550 3205 PD
54 W
4977 3185 PD
gr

gs 715 325 4263 3532 MR c np
DA
427 -26 426 1 426 -50 426 -38 426 -22 427 -28 426 -106 426 -68 
426 -22 426 -370 715 2679 11 MP stroke
gr

DA
gs 629 1865 4434 900 MR c np
SO
 692 2656 mt  738 2702 L
 738 2656 mt  692 2702 L
1118 2286 mt 1164 2332 L
1164 2286 mt 1118 2332 L
1544 2264 mt 1590 2310 L
1590 2264 mt 1544 2310 L
1970 2196 mt 2016 2242 L
2016 2196 mt 1970 2242 L
2396 2090 mt 2442 2136 L
2442 2090 mt 2396 2136 L
2823 2062 mt 2869 2108 L
2869 2062 mt 2823 2108 L
3249 2040 mt 3295 2086 L
3295 2040 mt 3249 2086 L
3675 2002 mt 3721 2048 L
3721 2002 mt 3675 2048 L
4101 1952 mt 4147 1998 L
4147 1952 mt 4101 1998 L
4527 1953 mt 4573 1999 L
4573 1953 mt 4527 1999 L
4954 1927 mt 5000 1973 L
5000 1927 mt 4954 1973 L
DA
gr

gs 715 325 4263 3532 MR c np
gr

%%IncludeResource: font Helvetica
/Helvetica /ISOLatin1Encoding 200 FMSR

2053 4190 mt 
(Number of factors) s
 422 3430 mt  -90 rotate
(Mean squared prediction error) s
90 rotate
 971  204 mt 
(Normalized mean squared prediction error) s
%%IncludeResource: font Helvetica
/Helvetica /ISOLatin1Encoding 83.3333 FMSR

 703 3887 mt 
( ) s
4966  355 mt 
( ) s
SO
4.16667 w
1 sg
0 670 2959 0 0 -670 1977 1037 4 MP
PP
-2959 0 0 670 2959 0 0 -670 1977 1037 5 MP stroke
2.77778 w
DO
SO
4.16667 w
0 sg
1977 1037 mt 4936 1037 L
1977  367 mt 4936  367 L
1977 1037 mt 1977  367 L
4936 1037 mt 4936  367 L
1977 1037 mt 4936 1037 L
1977 1037 mt 1977  367 L
1977 1037 mt 4936 1037 L
1977  367 mt 4936  367 L
1977 1037 mt 1977  367 L
4936 1037 mt 4936  367 L
%%IncludeResource: font Helvetica
/Helvetica /ISOLatin1Encoding 133.333 FMSR

2305  509 mt 
(Standard PLS) s
gs 1977 367 2960 671 MR c np
16.6667 w
c8
252 0 2027 461 2 MP stroke
gr

16.6667 w
c8
gs 1968 276 371 371 MR c np
54 W
2153 461 PD
gr

gs 1977 367 2960 671 MR c np
gr

0 sg
2305  669 mt 
(Standard PLS on randomized data) s
gs 1977 367 2960 671 MR c np
DA
c8
252 0 2027 621 2 MP stroke
SO
gs 2068 536 171 172 MR c np
2130  598 mt 2176  644 L
2176  598 mt 2130  644 L
gr

gr

c8
0 sg
2305  830 mt 
(Graph-regularized PLS) s
gs 1977 367 2960 671 MR c np
252 0 2027 782 2 MP stroke
gr

gs 1968 596 371 372 MR c np
54 W
2153 782 PD
gr

gs 1977 367 2960 671 MR c np
gr

2305  990 mt 
(Graph-regularized PLS on randomized data) s
gs 1977 367 2960 671 MR c np
DA
252 0 2027 942 2 MP stroke
SO
gs 2068 857 171 171 MR c np
2130  919 mt 2176  965 L
2176  919 mt 2130  965 L
gr

4.16667 w
gr

4.16667 w

end %%Color Dict

eplot
%%EndObject

epage
end

showpage

%%Trailer
%%EOF
