%!PS-Adobe-2.0 EPSF-1.2
%%Creator: MATLAB, The Mathworks, Inc. Version 7.6.0.324 (R2008a). Operating System: Linux 2.6.18.8-0.10-default #1 SMP Wed Jun 4 15:46:34 UTC 2008 x86_64.
%%Title: ../figs1/PLS_ind_time.eps
%%CreationDate: 12/14/2009  23:59:42
%%DocumentNeededFonts: Helvetica
%%DocumentProcessColors: Cyan Magenta Yellow Black
%%Extensions: CMYK
%%Pages: 1
%%BoundingBox:     0   143   599   658
%%EndComments

%%BeginProlog
% MathWorks dictionary
/MathWorks 160 dict begin
% definition operators
/bdef {bind def} bind def
/ldef {load def} bind def
/xdef {exch def} bdef
/xstore {exch store} bdef
% operator abbreviations
/c  /clip ldef
/cc /concat ldef
/cp /closepath ldef
/gr /grestore ldef
/gs /gsave ldef
/mt /moveto ldef
/np /newpath ldef
/cm /currentmatrix ldef
/sm /setmatrix ldef
/rm /rmoveto ldef
/rl /rlineto ldef
/s {show newpath} bdef
/sc {setcmykcolor} bdef
/sr /setrgbcolor ldef
/sg /setgray ldef
/w /setlinewidth ldef
/j /setlinejoin ldef
/cap /setlinecap ldef
/rc {rectclip} bdef
/rf {rectfill} bdef
% page state control
/pgsv () def
/bpage {/pgsv save def} bdef
/epage {pgsv restore} bdef
/bplot /gsave ldef
/eplot {stroke grestore} bdef
% orientation switch
/portraitMode 0 def /landscapeMode 1 def /rotateMode 2 def
% coordinate system mappings
/dpi2point 0 def
% font control
/FontSize 0 def
/FMS {/FontSize xstore findfont [FontSize 0 0 FontSize neg 0 0]
  makefont setfont} bdef
/reencode {exch dup where {pop load} {pop StandardEncoding} ifelse
  exch dup 3 1 roll findfont dup length dict begin
  { 1 index /FID ne {def}{pop pop} ifelse } forall
  /Encoding exch def currentdict end definefont pop} bdef
/isroman {findfont /CharStrings get /Agrave known} bdef
/FMSR {3 1 roll 1 index dup isroman {reencode} {pop pop} ifelse
  exch FMS} bdef
/csm {1 dpi2point div -1 dpi2point div scale neg translate
 dup landscapeMode eq {pop -90 rotate}
  {rotateMode eq {90 rotate} if} ifelse} bdef
% line types: solid, dotted, dashed, dotdash
/SO { [] 0 setdash } bdef
/DO { [.5 dpi2point mul 4 dpi2point mul] 0 setdash } bdef
/DA { [6 dpi2point mul] 0 setdash } bdef
/DD { [.5 dpi2point mul 4 dpi2point mul 6 dpi2point mul 4
  dpi2point mul] 0 setdash } bdef
% macros for lines and objects
/L {lineto stroke} bdef
/MP {3 1 roll moveto 1 sub {rlineto} repeat} bdef
/AP {{rlineto} repeat} bdef
/PDlw -1 def
/W {/PDlw currentlinewidth def setlinewidth} def
/PP {closepath eofill} bdef
/DP {closepath stroke} bdef
/MR {4 -2 roll moveto dup  0 exch rlineto exch 0 rlineto
  neg 0 exch rlineto closepath} bdef
/FR {MR stroke} bdef
/PR {MR fill} bdef
/L1i {{currentfile picstr readhexstring pop} image} bdef
/tMatrix matrix def
/MakeOval {newpath tMatrix currentmatrix pop translate scale
0 0 1 0 360 arc tMatrix setmatrix} bdef
/FO {MakeOval stroke} bdef
/PO {MakeOval fill} bdef
/PD {currentlinewidth 2 div 0 360 arc fill
   PDlw -1 eq not {PDlw w /PDlw -1 def} if} def
/FA {newpath tMatrix currentmatrix pop translate scale
  0 0 1 5 -2 roll arc tMatrix setmatrix stroke} bdef
/PA {newpath tMatrix currentmatrix pop	translate 0 0 moveto scale
  0 0 1 5 -2 roll arc closepath tMatrix setmatrix fill} bdef
/FAn {newpath tMatrix currentmatrix pop translate scale
  0 0 1 5 -2 roll arcn tMatrix setmatrix stroke} bdef
/PAn {newpath tMatrix currentmatrix pop translate 0 0 moveto scale
  0 0 1 5 -2 roll arcn closepath tMatrix setmatrix fill} bdef
/vradius 0 def /hradius 0 def /lry 0 def
/lrx 0 def /uly 0 def /ulx 0 def /rad 0 def
/MRR {/vradius xdef /hradius xdef /lry xdef /lrx xdef /uly xdef
  /ulx xdef newpath tMatrix currentmatrix pop ulx hradius add uly
  vradius add translate hradius vradius scale 0 0 1 180 270 arc 
  tMatrix setmatrix lrx hradius sub uly vradius add translate
  hradius vradius scale 0 0 1 270 360 arc tMatrix setmatrix
  lrx hradius sub lry vradius sub translate hradius vradius scale
  0 0 1 0 90 arc tMatrix setmatrix ulx hradius add lry vradius sub
  translate hradius vradius scale 0 0 1 90 180 arc tMatrix setmatrix
  closepath} bdef
/FRR {MRR stroke } bdef
/PRR {MRR fill } bdef
/MlrRR {/lry xdef /lrx xdef /uly xdef /ulx xdef /rad lry uly sub 2 div def
  newpath tMatrix currentmatrix pop ulx rad add uly rad add translate
  rad rad scale 0 0 1 90 270 arc tMatrix setmatrix lrx rad sub lry rad
  sub translate rad rad scale 0 0 1 270 90 arc tMatrix setmatrix
  closepath} bdef
/FlrRR {MlrRR stroke } bdef
/PlrRR {MlrRR fill } bdef
/MtbRR {/lry xdef /lrx xdef /uly xdef /ulx xdef /rad lrx ulx sub 2 div def
  newpath tMatrix currentmatrix pop ulx rad add uly rad add translate
  rad rad scale 0 0 1 180 360 arc tMatrix setmatrix lrx rad sub lry rad
  sub translate rad rad scale 0 0 1 0 180 arc tMatrix setmatrix
  closepath} bdef
/FtbRR {MtbRR stroke } bdef
/PtbRR {MtbRR fill } bdef
/stri 6 array def /dtri 6 array def
/smat 6 array def /dmat 6 array def
/tmat1 6 array def /tmat2 6 array def /dif 3 array def
/asub {/ind2 exch def /ind1 exch def dup dup
  ind1 get exch ind2 get sub exch } bdef
/tri_to_matrix {
  2 0 asub 3 1 asub 4 0 asub 5 1 asub
  dup 0 get exch 1 get 7 -1 roll astore } bdef
/compute_transform {
  dmat dtri tri_to_matrix tmat1 invertmatrix 
  smat stri tri_to_matrix tmat2 concatmatrix } bdef
/ds {stri astore pop} bdef
/dt {dtri astore pop} bdef
/db {2 copy /cols xdef /rows xdef mul dup 3 mul string
  currentfile exch readhexstring pop
  dup 0 3 index getinterval /rbmap xdef
  dup 2 index dup getinterval /gbmap xdef
  1 index dup 2 mul exch getinterval /bbmap xdef pop pop}bdef
/it {gs np dtri aload pop moveto lineto lineto cp c
  cols rows 8 compute_transform 
  rbmap gbmap bbmap true 3 colorimage gr}bdef
/il {newpath moveto lineto stroke}bdef
currentdict end def
%%EndProlog

%%BeginSetup
MathWorks begin

0 cap

end
%%EndSetup

%%Page: 1 1
%%BeginPageSetup
%%PageBoundingBox:     0   143   599   658
MathWorks begin
bpage
%%EndPageSetup

%%BeginObject: obj1
bplot

/dpi2point 12 def
portraitMode -0288 7872 csm

  282   -32  7204  6177 MR c np
76 dict begin %Colortable dictionary
/c0 { 0.000000 0.000000 0.000000 sr} bdef
/c1 { 1.000000 1.000000 1.000000 sr} bdef
/c2 { 0.900000 0.000000 0.000000 sr} bdef
/c3 { 0.000000 0.820000 0.000000 sr} bdef
/c4 { 0.000000 0.000000 0.800000 sr} bdef
/c5 { 0.910000 0.820000 0.320000 sr} bdef
/c6 { 1.000000 0.260000 0.820000 sr} bdef
/c7 { 0.000000 0.820000 0.820000 sr} bdef
c0
1 j
1 sg
   0    0 7920 6241 PR
6 w
0 5086 6138 0 0 -5086 1029 5554 4 MP
PP
-6138 0 0 5086 6138 0 0 -5086 1029 5554 5 MP stroke
4 w
DO
SO
6 w
0 sg
1029 5554 mt 7167 5554 L
1029  468 mt 7167  468 L
1029 5554 mt 1029  468 L
7167 5554 mt 7167  468 L
1029 5554 mt 7167 5554 L
1029 5554 mt 1029  468 L
1587 5554 mt 1587 5492 L
1587  468 mt 1587  529 L
%%IncludeResource: font Helvetica
/Helvetica /ISOLatin1Encoding 216 FMSR

1527 5789 mt 
(2) s
2703 5554 mt 2703 5492 L
2703  468 mt 2703  529 L
2643 5789 mt 
(4) s
3819 5554 mt 3819 5492 L
3819  468 mt 3819  529 L
3759 5789 mt 
(6) s
4935 5554 mt 4935 5492 L
4935  468 mt 4935  529 L
4875 5789 mt 
(8) s
6051 5554 mt 6051 5492 L
6051  468 mt 6051  529 L
5931 5789 mt 
(10) s
7167 5554 mt 7167 5492 L
7167  468 mt 7167  529 L
7047 5789 mt 
(12) s
1029 5554 mt 1090 5554 L
7167 5554 mt 7105 5554 L
 694 5634 mt 
(0.5) s
1029 4536 mt 1090 4536 L
7167 4536 mt 7105 4536 L
 694 4616 mt 
(0.7) s
1029 3519 mt 1090 3519 L
7167 3519 mt 7105 3519 L
 694 3599 mt 
(0.9) s
1029 2502 mt 1090 2502 L
7167 2502 mt 7105 2502 L
 694 2582 mt 
(1.1) s
1029 1485 mt 1090 1485 L
7167 1485 mt 7105 1485 L
 694 1565 mt 
(1.3) s
1029  468 mt 1090  468 L
7167  468 mt 7105  468 L
 694  548 mt 
(1.5) s
1029 5554 mt 7167 5554 L
1029  468 mt 7167  468 L
1029 5554 mt 1029  468 L
7167 5554 mt 7167  468 L
gs 1029 468 6139 5087 MR c np
60 w
/c8 { 0.000000 0.000000 1.000000 sr} bdef
c8
558 -15 558 -85 558 112 558 -94 558 45 558 -5 558 23 558 165 
558 150 558 8 558 66 1029 3086 12 MP stroke
gr

60 w
c8
gs 667 2724 6863 1195 MR c np
100 W
1029 3086 PD
100 W
1587 3152 PD
100 W
2145 3160 PD
100 W
2703 3310 PD
100 W
3261 3475 PD
100 W
3819 3498 PD
100 W
4377 3493 PD
100 W
4935 3538 PD
100 W
5493 3444 PD
100 W
6051 3556 PD
100 W
6609 3471 PD
100 W
7167 3456 PD
gr

gs 1029 468 6139 5087 MR c np
0.5 sg
558 -54 558 -117 558 167 558 22 558 301 558 1147 558 1015 558 -360 
558 -181 558 -255 558 197 1029 3153 12 MP stroke
gr

0.5 sg
gs 667 2192 6863 3377 MR c np
100 W
1029 3153 PD
100 W
1587 3350 PD
100 W
2145 3095 PD
100 W
2703 2914 PD
100 W
3261 2554 PD
100 W
3819 3569 PD
100 W
4377 4716 PD
100 W
4935 5017 PD
100 W
5493 5039 PD
100 W
6051 5206 PD
100 W
6609 5089 PD
100 W
7167 5035 PD
gr

gs 1029 468 6139 5087 MR c np
0 sg
558 404 558 -23 558 982 558 -519 558 -1646 558 -489 558 -757 558 357 
558 1024 558 572 558 -262 1029 2708 12 MP stroke
gr

0 sg
gs 667 626 6863 4136 MR c np
100 W
1029 2708 PD
100 W
1587 2446 PD
100 W
2145 3018 PD
100 W
2703 4042 PD
100 W
3261 4399 PD
100 W
3819 3642 PD
100 W
4377 3153 PD
100 W
4935 1507 PD
100 W
5493 988 PD
100 W
6051 1970 PD
100 W
6609 1947 PD
100 W
7167 2351 PD
gr

gs 1029 468 6139 5087 MR c np
gr

%%IncludeResource: font Helvetica
/Helvetica /ISOLatin1Encoding 288 FMSR

3425 6056 mt 
(Time point) s
 575 4941 mt  -90 rotate
(Mean squared prediction error) s
90 rotate
%%IncludeResource: font Helvetica
/Helvetica /ISOLatin1Encoding 264 FMSR

 841  286 mt 
(Normalized mean squared prediction error by time point) s
%%IncludeResource: font Helvetica
/Helvetica /ISOLatin1Encoding 120 FMSR

1012 5597 mt 
( ) s
7151  510 mt 
( ) s
6 w
1 sg
0 1062 2603 0 0 -1062 1089 1590 4 MP
PP
-2603 0 0 1062 2603 0 0 -1062 1089 1590 5 MP stroke
4 w
DO
SO
6 w
0 sg
1089 1590 mt 3692 1590 L
1089  528 mt 3692  528 L
1089 1590 mt 1089  528 L
3692 1590 mt 3692  528 L
1089 1590 mt 3692 1590 L
1089 1590 mt 1089  528 L
1089 1590 mt 3692 1590 L
1089  528 mt 3692  528 L
1089 1590 mt 1089  528 L
3692 1590 mt 3692  528 L
%%IncludeResource: font Helvetica
/Helvetica /ISOLatin1Encoding 288 FMSR

1555  821 mt 
(All genes) s
gs 1089 528 2604 1063 MR c np
60 w
c8
358 0 1160 718 2 MP stroke
gr

60 w
c8
gs 977 356 725 725 MR c np
100 W
1339 718 PD
gr

gs 1089 528 2604 1063 MR c np
gr

0 sg
1555 1162 mt 
(Oocyte gene set) s
gs 1089 528 2604 1063 MR c np
0.5 sg
358 0 1160 1059 2 MP stroke
gr

0.5 sg
gs 977 697 725 725 MR c np
100 W
1339 1059 PD
gr

gs 1089 528 2604 1063 MR c np
gr

0 sg
1555 1502 mt 
(Sperm gene set) s
gs 1089 528 2604 1063 MR c np
358 0 1160 1399 2 MP stroke
gr

gs 977 1037 725 725 MR c np
100 W
1339 1399 PD
gr

gs 1089 528 2604 1063 MR c np
6 w
gr

6 w

end %%Color Dict

eplot
%%EndObject

epage
end

showpage

%%Trailer
%%EOF
