%!PS-Adobe-2.0 EPSF-1.2
%%Creator: MATLAB, The Mathworks, Inc. Version 7.6.0.324 (R2008a). Operating System: Linux 2.6.18.8-0.10-default #1 SMP Wed Jun 4 15:46:34 UTC 2008 x86_64.
%%Title: ../figs1/sperm_corr.eps
%%CreationDate: 01/03/2010  23:48:44
%%DocumentNeededFonts: Helvetica
%%DocumentProcessColors: Cyan Magenta Yellow Black
%%Extensions: CMYK
%%Pages: 1
%%BoundingBox:    -6   140   628   660
%%EndComments

%%BeginProlog
% MathWorks dictionary
/MathWorks 160 dict begin
% definition operators
/bdef {bind def} bind def
/ldef {load def} bind def
/xdef {exch def} bdef
/xstore {exch store} bdef
% operator abbreviations
/c  /clip ldef
/cc /concat ldef
/cp /closepath ldef
/gr /grestore ldef
/gs /gsave ldef
/mt /moveto ldef
/np /newpath ldef
/cm /currentmatrix ldef
/sm /setmatrix ldef
/rm /rmoveto ldef
/rl /rlineto ldef
/s {show newpath} bdef
/sc {setcmykcolor} bdef
/sr /setrgbcolor ldef
/sg /setgray ldef
/w /setlinewidth ldef
/j /setlinejoin ldef
/cap /setlinecap ldef
/rc {rectclip} bdef
/rf {rectfill} bdef
% page state control
/pgsv () def
/bpage {/pgsv save def} bdef
/epage {pgsv restore} bdef
/bplot /gsave ldef
/eplot {stroke grestore} bdef
% orientation switch
/portraitMode 0 def /landscapeMode 1 def /rotateMode 2 def
% coordinate system mappings
/dpi2point 0 def
% font control
/FontSize 0 def
/FMS {/FontSize xstore findfont [FontSize 0 0 FontSize neg 0 0]
  makefont setfont} bdef
/reencode {exch dup where {pop load} {pop StandardEncoding} ifelse
  exch dup 3 1 roll findfont dup length dict begin
  { 1 index /FID ne {def}{pop pop} ifelse } forall
  /Encoding exch def currentdict end definefont pop} bdef
/isroman {findfont /CharStrings get /Agrave known} bdef
/FMSR {3 1 roll 1 index dup isroman {reencode} {pop pop} ifelse
  exch FMS} bdef
/csm {1 dpi2point div -1 dpi2point div scale neg translate
 dup landscapeMode eq {pop -90 rotate}
  {rotateMode eq {90 rotate} if} ifelse} bdef
% line types: solid, dotted, dashed, dotdash
/SO { [] 0 setdash } bdef
/DO { [.5 dpi2point mul 4 dpi2point mul] 0 setdash } bdef
/DA { [6 dpi2point mul] 0 setdash } bdef
/DD { [.5 dpi2point mul 4 dpi2point mul 6 dpi2point mul 4
  dpi2point mul] 0 setdash } bdef
% macros for lines and objects
/L {lineto stroke} bdef
/MP {3 1 roll moveto 1 sub {rlineto} repeat} bdef
/AP {{rlineto} repeat} bdef
/PDlw -1 def
/W {/PDlw currentlinewidth def setlinewidth} def
/PP {closepath eofill} bdef
/DP {closepath stroke} bdef
/MR {4 -2 roll moveto dup  0 exch rlineto exch 0 rlineto
  neg 0 exch rlineto closepath} bdef
/FR {MR stroke} bdef
/PR {MR fill} bdef
/L1i {{currentfile picstr readhexstring pop} image} bdef
/tMatrix matrix def
/MakeOval {newpath tMatrix currentmatrix pop translate scale
0 0 1 0 360 arc tMatrix setmatrix} bdef
/FO {MakeOval stroke} bdef
/PO {MakeOval fill} bdef
/PD {currentlinewidth 2 div 0 360 arc fill
   PDlw -1 eq not {PDlw w /PDlw -1 def} if} def
/FA {newpath tMatrix currentmatrix pop translate scale
  0 0 1 5 -2 roll arc tMatrix setmatrix stroke} bdef
/PA {newpath tMatrix currentmatrix pop	translate 0 0 moveto scale
  0 0 1 5 -2 roll arc closepath tMatrix setmatrix fill} bdef
/FAn {newpath tMatrix currentmatrix pop translate scale
  0 0 1 5 -2 roll arcn tMatrix setmatrix stroke} bdef
/PAn {newpath tMatrix currentmatrix pop translate 0 0 moveto scale
  0 0 1 5 -2 roll arcn closepath tMatrix setmatrix fill} bdef
/vradius 0 def /hradius 0 def /lry 0 def
/lrx 0 def /uly 0 def /ulx 0 def /rad 0 def
/MRR {/vradius xdef /hradius xdef /lry xdef /lrx xdef /uly xdef
  /ulx xdef newpath tMatrix currentmatrix pop ulx hradius add uly
  vradius add translate hradius vradius scale 0 0 1 180 270 arc 
  tMatrix setmatrix lrx hradius sub uly vradius add translate
  hradius vradius scale 0 0 1 270 360 arc tMatrix setmatrix
  lrx hradius sub lry vradius sub translate hradius vradius scale
  0 0 1 0 90 arc tMatrix setmatrix ulx hradius add lry vradius sub
  translate hradius vradius scale 0 0 1 90 180 arc tMatrix setmatrix
  closepath} bdef
/FRR {MRR stroke } bdef
/PRR {MRR fill } bdef
/MlrRR {/lry xdef /lrx xdef /uly xdef /ulx xdef /rad lry uly sub 2 div def
  newpath tMatrix currentmatrix pop ulx rad add uly rad add translate
  rad rad scale 0 0 1 90 270 arc tMatrix setmatrix lrx rad sub lry rad
  sub translate rad rad scale 0 0 1 270 90 arc tMatrix setmatrix
  closepath} bdef
/FlrRR {MlrRR stroke } bdef
/PlrRR {MlrRR fill } bdef
/MtbRR {/lry xdef /lrx xdef /uly xdef /ulx xdef /rad lrx ulx sub 2 div def
  newpath tMatrix currentmatrix pop ulx rad add uly rad add translate
  rad rad scale 0 0 1 180 360 arc tMatrix setmatrix lrx rad sub lry rad
  sub translate rad rad scale 0 0 1 0 180 arc tMatrix setmatrix
  closepath} bdef
/FtbRR {MtbRR stroke } bdef
/PtbRR {MtbRR fill } bdef
/stri 6 array def /dtri 6 array def
/smat 6 array def /dmat 6 array def
/tmat1 6 array def /tmat2 6 array def /dif 3 array def
/asub {/ind2 exch def /ind1 exch def dup dup
  ind1 get exch ind2 get sub exch } bdef
/tri_to_matrix {
  2 0 asub 3 1 asub 4 0 asub 5 1 asub
  dup 0 get exch 1 get 7 -1 roll astore } bdef
/compute_transform {
  dmat dtri tri_to_matrix tmat1 invertmatrix 
  smat stri tri_to_matrix tmat2 concatmatrix } bdef
/ds {stri astore pop} bdef
/dt {dtri astore pop} bdef
/db {2 copy /cols xdef /rows xdef mul dup 3 mul string
  currentfile exch readhexstring pop
  dup 0 3 index getinterval /rbmap xdef
  dup 2 index dup getinterval /gbmap xdef
  1 index dup 2 mul exch getinterval /bbmap xdef pop pop}bdef
/it {gs np dtri aload pop moveto lineto lineto cp c
  cols rows 8 compute_transform 
  rbmap gbmap bbmap true 3 colorimage gr}bdef
/il {newpath moveto lineto stroke}bdef
currentdict end def
%%EndProlog

%%BeginSetup
MathWorks begin

0 cap

end
%%EndSetup

%%Page: 1 1
%%BeginPageSetup
%%PageBoundingBox:    -6   140   628   660
MathWorks begin
bpage
%%EndPageSetup

%%BeginObject: obj1
bplot

/dpi2point 12 def
portraitMode -0288 7872 csm

  216   -48  7614  6237 MR c np
76 dict begin %Colortable dictionary
/c0 { 0.000000 0.000000 0.000000 sr} bdef
/c1 { 1.000000 1.000000 1.000000 sr} bdef
/c2 { 0.900000 0.000000 0.000000 sr} bdef
/c3 { 0.000000 0.820000 0.000000 sr} bdef
/c4 { 0.000000 0.000000 0.800000 sr} bdef
/c5 { 0.910000 0.820000 0.320000 sr} bdef
/c6 { 1.000000 0.260000 0.820000 sr} bdef
/c7 { 0.000000 0.820000 0.820000 sr} bdef
c0
1 j
1 sg
   0    0 7920 6241 PR
6 w
0 5086 6138 0 0 -5086 1029 5554 4 MP
PP
-6138 0 0 5086 6138 0 0 -5086 1029 5554 5 MP stroke
4 w
DO
SO
6 w
0 sg
1029 5554 mt 7167 5554 L
1029  468 mt 7167  468 L
1029 5554 mt 1029  468 L
7167 5554 mt 7167  468 L
1029 5554 mt 7167 5554 L
1029 5554 mt 1029  468 L
1029 5554 mt 1029 5492 L
1029  468 mt 1029  529 L
%%IncludeResource: font Helvetica
/Helvetica /ISOLatin1Encoding 264 FMSR

 802 5833 mt 
(-1) s
2563 5554 mt 2563 5492 L
2563  468 mt 2563  529 L
2226 5833 mt 
(-0.5) s
4098 5554 mt 4098 5492 L
4098  468 mt 4098  529 L
4025 5833 mt 
(0) s
5632 5554 mt 5632 5492 L
5632  468 mt 5632  529 L
5449 5833 mt 
(0.5) s
7167 5554 mt 7167 5492 L
7167  468 mt 7167  529 L
7094 5833 mt 
(1) s
1029 5554 mt 1090 5554 L
7167 5554 mt 7105 5554 L
 848 5652 mt 
(0) s
1029 4536 mt 1090 4536 L
7167 4536 mt 7105 4536 L
 628 4634 mt 
(0.2) s
1029 3519 mt 1090 3519 L
7167 3519 mt 7105 3519 L
 628 3617 mt 
(0.4) s
1029 2502 mt 1090 2502 L
7167 2502 mt 7105 2502 L
 628 2600 mt 
(0.6) s
1029 1485 mt 1090 1485 L
7167 1485 mt 7105 1485 L
 628 1583 mt 
(0.8) s
1029  468 mt 1090  468 L
7167  468 mt 7105  468 L
 848  566 mt 
(1) s
1029 5554 mt 7167 5554 L
1029  468 mt 7167  468 L
1029 5554 mt 1029  468 L
7167 5554 mt 7167  468 L
gs 1029 468 6139 5087 MR c np
60 w
/c8 { 1.000000 0.000000 0.000000 sr} bdef
c8
0 -1 20 0 0 -1 4 0 2 0 0 -1 4 0 0 -1 
11 0 2 0 0 -1 6 0 0 -1 3 -1 0 -1 4 0 
9 0 1 -1 0 -1 3 -1 0 -1 6 0 0 -1 4 0 
2 0 0 -1 2 0 1 -1 7 0 0 -1 4 0 0 -1 
13 0 3 0 0 -1 13 0 0 -1 8 0 2 0 0 -1 
5 -1 0 -1 9 0 0 -1 13 0 0 -1 3 0 3 0 
0 -1 3 0 0 -1 2 0 2 0 0 -1 5 0 0 -1 
3 0 0 -1 5 0 0 -1 2 0 2 0 0 -1 3 -1 
0 -1 3 0 0 -1 6 0 0 -1 3 0 5 0 0 -1 
8 0 0 -1 12 0 3 0 0 -1 12 0 0 -1 3 0 
0 -2 2 0 0 0 6 -1 0 -1 4 0 0 -1 4 0 
0 0 9 -1 0 -1 12 0 2 0 0 -1 5 0 0 -1 
4 0 3 0 0 -1 6840 517 100 MP stroke
25 0 0 -1 16 0 3 0 0 -1 10 0 0 -1 3 0 
1 0 0 -3 5 0 2 0 0 -1 3 0 0 -1 2 0 
4 0 0 -1 4 0 0 -1 13 0 0 -1 3 -1 0 -1 
7 -1 5 0 0 -1 3 -1 0 -1 2 0 11 0 0 -1 
4 0 1 -1 7 0 0 -1 4 0 0 -1 8 0 8 0 
0 -2 2 0 7 0 0 -1 3 0 0 -1 18 0 0 -1 
5 0 1 0 0 -2 4 0 2 0 0 -1 3 0 1 -1 
13 0 0 -1 5 0 1 -1 0 0 3 -1 1 -1 10 0 
0 -1 5 0 0 -1 2 0 0 -1 2 0 2 0 0 -1 
8 0 0 -1 2 0 8 0 0 -1 4 -1 4 0 0 -1 
6 0 0 -1 5 0 2 0 0 -1 3 0 0 -1 4 0 
11 0 0 -1 5 0 0 -1 5 0 0 -1 5 0 4 0 
0 -1 6 0 0 -1 6514 567 100 MP stroke
4 0 0 0 5 -1 0 -1 2 0 2 0 0 -1 7 -1 
2 0 0 -1 3 0 0 -1 19 0 0 -1 3 0 0 -1 
2 0 0 -1 4 0 0 0 3 -1 1 -1 2 0 0 -1 
6 0 1 -1 4 0 0 -1 1 -1 4 0 0 -1 7 -1 
7 0 0 -2 3 0 0 -1 9 0 0 -1 2 0 0 -1 
11 0 0 -1 5 0 0 -1 3 0 0 0 5 -1 0 -1 
2 0 6 0 0 -1 2 0 1 -1 0 -1 4 -1 0 -1 
3 0 3 0 0 -1 2 0 0 -1 8 0 6 0 0 -1 
3 0 1 -1 4 0 0 -1 2 0 0 -1 4 0 1 0 
0 -1 16 -1 0 -1 2 0 1 0 0 -1 5 -1 0 -1 
2 0 0 -1 4 0 0 -1 5 0 0 -1 4 0 3 0 
0 -1 8 -1 0 -1 25 0 0 -1 4 0 0 -1 2 0 
0 -1 2 0 1 -1 6251 620 100 MP stroke
2 0 0 -1 12 0 0 -1 2 0 2 0 0 -1 15 0 
0 -1 3 0 5 0 0 -1 5 0 0 -1 2 0 3 0 
0 -1 2 0 0 -1 2 0 0 -1 2 0 0 0 4 -1 
0 -1 4 0 1 0 1 -1 1 -1 1 -1 0 -2 3 -1 
2 0 0 -1 2 0 0 -1 3 0 0 -1 3 0 0 -1 
13 -1 2 0 0 -1 6 0 0 -1 2 0 2 0 0 -1 
6 -1 6 0 0 -2 3 0 0 -1 6 0 0 -1 3 0 
0 -1 6 -1 0 -1 2 0 0 -2 8 0 2 0 0 -1 
2 0 0 -1 4 0 0 -1 4 0 0 -1 4 0 2 0 
0 -1 2 0 0 -1 4 0 0 -1 5 0 0 0 3 -1 
1 -1 4 0 0 -2 7 0 2 0 0 -1 3 0 0 -1 
3 0 0 0 4 -1 1 -1 1 0 1 -1 0 -1 12 -1 
0 -1 4 0 0 -1 6029 675 100 MP stroke
5 0 0 -1 2 0 0 -1 3 0 5 0 0 -1 4 -1 
0 0 4 -1 0 -1 4 -1 4 0 0 -1 1 -1 3 0 
0 -1 5 -1 3 0 0 -1 3 -1 0 0 4 -1 0 -1 
2 0 1 0 0 -2 6 -1 0 -1 3 0 1 -1 2 0 
1 -1 1 -1 1 0 0 -1 3 -1 0 -2 2 0 0 -2 
3 0 0 -1 4 -1 0 -1 7 0 0 -1 7 -1 1 -1 
1 -1 6 0 0 -2 3 0 0 -1 6 -1 1 -1 0 -2 
4 0 1 0 1 -1 0 -1 3 -1 1 -1 5 0 0 -2 
3 0 2 0 0 -1 2 0 0 -1 2 0 0 -1 4 0 
3 0 0 -2 2 0 0 0 3 -1 0 -1 2 0 0 -1 
4 0 0 -1 2 0 3 0 0 -2 8 0 0 -1 3 0 
0 -2 2 0 5 0 0 -1 4 0 0 -1 6 -1 0 -2 
6 -1 0 -1 3 0 5833 744 100 MP stroke
0 -1 2 0 0 -1 3 0 0 0 4 -1 0 -1 4 0 
0 -2 2 0 2 0 0 -2 2 0 2 0 0 -1 7 0 
0 -1 2 0 0 -1 2 0 0 -2 5 0 2 0 0 -1 
4 0 0 -1 2 0 7 0 0 -1 1 -1 0 -1 5 -1 
0 -1 2 0 1 -1 2 0 0 -2 3 -1 0 -1 7 0 
0 -2 2 0 1 -1 0 -1 7 -1 0 -1 3 -1 0 -1 
5 0 0 -1 2 0 0 -1 2 0 0 -1 2 0 1 -1 
3 0 0 -1 3 -1 6 0 0 -1 6 -1 1 -1 1 -1 
0 -1 2 -2 2 0 0 -2 2 0 0 -2 6 0 4 0 
0 -2 3 0 1 0 0 -1 3 -1 0 -1 3 0 0 -1 
5 0 1 -1 1 -1 0 -1 5 -1 1 -1 0 0 2 -2 
0 0 4 -1 1 -1 1 -1 0 -1 3 -1 1 -1 1 -1 
3 0 0 -2 2 -2 5658 818 100 MP stroke
0 -3 2 0 0 -2 4 0 0 -1 2 0 0 -1 4 0 
0 -3 2 0 1 -1 1 0 0 -1 6 -1 1 -1 1 -1 
1 -1 0 -1 5 -1 0 -3 4 0 1 -1 0 -1 3 -1 
0 -1 5 -1 0 -2 2 0 0 -1 3 0 0 -1 1 -1 
0 0 2 -2 0 0 7 -1 0 -1 2 0 0 -1 3 0 
2 0 0 -1 2 0 1 -1 1 -1 0 -1 6 -1 0 -1 
3 0 3 0 0 -2 7 -1 0 -1 3 0 0 -1 3 0 
3 0 0 -3 3 -1 0 0 3 -1 0 -2 2 0 0 -1 
3 0 0 -1 2 0 0 -2 2 0 0 -2 2 0 0 0 
4 -1 1 -1 2 0 0 -1 5 0 1 -1 1 -1 0 -1 
2 -2 1 -1 1 0 0 -2 3 -1 0 -1 3 0 1 -1 
0 -1 5 -1 1 -1 1 -1 2 0 0 -1 4 -1 0 -1 
2 0 0 -1 4 -1 5500 901 100 MP stroke
1 -1 0 0 4 -1 1 -1 0 -2 4 -1 2 0 0 -1 
1 -1 0 -1 5 -1 0 -1 3 -1 2 0 0 -1 3 -1 
0 -1 2 0 0 -1 1 -1 3 0 0 -1 1 -1 1 0 
1 -1 1 -1 1 -1 0 -3 2 0 0 0 2 -2 1 -1 
2 0 0 -1 3 0 1 -1 1 0 0 -2 2 0 2 0 
1 -1 0 -2 2 0 0 -1 2 0 0 -1 3 -1 0 -1 
2 0 0 -1 3 -1 2 0 0 -1 3 0 1 -1 0 -2 
2 0 1 0 0 -2 2 0 1 -1 0 0 2 -2 1 -1 
0 -3 4 -1 1 -1 1 0 0 -3 4 0 0 -1 3 -1 
1 0 1 -1 1 -1 4 0 0 -2 3 -1 1 -1 0 -2 
2 -2 0 -1 3 -1 0 -1 2 -2 1 0 1 -1 1 -1 
1 -1 0 -1 3 -1 0 -1 3 0 0 -1 2 0 0 -2 
2 0 0 -2 3 0 5371 988 100 MP stroke
0 -2 3 -1 0 -1 1 -1 0 -2 3 0 1 0 0 -1 
3 -1 0 -1 2 0 1 -1 1 -1 0 -1 4 -1 1 -1 
1 -1 0 -2 3 0 0 -1 3 -1 0 0 3 -1 0 -1 
2 0 0 -1 2 0 0 -1 1 -1 0 -1 3 -1 0 0 
2 -2 0 -2 5 0 1 -1 1 -1 0 -2 2 0 0 -1 
2 0 0 -1 4 0 1 -1 1 0 0 -1 3 -1 1 -1 
0 -1 3 -1 1 -1 0 0 2 -2 1 -1 1 -1 1 -1 
0 -1 3 -1 0 -2 4 0 1 -1 1 -1 0 -2 3 0 
0 -1 2 0 0 -1 2 0 0 -1 2 0 0 0 3 -1 
1 -1 0 -2 2 0 1 -1 1 -1 1 -1 1 -1 1 -1 
1 0 1 -1 0 -2 1 -1 0 -2 2 -2 0 0 4 -1 
1 -1 0 -1 2 -2 1 0 0 -2 2 -2 0 0 4 -1 
0 -1 2 0 1 0 5250 1076 100 MP stroke
1 -1 0 -2 3 -1 0 -1 1 -1 0 -2 1 -1 0 0 
3 -1 0 -1 2 0 0 -2 2 0 0 -1 4 -1 0 -2 
2 0 0 -1 2 -2 0 -2 2 0 0 -1 2 0 1 0 
1 -1 1 -1 1 -1 0 -2 2 0 0 -1 3 -1 1 -1 
0 -2 2 -2 0 -1 2 -2 0 0 2 -2 2 0 0 -1 
2 0 0 -1 3 -1 0 -1 1 -1 1 0 0 -2 2 0 
1 0 1 -1 1 -1 2 0 0 -2 3 -1 0 -2 2 -2 
2 0 0 -1 1 -1 0 0 3 -1 0 -1 2 0 0 -2 
1 -1 0 -2 2 0 0 -1 1 -1 0 -2 1 -1 0 -1 
2 -2 0 -1 2 -2 1 -1 1 -1 2 0 1 -1 0 -2 
2 0 0 -1 2 -2 2 0 0 -2 3 -1 0 -2 5 -1 
0 -3 2 0 0 -1 2 0 0 -1 1 -1 0 -2 2 0 
3 0 0 -2 3 0 5139 1176 100 MP stroke
0 -1 3 -1 0 -1 1 -1 1 -1 0 -3 2 0 1 -1 
1 0 0 -1 3 -1 5 0 0 -1 1 -1 1 -1 0 -2 
3 -1 0 -2 2 0 1 -1 1 -1 1 -1 0 -3 1 -1 
1 0 1 -1 1 -1 1 -1 0 -3 3 -1 0 -1 3 -1 
0 -1 2 0 1 -1 0 -1 3 -1 1 -1 0 -1 2 -2 
0 -1 2 -2 1 -1 1 -1 0 -2 3 -1 1 0 0 -2 
2 -2 0 -3 1 -1 0 0 2 -2 0 -1 2 -2 0 -2 
2 -2 1 -1 0 -4 2 0 0 -2 1 -1 0 -3 3 0 
0 -1 2 0 0 -2 3 -1 0 -1 2 0 2 0 1 -1 
0 -1 2 -2 1 0 1 -1 0 -2 3 0 1 -1 0 0 
3 -1 0 -1 1 -1 1 -1 1 -1 0 -1 2 -2 0 -2 
1 -1 0 -2 2 0 1 -1 1 -1 1 -1 1 -1 1 -1 
1 -1 0 -3 2 0 5031 1290 100 MP stroke
1 -1 0 0 3 -1 0 -2 3 -1 0 0 2 -2 1 0 
0 -2 2 -2 1 -1 1 -1 0 -1 5 -1 0 -1 2 0 
2 0 0 -2 1 -1 0 -1 3 -1 1 -1 0 -2 1 -1 
0 -2 2 0 0 -2 2 0 0 -1 1 -1 1 -1 1 -1 
0 -2 3 -1 1 -1 0 -1 2 -2 0 -1 3 -1 0 -2 
3 -1 1 -1 1 -1 0 0 2 -2 1 -1 1 -1 1 0 
1 -1 0 -3 1 -1 0 0 2 -2 0 -2 2 -2 0 0 
4 -1 0 -1 3 -1 1 -1 1 -1 2 0 0 -2 2 -2 
0 -2 2 0 0 -2 1 -1 1 0 1 -1 1 -1 1 -1 
0 -2 4 -1 0 -1 3 -1 0 -1 2 0 0 -1 1 -1 
0 -2 2 0 1 -1 0 -3 2 -2 1 -1 1 -1 1 -1 
1 0 0 -4 2 0 0 -2 2 0 0 -1 1 -1 0 -3 
2 0 0 -1 1 -1 4923 1401 100 MP stroke
1 -1 0 -3 2 0 1 -1 1 -1 1 -1 1 -1 1 -1 
1 -1 0 -5 2 -2 1 -1 1 0 1 -1 0 -1 3 -1 
1 -1 1 -1 1 -1 0 -2 2 0 0 -1 1 -1 1 -1 
3 0 0 -1 1 -1 0 0 2 -2 0 -2 2 0 0 -2 
1 -1 0 -2 2 0 0 0 2 -2 0 0 2 -2 1 0 
1 -1 1 -1 1 0 0 -2 2 0 0 -1 3 0 0 -1 
1 -1 0 -2 5 -1 1 -1 0 0 2 -2 0 -1 2 -2 
0 -2 2 -2 1 -1 1 -1 0 -3 2 0 0 -1 1 -1 
0 -3 2 -2 1 -1 0 -1 5 -1 2 0 0 -1 2 0 
1 -1 1 -1 0 -1 4 -1 1 0 0 -1 2 -2 1 -1 
1 0 0 -2 1 -1 1 -1 0 -2 1 -1 1 -1 1 -1 
0 0 2 -2 1 0 0 -2 2 0 1 0 0 -1 2 -2 
1 -1 0 -2 2 -2 4818 1510 100 MP stroke
1 -1 0 -4 1 -1 0 -2 2 -2 1 0 0 -3 1 -1 
1 -1 0 -2 1 -1 1 -1 0 -2 4 0 0 -2 4 -1 
1 -1 0 -2 1 -1 2 0 1 -1 0 -2 2 0 1 -1 
1 -1 1 -1 1 -1 0 -2 2 -2 1 0 0 -2 2 -2 
1 -1 1 -1 1 0 0 -4 1 -1 2 0 0 -1 2 -2 
0 -1 3 -1 0 -1 1 -1 0 -3 2 -2 0 -2 3 -1 
0 -1 2 0 0 -1 2 0 0 -1 2 0 0 -2 2 0 
1 -1 0 -3 2 -2 1 -1 1 -1 1 -1 0 -1 2 -2 
1 -1 0 -2 2 -2 1 -1 0 -3 1 -1 1 -1 1 -1 
1 -1 1 -1 5 0 0 -3 2 0 1 -1 1 0 0 -2 
1 -1 0 0 2 -2 1 -1 0 -1 2 -2 0 -1 2 -2 
0 -2 1 -1 1 -1 1 -1 1 -1 0 -2 3 0 0 -1 
1 -1 0 -2 1 -1 4717 1635 100 MP stroke
2 0 1 -1 1 -1 0 0 2 -2 1 0 0 -3 3 -1 
1 -1 2 0 0 -2 1 -1 1 -1 0 -2 2 -2 0 -2 
1 -1 0 -3 3 -1 0 -1 1 -1 0 0 3 -1 0 -1 
2 0 1 -1 0 -3 2 -2 1 -1 0 -2 2 0 0 -2 
2 -2 0 -2 1 -1 0 -2 2 -2 0 -1 2 -2 1 -1 
0 -2 1 -1 0 -2 2 0 0 0 2 -2 0 -3 2 0 
1 0 0 -3 1 -1 1 -1 1 -1 1 0 0 -2 2 0 
1 -1 1 -1 1 -1 1 -1 0 -2 1 -1 0 -2 2 -2 
1 0 0 -1 2 -2 0 -2 3 -1 0 -1 1 -1 1 -1 
0 0 2 -2 0 0 2 -2 0 -1 2 -2 1 -1 0 -1 
2 -2 0 -2 2 -2 1 -1 0 -2 2 -2 1 0 0 -1 
4 -1 0 -1 1 -1 0 -2 2 -2 1 -1 0 -2 1 -1 
1 -1 0 -1 2 -2 4620 1761 100 MP stroke
0 -3 1 -1 1 0 0 -2 2 0 1 -1 0 -2 2 -2 
0 -3 3 0 1 -1 1 -1 0 -1 2 -2 0 0 2 -2 
0 -2 2 -2 0 -2 1 -1 0 -2 2 0 0 -1 1 -1 
1 -1 1 -1 0 -1 2 -2 1 0 0 -1 2 -2 0 -1 
2 -2 1 -1 1 -1 1 -1 1 -1 0 -2 1 -1 1 -1 
1 -1 0 -4 2 0 1 -1 1 -1 1 -1 0 -2 2 -2 
0 -1 2 -2 1 -1 1 -1 1 -1 1 -1 1 -1 1 -1 
1 -1 0 -1 5 -1 0 -2 2 -2 0 -1 2 -2 0 -2 
1 -1 1 -1 0 0 2 -2 0 -2 2 0 1 -1 0 -2 
2 0 0 -2 1 -1 1 -1 0 0 2 -2 0 -1 2 -2 
0 -1 2 -2 0 -2 1 -1 0 -2 2 -2 0 -1 3 -1 
0 -1 1 -1 0 0 2 -2 0 -1 2 -2 0 -3 1 -1 
0 0 2 -2 1 -1 4525 1889 100 MP stroke
0 -2 2 0 1 0 0 -2 2 -2 0 -1 2 -2 1 -1 
0 -2 1 -1 1 0 0 -2 1 -1 0 -1 2 -2 1 0 
0 -4 2 -2 1 -1 0 -1 3 -1 0 -1 1 -1 1 -1 
0 -2 1 -1 1 -1 1 0 0 -2 1 -1 0 -1 2 -2 
0 -2 2 0 1 -1 0 -2 1 -1 0 -2 1 -1 1 0 
1 -1 0 -3 1 -1 0 -2 2 0 1 -1 1 -1 0 0 
2 -2 0 -2 2 -2 1 -1 1 0 0 -2 1 -1 1 -1 
1 0 0 -3 2 -2 1 0 1 -1 0 -1 2 -2 1 -1 
0 -3 2 -2 0 -1 2 -2 1 -1 1 -1 0 -4 3 0 
0 -2 1 -1 0 -1 3 -1 0 -2 1 -1 0 -1 2 -2 
0 -3 2 -2 2 0 0 -2 1 -1 0 -2 3 -1 1 -1 
0 -2 2 -2 0 0 2 -2 1 0 0 -2 1 -1 1 -1 
1 0 0 -3 3 -1 4433 2020 100 MP stroke
0 -1 1 -1 1 -1 0 -2 2 -2 0 -1 2 -2 1 -1 
0 -1 2 -2 1 -1 0 -2 1 -1 0 -1 2 -2 1 0 
0 -3 3 -1 1 -1 0 -1 2 -2 1 -1 1 -1 1 -1 
1 0 0 -1 3 -1 1 -1 0 -1 2 -2 0 -2 3 -1 
0 -2 3 -1 0 -1 1 -1 0 -2 1 -1 0 -1 3 -1 
0 -2 1 -1 0 -2 2 -2 0 -1 2 -2 0 -2 1 -1 
1 -1 0 -2 2 -2 0 -1 2 -2 1 -1 0 -2 1 -1 
1 -1 0 -2 3 0 0 -3 1 -1 2 0 0 -1 1 -1 
0 -1 2 -2 0 -2 3 -1 0 -2 1 -1 0 -3 2 -2 
1 -1 0 0 2 -2 0 -3 1 -1 1 -1 1 -1 0 -2 
2 -2 0 -1 2 -2 1 -1 0 -1 3 -1 0 -2 2 -2 
1 -1 1 -1 0 -2 4 -1 0 -1 1 -1 0 0 3 -1 
0 -2 1 -1 1 -1 4335 2154 100 MP stroke
0 -3 2 -2 0 -1 2 -2 1 0 1 -1 0 -1 2 -2 
1 -1 0 -2 2 -2 0 -2 2 -2 1 0 0 -1 2 -2 
0 0 2 -2 0 -2 2 -2 0 -2 2 -2 0 -2 2 -2 
1 -1 0 -2 2 -2 0 -2 1 -1 1 0 0 -3 2 0 
1 -1 0 -2 1 -1 1 -1 0 -2 2 -2 0 -2 1 -1 
0 -2 1 -1 0 -1 2 -2 0 -1 3 -1 1 -1 1 -1 
1 -1 0 -2 3 -1 0 -2 2 -2 0 0 2 -2 1 0 
0 -2 1 -1 0 -3 1 -1 1 -1 1 -1 0 -2 1 -1 
0 -1 2 -2 0 -2 1 -1 0 -3 1 -1 1 -1 1 -1 
1 -1 0 -4 3 -1 0 -1 1 -1 0 -1 2 -2 0 -3 
1 -1 1 -1 1 -1 0 -2 3 -1 0 -1 1 -1 0 -1 
2 -2 0 -2 1 -1 0 -2 2 -2 1 -1 0 -2 2 -2 
1 -1 0 -2 2 -2 4245 2301 100 MP stroke
0 -2 1 -1 0 -2 2 0 0 -1 1 -1 0 -2 2 -2 
0 -1 2 -2 0 -2 2 -2 0 -2 2 -2 1 -1 1 -1 
0 -2 2 -2 1 -1 1 -1 1 -1 0 -2 1 -1 1 -1 
0 -3 2 -2 0 -2 1 -1 1 -1 0 -2 2 -2 0 -3 
2 -2 0 -2 1 -1 0 -4 2 -2 0 -2 2 0 1 -1 
1 -1 0 0 2 -2 0 -2 1 -1 0 -3 2 -2 0 -4 
2 -2 1 -1 1 -1 1 -1 1 -1 1 -1 0 -3 2 0 
0 -1 2 0 0 -1 1 -1 0 -2 1 -1 0 -1 2 -2 
0 -2 1 -1 1 0 0 -2 1 -1 0 -1 2 -2 0 -2 
1 -1 0 -3 2 -2 0 -3 1 -1 1 -1 0 0 2 -2 
0 -4 2 0 1 -1 0 -2 1 -1 0 -2 1 -1 1 -1 
0 -1 3 -1 2 0 0 -2 1 -1 1 -1 0 -2 2 -2 
0 -1 2 -2 0 -2 4160 2451 100 MP stroke
2 -2 1 -1 0 -3 3 -1 1 -1 1 -1 0 -2 2 0 
0 -1 3 -1 1 -1 0 -2 1 -1 1 -1 1 0 1 -1 
1 -1 0 -2 1 -1 1 -1 0 -2 1 -1 0 -2 1 -1 
1 -1 0 -3 2 -2 0 -3 1 -1 1 -1 0 -2 2 -2 
0 -2 2 0 0 -1 1 -1 0 -2 1 -1 0 -2 3 -1 
1 -1 1 -1 0 -1 2 -2 0 -2 1 -1 1 -1 1 -1 
0 -2 3 -1 1 -1 1 -1 0 -1 2 -2 0 -2 1 -1 
1 -1 1 -1 0 -3 1 -1 1 0 0 -4 2 -2 0 0 
2 -2 1 -1 1 -1 0 -2 1 -1 0 -3 2 -2 0 -2 
1 -1 0 -2 2 -2 1 -1 0 -4 2 0 0 -2 2 -2 
0 -1 2 -2 0 -3 2 -2 0 -2 3 -1 0 -2 1 -1 
0 -2 2 -2 0 -3 1 -1 0 -2 1 -1 0 -2 1 -1 
1 -1 0 -4 1 -1 4072 2601 100 MP stroke
1 0 1 -1 0 -3 1 -1 0 -1 2 -2 1 -1 0 -2 
2 -2 0 -3 2 -2 1 0 0 -2 1 -1 0 -2 1 -1 
0 -2 2 -2 0 -2 1 -1 1 -1 0 -2 1 -1 0 -2 
1 -1 0 -2 2 0 2 0 0 -3 2 0 1 -1 0 -3 
2 -2 0 -3 2 0 0 -1 2 -2 1 0 0 -5 1 -1 
0 -1 2 -2 0 -1 3 -1 0 -1 2 -2 0 -2 2 -2 
1 -1 0 -3 2 0 0 -2 1 -1 1 -1 0 -1 2 -2 
0 -2 1 -1 0 -3 1 -1 0 0 2 -2 0 -2 2 0 
0 -2 2 -2 1 -1 0 -3 1 -1 0 -1 2 -2 0 -3 
2 -2 1 -1 1 -1 0 -3 2 -2 1 0 0 -3 2 -2 
1 -1 1 -1 0 -2 2 -2 0 -3 2 -2 0 -2 1 -1 
0 -2 1 -1 1 -1 1 -1 0 -1 2 -2 1 -1 0 -1 
2 -2 0 -3 2 -2 3984 2756 100 MP stroke
0 -2 2 -2 0 -1 2 -2 0 -3 1 -1 0 -4 1 -1 
1 -1 0 -2 2 0 0 -1 2 -2 0 -1 2 -2 1 -1 
0 -3 3 -1 0 -2 1 -1 0 -3 1 -1 0 -2 1 -1 
0 -3 1 -1 1 -1 1 -1 1 -1 1 -1 0 -2 2 -2 
0 -2 1 -1 1 0 1 -1 0 -2 2 -2 1 -1 0 -2 
1 -1 0 -3 2 -2 0 -2 1 -1 0 -1 2 -2 1 0 
0 -2 2 -2 0 -2 1 -1 0 -3 1 -1 1 -1 0 -4 
1 -1 0 -1 2 -2 0 -2 1 -1 1 -1 0 -2 1 -1 
0 -3 1 -1 1 -1 0 -5 2 -2 0 0 2 -2 1 -1 
0 -3 2 -2 0 -2 1 -1 0 -3 2 -2 0 -2 1 -1 
0 -1 3 -1 0 -2 2 -2 1 -1 0 -2 2 0 0 -1 
2 0 0 -3 2 -2 0 -3 4 -1 0 -2 2 -2 0 0 
2 -2 1 -1 0 -2 3899 2917 100 MP stroke
2 0 0 -2 2 0 0 -2 1 -1 0 -3 1 -1 0 -3 
1 -1 0 -2 2 -2 0 -2 1 -1 0 -2 2 -2 1 -1 
0 -2 1 -1 0 0 2 -2 0 -3 2 -2 1 0 0 -2 
1 -1 1 -1 0 -3 1 -1 0 -2 1 -1 0 -2 2 -2 
1 -1 0 -2 1 -1 1 -1 0 -2 2 -2 0 -1 2 -2 
1 -1 1 -1 0 -3 1 -1 1 -1 1 -1 0 -2 2 -2 
0 -2 1 -1 0 -3 1 -1 1 -1 0 -2 1 -1 0 -2 
1 -1 0 -2 2 -2 1 0 0 -1 2 -2 4 0 0 -1 
1 -1 0 -3 2 -2 1 -1 0 -2 1 -1 0 -3 1 -1 
0 0 2 -2 1 -1 1 -1 0 -3 2 0 0 -1 1 -1 
0 -2 2 -2 0 -2 1 -1 0 -1 2 -2 0 -2 1 -1 
0 -3 1 -1 1 -1 0 -4 1 -1 1 -1 0 -2 2 0 
0 -2 1 -1 0 -2 3820 3067 100 MP stroke
2 -2 1 -1 0 -2 2 0 1 -1 0 -3 1 -1 0 -2 
2 0 0 -3 2 -2 0 -2 1 -1 1 -1 1 -1 0 -4 
2 -2 1 0 0 -3 2 -2 0 -2 1 -1 0 -3 2 0 
0 -1 2 -2 0 -2 1 -1 1 -1 0 -2 1 -1 0 -3 
2 -2 1 -1 0 -2 1 -1 0 -3 2 -2 0 -2 3 -1 
0 -1 1 -1 1 -1 0 -1 2 -2 0 -2 2 -2 0 -4 
1 -1 1 -1 0 -2 1 -1 0 -2 1 -1 1 0 0 -4 
2 -2 0 -3 2 -2 0 -1 3 -1 0 -1 1 -1 1 -1 
0 -4 1 -1 1 -1 1 -1 1 -1 1 -1 0 -2 1 -1 
0 -1 2 -2 0 -2 2 -2 0 -5 2 -2 1 -1 0 -3 
1 -1 1 -1 1 -1 0 -3 1 -1 0 -2 2 -2 0 -3 
2 -2 1 -1 0 -2 1 -1 1 -1 0 -2 1 -1 0 -1 
3 -1 0 -4 1 -1 3735 3232 100 MP stroke
0 0 2 -2 0 -2 1 -1 0 -3 2 -2 0 -1 2 -2 
1 -1 0 -3 1 -1 0 -1 2 -2 0 -6 3 -1 0 -2 
1 -1 0 -2 1 -1 0 -2 1 -1 1 -1 0 -3 2 -2 
1 -1 0 -2 1 -1 0 -2 1 -1 1 -1 0 -2 1 -1 
0 -2 1 -1 0 -2 1 -1 0 -5 2 0 0 -2 1 -1 
0 -1 2 -2 1 -1 0 -2 2 -2 0 -2 1 -1 1 -1 
0 -4 2 -2 0 -3 1 -1 0 -2 1 -1 1 -1 1 -1 
0 -2 2 -2 1 -1 0 -2 1 -1 1 -1 0 -2 2 -2 
0 -3 1 -1 0 -1 2 -2 0 -2 2 -2 0 -2 1 -1 
0 -3 1 -1 0 -2 2 -2 0 -2 1 -1 0 -2 1 -1 
0 -1 2 -2 1 -1 1 -1 0 -3 2 -2 1 -1 0 -1 
2 -2 0 -2 1 -1 0 -2 1 -1 0 -2 1 -1 1 -1 
1 -1 0 -2 1 -1 3659 3396 100 MP stroke
0 -4 2 -2 0 -2 1 -1 0 -2 1 -1 1 -1 0 -2 
2 -2 1 -1 0 -3 2 -2 1 -1 0 -3 2 -2 0 -4 
2 -2 0 -1 2 -2 0 -2 2 -2 0 -3 1 -1 0 -4 
2 -2 0 -2 2 0 0 -2 1 -1 1 -1 1 -1 0 -3 
1 -1 0 -3 2 -2 1 -1 0 -2 1 -1 0 -1 2 -2 
0 -2 2 -2 0 -1 2 -2 0 -2 1 -1 1 -1 0 -2 
1 -1 1 -1 0 -2 1 -1 0 -1 2 -2 0 -4 1 -1 
0 -2 1 -1 0 -2 1 -1 0 -3 2 -2 0 -2 2 -2 
0 -1 2 -2 1 -1 0 -2 2 -2 1 -1 1 0 0 -3 
2 -2 0 -4 2 -2 0 -3 3 -1 1 -1 1 -1 0 -2 
1 -1 1 0 0 -2 2 -2 0 -3 2 -2 0 -2 2 0 
0 -2 2 -2 0 -3 2 -2 1 0 0 -2 2 -2 1 -1 
0 -2 1 -1 0 -3 3574 3572 100 MP stroke
1 -1 0 -2 1 -1 1 0 0 -2 2 -2 0 -1 2 -2 
1 -1 1 -1 0 -3 1 -1 1 -1 0 -2 2 -2 0 0 
2 -2 1 0 1 -1 0 -2 2 -2 1 -1 1 -1 1 -1 
0 -2 1 -1 0 -4 2 -2 0 -1 2 -2 0 -2 2 -2 
0 -2 1 -1 1 0 0 -4 3 -1 0 -2 1 -1 0 -2 
1 -1 0 0 2 -2 0 -2 2 -2 1 -1 0 -4 1 -1 
0 -1 2 -2 1 -1 0 -1 2 -2 0 -1 2 -2 0 -2 
2 -2 0 -2 2 -2 0 -2 1 -1 0 -2 1 -1 0 -2 
1 -1 0 -4 2 -2 1 -1 0 -2 1 -1 0 -4 2 -2 
0 -2 1 -1 1 -1 1 -1 0 -2 2 0 0 -3 1 -1 
0 -2 1 -1 1 -1 0 -2 1 -1 1 -1 0 -1 2 -2 
1 0 1 -1 1 -1 1 0 1 -1 1 -1 0 -2 1 -1 
0 -1 2 -2 0 -2 3491 3723 100 MP stroke
2 0 0 -4 2 -2 0 -5 2 -2 1 -1 0 -2 1 -1 
0 -2 1 -1 0 -2 1 -1 0 -3 2 -2 0 -2 2 -2 
1 0 1 -1 0 -2 1 -1 0 -2 1 -1 0 -2 1 -1 
0 -3 2 -2 0 -1 2 -2 0 -3 3 -1 0 -1 1 -1 
1 -1 1 -1 0 -2 1 -1 1 0 0 -2 2 -2 0 -1 
2 -2 1 -1 1 -1 0 -2 3 0 1 0 0 -3 1 -1 
1 -1 0 -3 1 -1 0 -2 2 -2 0 -2 2 -2 1 -1 
0 -4 2 -2 1 -1 0 -5 1 -1 0 -2 2 0 0 -3 
2 -2 0 -3 1 -1 1 0 0 -3 2 0 0 -5 1 -1 
0 -2 2 -2 0 -2 2 0 1 -1 1 -1 0 -3 1 -1 
0 -1 2 -2 1 0 1 -1 0 -2 2 0 1 -1 0 -2 
1 -1 0 -3 1 -1 1 -1 0 -3 2 0 0 -2 1 -1 
0 -2 1 -1 0 -3 3408 3885 100 MP stroke
2 -2 0 -3 2 -2 0 -2 3 -1 1 -1 0 -3 2 -2 
0 -2 1 -1 0 -2 1 -1 1 -1 0 -4 1 -1 0 -2 
1 -1 1 -1 1 -1 0 -2 2 -2 0 -2 1 -1 0 -3 
2 -2 1 -1 0 -1 2 -2 0 -3 1 -1 1 0 0 -2 
1 -1 0 -2 1 -1 1 -1 1 -1 0 -2 2 -2 1 -1 
0 -1 2 -2 0 -2 2 -2 0 -2 2 0 1 0 1 -1 
1 -1 1 -1 1 -1 1 -1 0 -1 2 -2 0 -1 2 -2 
1 -1 0 -2 2 -2 0 -2 1 -1 0 -2 1 -1 0 -2 
1 -1 0 -2 2 -2 1 -1 1 -1 1 -1 1 -1 0 -4 
1 -1 1 -1 1 -1 0 -2 1 -1 0 -2 1 -1 0 -2 
1 -1 1 -1 1 -1 0 0 2 -2 1 0 1 -1 0 -4 
1 -1 0 -2 1 -1 1 0 1 -1 1 -1 0 -2 1 -1 
1 -1 1 -1 0 -2 3326 4031 100 MP stroke
1 -1 0 -2 1 -1 0 -3 1 -1 0 -3 2 -2 1 -1 
1 -1 0 -2 1 -1 0 0 2 -2 0 -3 1 -1 1 -1 
0 -1 2 -2 0 -2 2 -2 1 -1 0 -2 1 -1 0 -4 
2 -2 0 -3 2 0 1 -1 0 -4 1 -1 0 -3 1 -1 
0 -2 2 -2 1 -1 1 -1 1 -1 1 -1 0 -2 1 -1 
1 0 0 -4 1 -1 0 0 2 -2 0 -3 1 -1 1 -1 
1 -1 0 -1 2 -2 1 -1 0 -3 2 0 1 0 0 -2 
2 -2 0 -3 1 -1 0 -1 2 -2 1 -1 0 -4 2 -2 
0 0 2 -2 0 -2 2 0 1 0 0 -4 1 -1 1 0 
0 -4 2 -2 0 -3 2 -2 0 -2 3 -1 0 -3 1 -1 
0 -3 1 -1 1 0 0 -2 1 -1 0 -3 2 -2 0 -2 
2 -2 0 -3 2 -2 0 -3 2 -2 0 -1 2 -2 1 -1 
1 -1 1 -1 0 -2 3242 4196 100 MP stroke
1 -1 0 -3 1 -1 1 -1 1 -1 1 -1 0 -2 1 -1 
1 -1 0 -2 2 -2 0 -4 1 -1 0 -3 2 -2 0 -1 
2 -2 0 -2 2 -2 0 -2 1 -1 1 -1 1 -1 1 -1 
1 -1 1 0 0 -2 2 -2 1 -1 0 -2 2 -2 0 -1 
2 -2 0 -3 1 -1 1 0 0 -4 2 0 0 -2 2 0 
0 -1 1 -1 0 -1 2 -2 1 -1 0 -3 2 -2 1 -1 
0 -3 1 -1 0 0 2 -2 1 -1 0 -1 2 -2 0 -1 
2 -2 1 -1 0 -2 2 0 1 -1 0 -3 1 -1 0 -2 
1 -1 0 -2 3 -1 0 -2 1 -1 1 -1 0 -1 2 -2 
1 -1 0 -2 2 -2 0 -2 2 -2 1 0 0 -5 2 -2 
0 0 2 -2 2 0 0 -1 1 -1 1 -1 1 -1 1 -1 
0 -2 1 -1 0 -2 1 -1 0 -4 1 -1 1 -1 1 -1 
0 -2 2 0 0 -1 3156 4343 100 MP stroke
1 -1 0 -3 2 0 0 -2 2 -2 0 -4 1 -1 0 -2 
1 -1 0 -2 1 -1 1 -1 0 -2 1 -1 0 -3 2 0 
0 -1 1 -1 0 0 2 -2 1 -1 0 -1 2 -2 0 -2 
1 -1 0 -2 1 -1 0 -1 2 -2 0 -2 3 -1 0 -2 
1 -1 1 -1 0 -3 1 -1 1 0 0 -2 1 -1 0 -2 
2 -2 0 -2 2 -2 0 -2 1 -1 0 -2 2 -2 0 -4 
2 -2 1 -1 1 -1 0 -1 2 -2 1 -1 1 -1 0 -3 
1 -1 0 -2 1 -1 0 0 2 -2 1 0 0 -2 2 -2 
0 -2 2 -2 1 -1 1 -1 0 -3 2 0 1 0 0 -3 
2 -2 1 -1 0 -2 1 -1 0 -3 1 -1 0 0 2 -2 
0 -1 2 -2 0 -3 1 -1 1 0 1 -1 0 -2 2 -2 
0 -2 2 -2 1 0 1 -1 1 -1 0 -3 2 -2 0 -2 
2 -2 0 -2 1 -1 3073 4495 100 MP stroke
1 -1 1 -1 0 -2 2 0 0 -1 1 -1 0 -2 2 -2 
0 -2 1 -1 0 -1 2 -2 0 -3 2 0 0 -1 1 -1 
0 -2 2 -2 1 -1 2 0 0 -2 2 -2 0 -1 2 -2 
0 -1 3 -1 0 -1 1 -1 0 0 2 -2 1 0 0 -2 
1 -1 0 -2 2 0 0 -1 1 -1 0 -2 2 0 0 -1 
1 -1 1 -1 1 -1 0 -4 1 -1 1 0 0 -2 2 0 
0 -1 1 -1 0 0 3 -1 0 -1 2 -2 1 -1 1 -1 
1 -1 0 -2 1 -1 0 -1 2 -2 1 0 0 -1 2 -2 
0 -2 1 -1 1 -1 2 0 0 -2 2 -2 0 -3 2 -2 
0 0 2 -2 0 -2 2 0 1 -1 0 -4 2 0 0 -1 
1 -1 0 -2 2 -2 0 -1 3 -1 0 -2 1 -1 1 -1 
1 -1 1 -1 0 -2 1 -1 0 -3 2 0 0 -1 3 0 
0 -1 1 -1 0 -2 2984 4619 100 MP stroke
1 -1 1 0 0 -2 2 -2 1 -1 0 0 2 -2 0 -2 
2 -2 0 -3 2 -2 0 0 2 -2 0 -2 1 -1 0 -2 
1 -1 0 -1 2 -2 0 -1 2 -2 1 -1 0 -3 3 -1 
0 -1 2 -2 1 0 0 -3 3 -1 1 0 1 -1 1 -1 
1 -1 1 -1 1 0 0 -3 2 -2 1 0 0 -2 2 0 
0 0 3 -1 1 -1 0 -2 1 -1 0 -2 2 0 0 -1 
2 -2 0 -2 2 0 1 -1 0 -1 3 -1 0 -2 1 -1 
0 0 4 -1 0 -1 2 0 1 0 1 -1 1 -1 1 0 
0 -2 1 -1 1 -1 1 -1 1 -1 1 -1 1 -1 0 -1 
3 -1 1 -1 0 -4 1 -1 0 -2 2 0 1 0 0 -2 
1 -1 0 -4 2 -2 1 -1 0 -1 2 -2 0 -1 3 -1 
0 -2 1 -1 0 -2 2 0 0 -2 1 -1 0 -3 2 0 
0 -2 4 -1 0 0 2885 4742 100 MP stroke
2 -2 0 -4 2 0 0 -2 3 0 0 -2 1 -1 0 -2 
2 0 0 -1 1 -1 0 -2 2 -2 1 0 1 -1 1 -1 
1 -1 1 -1 0 -2 2 0 0 -4 1 -1 0 -2 1 -1 
1 0 1 -1 0 -3 2 -2 0 -1 4 -1 0 -2 1 -1 
0 -1 2 -2 1 -1 1 -1 0 -4 1 -1 1 -1 0 -2 
2 0 0 -1 1 -1 0 0 2 -2 1 -1 1 -1 1 -1 
1 -1 1 -1 0 0 3 -1 0 -1 2 -2 1 -1 0 -1 
2 -2 1 -1 1 -1 1 -1 1 -1 0 -1 3 -1 1 -1 
1 -1 1 -1 0 -2 1 -1 1 -1 1 -1 1 0 0 -3 
2 0 0 -1 1 -1 1 -1 0 -4 1 -1 0 -2 2 -2 
1 -1 0 -2 2 0 0 -3 2 0 1 -1 1 -1 1 -1 
1 -1 1 -1 2 0 0 -3 2 0 0 -1 1 -1 1 -1 
0 -1 2 -2 1 -1 2790 4866 100 MP stroke
1 -1 0 0 2 -2 0 0 2 -2 1 -1 0 -1 4 -1 
1 0 1 -1 1 -1 0 -2 2 -2 0 -1 3 -1 0 -1 
3 0 0 -1 1 -1 1 -1 1 -1 1 0 1 -1 1 -1 
0 -2 1 -1 0 0 3 -1 0 -3 2 0 1 0 0 -3 
3 -1 0 -2 1 -1 2 0 0 -2 2 0 0 -1 1 -1 
1 -1 1 -1 1 0 1 -1 0 -3 2 0 1 -1 0 -2 
2 -2 1 -1 0 -1 2 -2 1 0 0 -2 1 -1 0 0 
2 -2 1 0 0 -2 2 0 0 -1 1 -1 1 0 0 -2 
3 -1 1 -1 1 -1 0 -1 2 -2 1 -1 1 -1 0 -4 
3 -1 0 -1 3 0 1 0 0 -3 1 -1 1 0 1 -1 
0 -1 2 -2 1 -1 1 -1 0 -1 2 -2 2 0 0 -1 
2 0 0 -2 1 -1 0 -2 2 0 0 -3 1 -1 1 -1 
2 0 0 -1 1 -1 2689 4973 100 MP stroke
1 -1 1 -1 1 -1 1 -1 0 -2 1 -1 0 -1 2 -2 
0 -2 1 -1 1 -1 1 -1 1 -1 0 -1 2 -2 0 -1 
2 -2 0 -2 2 0 0 -1 2 -2 0 -2 2 0 0 -1 
3 -1 0 -2 3 0 0 -1 1 -1 1 -1 0 -2 2 0 
0 -1 3 -1 1 -1 0 -2 3 -1 1 -1 0 -1 2 -2 
0 -1 2 -2 1 0 0 -2 6 0 1 0 0 -4 3 0 
0 -1 3 0 1 0 0 -2 2 -2 0 -2 1 -1 0 -2 
2 -2 0 -1 2 -2 1 -1 1 0 1 -1 0 -1 2 -2 
1 0 1 -1 0 -2 1 -1 1 -1 1 0 1 -1 1 -1 
1 -1 1 -1 1 0 1 -1 0 -2 2 0 0 -2 2 -2 
0 -2 2 0 0 -1 3 -1 1 -1 1 -1 0 -1 2 -2 
0 -2 3 0 1 -1 1 -1 0 -1 4 -1 0 0 2 -2 
1 -1 1 -1 0 -2 2582 5087 100 MP stroke
4 -1 1 -1 0 -2 1 -1 3 0 1 -1 1 -1 0 -1 
2 -2 0 -1 4 -1 0 -2 3 0 1 -1 1 -1 0 -3 
2 0 1 0 1 -1 1 -1 0 -4 3 0 1 -1 1 -1 
1 -1 0 -1 3 -1 0 0 6 -1 1 -1 1 0 0 -2 
2 0 1 0 0 -1 3 -1 1 0 0 -2 2 -2 1 -1 
0 -1 3 -1 1 0 1 -1 1 -1 0 -1 4 -1 0 -1 
2 0 1 -1 1 -1 0 -2 2 -2 1 0 0 -2 2 0 
0 -1 2 -2 1 -1 1 -1 0 -2 2 0 1 0 1 -1 
1 -1 1 -1 1 -1 0 -2 2 0 0 -1 2 0 0 -1 
1 -1 0 -2 2 -2 1 -1 1 -1 0 -1 2 -2 1 -1 
0 -1 2 -2 1 -1 1 -1 0 -2 4 -1 1 -1 1 -1 
0 -1 3 -1 2 0 0 -2 2 0 0 0 5 -1 0 -1 
1 -1 0 -2 2 0 2461 5188 100 MP stroke
1 -1 1 -1 1 -1 1 -1 1 0 0 -1 2 -2 1 -1 
0 -1 3 -1 1 0 0 -2 4 0 1 -1 0 -1 4 -1 
0 -3 4 0 0 -1 3 -1 0 -1 2 -2 1 0 0 -2 
2 0 0 -2 2 0 1 -1 1 0 1 -1 1 -1 1 -1 
0 -1 2 -2 1 -1 0 -1 3 -1 0 0 2 -2 0 -1 
3 -1 0 0 3 -1 0 -1 3 0 1 0 0 -2 2 0 
1 -1 0 -2 2 0 1 -1 1 -1 1 0 1 -1 1 -1 
2 0 0 -2 2 -2 1 -1 1 -1 1 -1 2 0 0 -1 
3 -1 0 -1 2 0 1 -1 0 -2 2 0 0 -1 1 -1 
0 -1 2 -2 0 0 4 -1 0 -1 2 0 0 -2 2 0 
0 -2 2 0 0 -1 2 0 1 -1 1 -1 3 0 0 -1 
1 -1 1 0 1 -1 1 -1 1 -1 0 -2 4 -1 0 -1 
3 0 0 -1 1 -1 2343 5278 100 MP stroke
0 -1 4 -1 0 -1 2 0 0 -2 3 -1 0 -1 4 0 
0 -1 4 0 1 -1 0 0 2 -2 0 0 3 -1 1 -1 
1 0 0 -3 2 0 1 -1 0 -2 2 0 1 -1 2 0 
0 -1 2 0 0 -1 2 0 0 0 2 -2 1 -1 1 -1 
1 -1 1 -1 0 -2 2 0 1 -1 2 0 0 -1 3 0 
1 -1 0 -2 2 0 0 -1 2 0 1 -1 1 0 1 -1 
1 -1 3 0 0 -3 2 0 0 0 2 -2 1 0 0 -1 
3 -1 0 -2 2 0 0 -1 2 0 0 -1 2 0 1 0 
0 -2 6 -1 0 -1 2 0 0 -1 6 -1 0 -1 2 0 
1 -1 1 -1 0 0 4 -1 0 -2 2 0 0 -1 5 -1 
2 0 0 -1 1 -1 0 -1 4 -1 2 0 0 -1 1 -1 
2 0 0 -1 2 0 0 -1 4 -1 0 -2 7 0 0 0 
4 -1 1 -1 3 0 2203 5355 100 MP stroke
0 -1 5 0 0 -1 2 0 2 0 0 -2 3 0 0 0 
4 -1 0 -1 3 0 0 -1 3 -1 0 -1 2 0 1 0 
1 -1 1 -1 1 0 0 -2 7 0 0 0 3 -1 0 -1 
2 0 0 -1 1 -1 1 -1 1 0 0 -1 3 -1 0 -2 
2 0 2 0 1 -1 1 -1 2 0 0 -1 1 -1 0 -2 
3 -1 0 -1 3 0 1 -1 0 -1 3 -1 0 -1 1 -1 
1 0 1 -1 0 -2 4 -1 0 -1 3 0 1 0 0 -1 
5 -1 1 0 0 -1 8 -1 0 0 2 -2 2 0 1 -1 
1 -1 0 0 3 -1 0 -1 3 0 0 -1 2 0 1 0 
0 -2 5 -1 0 -1 2 0 0 -2 4 0 0 -1 7 0 
0 -2 8 0 0 -1 3 -1 1 0 1 -1 1 -1 1 0 
1 -1 1 -1 3 0 1 -1 1 -1 4 0 1 -1 0 -2 
2 0 0 -1 6 0 2045 5427 100 MP stroke
1 -1 1 0 0 -2 4 0 0 -1 5 -1 0 -2 2 0 
0 0 4 -1 0 -1 4 0 0 -1 2 0 0 -1 3 -1 
0 -2 5 0 0 -1 5 0 0 -1 5 0 0 -1 3 0 
0 -1 2 0 1 0 1 -1 0 -1 6 -1 3 0 0 -1 
2 0 0 -1 4 -1 0 -1 3 -1 0 -1 3 0 0 -1 
2 0 0 -1 2 0 0 -1 2 0 0 -2 3 0 0 0 
3 -1 1 -1 0 0 4 -1 0 -1 2 0 5 0 0 -1 
2 0 0 -1 5 0 0 -2 4 0 2 0 0 -1 2 0 
0 -1 9 0 0 -1 3 0 5 0 0 -1 11 0 0 -1 
6 0 1 0 0 -1 9 -1 1 0 0 -1 4 -1 0 0 
4 -1 1 -1 1 0 1 -1 0 -2 4 0 1 0 0 -1 
5 -1 2 0 0 -1 3 0 1 -1 1 0 0 -2 5 0 
0 -1 3 -1 0 -1 1856 5490 100 MP stroke
9 0 10 0 0 -1 1 -1 0 -1 7 -1 6 0 0 -1 
6 0 1 -1 3 0 0 -1 8 -1 5 0 0 -1 2 0 
0 -1 5 -1 4 0 0 -2 7 0 5 0 0 -1 6 -1 
1 0 0 -2 2 0 1 -1 1 -1 2 0 0 -1 7 0 
0 -1 3 -1 3 0 0 -1 5 0 0 -1 5 0 0 0 
2 -2 10 0 0 -1 2 0 1 -1 4 0 0 -1 2 0 
1 -1 0 0 4 -1 0 -1 5 0 0 -1 15 0 9 0 
0 -1 20 0 0 -1 2 0 8 0 0 -1 4 0 1 -1 
7 0 0 -1 4 0 0 -1 5 0 8 0 0 -2 10 0 
3 0 0 -1 15 0 0 -1 9 0 0 -1 2 0 10 0 
0 -1 3 0 0 -1 14 0 3 0 0 -2 6 0 10 0 
0 -1 4 0 0 -1 19 0 8 0 0 -1 5 0 0 -1 
13 0 13 0 0 -1 1480 5543 100 MP stroke
4 0 0 -1 6 0 0 -1 11 0 12 0 0 -1 22 0 
0 -1 7 0 8 0 0 -1 43 0 0 -1 3 0 14 0 
0 -1 2 0 0 -1 13 0 0 -1 59 0 0 -1 102 0 
0 -1 1174 5554 26 MP stroke
gr

60 w
c8
0 sg
%%IncludeResource: font Helvetica
/Helvetica /ISOLatin1Encoding 288 FMSR

1245 6100 mt 
(Correlation between gene expression and c2) s
 509 5143 mt  -90 rotate
(Accumulative distribution function) s
90 rotate
%%IncludeResource: font Helvetica
/Helvetica /ISOLatin1Encoding 264 FMSR

 436  258 mt 
(Empirical CDF for correlation between gene expression and c\
2) s
gs 1029 468 6139 5087 MR c np
/c9 { 0.000000 0.000000 1.000000 sr} bdef
c9
0 -5 2 0 0 -6 7 0 0 -6 6 0 0 -6 3 0 
0 -6 3 0 0 -6 1 0 0 -6 1 0 0 -6 1 0 
0 -6 1 0 0 -6 2 0 0 -6 1 0 0 -6 1 0 
0 -12 1 0 0 -24 1 0 0 -6 1 0 0 -12 1 0 
0 -6 1 0 0 -5 1 0 0 -6 1 0 0 -6 2 0 
0 -12 2 0 0 -6 4 0 0 -6 2 0 0 -36 1 0 
0 -6 3 0 0 -12 1 0 0 -24 2 0 0 -17 2 0 
0 -18 1 0 0 -12 1 0 0 -12 1 0 0 -6 2 0 
0 -6 1 0 0 -6 1 0 0 -12 1 0 0 -12 1 0 
0 -6 1 0 0 -18 1 0 0 -24 1 0 0 -5 1 0 
0 -6 2 0 0 -12 1 0 0 -12 5 0 0 -12 1 0 
0 -12 1 0 0 -6 1 0 0 -6 1 0 0 -12 1 0 
0 -12 2 0 0 -12 7071 974 100 MP stroke
2 0 0 -6 1 0 0 -12 1 0 0 -6 1 0 0 -5 
1 0 0 -6 1 0 0 -12 1 0 0 -6 1 0 0 -12 
2 0 0 -6 2 0 0 -18 1 0 0 -18 1 0 0 -12 
1 0 0 -6 1 0 0 -24 1 0 0 -17 1 0 0 -6 
1 0 0 -6 2 0 0 -6 1 0 0 -18 1 0 0 -12 
2 0 0 -12 1 0 0 -12 1 0 0 -18 1 0 0 -18 
1 0 0 -18 2 0 0 -5 1 0 0 -12 2 0 0 -12 
3 0 0 -12 2 0 0 -6 1 0 0 -18 1 0 0 -6 
1 0 0 -12 1 0 0 -6 2 0 0 -12 1 0 0 -18 
1 0 0 -6 3 0 0 -6 2 0 0 -6 1 0 0 -17 
2 0 0 -6 3 0 0 -6 1 0 0 -18 1 0 0 -18 
1 0 0 -6 1 0 0 -6 3 0 0 -6 1 0 0 -6 
1 0 0 -12 1 0 7002 1504 100 MP stroke
0 -12 1 0 0 -18 1 0 0 -5 4 0 0 -6 1 0 
0 -6 1 0 0 -6 1 0 0 -12 1 0 0 -6 1 0 
0 -6 4 0 0 -6 2 0 0 -6 4 0 0 -12 1 0 
0 -6 1 0 0 -12 1 0 0 -24 2 0 0 -6 1 0 
0 -6 1 0 0 -17 2 0 0 -12 1 0 0 -6 2 0 
0 -18 1 0 0 -12 4 0 0 -6 2 0 0 -6 2 0 
0 -12 1 0 0 -12 1 0 0 -6 1 0 0 -6 4 0 
0 -6 3 0 0 -18 1 0 0 -11 2 0 0 -6 2 0 
0 -6 2 0 0 -6 2 0 0 -24 1 0 0 -6 1 0 
0 -6 1 0 0 -6 1 0 0 -12 3 0 0 -18 1 0 
0 -18 1 0 0 -6 1 0 0 -12 3 0 0 -6 3 0 
0 -5 1 0 0 -6 1 0 0 -12 5 0 0 -6 5 0 
0 -6 2 0 0 -6 6911 1980 100 MP stroke
1 0 0 -6 1 0 0 -6 4 0 0 -6 1 0 0 -12 
1 0 0 -6 2 0 0 -6 1 0 0 -6 1 0 0 -6 
1 0 0 -6 1 0 0 -6 1 0 0 -6 1 0 0 -6 
1 0 0 -6 1 0 0 -6 1 0 0 -11 2 0 0 -6 
1 0 0 -6 3 0 0 -18 1 0 0 -6 2 0 0 -6 
2 0 0 -6 2 0 0 -18 1 0 0 -6 2 0 0 -6 
2 0 0 -12 1 0 0 -12 1 0 0 -6 5 0 0 -6 
1 0 0 -12 2 0 0 -11 1 0 0 -6 1 0 0 -6 
2 0 0 -6 1 0 0 -6 5 0 0 -6 2 0 0 -6 
1 0 0 -6 2 0 0 -12 1 0 0 -6 5 0 0 -6 
1 0 0 -6 5 0 0 -6 2 0 0 -18 1 0 0 -12 
2 0 0 -12 2 0 0 -17 2 0 0 -6 2 0 0 -12 
1 0 0 -6 1 0 6824 2379 100 MP stroke
0 -6 2 0 0 -6 1 0 0 -6 1 0 0 -6 1 0 
0 -12 1 0 0 -12 2 0 0 -6 1 0 0 -6 1 0 
0 -12 2 0 0 -6 1 0 0 -6 4 0 0 -6 1 0 
0 -6 3 0 0 -5 6 0 0 -18 3 0 0 -6 3 0 
0 -6 1 0 0 -6 4 0 0 -6 2 0 0 -6 2 0 
0 -12 1 0 0 -12 2 0 0 -6 3 0 0 -6 1 0 
0 -18 6 0 0 -12 1 0 0 -6 4 0 0 -6 1 0 
0 -23 5 0 0 -6 1 0 0 -6 1 0 0 -12 3 0 
0 -6 2 0 0 -6 1 0 0 -18 3 0 0 -12 1 0 
0 -6 1 0 0 -6 3 0 0 -12 1 0 0 -6 1 0 
0 -6 1 0 0 -6 1 0 0 -6 5 0 0 -11 1 0 
0 -6 1 0 0 -6 1 0 0 -6 2 0 0 -6 1 0 
0 -12 1 0 0 -6 6726 2796 100 MP stroke
4 0 0 -24 3 0 0 -6 1 0 0 -6 2 0 0 -6 
1 0 0 -12 2 0 0 -6 2 0 0 -6 6 0 0 -6 
1 0 0 -6 2 0 0 -5 2 0 0 -6 2 0 0 -6 
3 0 0 -6 1 0 0 -12 4 0 0 -6 2 0 0 -6 
6 0 0 -6 3 0 0 -6 1 0 0 -6 1 0 0 -6 
2 0 0 -6 5 0 0 -12 3 0 0 -12 1 0 0 -6 
3 0 0 -6 1 0 0 -6 1 0 0 -12 1 0 0 -6 
6 0 0 -11 4 0 0 -6 1 0 0 -6 4 0 0 -18 
3 0 0 -6 1 0 0 -6 1 0 0 -6 1 0 0 -6 
3 0 0 -6 11 0 0 -6 1 0 0 -6 1 0 0 -12 
1 0 0 -6 2 0 0 -6 10 0 0 -6 2 0 0 -6 
1 0 0 -6 2 0 0 -11 5 0 0 -12 1 0 0 -6 
1 0 0 -6 3 0 6595 3171 100 MP stroke
0 -6 3 0 0 -6 6 0 0 -6 5 0 0 -6 4 0 
0 -6 3 0 0 -6 3 0 0 -6 2 0 0 -6 6 0 
0 -6 3 0 0 -6 1 0 0 -12 2 0 0 -12 1 0 
0 -6 2 0 0 -6 2 0 0 -6 1 0 0 -5 1 0 
0 -6 1 0 0 -12 6 0 0 -6 1 0 0 -6 1 0 
0 -12 1 0 0 -6 3 0 0 -18 1 0 0 -6 2 0 
0 -6 3 0 0 -6 1 0 0 -12 2 0 0 -6 1 0 
0 -6 6 0 0 -6 3 0 0 -6 1 0 0 -12 3 0 
0 -5 4 0 0 -6 1 0 0 -6 7 0 0 -6 3 0 
0 -18 6 0 0 -12 3 0 0 -12 2 0 0 -6 3 0 
0 -6 5 0 0 -6 2 0 0 -6 6 0 0 -12 5 0 
0 -6 1 0 0 -6 5 0 0 -6 2 0 0 -6 2 0 
0 -6 15 0 0 -5 6442 3546 100 MP stroke
4 0 0 -6 1 0 0 -6 1 0 0 -6 3 0 0 -6 
3 0 0 -6 2 0 0 -6 6 0 0 -12 1 0 0 -12 
1 0 0 -6 2 0 0 -12 3 0 0 -6 1 0 0 -6 
2 0 0 -6 3 0 0 -6 4 0 0 -6 6 0 0 -6 
18 0 0 -6 2 0 0 -6 1 0 0 -11 2 0 0 -12 
1 0 0 -12 2 0 0 -6 2 0 0 -12 1 0 0 -6 
4 0 0 -6 1 0 0 -6 8 0 0 -12 2 0 0 -6 
1 0 0 -6 4 0 0 -6 3 0 0 -12 5 0 0 -6 
11 0 0 -6 1 0 0 -6 7 0 0 -6 2 0 0 -5 
22 0 0 -6 2 0 0 -6 1 0 0 -6 3 0 0 -6 
3 0 0 -6 21 0 0 -6 4 0 0 -6 12 0 0 -6 
10 0 0 -12 7 0 0 -6 2 0 0 -6 1 0 0 -6 
4 0 0 -6 4 0 6225 3898 100 MP stroke
0 -6 3 0 0 -12 3 0 0 -6 3 0 0 -6 4 0 
0 -6 1 0 0 -6 1 0 0 -6 13 0 0 -5 3 0 
0 -12 3 0 0 -6 6 0 0 -6 2 0 0 -6 1 0 
0 -6 14 0 0 -6 6 0 0 -6 7 0 0 -6 4 0 
0 -6 3 0 0 -6 2 0 0 -6 3 0 0 -12 4 0 
0 -6 13 0 0 -12 9 0 0 -12 1 0 0 -6 13 0 
0 -6 1 0 0 -5 2 0 0 -6 3 0 0 -6 6 0 
0 -6 2 0 0 -6 19 0 0 -6 6 0 0 -6 7 0 
0 -6 12 0 0 -6 4 0 0 -6 14 0 0 -6 4 0 
0 -12 9 0 0 -6 7 0 0 -6 4 0 0 -6 6 0 
0 -6 6 0 0 -6 2 0 0 -6 6 0 0 -6 7 0 
0 -6 4 0 0 -6 8 0 0 -6 10 0 0 -5 1 0 
0 -6 6 0 0 -6 5947 4231 100 MP stroke
11 0 0 -6 8 0 0 -6 5 0 0 -6 6 0 0 -6 
10 0 0 -6 11 0 0 -6 7 0 0 -6 2 0 0 -6 
10 0 0 -12 13 0 0 -6 2 0 0 -6 23 0 0 -6 
1 0 0 -6 6 0 0 -6 10 0 0 -6 22 0 0 -6 
7 0 0 -6 5 0 0 -6 13 0 0 -5 13 0 0 -6 
3 0 0 -6 9 0 0 -6 2 0 0 -6 3 0 0 -6 
10 0 0 -6 17 0 0 -6 6 0 0 -6 6 0 0 -6 
2 0 0 -6 6 0 0 -6 7 0 0 -6 12 0 0 -6 
8 0 0 -6 14 0 0 -6 1 0 0 -6 5 0 0 -6 
9 0 0 -6 19 0 0 -6 19 0 0 -6 8 0 0 -6 
47 0 0 -6 2 0 0 -5 8 0 0 -6 11 0 0 -6 
3 0 0 -6 3 0 0 -6 11 0 0 -6 20 0 0 -6 
11 0 0 -6 35 0 5445 4529 100 MP stroke
0 -6 10 0 0 -6 15 0 0 -6 13 0 0 -6 4 0 
0 -6 12 0 0 -12 8 0 0 -6 9 0 0 -6 8 0 
0 -6 3 0 0 -6 2 0 0 -6 11 0 0 -6 6 0 
0 -6 21 0 0 -5 16 0 0 -6 24 0 0 -12 10 0 
0 -6 17 0 0 -6 1 0 0 -6 22 0 0 -6 2 0 
0 -6 9 0 0 -6 5 0 0 -6 13 0 0 -6 14 0 
0 -6 3 0 0 -12 16 0 0 -6 9 0 0 -6 24 0 
0 -6 2 0 0 -6 7 0 0 -6 17 0 0 -6 11 0 
0 -6 2 0 0 -6 71 0 0 -5 1 0 0 -6 8 0 
0 -6 7 0 0 -12 24 0 0 -6 2 0 0 -6 15 0 
0 -6 1 0 0 -6 1 0 0 -6 2 0 0 -6 12 0 
0 -6 24 0 0 -6 24 0 0 -6 16 0 0 -6 11 0 
0 -6 2 0 0 -6 4878 4851 100 MP stroke
27 0 0 -6 59 0 0 -6 4 0 0 -6 35 0 0 -6 
2 0 0 -6 9 0 0 -5 20 0 0 -6 1 0 0 -6 
35 0 0 -12 19 0 0 -6 11 0 0 -6 23 0 0 -6 
16 0 0 -6 4 0 0 -6 3 0 0 -6 9 0 0 -6 
3 0 0 -6 14 0 0 -6 20 0 0 -6 12 0 0 -6 
19 0 0 -6 6 0 0 -6 7 0 0 -6 9 0 0 -6 
1 0 0 -6 5 0 0 -6 4 0 0 -6 3 0 0 -5 
39 0 0 -6 2 0 0 -6 1 0 0 -6 3 0 0 -6 
15 0 0 -6 17 0 0 -6 1 0 0 -6 9 0 0 -6 
19 0 0 -6 21 0 0 -6 26 0 0 -6 25 0 0 -6 
29 0 0 -6 13 0 0 -6 1 0 0 -6 9 0 0 -6 
15 0 0 -6 25 0 0 -6 36 0 0 -6 20 0 0 -12 
20 0 0 -5 7 0 4145 5154 100 MP stroke
0 -6 27 0 0 -6 25 0 0 -6 23 0 0 -6 10 0 
0 -6 6 0 0 -6 6 0 0 -6 9 0 0 -6 6 0 
0 -6 8 0 0 -6 25 0 0 -6 17 0 0 -6 7 0 
0 -6 103 0 0 -6 16 0 0 -6 4 0 0 -6 15 0 
0 -6 15 0 0 -6 24 0 0 -6 29 0 0 -6 12 0 
0 -6 21 0 0 -6 35 0 0 -5 11 0 0 -6 19 0 
0 -6 7 0 0 -6 19 0 0 -6 3 0 0 -6 11 0 
0 -6 33 0 0 -6 28 0 0 -6 16 0 0 -6 21 0 
0 -6 19 0 0 -6 94 0 0 -6 9 0 0 -6 35 0 
0 -6 23 0 0 -6 1 0 0 -6 16 0 0 -6 11 0 
0 -6 32 0 0 -6 1 0 0 -6 44 0 0 -6 19 0 
0 -5 26 0 0 -6 2 0 0 -6 15 0 0 -6 27 0 
0 -6 44 0 0 -6 3116 5452 100 MP stroke
71 0 0 -6 18 0 0 -6 13 0 0 -6 13 0 0 -6 
28 0 0 -6 34 0 0 -6 17 0 0 -6 55 0 0 -6 
9 0 0 -6 13 0 0 -6 93 0 0 -6 79 0 0 -6 
69 0 0 -6 8 0 0 -6 151 0 0 -6 545 0 0 -6 
241 0 0 -6 1659 5554 35 MP stroke
gr

c9
0 sg
%%IncludeResource: font Helvetica
/Helvetica /ISOLatin1Encoding 120 FMSR

1012 5597 mt 
( ) s
7151  510 mt 
( ) s
6 w
1 sg
0 722 2874 0 0 -722 1089 1250 4 MP
PP
-2874 0 0 722 2874 0 0 -722 1089 1250 5 MP stroke
4 w
DO
SO
6 w
0 sg
1089 1250 mt 3963 1250 L
1089  528 mt 3963  528 L
1089 1250 mt 1089  528 L
3963 1250 mt 3963  528 L
1089 1250 mt 3963 1250 L
1089 1250 mt 1089  528 L
1089 1250 mt 3963 1250 L
1089  528 mt 3963  528 L
1089 1250 mt 1089  528 L
3963 1250 mt 3963  528 L
%%IncludeResource: font Helvetica
/Helvetica /ISOLatin1Encoding 288 FMSR

1554  821 mt 
(Non-sperm genes) s
gs 1089 528 2875 723 MR c np
60 w
c8
358 0 1160 718 2 MP stroke
gr

60 w
c8
0 sg
1554 1162 mt 
(Sperm genes) s
gs 1089 528 2875 723 MR c np
c9
358 0 1160 1059 2 MP stroke
6 w
gr

6 w
c9

end %%Color Dict

eplot
%%EndObject

epage
end

showpage

%%Trailer
%%EOF
