%!PS-Adobe-2.0 EPSF-1.2
%%Creator: MATLAB, The Mathworks, Inc. Version 7.6.0.324 (R2008a). Operating System: Linux 2.6.18.8-0.10-default #1 SMP Wed Jun 4 15:46:34 UTC 2008 x86_64.
%%Title: figs1/sperm_pval.eps
%%CreationDate: 12/15/2009  00:14:10
%%DocumentNeededFonts: Helvetica
%%DocumentProcessColors: Cyan Magenta Yellow Black
%%Extensions: CMYK
%%Pages: 1
%%BoundingBox:     6   142   589   658
%%EndComments

%%BeginProlog
% MathWorks dictionary
/MathWorks 160 dict begin
% definition operators
/bdef {bind def} bind def
/ldef {load def} bind def
/xdef {exch def} bdef
/xstore {exch store} bdef
% operator abbreviations
/c  /clip ldef
/cc /concat ldef
/cp /closepath ldef
/gr /grestore ldef
/gs /gsave ldef
/mt /moveto ldef
/np /newpath ldef
/cm /currentmatrix ldef
/sm /setmatrix ldef
/rm /rmoveto ldef
/rl /rlineto ldef
/s {show newpath} bdef
/sc {setcmykcolor} bdef
/sr /setrgbcolor ldef
/sg /setgray ldef
/w /setlinewidth ldef
/j /setlinejoin ldef
/cap /setlinecap ldef
/rc {rectclip} bdef
/rf {rectfill} bdef
% page state control
/pgsv () def
/bpage {/pgsv save def} bdef
/epage {pgsv restore} bdef
/bplot /gsave ldef
/eplot {stroke grestore} bdef
% orientation switch
/portraitMode 0 def /landscapeMode 1 def /rotateMode 2 def
% coordinate system mappings
/dpi2point 0 def
% font control
/FontSize 0 def
/FMS {/FontSize xstore findfont [FontSize 0 0 FontSize neg 0 0]
  makefont setfont} bdef
/reencode {exch dup where {pop load} {pop StandardEncoding} ifelse
  exch dup 3 1 roll findfont dup length dict begin
  { 1 index /FID ne {def}{pop pop} ifelse } forall
  /Encoding exch def currentdict end definefont pop} bdef
/isroman {findfont /CharStrings get /Agrave known} bdef
/FMSR {3 1 roll 1 index dup isroman {reencode} {pop pop} ifelse
  exch FMS} bdef
/csm {1 dpi2point div -1 dpi2point div scale neg translate
 dup landscapeMode eq {pop -90 rotate}
  {rotateMode eq {90 rotate} if} ifelse} bdef
% line types: solid, dotted, dashed, dotdash
/SO { [] 0 setdash } bdef
/DO { [.5 dpi2point mul 4 dpi2point mul] 0 setdash } bdef
/DA { [6 dpi2point mul] 0 setdash } bdef
/DD { [.5 dpi2point mul 4 dpi2point mul 6 dpi2point mul 4
  dpi2point mul] 0 setdash } bdef
% macros for lines and objects
/L {lineto stroke} bdef
/MP {3 1 roll moveto 1 sub {rlineto} repeat} bdef
/AP {{rlineto} repeat} bdef
/PDlw -1 def
/W {/PDlw currentlinewidth def setlinewidth} def
/PP {closepath eofill} bdef
/DP {closepath stroke} bdef
/MR {4 -2 roll moveto dup  0 exch rlineto exch 0 rlineto
  neg 0 exch rlineto closepath} bdef
/FR {MR stroke} bdef
/PR {MR fill} bdef
/L1i {{currentfile picstr readhexstring pop} image} bdef
/tMatrix matrix def
/MakeOval {newpath tMatrix currentmatrix pop translate scale
0 0 1 0 360 arc tMatrix setmatrix} bdef
/FO {MakeOval stroke} bdef
/PO {MakeOval fill} bdef
/PD {currentlinewidth 2 div 0 360 arc fill
   PDlw -1 eq not {PDlw w /PDlw -1 def} if} def
/FA {newpath tMatrix currentmatrix pop translate scale
  0 0 1 5 -2 roll arc tMatrix setmatrix stroke} bdef
/PA {newpath tMatrix currentmatrix pop	translate 0 0 moveto scale
  0 0 1 5 -2 roll arc closepath tMatrix setmatrix fill} bdef
/FAn {newpath tMatrix currentmatrix pop translate scale
  0 0 1 5 -2 roll arcn tMatrix setmatrix stroke} bdef
/PAn {newpath tMatrix currentmatrix pop translate 0 0 moveto scale
  0 0 1 5 -2 roll arcn closepath tMatrix setmatrix fill} bdef
/vradius 0 def /hradius 0 def /lry 0 def
/lrx 0 def /uly 0 def /ulx 0 def /rad 0 def
/MRR {/vradius xdef /hradius xdef /lry xdef /lrx xdef /uly xdef
  /ulx xdef newpath tMatrix currentmatrix pop ulx hradius add uly
  vradius add translate hradius vradius scale 0 0 1 180 270 arc 
  tMatrix setmatrix lrx hradius sub uly vradius add translate
  hradius vradius scale 0 0 1 270 360 arc tMatrix setmatrix
  lrx hradius sub lry vradius sub translate hradius vradius scale
  0 0 1 0 90 arc tMatrix setmatrix ulx hradius add lry vradius sub
  translate hradius vradius scale 0 0 1 90 180 arc tMatrix setmatrix
  closepath} bdef
/FRR {MRR stroke } bdef
/PRR {MRR fill } bdef
/MlrRR {/lry xdef /lrx xdef /uly xdef /ulx xdef /rad lry uly sub 2 div def
  newpath tMatrix currentmatrix pop ulx rad add uly rad add translate
  rad rad scale 0 0 1 90 270 arc tMatrix setmatrix lrx rad sub lry rad
  sub translate rad rad scale 0 0 1 270 90 arc tMatrix setmatrix
  closepath} bdef
/FlrRR {MlrRR stroke } bdef
/PlrRR {MlrRR fill } bdef
/MtbRR {/lry xdef /lrx xdef /uly xdef /ulx xdef /rad lrx ulx sub 2 div def
  newpath tMatrix currentmatrix pop ulx rad add uly rad add translate
  rad rad scale 0 0 1 180 360 arc tMatrix setmatrix lrx rad sub lry rad
  sub translate rad rad scale 0 0 1 0 180 arc tMatrix setmatrix
  closepath} bdef
/FtbRR {MtbRR stroke } bdef
/PtbRR {MtbRR fill } bdef
/stri 6 array def /dtri 6 array def
/smat 6 array def /dmat 6 array def
/tmat1 6 array def /tmat2 6 array def /dif 3 array def
/asub {/ind2 exch def /ind1 exch def dup dup
  ind1 get exch ind2 get sub exch } bdef
/tri_to_matrix {
  2 0 asub 3 1 asub 4 0 asub 5 1 asub
  dup 0 get exch 1 get 7 -1 roll astore } bdef
/compute_transform {
  dmat dtri tri_to_matrix tmat1 invertmatrix 
  smat stri tri_to_matrix tmat2 concatmatrix } bdef
/ds {stri astore pop} bdef
/dt {dtri astore pop} bdef
/db {2 copy /cols xdef /rows xdef mul dup 3 mul string
  currentfile exch readhexstring pop
  dup 0 3 index getinterval /rbmap xdef
  dup 2 index dup getinterval /gbmap xdef
  1 index dup 2 mul exch getinterval /bbmap xdef pop pop}bdef
/it {gs np dtri aload pop moveto lineto lineto cp c
  cols rows 8 compute_transform 
  rbmap gbmap bbmap true 3 colorimage gr}bdef
/il {newpath moveto lineto stroke}bdef
currentdict end def
%%EndProlog

%%BeginSetup
MathWorks begin

0 cap

end
%%EndSetup

%%Page: 1 1
%%BeginPageSetup
%%PageBoundingBox:     6   142   589   658
MathWorks begin
bpage
%%EndPageSetup

%%BeginObject: obj1
bplot

/dpi2point 12 def
portraitMode -0288 7872 csm

  370   -32  6996  6192 MR c np
76 dict begin %Colortable dictionary
/c0 { 0.000000 0.000000 0.000000 sr} bdef
/c1 { 1.000000 1.000000 1.000000 sr} bdef
/c2 { 0.900000 0.000000 0.000000 sr} bdef
/c3 { 0.000000 0.820000 0.000000 sr} bdef
/c4 { 0.000000 0.000000 0.800000 sr} bdef
/c5 { 0.910000 0.820000 0.320000 sr} bdef
/c6 { 1.000000 0.260000 0.820000 sr} bdef
/c7 { 0.000000 0.820000 0.820000 sr} bdef
c0
1 j
1 sg
   0    0 7920 6241 PR
6 w
0 5086 6137 0 0 -5086 1029 5554 4 MP
PP
-6137 0 0 5086 6137 0 0 -5086 1029 5554 5 MP stroke
4 w
DO
SO
6 w
0 sg
1029 5554 mt 7166 5554 L
1029  468 mt 7166  468 L
1029 5554 mt 1029  468 L
7166 5554 mt 7166  468 L
1029 5554 mt 7166 5554 L
1029 5554 mt 1029  468 L
1029 5554 mt 1029 5492 L
1029  468 mt 1029  529 L
%%IncludeResource: font Helvetica
/Helvetica /ISOLatin1Encoding 216 FMSR

 843 5789 mt 
(-6) s
2052 5554 mt 2052 5492 L
2052  468 mt 2052  529 L
1866 5789 mt 
(-4) s
3075 5554 mt 3075 5492 L
3075  468 mt 3075  529 L
2889 5789 mt 
(-2) s
4098 5554 mt 4098 5492 L
4098  468 mt 4098  529 L
4038 5789 mt 
(0) s
5121 5554 mt 5121 5492 L
5121  468 mt 5121  529 L
5061 5789 mt 
(2) s
6144 5554 mt 6144 5492 L
6144  468 mt 6144  529 L
6084 5789 mt 
(4) s
7167 5554 mt 7167 5492 L
7167  468 mt 7167  529 L
7107 5789 mt 
(6) s
1029 5554 mt 1090 5554 L
7167 5554 mt 7105 5554 L
 874 5634 mt 
(0) s
1029 4988 mt 1090 4988 L
7167 4988 mt 7105 4988 L
 874 5068 mt 
(2) s
1029 4423 mt 1090 4423 L
7167 4423 mt 7105 4423 L
 874 4503 mt 
(4) s
1029 3858 mt 1090 3858 L
7167 3858 mt 7105 3858 L
 874 3938 mt 
(6) s
1029 3293 mt 1090 3293 L
7167 3293 mt 7105 3293 L
 874 3373 mt 
(8) s
1029 2728 mt 1090 2728 L
7167 2728 mt 7105 2728 L
 754 2808 mt 
(10) s
1029 2163 mt 1090 2163 L
7167 2163 mt 7105 2163 L
 754 2243 mt 
(12) s
1029 1598 mt 1090 1598 L
7167 1598 mt 7105 1598 L
 754 1678 mt 
(14) s
1029 1033 mt 1090 1033 L
7167 1033 mt 7105 1033 L
 754 1113 mt 
(16) s
1029  468 mt 1090  468 L
7167  468 mt 7105  468 L
 754  548 mt 
(18) s
1029 5554 mt 7166 5554 L
1029  468 mt 7166  468 L
1029 5554 mt 1029  468 L
7166 5554 mt 7166  468 L
gs 1029 468 6139 5087 MR c np
gr

gs 1293 949 6048 4787 MR c np
60 W
1474 5273 PD
60 W
1488 5553 PD
60 W
1537 5442 PD
60 W
1704 5519 PD
60 W
1741 5553 PD
60 W
1822 5487 PD
60 W
1831 5479 PD
60 W
1841 5552 PD
60 W
1871 5509 PD
60 W
1930 5553 PD
60 W
1938 5546 PD
60 W
1954 5553 PD
60 W
2008 5549 PD
60 W
2033 5553 PD
60 W
2147 5501 PD
60 W
2148 5471 PD
60 W
2155 5553 PD
60 W
2186 5553 PD
60 W
2328 5553 PD
60 W
2330 5525 PD
60 W
2406 5553 PD
60 W
2409 5549 PD
60 W
2433 5553 PD
60 W
2465 5549 PD
60 W
2467 5552 PD
60 W
2480 5553 PD
60 W
2482 5448 PD
60 W
2528 5502 PD
60 W
2547 5522 PD
60 W
2584 5550 PD
60 W
2626 5550 PD
60 W
2643 5527 PD
60 W
2653 5553 PD
60 W
2690 5461 PD
60 W
2730 5538 PD
60 W
2757 5553 PD
60 W
2766 5268 PD
60 W
2785 5416 PD
60 W
2799 5530 PD
60 W
2804 5217 PD
60 W
2814 5553 PD
60 W
2823 5553 PD
60 W
2832 5526 PD
60 W
2885 5347 PD
60 W
2919 5553 PD
60 W
2921 5528 PD
60 W
2935 5538 PD
60 W
2935 5535 PD
60 W
2947 5509 PD
60 W
2962 5488 PD
60 W
2977 5553 PD
60 W
2982 5553 PD
60 W
2990 5539 PD
60 W
2994 5432 PD
60 W
3006 5540 PD
60 W
3013 5552 PD
60 W
3014 5546 PD
60 W
3028 5535 PD
60 W
3033 5553 PD
60 W
3046 5483 PD
60 W
3047 5489 PD
60 W
3047 5219 PD
60 W
3053 5534 PD
60 W
3071 5541 PD
60 W
3073 5440 PD
60 W
3086 5497 PD
60 W
3090 5542 PD
60 W
3095 5553 PD
60 W
3107 5544 PD
60 W
3114 5449 PD
60 W
3117 5544 PD
60 W
3118 5497 PD
60 W
3125 5553 PD
60 W
3139 5553 PD
60 W
3140 5454 PD
60 W
3144 5550 PD
60 W
3149 5543 PD
60 W
3157 5547 PD
60 W
3159 5523 PD
60 W
3166 5332 PD
60 W
3188 5435 PD
60 W
3195 5538 PD
60 W
3196 5548 PD
60 W
3203 5534 PD
60 W
3208 5553 PD
60 W
3214 5540 PD
60 W
3220 5536 PD
60 W
3222 5491 PD
60 W
3236 5553 PD
60 W
3240 4947 PD
60 W
3245 5497 PD
60 W
3245 5551 PD
60 W
3254 5459 PD
60 W
3255 5553 PD
60 W
3255 5261 PD
60 W
3255 5553 PD
60 W
3256 5552 PD
60 W
3256 5468 PD
60 W
3269 5548 PD
60 W
3274 5553 PD
60 W
3276 5521 PD
60 W
3288 5551 PD
60 W
3290 5548 PD
60 W
3297 5553 PD
60 W
3298 5545 PD
60 W
3299 5506 PD
60 W
3306 5551 PD
60 W
3312 5553 PD
60 W
3312 5474 PD
60 W
3314 5505 PD
60 W
3315 5495 PD
60 W
3316 5470 PD
60 W
3331 5430 PD
60 W
3333 5546 PD
60 W
3334 5477 PD
60 W
3335 5553 PD
60 W
3336 5477 PD
60 W
3336 5411 PD
60 W
3338 5512 PD
60 W
3343 5483 PD
60 W
3344 5553 PD
60 W
3345 5551 PD
60 W
3346 5534 PD
60 W
3348 5495 PD
60 W
3354 5465 PD
60 W
3357 5536 PD
60 W
3362 5374 PD
60 W
3365 5552 PD
60 W
3365 4433 PD
60 W
3376 5534 PD
60 W
3376 5551 PD
60 W
3380 5504 PD
60 W
3383 5485 PD
60 W
3387 5552 PD
60 W
3389 5552 PD
60 W
3391 5553 PD
60 W
3393 5553 PD
60 W
3395 5515 PD
60 W
3396 5553 PD
60 W
3400 5552 PD
60 W
3405 2860 PD
60 W
3405 5553 PD
60 W
3413 5541 PD
60 W
3415 5505 PD
60 W
3415 5548 PD
60 W
3416 5505 PD
60 W
3418 5553 PD
60 W
3421 5516 PD
60 W
3429 5553 PD
60 W
3429 5484 PD
60 W
3430 5553 PD
60 W
3430 5365 PD
60 W
3430 5553 PD
60 W
3431 5553 PD
60 W
3432 5397 PD
60 W
3436 5499 PD
60 W
3437 5503 PD
60 W
3442 5474 PD
60 W
3444 5553 PD
60 W
3445 5542 PD
60 W
3448 5499 PD
60 W
3448 5553 PD
60 W
3449 5553 PD
60 W
3453 5541 PD
60 W
3454 5553 PD
60 W
3457 5541 PD
60 W
3457 5553 PD
60 W
3462 5548 PD
60 W
3462 5552 PD
60 W
3466 5537 PD
60 W
3467 5168 PD
60 W
3472 5553 PD
60 W
3474 5544 PD
60 W
3477 5246 PD
60 W
3480 5436 PD
60 W
3480 5547 PD
60 W
3481 5469 PD
60 W
3481 5382 PD
60 W
3482 5552 PD
60 W
3484 5238 PD
60 W
3486 5405 PD
60 W
3487 5553 PD
60 W
3492 5538 PD
60 W
3492 5428 PD
60 W
3493 5534 PD
60 W
3493 5487 PD
60 W
3494 5533 PD
60 W
3497 5221 PD
60 W
3504 5518 PD
60 W
3506 5471 PD
60 W
3508 5534 PD
60 W
3510 5204 PD
60 W
3511 5540 PD
60 W
3512 5534 PD
60 W
3515 5553 PD
60 W
3515 5533 PD
60 W
3515 4456 PD
60 W
3518 5539 PD
60 W
3520 5389 PD
60 W
3523 5552 PD
60 W
3527 5327 PD
60 W
3528 5519 PD
60 W
3531 5511 PD
60 W
3533 5547 PD
60 W
3534 5449 PD
60 W
3536 5553 PD
60 W
3536 5519 PD
60 W
3536 5541 PD
60 W
3537 5359 PD
60 W
3537 5518 PD
60 W
3538 5126 PD
60 W
3539 5528 PD
60 W
3542 5553 PD
60 W
3552 5487 PD
60 W
3555 5043 PD
60 W
3558 5551 PD
60 W
3558 5306 PD
60 W
3562 5551 PD
60 W
3564 5440 PD
60 W
3565 5405 PD
60 W
3568 5520 PD
60 W
3568 5551 PD
60 W
3569 5515 PD
60 W
3571 5545 PD
60 W
3572 5486 PD
60 W
3573 5397 PD
60 W
3575 5535 PD
60 W
3582 5503 PD
60 W
3586 5531 PD
60 W
3587 5553 PD
60 W
3589 5366 PD
60 W
3590 5315 PD
60 W
3595 5546 PD
60 W
3596 5553 PD
60 W
3597 5529 PD
60 W
3599 5523 PD
60 W
3600 5552 PD
60 W
3602 5441 PD
60 W
3603 5465 PD
60 W
3605 5553 PD
60 W
3606 5524 PD
60 W
3607 5552 PD
60 W
3607 5553 PD
60 W
3609 5548 PD
60 W
3610 5544 PD
60 W
3610 5553 PD
60 W
3611 5550 PD
60 W
3613 5491 PD
60 W
3613 5549 PD
60 W
3613 5489 PD
60 W
3616 5465 PD
60 W
3618 5551 PD
60 W
3620 5551 PD
60 W
3621 5553 PD
60 W
3624 5547 PD
60 W
3624 5553 PD
60 W
3624 5495 PD
60 W
3625 5443 PD
60 W
3625 5444 PD
60 W
3626 5260 PD
60 W
3628 5548 PD
60 W
3633 5371 PD
60 W
3635 5546 PD
60 W
3639 5444 PD
60 W
3642 5539 PD
60 W
3643 4136 PD
60 W
3644 5553 PD
60 W
3645 5553 PD
60 W
3645 5474 PD
60 W
3645 4553 PD
60 W
3645 5542 PD
60 W
3647 5551 PD
60 W
3650 5548 PD
60 W
3653 5501 PD
60 W
3658 5519 PD
60 W
3658 5496 PD
60 W
3658 5533 PD
60 W
3659 5517 PD
60 W
3660 5455 PD
60 W
3662 5031 PD
60 W
3664 5551 PD
60 W
3665 5541 PD
60 W
3669 5545 PD
60 W
3669 5180 PD
60 W
3670 5509 PD
60 W
3670 5457 PD
60 W
3670 5523 PD
60 W
3671 5520 PD
60 W
3671 5548 PD
60 W
3673 5545 PD
60 W
3673 5541 PD
60 W
3674 5262 PD
60 W
3674 5199 PD
60 W
3677 5547 PD
60 W
3678 5548 PD
60 W
3678 5547 PD
60 W
3679 5516 PD
60 W
3680 5553 PD
60 W
3681 5488 PD
60 W
3683 5519 PD
60 W
3684 5524 PD
60 W
3685 5553 PD
60 W
3686 5553 PD
60 W
3687 5553 PD
60 W
3688 5540 PD
60 W
3690 4757 PD
60 W
3690 5488 PD
60 W
3692 5539 PD
60 W
3694 5461 PD
60 W
3697 5528 PD
60 W
3697 5553 PD
60 W
3697 5547 PD
60 W
3697 5449 PD
60 W
3697 5501 PD
60 W
3698 5512 PD
60 W
3698 5553 PD
60 W
3698 5542 PD
60 W
3701 5430 PD
60 W
3702 5553 PD
60 W
3704 5553 PD
60 W
3704 5532 PD
60 W
3708 5434 PD
60 W
3708 5552 PD
60 W
3709 5553 PD
60 W
3710 5528 PD
60 W
3713 5552 PD
60 W
3714 5478 PD
60 W
3715 5473 PD
60 W
3716 5553 PD
60 W
3716 5544 PD
60 W
3716 5553 PD
60 W
3719 5486 PD
60 W
3723 5532 PD
60 W
3724 5553 PD
60 W
3725 5482 PD
60 W
3726 5448 PD
60 W
3727 5531 PD
60 W
3728 5451 PD
60 W
3730 5548 PD
60 W
3730 5539 PD
60 W
3730 5360 PD
60 W
3732 5433 PD
60 W
3733 5433 PD
60 W
3733 5515 PD
60 W
3734 4535 PD
60 W
3736 5449 PD
60 W
3738 5553 PD
60 W
3738 5543 PD
60 W
3739 5527 PD
60 W
3740 5552 PD
60 W
3743 5062 PD
60 W
3744 5553 PD
60 W
3745 5539 PD
60 W
3747 5521 PD
60 W
3748 4848 PD
60 W
3749 5330 PD
60 W
3749 5548 PD
60 W
3752 5553 PD
60 W
3754 5551 PD
60 W
3757 5553 PD
60 W
3757 5545 PD
60 W
3757 4332 PD
60 W
3759 5497 PD
60 W
3761 5551 PD
60 W
3764 5366 PD
60 W
3764 5470 PD
60 W
3767 5547 PD
60 W
3769 5525 PD
60 W
3769 5047 PD
60 W
3770 5540 PD
60 W
3770 5497 PD
60 W
3771 3237 PD
60 W
3774 5508 PD
60 W
3774 5526 PD
60 W
3775 5551 PD
60 W
3777 5470 PD
60 W
3778 5545 PD
60 W
3779 5553 PD
60 W
3779 5549 PD
60 W
3782 5553 PD
60 W
3782 5461 PD
60 W
3784 5342 PD
60 W
3784 5550 PD
60 W
3785 5553 PD
60 W
3785 5552 PD
60 W
3785 5475 PD
60 W
3786 5535 PD
60 W
3786 5552 PD
60 W
3788 5539 PD
60 W
3788 5494 PD
60 W
3789 5514 PD
60 W
3789 5548 PD
60 W
3790 5526 PD
60 W
3791 5484 PD
60 W
3791 5513 PD
60 W
3791 5549 PD
60 W
3792 5550 PD
60 W
3793 5526 PD
60 W
3793 5463 PD
60 W
3794 5551 PD
60 W
3795 5553 PD
60 W
3795 5552 PD
60 W
3795 4906 PD
60 W
3795 5364 PD
60 W
3797 5548 PD
60 W
3797 5481 PD
60 W
3797 5356 PD
60 W
3797 5547 PD
60 W
3798 5484 PD
60 W
3798 5554 PD
60 W
3799 5551 PD
60 W
3799 5548 PD
60 W
3800 5502 PD
60 W
3801 5479 PD
60 W
3803 5484 PD
60 W
3803 5553 PD
60 W
3803 5234 PD
60 W
3803 5437 PD
60 W
3804 5553 PD
60 W
3806 5547 PD
60 W
3807 5345 PD
60 W
3807 5545 PD
60 W
3807 5051 PD
60 W
3809 5433 PD
60 W
3813 5475 PD
60 W
3815 5431 PD
60 W
3815 5144 PD
60 W
3816 5553 PD
60 W
3816 5552 PD
60 W
3817 5553 PD
60 W
3818 5539 PD
60 W
3821 5466 PD
60 W
3821 5522 PD
60 W
3823 5487 PD
60 W
3824 5553 PD
60 W
3825 5524 PD
60 W
3826 5553 PD
60 W
3827 5553 PD
60 W
3827 5517 PD
60 W
3828 5359 PD
60 W
3828 5467 PD
60 W
3829 5545 PD
60 W
3829 5405 PD
60 W
3831 5547 PD
60 W
3832 4984 PD
60 W
3833 5546 PD
60 W
3834 5391 PD
60 W
3835 5487 PD
60 W
3836 5540 PD
60 W
3836 5553 PD
60 W
3837 5553 PD
60 W
3838 5285 PD
60 W
3839 5510 PD
60 W
3839 5422 PD
60 W
3839 5553 PD
60 W
3842 5548 PD
60 W
3842 5551 PD
60 W
3844 5276 PD
60 W
3844 5553 PD
60 W
3845 5552 PD
60 W
3847 5401 PD
60 W
3848 4913 PD
60 W
3849 5476 PD
60 W
3850 5552 PD
60 W
3850 5553 PD
60 W
3850 5537 PD
60 W
3850 5546 PD
60 W
3850 5511 PD
60 W
3850 5509 PD
60 W
3851 5061 PD
60 W
3852 5537 PD
60 W
3852 5544 PD
60 W
3853 5548 PD
60 W
3853 5498 PD
60 W
3853 5516 PD
60 W
3854 5488 PD
60 W
3857 5548 PD
60 W
3858 5551 PD
60 W
3858 5470 PD
60 W
3859 5537 PD
60 W
3860 5547 PD
60 W
3861 5539 PD
60 W
3861 5518 PD
60 W
3861 5515 PD
60 W
3865 2572 PD
60 W
3865 5548 PD
60 W
3865 5355 PD
60 W
3866 5549 PD
60 W
3868 5526 PD
60 W
3868 5533 PD
60 W
3868 5532 PD
60 W
3869 5435 PD
60 W
3869 5504 PD
60 W
3871 5532 PD
60 W
3873 5548 PD
60 W
3873 5546 PD
60 W
3877 5475 PD
60 W
3878 5510 PD
60 W
3879 5543 PD
60 W
3879 5553 PD
60 W
3879 5494 PD
60 W
3880 5548 PD
60 W
3880 5335 PD
60 W
3882 5545 PD
60 W
3884 4819 PD
60 W
3884 4640 PD
60 W
3885 5549 PD
60 W
3885 5546 PD
60 W
3885 5133 PD
60 W
3888 5223 PD
60 W
3888 5553 PD
60 W
3890 5553 PD
60 W
3890 5546 PD
60 W
3891 5553 PD
60 W
3893 5553 PD
60 W
3893 5515 PD
60 W
3894 5519 PD
60 W
3895 5525 PD
60 W
3895 5444 PD
60 W
3897 5453 PD
60 W
3898 5332 PD
60 W
3898 5519 PD
60 W
3898 5550 PD
60 W
3899 5550 PD
60 W
3899 5313 PD
60 W
3900 5479 PD
60 W
3900 5553 PD
60 W
3901 5220 PD
60 W
3902 5547 PD
60 W
3902 5210 PD
60 W
3902 5553 PD
60 W
3903 4986 PD
60 W
3905 5419 PD
60 W
3907 5500 PD
60 W
3908 5547 PD
60 W
3909 5483 PD
60 W
3910 5479 PD
60 W
3910 5529 PD
60 W
3910 5365 PD
60 W
3911 4776 PD
60 W
3912 5146 PD
60 W
3912 5553 PD
60 W
3913 5553 PD
60 W
3913 5549 PD
60 W
3915 5503 PD
60 W
3916 5375 PD
60 W
3916 5551 PD
60 W
3917 5517 PD
60 W
3918 5512 PD
60 W
3918 5484 PD
60 W
3919 5509 PD
60 W
3920 4680 PD
60 W
3920 5213 PD
60 W
3921 5191 PD
60 W
3921 5550 PD
60 W
3922 5540 PD
60 W
3923 4987 PD
60 W
3925 5418 PD
60 W
3931 5550 PD
60 W
3931 5553 PD
60 W
3933 5353 PD
60 W
3933 5061 PD
60 W
3933 5553 PD
60 W
3937 5532 PD
60 W
3939 5542 PD
60 W
3939 5534 PD
60 W
3940 5462 PD
60 W
3940 5546 PD
60 W
3940 5530 PD
60 W
3940 5543 PD
60 W
3941 5084 PD
60 W
3943 5472 PD
60 W
3944 5554 PD
60 W
3945 5549 PD
60 W
3946 5543 PD
60 W
3946 5359 PD
60 W
3947 5497 PD
60 W
3948 5553 PD
60 W
3949 5412 PD
60 W
3950 5546 PD
60 W
3950 5552 PD
60 W
3951 5554 PD
60 W
3951 5551 PD
60 W
3951 5553 PD
60 W
3952 5185 PD
60 W
3952 5150 PD
60 W
3953 5513 PD
60 W
3954 5553 PD
60 W
3955 5535 PD
60 W
3955 5515 PD
60 W
3956 5538 PD
60 W
3956 5549 PD
60 W
3957 5334 PD
60 W
3957 5544 PD
60 W
3957 5552 PD
60 W
3958 5553 PD
60 W
3959 5552 PD
60 W
3962 4856 PD
60 W
3962 5488 PD
60 W
3962 5553 PD
60 W
3963 5522 PD
60 W
3963 5528 PD
60 W
3965 5512 PD
60 W
3966 5539 PD
60 W
3967 5317 PD
60 W
3967 5522 PD
60 W
3968 5454 PD
60 W
3968 5553 PD
60 W
3969 5553 PD
60 W
3969 5537 PD
60 W
3969 5552 PD
60 W
3970 5536 PD
60 W
3970 5445 PD
60 W
3971 5550 PD
60 W
3971 5532 PD
60 W
3972 5539 PD
60 W
3973 5527 PD
60 W
3973 5545 PD
60 W
3973 5553 PD
60 W
3974 5519 PD
60 W
3974 5535 PD
60 W
3976 5543 PD
60 W
3977 5553 PD
60 W
3977 5297 PD
60 W
3977 5543 PD
60 W
3979 5304 PD
60 W
3979 5388 PD
60 W
3979 5456 PD
60 W
3981 5221 PD
60 W
3981 5455 PD
60 W
3982 5551 PD
60 W
3982 4641 PD
60 W
3982 5553 PD
60 W
3982 5342 PD
60 W
3982 5549 PD
60 W
3983 5025 PD
60 W
3983 5514 PD
60 W
3983 4999 PD
60 W
3984 5506 PD
60 W
3984 5513 PD
60 W
3984 5540 PD
60 W
3985 5487 PD
60 W
3986 5553 PD
60 W
3987 5553 PD
60 W
3987 5422 PD
60 W
3987 5549 PD
60 W
3987 5535 PD
60 W
3987 5552 PD
60 W
3988 5548 PD
60 W
3988 5454 PD
60 W
3988 5553 PD
60 W
3989 5554 PD
60 W
3991 5553 PD
60 W
3991 5547 PD
60 W
3992 4917 PD
60 W
3993 5197 PD
60 W
3994 5553 PD
60 W
3994 5543 PD
60 W
3996 5553 PD
60 W
3996 5358 PD
60 W
3996 5283 PD
60 W
3996 5551 PD
60 W
3997 5478 PD
60 W
3998 5486 PD
60 W
3999 5548 PD
60 W
3999 5547 PD
60 W
4000 5551 PD
60 W
4001 5552 PD
60 W
4002 5515 PD
60 W
4002 5553 PD
60 W
4002 4786 PD
60 W
4003 5412 PD
60 W
4003 5552 PD
60 W
4004 5431 PD
60 W
4004 5408 PD
60 W
4005 4681 PD
60 W
4005 5531 PD
60 W
4005 5546 PD
60 W
4006 5552 PD
60 W
4006 5475 PD
60 W
4006 5507 PD
60 W
4007 5331 PD
60 W
4007 5553 PD
60 W
4009 5498 PD
60 W
4009 5552 PD
60 W
4009 5532 PD
60 W
4010 5534 PD
60 W
4010 4473 PD
60 W
4010 5341 PD
60 W
4011 5546 PD
60 W
4012 5516 PD
60 W
4012 5503 PD
60 W
4012 5524 PD
60 W
4013 5553 PD
60 W
4014 5552 PD
60 W
4014 5392 PD
60 W
4014 5553 PD
60 W
4015 5087 PD
60 W
4016 5552 PD
60 W
4016 5441 PD
60 W
4017 5553 PD
60 W
4017 5526 PD
60 W
4017 5194 PD
60 W
4018 5467 PD
60 W
4018 5541 PD
60 W
4018 5518 PD
60 W
4018 5552 PD
60 W
4018 5547 PD
60 W
4019 5553 PD
60 W
4019 5393 PD
60 W
4019 5509 PD
60 W
4019 5551 PD
60 W
4020 5411 PD
60 W
4020 5513 PD
60 W
4020 5552 PD
60 W
4021 5275 PD
60 W
4021 5551 PD
60 W
4022 5545 PD
60 W
4023 5553 PD
60 W
4023 5376 PD
60 W
4025 5553 PD
60 W
4025 5407 PD
60 W
4026 5552 PD
60 W
4027 5176 PD
60 W
4027 5550 PD
60 W
4028 5388 PD
60 W
4031 5553 PD
60 W
4032 5441 PD
60 W
4032 5337 PD
60 W
4032 5432 PD
60 W
4032 5541 PD
60 W
4033 4596 PD
60 W
4034 5391 PD
60 W
4035 5174 PD
60 W
4035 5539 PD
60 W
4035 5547 PD
60 W
4036 5506 PD
60 W
4036 5549 PD
60 W
4037 5543 PD
60 W
4037 5553 PD
60 W
4040 5553 PD
60 W
4040 5499 PD
60 W
4041 5535 PD
60 W
4041 5522 PD
60 W
4042 5548 PD
60 W
4043 5444 PD
60 W
4044 4939 PD
60 W
4045 5547 PD
60 W
4045 4971 PD
60 W
4045 5503 PD
60 W
4045 5291 PD
60 W
4047 5553 PD
60 W
4047 5450 PD
60 W
4047 5352 PD
60 W
4047 5552 PD
60 W
4047 5222 PD
60 W
4048 5433 PD
60 W
4048 5553 PD
60 W
4049 5447 PD
60 W
4051 5542 PD
60 W
4052 5552 PD
60 W
4053 5385 PD
60 W
4054 5553 PD
60 W
4055 5550 PD
60 W
4055 5516 PD
60 W
4055 5543 PD
60 W
4056 5544 PD
60 W
4058 5547 PD
60 W
4058 5490 PD
60 W
4059 5552 PD
60 W
4059 5509 PD
60 W
4060 5400 PD
60 W
4060 5553 PD
60 W
4061 4709 PD
60 W
4061 5449 PD
60 W
4062 5537 PD
60 W
4062 5553 PD
60 W
4062 5549 PD
60 W
4063 5553 PD
60 W
4063 5512 PD
60 W
4064 5495 PD
60 W
4064 5453 PD
60 W
4064 5427 PD
60 W
4065 5511 PD
60 W
4065 5501 PD
60 W
4065 5474 PD
60 W
4065 5530 PD
60 W
4065 5378 PD
60 W
4066 5507 PD
60 W
4067 5432 PD
60 W
4068 5364 PD
60 W
4068 5435 PD
60 W
4069 5104 PD
60 W
4069 5407 PD
60 W
4072 5537 PD
60 W
4072 5520 PD
60 W
4072 5306 PD
60 W
4072 5549 PD
60 W
4073 4303 PD
60 W
4073 5434 PD
60 W
4073 5553 PD
60 W
4075 5493 PD
60 W
4075 5500 PD
60 W
4075 5455 PD
60 W
4076 5349 PD
60 W
4077 5497 PD
60 W
4078 5551 PD
60 W
4078 5545 PD
60 W
4078 5539 PD
60 W
4078 5041 PD
60 W
4080 5303 PD
60 W
4081 5430 PD
60 W
4082 5507 PD
60 W
4082 5497 PD
60 W
4082 5553 PD
60 W
4082 5432 PD
60 W
4082 5452 PD
60 W
4084 5425 PD
60 W
4084 5138 PD
60 W
4084 5530 PD
60 W
4084 5502 PD
60 W
4084 5422 PD
60 W
4085 5007 PD
60 W
4085 5553 PD
60 W
4085 5534 PD
60 W
4086 5545 PD
60 W
4086 5548 PD
60 W
4086 4852 PD
60 W
4086 5545 PD
60 W
4087 5508 PD
60 W
4088 5348 PD
60 W
4088 5491 PD
60 W
4089 5476 PD
60 W
4089 5357 PD
60 W
4089 5547 PD
60 W
4090 5552 PD
60 W
4091 5516 PD
60 W
4092 5492 PD
60 W
4093 5553 PD
60 W
4093 5548 PD
60 W
4094 5222 PD
60 W
4094 5553 PD
60 W
4098 5464 PD
60 W
4098 5377 PD
60 W
4098 5479 PD
60 W
4098 5553 PD
60 W
4098 5511 PD
60 W
4098 5455 PD
60 W
4098 2634 PD
60 W
4098 5550 PD
60 W
4098 5536 PD
60 W
4098 5518 PD
60 W
4098 5553 PD
60 W
4098 5511 PD
60 W
4098 5489 PD
60 W
4098 5535 PD
60 W
4098 5530 PD
60 W
4098 5552 PD
60 W
4098 5398 PD
60 W
4098 5513 PD
60 W
4098 5509 PD
60 W
4098 5553 PD
60 W
4098 5420 PD
60 W
4098 5075 PD
60 W
4098 5172 PD
60 W
4098 5443 PD
60 W
4098 5546 PD
60 W
4098 5458 PD
60 W
4098 4845 PD
60 W
4098 5155 PD
60 W
4098 5468 PD
60 W
4098 4767 PD
60 W
4098 5501 PD
60 W
4098 5553 PD
60 W
4098 5468 PD
60 W
4098 5391 PD
60 W
4098 5472 PD
60 W
4098 5462 PD
60 W
4098 5343 PD
60 W
4098 5361 PD
60 W
4098 5552 PD
60 W
4098 5109 PD
60 W
4098 5283 PD
60 W
4098 5079 PD
60 W
4098 5337 PD
60 W
4098 5531 PD
60 W
4098 5522 PD
60 W
4098 5520 PD
60 W
4098 4728 PD
60 W
4098 5185 PD
60 W
4098 5306 PD
60 W
4098 5553 PD
60 W
4098 5534 PD
60 W
4098 5506 PD
60 W
4098 5287 PD
60 W
4098 5530 PD
60 W
4098 5548 PD
60 W
4098 5551 PD
60 W
4098 5441 PD
60 W
4098 5548 PD
60 W
4098 5553 PD
60 W
4098 5530 PD
60 W
4098 5451 PD
60 W
4098 5075 PD
60 W
4098 5553 PD
60 W
4098 5423 PD
60 W
4098 5322 PD
60 W
4098 5498 PD
60 W
4098 5517 PD
60 W
4098 5448 PD
60 W
4098 5502 PD
60 W
4098 4836 PD
60 W
4098 4918 PD
60 W
4098 5497 PD
60 W
4098 5549 PD
60 W
4098 5473 PD
60 W
4098 5498 PD
60 W
4098 5244 PD
60 W
4098 5512 PD
60 W
4098 5553 PD
60 W
4098 5540 PD
60 W
4098 5384 PD
60 W
4098 5431 PD
60 W
4098 5553 PD
60 W
4098 5552 PD
60 W
4098 5511 PD
60 W
4098 5533 PD
60 W
4098 5552 PD
60 W
4098 5476 PD
60 W
4098 5538 PD
60 W
4098 5046 PD
60 W
4098 5521 PD
60 W
4098 5497 PD
60 W
4098 5531 PD
60 W
4098 5122 PD
60 W
4098 3887 PD
60 W
4098 5502 PD
60 W
4098 5510 PD
60 W
4098 5368 PD
60 W
4098 5506 PD
60 W
4098 5543 PD
60 W
4098 5127 PD
60 W
4098 5549 PD
60 W
4098 5427 PD
60 W
4098 5240 PD
60 W
4098 5552 PD
60 W
4098 5393 PD
60 W
4098 4531 PD
60 W
4098 5544 PD
60 W
4098 5326 PD
60 W
4098 5086 PD
60 W
4098 5399 PD
60 W
4098 5320 PD
60 W
4098 5541 PD
60 W
4098 5518 PD
60 W
4098 5541 PD
60 W
4098 5493 PD
60 W
4098 5419 PD
60 W
4098 5548 PD
60 W
4098 5495 PD
60 W
4098 5459 PD
60 W
4098 5466 PD
60 W
4098 5484 PD
60 W
4098 5550 PD
60 W
4098 5455 PD
60 W
4098 5553 PD
60 W
4098 5540 PD
60 W
4098 5515 PD
60 W
4098 5553 PD
60 W
4098 5545 PD
60 W
4098 5552 PD
60 W
4098 5537 PD
60 W
4098 5518 PD
60 W
4098 5550 PD
60 W
4098 5517 PD
60 W
4098 5519 PD
60 W
4098 5495 PD
60 W
4098 5327 PD
60 W
4098 5418 PD
60 W
4098 5469 PD
60 W
4098 5456 PD
60 W
4098 5553 PD
60 W
4098 5536 PD
60 W
4098 5540 PD
60 W
4098 5553 PD
60 W
4098 5484 PD
60 W
4098 5519 PD
60 W
4098 5545 PD
60 W
4098 5529 PD
60 W
4098 5103 PD
60 W
4098 5551 PD
60 W
4098 5530 PD
60 W
4098 5549 PD
60 W
4098 5553 PD
60 W
4098 5552 PD
60 W
4098 5553 PD
60 W
4098 5546 PD
60 W
4098 5500 PD
60 W
4098 5553 PD
60 W
4098 5422 PD
60 W
4098 5539 PD
60 W
4098 5534 PD
60 W
4098 5553 PD
60 W
4098 5451 PD
60 W
4098 5551 PD
60 W
4098 5419 PD
60 W
4098 5545 PD
60 W
4098 5439 PD
60 W
4098 5553 PD
60 W
4098 5539 PD
60 W
4098 5546 PD
60 W
4098 5553 PD
60 W
4098 5417 PD
60 W
4098 5547 PD
60 W
4098 5553 PD
60 W
4098 5486 PD
60 W
4098 5319 PD
60 W
4098 5315 PD
60 W
4098 5426 PD
60 W
4098 5308 PD
60 W
4098 5264 PD
60 W
4098 4032 PD
60 W
4098 5012 PD
60 W
4098 5266 PD
60 W
4098 5543 PD
60 W
4098 5537 PD
60 W
4098 5494 PD
60 W
4098 5522 PD
60 W
4098 5552 PD
60 W
4098 5536 PD
60 W
4098 5553 PD
60 W
4098 5540 PD
60 W
4098 5553 PD
60 W
4098 5513 PD
60 W
4098 5553 PD
60 W
4098 5290 PD
60 W
4098 5245 PD
60 W
4098 5553 PD
60 W
4098 5547 PD
60 W
4098 5489 PD
60 W
4098 5550 PD
60 W
4098 5553 PD
60 W
4098 5303 PD
60 W
4098 5548 PD
60 W
4098 5511 PD
60 W
4098 5456 PD
60 W
4098 2468 PD
60 W
4098 4777 PD
60 W
4098 5055 PD
60 W
4098 5533 PD
60 W
4098 5161 PD
60 W
4098 5386 PD
60 W
4098 5117 PD
60 W
4098 5553 PD
60 W
4098 5141 PD
60 W
4098 5471 PD
60 W
4098 5552 PD
60 W
4098 5320 PD
60 W
4098 5531 PD
60 W
4098 5553 PD
60 W
4098 5538 PD
60 W
4098 5217 PD
60 W
4098 5396 PD
60 W
4098 5428 PD
60 W
4098 5388 PD
60 W
4098 5427 PD
60 W
4098 5415 PD
60 W
4098 5530 PD
60 W
4098 5359 PD
60 W
4098 5553 PD
60 W
4098 5536 PD
60 W
4098 5520 PD
60 W
4098 5552 PD
60 W
4098 5500 PD
60 W
4098 5534 PD
60 W
4098 5478 PD
60 W
4098 5513 PD
60 W
4098 5553 PD
60 W
4098 5320 PD
60 W
4098 5513 PD
60 W
4098 5506 PD
60 W
4098 5541 PD
60 W
4098 5553 PD
60 W
4098 4865 PD
60 W
4098 5549 PD
60 W
4098 5553 PD
60 W
4098 5539 PD
60 W
4098 5548 PD
60 W
4098 5544 PD
60 W
4098 5550 PD
60 W
4098 5420 PD
60 W
4098 5245 PD
60 W
4098 5525 PD
60 W
4098 5245 PD
60 W
4098 5193 PD
60 W
4098 5445 PD
60 W
4098 4542 PD
60 W
4098 5552 PD
60 W
4098 5539 PD
60 W
4098 5507 PD
60 W
4098 5463 PD
60 W
4098 5079 PD
60 W
4098 5530 PD
60 W
4098 5460 PD
60 W
4098 5490 PD
60 W
4098 5511 PD
60 W
4098 5551 PD
60 W
4098 5102 PD
60 W
4098 5389 PD
60 W
4098 5277 PD
60 W
4098 4679 PD
60 W
4098 5465 PD
60 W
4098 5464 PD
60 W
4098 5549 PD
60 W
4098 5535 PD
60 W
4098 5502 PD
60 W
4098 5510 PD
60 W
4098 5553 PD
60 W
4098 5408 PD
60 W
4098 5552 PD
60 W
4098 5549 PD
60 W
4098 5243 PD
60 W
4098 2203 PD
60 W
4098 5484 PD
60 W
4098 4958 PD
60 W
4098 4482 PD
60 W
4098 5180 PD
60 W
4098 5437 PD
60 W
4098 5523 PD
60 W
4098 4930 PD
60 W
4098 5552 PD
60 W
4098 5347 PD
60 W
4098 5454 PD
60 W
4098 5548 PD
60 W
4098 5484 PD
60 W
4098 5545 PD
60 W
4098 5411 PD
60 W
4098 5547 PD
60 W
4098 5526 PD
60 W
4098 5538 PD
60 W
4098 5451 PD
60 W
4098 5552 PD
60 W
4098 5460 PD
60 W
4098 5544 PD
60 W
4098 5553 PD
60 W
4098 5486 PD
60 W
4098 5553 PD
60 W
4098 5484 PD
60 W
4098 5547 PD
60 W
4098 5553 PD
60 W
4098 5536 PD
60 W
4098 5496 PD
60 W
4098 5016 PD
60 W
4098 5378 PD
60 W
4098 5551 PD
60 W
4098 5534 PD
60 W
4098 5016 PD
60 W
4098 5429 PD
60 W
4098 5169 PD
60 W
4098 5131 PD
60 W
4098 5517 PD
60 W
4098 5548 PD
60 W
4098 5521 PD
60 W
4098 5510 PD
60 W
4098 5529 PD
60 W
4098 5547 PD
60 W
4098 5552 PD
60 W
4098 5534 PD
60 W
4098 5519 PD
60 W
4098 5552 PD
60 W
4098 5320 PD
60 W
4098 5240 PD
60 W
4098 5490 PD
60 W
4098 5546 PD
60 W
4098 5429 PD
60 W
4098 5083 PD
60 W
4098 5023 PD
60 W
4098 3301 PD
60 W
4098 5543 PD
60 W
4098 5523 PD
60 W
4098 5550 PD
60 W
4098 5154 PD
60 W
4098 5471 PD
60 W
4098 5530 PD
60 W
4098 5497 PD
60 W
4098 5179 PD
60 W
4098 5454 PD
60 W
4098 5551 PD
60 W
4098 2457 PD
60 W
4098 4689 PD
60 W
4098 3322 PD
60 W
4098 5458 PD
60 W
4098 5539 PD
60 W
4098 5475 PD
60 W
4098 5540 PD
60 W
4098 5394 PD
60 W
4098 5530 PD
60 W
4098 5515 PD
60 W
4098 5378 PD
60 W
4098 5523 PD
60 W
4098 5546 PD
60 W
4098 5203 PD
60 W
4098 4965 PD
60 W
4098 5489 PD
60 W
4098 5553 PD
60 W
4098 5539 PD
60 W
4098 5548 PD
60 W
4098 5545 PD
60 W
4098 5547 PD
60 W
4098 5276 PD
60 W
4098 5553 PD
60 W
4098 5521 PD
60 W
4098 5540 PD
60 W
4098 5510 PD
60 W
4098 5477 PD
60 W
4098 5552 PD
60 W
4098 5551 PD
60 W
4098 5541 PD
60 W
4098 5553 PD
60 W
4098 5368 PD
60 W
4098 5444 PD
60 W
4098 5484 PD
60 W
4098 5551 PD
60 W
4098 5492 PD
60 W
4098 2340 PD
60 W
4098 5376 PD
60 W
4098 5498 PD
60 W
4098 5246 PD
60 W
4098 5463 PD
60 W
4098 5132 PD
60 W
4098 5524 PD
60 W
4098 5552 PD
60 W
4098 5419 PD
60 W
4098 5008 PD
60 W
4098 5502 PD
60 W
4098 5355 PD
60 W
4098 5521 PD
60 W
4098 4869 PD
60 W
4098 5437 PD
60 W
4098 5493 PD
60 W
4098 5122 PD
60 W
4098 5541 PD
60 W
4098 5302 PD
60 W
4098 5341 PD
60 W
4098 5552 PD
60 W
4098 5138 PD
60 W
4098 5099 PD
60 W
4098 5474 PD
60 W
4098 5532 PD
60 W
4098 4725 PD
60 W
4098 5538 PD
60 W
4098 5553 PD
60 W
4098 5407 PD
60 W
4098 5230 PD
60 W
4098 5365 PD
60 W
4098 5524 PD
60 W
4098 5455 PD
60 W
4098 5551 PD
60 W
4098 5552 PD
60 W
4098 5494 PD
60 W
4098 5168 PD
60 W
4098 5363 PD
60 W
4098 5546 PD
60 W
4098 5492 PD
60 W
4098 5348 PD
60 W
4098 5289 PD
60 W
4098 5402 PD
60 W
4098 5297 PD
60 W
4098 5510 PD
60 W
4098 5497 PD
60 W
4098 5531 PD
60 W
4098 5553 PD
60 W
4098 5546 PD
60 W
4098 5524 PD
60 W
4098 5487 PD
60 W
4098 5533 PD
60 W
4098 5271 PD
60 W
4098 5540 PD
60 W
4098 5437 PD
60 W
4098 5248 PD
60 W
4098 5476 PD
60 W
4098 5550 PD
60 W
4098 5535 PD
60 W
4098 5549 PD
60 W
4098 5349 PD
60 W
4098 5552 PD
60 W
4098 5447 PD
60 W
4098 5543 PD
60 W
4098 5542 PD
60 W
4098 5446 PD
60 W
4098 5310 PD
60 W
4098 5552 PD
60 W
4098 5323 PD
60 W
4098 5553 PD
60 W
4098 5542 PD
60 W
4098 5546 PD
60 W
4098 5497 PD
60 W
4098 5546 PD
60 W
4098 5533 PD
60 W
4098 5486 PD
60 W
4098 5383 PD
60 W
4098 4373 PD
60 W
4098 5537 PD
60 W
4098 5551 PD
60 W
4098 5502 PD
60 W
4098 5553 PD
60 W
4098 5528 PD
60 W
4098 5369 PD
60 W
4098 5351 PD
60 W
4098 5466 PD
60 W
4098 5550 PD
60 W
4098 5073 PD
60 W
4098 5553 PD
60 W
4098 5551 PD
60 W
4098 5553 PD
60 W
4098 5514 PD
60 W
4098 5519 PD
60 W
4098 5453 PD
60 W
4098 5194 PD
60 W
4098 5538 PD
60 W
4098 5552 PD
60 W
4098 4819 PD
60 W
4098 5153 PD
60 W
4098 5259 PD
60 W
4098 5539 PD
60 W
4098 5454 PD
60 W
4098 5534 PD
60 W
4098 5487 PD
60 W
4098 5546 PD
60 W
4098 5526 PD
60 W
4098 5422 PD
60 W
4098 5508 PD
60 W
4098 5203 PD
60 W
4098 5464 PD
60 W
4098 5527 PD
60 W
4098 5385 PD
60 W
4098 5401 PD
60 W
4098 5326 PD
60 W
4098 5465 PD
60 W
4098 5551 PD
60 W
4098 5552 PD
60 W
4098 5550 PD
60 W
4098 5416 PD
60 W
4098 5420 PD
60 W
4098 5548 PD
60 W
4098 5553 PD
60 W
4098 5543 PD
60 W
4098 5553 PD
60 W
4098 4981 PD
60 W
4098 5553 PD
60 W
4098 5523 PD
60 W
4098 5513 PD
60 W
4098 5367 PD
60 W
4098 4394 PD
60 W
4098 5521 PD
60 W
4098 5526 PD
60 W
4098 5518 PD
60 W
4098 5357 PD
60 W
4098 5434 PD
60 W
4098 5548 PD
60 W
4098 5536 PD
60 W
4098 5434 PD
60 W
4098 5538 PD
60 W
4098 5543 PD
60 W
4098 5553 PD
60 W
4098 5547 PD
60 W
4098 5523 PD
60 W
4098 3737 PD
60 W
4098 5380 PD
60 W
4098 5553 PD
60 W
4098 5528 PD
60 W
4098 5353 PD
60 W
4098 5052 PD
60 W
4098 5093 PD
60 W
4098 5005 PD
60 W
4098 5553 PD
60 W
4098 4574 PD
60 W
4098 5545 PD
60 W
4098 5542 PD
60 W
4098 5548 PD
60 W
4098 5553 PD
60 W
4098 5399 PD
60 W
4098 5500 PD
60 W
4098 5536 PD
60 W
4098 5545 PD
60 W
4098 5524 PD
60 W
4098 5418 PD
60 W
4098 5537 PD
60 W
4098 5479 PD
60 W
4098 5540 PD
60 W
4098 5480 PD
60 W
4098 5549 PD
60 W
4098 5530 PD
60 W
4098 5550 PD
60 W
4098 5540 PD
60 W
4098 5552 PD
60 W
4098 5538 PD
60 W
4098 5479 PD
60 W
4098 5553 PD
60 W
4098 5421 PD
60 W
4098 5538 PD
60 W
4098 5537 PD
60 W
4098 5553 PD
60 W
4098 4595 PD
60 W
4098 5482 PD
60 W
4098 5509 PD
60 W
4098 5443 PD
60 W
4098 5553 PD
60 W
4098 5461 PD
60 W
4098 5544 PD
60 W
4098 5543 PD
60 W
4098 5433 PD
60 W
4098 5384 PD
60 W
4098 5539 PD
60 W
4098 5288 PD
60 W
4098 5524 PD
60 W
4098 5442 PD
60 W
4098 5317 PD
60 W
4098 5546 PD
60 W
4098 5484 PD
60 W
4098 5227 PD
60 W
4098 5507 PD
60 W
4098 3113 PD
60 W
4098 5403 PD
60 W
4098 5450 PD
60 W
4098 5275 PD
60 W
4098 4871 PD
60 W
4098 5523 PD
60 W
4098 5174 PD
60 W
4098 5553 PD
60 W
4098 5545 PD
60 W
4098 5495 PD
60 W
4098 5525 PD
60 W
4098 5320 PD
60 W
4098 5502 PD
60 W
4098 5418 PD
60 W
4098 5275 PD
60 W
4098 5544 PD
60 W
4098 5535 PD
60 W
4098 5409 PD
60 W
4098 5552 PD
60 W
4098 5307 PD
60 W
4098 5491 PD
60 W
4098 5551 PD
60 W
4098 5356 PD
60 W
4098 5531 PD
60 W
4098 5375 PD
60 W
4098 5545 PD
60 W
4098 5462 PD
60 W
4098 5476 PD
60 W
4098 5121 PD
60 W
4098 5553 PD
60 W
4098 5548 PD
60 W
4098 5554 PD
60 W
4098 5548 PD
60 W
4098 5552 PD
60 W
4098 5479 PD
60 W
4098 5459 PD
60 W
4098 5548 PD
60 W
4098 5424 PD
60 W
4098 5376 PD
60 W
4098 5553 PD
60 W
4098 5520 PD
60 W
4098 4329 PD
60 W
4098 5553 PD
60 W
4098 5473 PD
60 W
4098 5553 PD
60 W
4098 5550 PD
60 W
4098 5493 PD
60 W
4098 5542 PD
60 W
4098 5551 PD
60 W
4098 5494 PD
60 W
4098 5553 PD
60 W
4098 5478 PD
60 W
4098 5408 PD
60 W
4098 5454 PD
60 W
4098 5553 PD
60 W
4098 5512 PD
60 W
4098 5458 PD
60 W
4098 5201 PD
60 W
4098 5419 PD
60 W
4098 5370 PD
60 W
4098 5541 PD
60 W
4098 5224 PD
60 W
4098 5552 PD
60 W
4098 5512 PD
60 W
4098 5553 PD
60 W
4098 5401 PD
60 W
4098 5553 PD
60 W
4098 5548 PD
60 W
4098 5553 PD
60 W
4098 5131 PD
60 W
4098 4905 PD
60 W
4098 5508 PD
60 W
4098 5505 PD
60 W
4098 5018 PD
60 W
4098 5453 PD
60 W
4098 5549 PD
60 W
4098 5407 PD
60 W
4098 5553 PD
60 W
4098 5542 PD
60 W
4098 5553 PD
60 W
4098 5523 PD
60 W
4098 5546 PD
60 W
4098 5542 PD
60 W
4098 5545 PD
60 W
4098 5553 PD
60 W
4098 5550 PD
60 W
4098 5545 PD
60 W
4098 5553 PD
60 W
4098 5527 PD
60 W
4098 5526 PD
60 W
4098 5520 PD
60 W
4098 5552 PD
60 W
4098 5521 PD
60 W
4098 5297 PD
60 W
4098 5519 PD
60 W
4098 4935 PD
60 W
4098 5426 PD
60 W
4098 4717 PD
60 W
4098 5324 PD
60 W
4098 5480 PD
60 W
4098 5552 PD
60 W
4098 5358 PD
60 W
4098 5123 PD
60 W
4098 5196 PD
60 W
4098 5545 PD
60 W
4098 4031 PD
60 W
4098 5524 PD
60 W
4098 5466 PD
60 W
4098 5418 PD
60 W
4098 5531 PD
60 W
4098 5527 PD
60 W
4098 5528 PD
60 W
4098 5474 PD
60 W
4098 5553 PD
60 W
4098 5542 PD
60 W
4098 5552 PD
60 W
4098 5050 PD
60 W
4098 5456 PD
60 W
4098 5552 PD
60 W
4098 5549 PD
60 W
4098 5523 PD
60 W
4098 5449 PD
60 W
4098 5354 PD
60 W
4098 4880 PD
60 W
4098 5491 PD
60 W
4098 5544 PD
60 W
4098 5548 PD
60 W
4098 5553 PD
60 W
4098 5483 PD
60 W
4098 5549 PD
60 W
4098 3215 PD
60 W
4098 5327 PD
60 W
4098 5464 PD
60 W
4098 5291 PD
60 W
4098 5546 PD
60 W
4098 5233 PD
60 W
4098 5532 PD
60 W
4098 5500 PD
60 W
4098 5510 PD
60 W
4098 5208 PD
60 W
4098 5538 PD
60 W
4098 5545 PD
60 W
4098 5503 PD
60 W
4098 5521 PD
60 W
4098 5089 PD
60 W
4098 5431 PD
60 W
4098 4807 PD
60 W
4098 5469 PD
60 W
4098 4482 PD
60 W
4098 5504 PD
60 W
4098 5553 PD
60 W
4098 5498 PD
60 W
4098 5542 PD
60 W
4098 5530 PD
60 W
4098 5441 PD
60 W
4098 5373 PD
60 W
4098 5553 PD
60 W
4098 4668 PD
60 W
4098 4812 PD
60 W
4098 5474 PD
60 W
4098 5418 PD
60 W
4098 5545 PD
60 W
4098 5383 PD
60 W
4098 5319 PD
60 W
4098 5248 PD
60 W
4098 5539 PD
60 W
4098 4961 PD
60 W
4098 5521 PD
60 W
4098 5509 PD
60 W
4098 5491 PD
60 W
4098 5456 PD
60 W
4098 5545 PD
60 W
4098 5523 PD
60 W
4098 5551 PD
60 W
4098 5553 PD
60 W
4098 5157 PD
60 W
4098 5322 PD
60 W
4098 5544 PD
60 W
4098 5553 PD
60 W
4098 5532 PD
60 W
4098 5341 PD
60 W
4098 2325 PD
60 W
4098 5305 PD
60 W
4098 5263 PD
60 W
4098 5523 PD
60 W
4098 5386 PD
60 W
4098 5380 PD
60 W
4098 5514 PD
60 W
4098 5480 PD
60 W
4098 5508 PD
60 W
4098 5425 PD
60 W
4098 5553 PD
60 W
4098 5300 PD
60 W
4098 5528 PD
60 W
4098 5519 PD
60 W
4098 5540 PD
60 W
4098 5251 PD
60 W
4098 5551 PD
60 W
4098 5468 PD
60 W
4098 5129 PD
60 W
4098 5546 PD
60 W
4098 5532 PD
60 W
4098 5552 PD
60 W
4098 5541 PD
60 W
4098 5524 PD
60 W
4098 5543 PD
60 W
4098 5505 PD
60 W
4098 5496 PD
60 W
4098 5344 PD
60 W
4098 5547 PD
60 W
4098 5550 PD
60 W
4098 5394 PD
60 W
4098 5274 PD
60 W
4098 4866 PD
60 W
4098 5265 PD
60 W
4098 5026 PD
60 W
4098 5516 PD
60 W
4098 5413 PD
60 W
4098 4943 PD
60 W
4098 5424 PD
60 W
4098 5362 PD
60 W
4098 5456 PD
60 W
4098 5364 PD
60 W
4098 5444 PD
60 W
4098 5553 PD
60 W
4098 5549 PD
60 W
4098 5553 PD
60 W
4098 5507 PD
60 W
4098 5553 PD
60 W
4098 5477 PD
60 W
4098 5316 PD
60 W
4098 5532 PD
60 W
4098 5415 PD
60 W
4098 5481 PD
60 W
4098 5546 PD
60 W
4098 5527 PD
60 W
4098 5486 PD
60 W
4098 5553 PD
60 W
4098 5481 PD
60 W
4098 4866 PD
60 W
4098 5401 PD
60 W
4098 5545 PD
60 W
4098 5553 PD
60 W
4098 5503 PD
60 W
4098 5381 PD
60 W
4098 5401 PD
60 W
4098 5048 PD
60 W
4098 5080 PD
60 W
4098 5553 PD
60 W
4098 5229 PD
60 W
4098 5391 PD
60 W
4098 5553 PD
60 W
4098 5506 PD
60 W
4098 5475 PD
60 W
4098 5444 PD
60 W
4098 5274 PD
60 W
4098 5237 PD
60 W
4098 5479 PD
60 W
4098 5466 PD
60 W
4098 5469 PD
60 W
4098 5551 PD
60 W
4098 5202 PD
60 W
4098 5553 PD
60 W
4098 5445 PD
60 W
4098 5553 PD
60 W
4098 5171 PD
60 W
4098 5496 PD
60 W
4098 5071 PD
60 W
4098 5496 PD
60 W
4098 5337 PD
60 W
4098 5539 PD
60 W
4098 5542 PD
60 W
4098 5543 PD
60 W
4099 5347 PD
60 W
4100 5551 PD
60 W
4101 5548 PD
60 W
4101 5531 PD
60 W
4102 5553 PD
60 W
4102 5385 PD
60 W
4103 5284 PD
60 W
4103 5355 PD
60 W
4104 5528 PD
60 W
4104 5530 PD
60 W
4105 5316 PD
60 W
4105 5148 PD
60 W
4105 5549 PD
60 W
4106 5511 PD
60 W
4107 5272 PD
60 W
4107 5552 PD
60 W
4109 5551 PD
60 W
4110 5551 PD
60 W
4110 5550 PD
60 W
4110 5400 PD
60 W
4111 5534 PD
60 W
4113 5464 PD
60 W
4113 5418 PD
60 W
4113 5542 PD
60 W
4113 5413 PD
60 W
4114 5544 PD
60 W
4114 5553 PD
60 W
4115 5490 PD
60 W
4116 4876 PD
60 W
4117 5396 PD
60 W
4117 5294 PD
60 W
4118 5547 PD
60 W
4119 5549 PD
60 W
4119 5504 PD
60 W
4119 5379 PD
60 W
4119 4829 PD
60 W
4120 4424 PD
60 W
4120 5411 PD
60 W
4120 5417 PD
60 W
4121 3525 PD
60 W
4121 5551 PD
60 W
4121 5505 PD
60 W
4122 5553 PD
60 W
4123 5553 PD
60 W
4123 5421 PD
60 W
4124 5281 PD
60 W
4126 5552 PD
60 W
4126 5054 PD
60 W
4127 5414 PD
60 W
4128 4674 PD
60 W
4129 5533 PD
60 W
4129 5532 PD
60 W
4129 5549 PD
60 W
4129 5414 PD
60 W
4129 5281 PD
60 W
4129 5543 PD
60 W
4130 5508 PD
60 W
4131 5436 PD
60 W
4131 5542 PD
60 W
4131 5336 PD
60 W
4131 5331 PD
60 W
4131 5199 PD
60 W
4131 5469 PD
60 W
4132 4536 PD
60 W
4132 5550 PD
60 W
4132 5534 PD
60 W
4133 5540 PD
60 W
4133 5511 PD
60 W
4133 5492 PD
60 W
4133 5527 PD
60 W
4133 5524 PD
60 W
4133 5414 PD
60 W
4134 4256 PD
60 W
4135 5540 PD
60 W
4135 5495 PD
60 W
4135 5485 PD
60 W
4135 5529 PD
60 W
4136 5537 PD
60 W
4136 5547 PD
60 W
4137 5397 PD
60 W
4138 5146 PD
60 W
4138 5356 PD
60 W
4138 5439 PD
60 W
4139 5473 PD
60 W
4139 5546 PD
60 W
4139 5542 PD
60 W
4139 5477 PD
60 W
4140 5469 PD
60 W
4141 5380 PD
60 W
4142 5553 PD
60 W
4143 5041 PD
60 W
4143 5550 PD
60 W
4143 5536 PD
60 W
4145 5523 PD
60 W
4145 5303 PD
60 W
4145 5553 PD
60 W
4146 4830 PD
60 W
4146 5530 PD
60 W
4147 5361 PD
60 W
4147 5032 PD
60 W
4148 5527 PD
60 W
4148 4890 PD
60 W
4149 5541 PD
60 W
4149 5457 PD
60 W
4149 5225 PD
60 W
4150 5538 PD
60 W
4150 5506 PD
60 W
4150 5420 PD
60 W
4152 5553 PD
60 W
4152 5547 PD
60 W
4153 5547 PD
60 W
4153 5518 PD
60 W
4155 5539 PD
60 W
4155 5287 PD
60 W
4155 5550 PD
60 W
4156 5534 PD
60 W
4156 5470 PD
60 W
4157 5549 PD
60 W
4157 5544 PD
60 W
4157 5542 PD
60 W
4158 5534 PD
60 W
4158 5532 PD
60 W
4158 5524 PD
60 W
4158 5483 PD
60 W
4159 5544 PD
60 W
4159 5442 PD
60 W
4160 5546 PD
60 W
4160 5543 PD
60 W
4161 5511 PD
60 W
4161 5476 PD
60 W
4161 5514 PD
60 W
4162 5480 PD
60 W
4162 5553 PD
60 W
4163 5396 PD
60 W
4164 5250 PD
60 W
4164 5526 PD
60 W
4166 5521 PD
60 W
4167 5395 PD
60 W
4167 4892 PD
60 W
4168 5349 PD
60 W
4169 5283 PD
60 W
4169 5509 PD
60 W
4169 3868 PD
60 W
4170 5553 PD
60 W
4170 5398 PD
60 W
4170 5553 PD
60 W
4170 5304 PD
60 W
4170 5553 PD
60 W
4171 4863 PD
60 W
4171 5108 PD
60 W
4171 5553 PD
60 W
4171 5498 PD
60 W
4172 5228 PD
60 W
4172 5547 PD
60 W
4172 5500 PD
60 W
4173 4838 PD
60 W
4173 5449 PD
60 W
4173 5285 PD
60 W
4173 5547 PD
60 W
4173 5553 PD
60 W
4174 5537 PD
60 W
4175 5334 PD
60 W
4175 5444 PD
60 W
4176 5442 PD
60 W
4177 5373 PD
60 W
4177 5451 PD
60 W
4177 5018 PD
60 W
4178 5552 PD
60 W
4178 5540 PD
60 W
4179 5487 PD
60 W
4179 5369 PD
60 W
4180 5542 PD
60 W
4181 5553 PD
60 W
4181 5359 PD
60 W
4182 5406 PD
60 W
4182 5354 PD
60 W
4183 5328 PD
60 W
4183 5547 PD
60 W
4183 5542 PD
60 W
4183 5520 PD
60 W
4183 5462 PD
60 W
4184 5552 PD
60 W
4184 5268 PD
60 W
4184 5546 PD
60 W
4185 5519 PD
60 W
4185 5429 PD
60 W
4185 5511 PD
60 W
4185 5545 PD
60 W
4185 5494 PD
60 W
4186 5553 PD
60 W
4186 5505 PD
60 W
4186 5552 PD
60 W
4187 5509 PD
60 W
4188 4876 PD
60 W
4188 5551 PD
60 W
4188 5473 PD
60 W
4189 5471 PD
60 W
4190 5553 PD
60 W
4190 5410 PD
60 W
4191 5516 PD
60 W
4191 5552 PD
60 W
4192 5492 PD
60 W
4192 5553 PD
60 W
4192 4225 PD
60 W
4192 5323 PD
60 W
4193 5553 PD
60 W
4194 5205 PD
60 W
4194 5477 PD
60 W
4195 5387 PD
60 W
4195 4971 PD
60 W
4196 5553 PD
60 W
4196 4718 PD
60 W
4196 5553 PD
60 W
4196 5013 PD
60 W
4196 5323 PD
60 W
4197 5152 PD
60 W
4198 5446 PD
60 W
4198 5542 PD
60 W
4199 5508 PD
60 W
4199 4712 PD
60 W
4199 5520 PD
60 W
4199 5536 PD
60 W
4200 5237 PD
60 W
4201 5389 PD
60 W
4202 5480 PD
60 W
4202 5534 PD
60 W
4202 5553 PD
60 W
4203 4342 PD
60 W
4204 5553 PD
60 W
4204 5547 PD
60 W
4204 5502 PD
60 W
4205 5311 PD
60 W
4205 5533 PD
60 W
4205 5479 PD
60 W
4206 4937 PD
60 W
4206 5434 PD
60 W
4207 5534 PD
60 W
4208 5520 PD
60 W
4208 5484 PD
60 W
4208 5530 PD
60 W
4210 5472 PD
60 W
4211 5460 PD
60 W
4212 5549 PD
60 W
4212 4546 PD
60 W
4212 5473 PD
60 W
4212 5536 PD
60 W
4213 5548 PD
60 W
4213 5235 PD
60 W
4213 5480 PD
60 W
4213 5553 PD
60 W
4213 5496 PD
60 W
4214 5550 PD
60 W
4214 3610 PD
60 W
4215 5552 PD
60 W
4215 5553 PD
60 W
4215 5463 PD
60 W
4215 5531 PD
60 W
4215 5490 PD
60 W
4215 5509 PD
60 W
4215 5460 PD
60 W
4216 5270 PD
60 W
4216 5412 PD
60 W
4216 5292 PD
60 W
4217 5513 PD
60 W
4217 5553 PD
60 W
4217 5530 PD
60 W
4217 5552 PD
60 W
4217 5478 PD
60 W
4218 3686 PD
60 W
4218 5379 PD
60 W
4219 5458 PD
60 W
4219 5524 PD
60 W
4220 5352 PD
60 W
4220 5473 PD
60 W
4220 5075 PD
60 W
4221 5523 PD
60 W
4222 4995 PD
60 W
4222 5116 PD
60 W
4223 5553 PD
60 W
4224 5517 PD
60 W
4224 5537 PD
60 W
4225 5438 PD
60 W
4226 5480 PD
60 W
4226 5539 PD
60 W
4227 5440 PD
60 W
4227 5553 PD
60 W
4228 5519 PD
60 W
4228 5473 PD
60 W
4228 5451 PD
60 W
4229 5385 PD
60 W
4230 5526 PD
60 W
4231 5546 PD
60 W
4231 5527 PD
60 W
4232 5511 PD
60 W
4232 5553 PD
60 W
4232 5534 PD
60 W
4232 5545 PD
60 W
4232 5266 PD
60 W
4233 5552 PD
60 W
4234 5553 PD
60 W
4234 5424 PD
60 W
4234 5532 PD
60 W
4234 5545 PD
60 W
4234 5475 PD
60 W
4235 5388 PD
60 W
4235 5049 PD
60 W
4236 5553 PD
60 W
4236 5519 PD
60 W
4236 4917 PD
60 W
4237 5359 PD
60 W
4238 5518 PD
60 W
4239 5442 PD
60 W
4240 5430 PD
60 W
4240 5553 PD
60 W
4241 5361 PD
60 W
4241 5321 PD
60 W
4241 5376 PD
60 W
4241 5486 PD
60 W
4242 5550 PD
60 W
4242 5528 PD
60 W
4242 5553 PD
60 W
4242 5283 PD
60 W
4242 5551 PD
60 W
4243 5397 PD
60 W
4243 4859 PD
60 W
4244 5543 PD
60 W
4244 5549 PD
60 W
4244 5471 PD
60 W
4245 5243 PD
60 W
4245 5553 PD
60 W
4246 5493 PD
60 W
4246 5546 PD
60 W
4247 5496 PD
60 W
4248 5407 PD
60 W
4248 5499 PD
60 W
4248 5082 PD
60 W
4249 5526 PD
60 W
4249 3095 PD
60 W
4249 5513 PD
60 W
4249 5537 PD
60 W
4250 5479 PD
60 W
4250 5465 PD
60 W
4251 5539 PD
60 W
4251 4976 PD
60 W
4252 4313 PD
60 W
4253 5532 PD
60 W
4253 4549 PD
60 W
4254 5400 PD
60 W
4255 5458 PD
60 W
4257 5432 PD
60 W
4257 5546 PD
60 W
4257 5313 PD
60 W
4258 5553 PD
60 W
4258 4842 PD
60 W
4258 4988 PD
60 W
4259 5482 PD
60 W
4259 5348 PD
60 W
4259 5467 PD
60 W
4260 4939 PD
60 W
4260 5163 PD
60 W
4262 5166 PD
60 W
4262 5550 PD
60 W
4262 5552 PD
60 W
4263 5552 PD
60 W
4264 5551 PD
60 W
4265 5302 PD
60 W
4266 5459 PD
60 W
4268 5323 PD
60 W
4268 5071 PD
60 W
4269 5126 PD
60 W
4269 5536 PD
60 W
4270 5519 PD
60 W
4270 5547 PD
60 W
4271 5039 PD
60 W
4272 5509 PD
60 W
4272 5498 PD
60 W
4272 5546 PD
60 W
4272 5524 PD
60 W
4272 5550 PD
60 W
4273 5487 PD
60 W
4275 5313 PD
60 W
4275 5522 PD
60 W
4277 5548 PD
60 W
4277 4657 PD
60 W
4278 5039 PD
60 W
4278 5363 PD
60 W
4278 5544 PD
60 W
4279 5389 PD
60 W
4279 5553 PD
60 W
4280 5529 PD
60 W
4280 5553 PD
60 W
4281 5232 PD
60 W
4281 5522 PD
60 W
4281 5434 PD
60 W
4281 5050 PD
60 W
4281 3624 PD
60 W
4285 5524 PD
60 W
4285 1130 PD
60 W
4287 5544 PD
60 W
4288 5532 PD
60 W
4289 5538 PD
60 W
4291 4656 PD
60 W
4291 5553 PD
60 W
4292 5265 PD
60 W
4292 5534 PD
60 W
4292 5528 PD
60 W
4292 4717 PD
60 W
4292 5550 PD
60 W
4293 5490 PD
60 W
4294 5204 PD
60 W
4295 5390 PD
60 W
4295 4798 PD
60 W
4295 5384 PD
60 W
4296 5553 PD
60 W
4296 5211 PD
60 W
4296 5209 PD
60 W
4297 5158 PD
60 W
4297 5509 PD
60 W
4298 4826 PD
60 W
4299 5546 PD
60 W
4299 5542 PD
60 W
4300 5318 PD
60 W
4301 5535 PD
60 W
4301 5551 PD
60 W
4301 5380 PD
60 W
4302 5493 PD
60 W
4302 5553 PD
60 W
4303 1890 PD
60 W
4305 5425 PD
60 W
4306 5550 PD
60 W
4306 5548 PD
60 W
4307 5472 PD
60 W
4307 5346 PD
60 W
4307 5514 PD
60 W
4308 5471 PD
60 W
4308 5381 PD
60 W
4308 5553 PD
60 W
4308 4616 PD
60 W
4308 5423 PD
60 W
4308 5549 PD
60 W
4309 5553 PD
60 W
4311 5524 PD
60 W
4312 5439 PD
60 W
4312 5553 PD
60 W
4312 5428 PD
60 W
4313 5494 PD
60 W
4313 4394 PD
60 W
4314 5524 PD
60 W
4314 4981 PD
60 W
4314 5432 PD
60 W
4314 5536 PD
60 W
4316 5500 PD
60 W
4317 5533 PD
60 W
4317 5526 PD
60 W
4317 4326 PD
60 W
4317 5346 PD
60 W
4318 5098 PD
60 W
4318 5474 PD
60 W
4319 5252 PD
60 W
4319 5548 PD
60 W
4321 5551 PD
60 W
4322 5532 PD
60 W
4322 5009 PD
60 W
4322 5550 PD
60 W
4322 5454 PD
60 W
4324 5524 PD
60 W
4324 4785 PD
60 W
4325 5510 PD
60 W
4325 5553 PD
60 W
4326 5511 PD
60 W
4326 5120 PD
60 W
4326 5549 PD
60 W
4327 5415 PD
60 W
4328 5260 PD
60 W
4328 5465 PD
60 W
4329 5416 PD
60 W
4330 4898 PD
60 W
4330 5553 PD
60 W
4330 5438 PD
60 W
4332 5523 PD
60 W
4333 4995 PD
60 W
4334 4132 PD
60 W
4334 5476 PD
60 W
4334 5552 PD
60 W
4334 5498 PD
60 W
4335 4482 PD
60 W
4335 5549 PD
60 W
4335 5544 PD
60 W
4335 5538 PD
60 W
4336 5480 PD
60 W
4336 5545 PD
60 W
4337 5551 PD
60 W
4337 5491 PD
60 W
4337 5428 PD
60 W
4338 4852 PD
60 W
4338 4899 PD
60 W
4338 5435 PD
60 W
4339 5356 PD
60 W
4339 5457 PD
60 W
4339 5469 PD
60 W
4340 5278 PD
60 W
4341 5493 PD
60 W
4343 4457 PD
60 W
4343 5493 PD
60 W
4344 5351 PD
60 W
4345 5523 PD
60 W
4346 5492 PD
60 W
4346 5433 PD
60 W
4346 5142 PD
60 W
4347 5289 PD
60 W
4347 5443 PD
60 W
4348 5343 PD
60 W
4348 5553 PD
60 W
4348 4991 PD
60 W
4349 5268 PD
60 W
4349 5293 PD
60 W
4350 5361 PD
60 W
4351 5404 PD
60 W
4351 5517 PD
60 W
4351 4647 PD
60 W
4351 5428 PD
60 W
4352 5399 PD
60 W
4353 5359 PD
60 W
4353 5352 PD
60 W
4354 5553 PD
60 W
4354 5548 PD
60 W
4354 5553 PD
60 W
4354 5412 PD
60 W
4354 5513 PD
60 W
4355 5541 PD
60 W
4355 5407 PD
60 W
4355 5218 PD
60 W
4355 5553 PD
60 W
4356 5417 PD
60 W
4356 5474 PD
60 W
4357 5281 PD
60 W
4357 3954 PD
60 W
4358 5537 PD
60 W
4358 5543 PD
60 W
4359 5298 PD
60 W
4359 5551 PD
60 W
4359 5165 PD
60 W
4360 5553 PD
60 W
4361 5552 PD
60 W
4361 5294 PD
60 W
4362 4689 PD
60 W
4362 5468 PD
60 W
4363 5478 PD
60 W
4363 5480 PD
60 W
4364 5447 PD
60 W
4364 5400 PD
60 W
4365 5549 PD
60 W
4365 5316 PD
60 W
4367 5552 PD
60 W
4368 5408 PD
60 W
4368 5553 PD
60 W
4368 4836 PD
60 W
4370 4919 PD
60 W
4370 5375 PD
60 W
4370 5536 PD
60 W
4371 5154 PD
60 W
4372 4693 PD
60 W
4373 1130 PD
60 W
4373 4533 PD
60 W
4375 5074 PD
60 W
4375 4930 PD
60 W
4375 5530 PD
60 W
4376 5422 PD
60 W
4376 5156 PD
60 W
4377 5392 PD
60 W
4377 5501 PD
60 W
4377 5553 PD
60 W
4378 5343 PD
60 W
4380 5550 PD
60 W
4380 5539 PD
60 W
4380 5527 PD
60 W
4380 5442 PD
60 W
4381 5341 PD
60 W
4382 5429 PD
60 W
4384 5529 PD
60 W
4384 5550 PD
60 W
4384 5549 PD
60 W
4384 5551 PD
60 W
4386 5553 PD
60 W
4386 5525 PD
60 W
4387 5531 PD
60 W
4387 5553 PD
60 W
4387 5549 PD
60 W
4389 5396 PD
60 W
4390 5442 PD
60 W
4391 5496 PD
60 W
4392 5505 PD
60 W
4392 5516 PD
60 W
4392 4692 PD
60 W
4393 4938 PD
60 W
4393 5105 PD
60 W
4394 5272 PD
60 W
4394 5553 PD
60 W
4396 4256 PD
60 W
4397 5492 PD
60 W
4397 5541 PD
60 W
4397 5419 PD
60 W
4399 5537 PD
60 W
4400 2961 PD
60 W
4401 5530 PD
60 W
4404 5306 PD
60 W
4404 5522 PD
60 W
4405 4735 PD
60 W
4405 5024 PD
60 W
4405 5295 PD
60 W
4405 5553 PD
60 W
4406 4625 PD
60 W
4407 4591 PD
60 W
4408 5553 PD
60 W
4408 5543 PD
60 W
4409 5523 PD
60 W
4411 5358 PD
60 W
4411 4948 PD
60 W
4411 3754 PD
60 W
4412 5255 PD
60 W
4413 5553 PD
60 W
4414 5182 PD
60 W
4414 5171 PD
60 W
4415 5553 PD
60 W
4415 5549 PD
60 W
4416 5545 PD
60 W
4416 5553 PD
60 W
4417 5550 PD
60 W
4417 5553 PD
60 W
4418 5201 PD
60 W
4418 5309 PD
60 W
4419 5115 PD
60 W
4419 3875 PD
60 W
4419 5551 PD
60 W
4420 2407 PD
60 W
4422 4615 PD
60 W
4422 5472 PD
60 W
4423 5375 PD
60 W
4423 4573 PD
60 W
4423 5529 PD
60 W
4424 5552 PD
60 W
4426 5395 PD
60 W
4428 5476 PD
60 W
4429 4799 PD
60 W
4429 5405 PD
60 W
4429 5487 PD
60 W
4429 4903 PD
60 W
4429 5533 PD
60 W
4430 5538 PD
60 W
4430 5361 PD
60 W
4433 5182 PD
60 W
4434 5409 PD
60 W
4435 5406 PD
60 W
4435 5498 PD
60 W
4436 4369 PD
60 W
4436 5434 PD
60 W
4436 5540 PD
60 W
4437 5511 PD
60 W
4437 5292 PD
60 W
4437 5541 PD
60 W
4437 5553 PD
60 W
4439 5507 PD
60 W
4439 5502 PD
60 W
4441 5520 PD
60 W
4441 5516 PD
60 W
4442 5553 PD
60 W
4442 5507 PD
60 W
4443 5543 PD
60 W
4445 5364 PD
60 W
4445 5553 PD
60 W
4445 5336 PD
60 W
4446 5548 PD
60 W
4446 5416 PD
60 W
4447 4420 PD
60 W
4448 5476 PD
60 W
4449 5396 PD
60 W
4449 5217 PD
60 W
4450 5533 PD
60 W
4450 5519 PD
60 W
4452 5552 PD
60 W
4453 5343 PD
60 W
4453 5529 PD
60 W
4453 5502 PD
60 W
4453 5375 PD
60 W
4453 5540 PD
60 W
4454 5553 PD
60 W
4454 5551 PD
60 W
4455 5533 PD
60 W
4455 5497 PD
60 W
4457 5544 PD
60 W
4458 5502 PD
60 W
4458 5510 PD
60 W
4459 5436 PD
60 W
4460 5552 PD
60 W
4461 5548 PD
60 W
4462 5546 PD
60 W
4462 5265 PD
60 W
4463 5522 PD
60 W
4463 5548 PD
60 W
4463 5462 PD
60 W
4465 5520 PD
60 W
4465 5553 PD
60 W
4465 4594 PD
60 W
4466 5280 PD
60 W
4466 5537 PD
60 W
4466 5545 PD
60 W
4467 5551 PD
60 W
4468 5474 PD
60 W
4469 5456 PD
60 W
4469 4030 PD
60 W
4469 4964 PD
60 W
4469 5516 PD
60 W
4469 5548 PD
60 W
4470 5546 PD
60 W
4470 5498 PD
60 W
4472 5546 PD
60 W
4472 5229 PD
60 W
4472 5480 PD
60 W
4473 5457 PD
60 W
4476 5534 PD
60 W
4476 5546 PD
60 W
4477 5525 PD
60 W
4478 5553 PD
60 W
4479 5457 PD
60 W
4480 5531 PD
60 W
4480 5553 PD
60 W
4481 5331 PD
60 W
4481 5517 PD
60 W
4481 5418 PD
60 W
4482 5471 PD
60 W
4482 5453 PD
60 W
4483 5449 PD
60 W
4483 5508 PD
60 W
4484 5488 PD
60 W
4485 5544 PD
60 W
4486 4695 PD
60 W
4486 5127 PD
60 W
4487 5044 PD
60 W
4488 5070 PD
60 W
4488 5480 PD
60 W
4489 5553 PD
60 W
4490 5411 PD
60 W
4492 5544 PD
60 W
4492 5342 PD
60 W
4494 4823 PD
60 W
4494 5553 PD
60 W
4495 5344 PD
60 W
4495 4538 PD
60 W
4496 5417 PD
60 W
4497 2321 PD
60 W
4497 5547 PD
60 W
4497 5287 PD
60 W
4499 5345 PD
60 W
4500 5553 PD
60 W
4500 4962 PD
60 W
4501 5419 PD
60 W
4503 5547 PD
60 W
4503 5552 PD
60 W
4504 4953 PD
60 W
4505 4842 PD
60 W
4506 5213 PD
60 W
4506 4062 PD
60 W
4506 5037 PD
60 W
4507 5499 PD
60 W
4507 5516 PD
60 W
4508 2330 PD
60 W
4510 5476 PD
60 W
4510 5411 PD
60 W
4511 4635 PD
60 W
4511 4662 PD
60 W
4511 5362 PD
60 W
4513 5433 PD
60 W
4513 5384 PD
60 W
4513 5552 PD
60 W
4515 5302 PD
60 W
4515 5425 PD
60 W
4517 3384 PD
60 W
4517 5540 PD
60 W
4517 5432 PD
60 W
4519 2521 PD
60 W
4520 5368 PD
60 W
4520 5551 PD
60 W
4520 5274 PD
60 W
4521 1130 PD
60 W
4522 1130 PD
60 W
4523 5544 PD
60 W
4525 5459 PD
60 W
4526 5303 PD
60 W
4526 5454 PD
60 W
4526 5420 PD
60 W
4526 5463 PD
60 W
4527 5420 PD
60 W
4527 5541 PD
60 W
4528 5471 PD
60 W
4530 5386 PD
60 W
4530 5492 PD
60 W
4531 5377 PD
60 W
4531 4648 PD
60 W
4532 5537 PD
60 W
4533 3531 PD
60 W
4533 5544 PD
60 W
4533 5553 PD
60 W
4534 5204 PD
60 W
4535 5385 PD
60 W
4535 5550 PD
60 W
4537 5264 PD
60 W
4538 5158 PD
60 W
4539 5527 PD
60 W
4540 5427 PD
60 W
4541 5068 PD
60 W
4541 5553 PD
60 W
4542 5534 PD
60 W
4542 5521 PD
60 W
4542 5446 PD
60 W
4543 5467 PD
60 W
4543 5540 PD
60 W
4543 4945 PD
60 W
4545 5428 PD
60 W
4545 5350 PD
60 W
4546 5520 PD
60 W
4546 5552 PD
60 W
4548 5422 PD
60 W
4548 5543 PD
60 W
4551 5535 PD
60 W
4552 5553 PD
60 W
4555 5230 PD
60 W
4556 5499 PD
60 W
4556 5553 PD
60 W
4556 5060 PD
60 W
4557 5467 PD
60 W
4557 5263 PD
60 W
4557 5543 PD
60 W
4559 5435 PD
60 W
4559 5553 PD
60 W
4560 4970 PD
60 W
4560 5552 PD
60 W
4560 5545 PD
60 W
4560 4957 PD
60 W
4561 5512 PD
60 W
4563 5211 PD
60 W
4565 5553 PD
60 W
4565 5518 PD
60 W
4565 4976 PD
60 W
4567 5180 PD
60 W
4567 5148 PD
60 W
4569 2449 PD
60 W
4569 5553 PD
60 W
4569 5500 PD
60 W
4571 5466 PD
60 W
4571 5494 PD
60 W
4571 5532 PD
60 W
4572 5553 PD
60 W
4572 5470 PD
60 W
4573 5553 PD
60 W
4574 2301 PD
60 W
4575 5214 PD
60 W
4575 5523 PD
60 W
4576 5348 PD
60 W
4576 5415 PD
60 W
4576 5349 PD
60 W
4578 5473 PD
60 W
4579 5119 PD
60 W
4580 5341 PD
60 W
4582 5502 PD
60 W
4582 5260 PD
60 W
4583 5117 PD
60 W
4584 5379 PD
60 W
4584 5549 PD
60 W
4586 5497 PD
60 W
4586 5518 PD
60 W
4587 5388 PD
60 W
4588 5332 PD
60 W
4589 5520 PD
60 W
4591 5540 PD
60 W
4592 5546 PD
60 W
4592 5446 PD
60 W
4592 5535 PD
60 W
4592 5218 PD
60 W
4592 5327 PD
60 W
4593 5465 PD
60 W
4593 5495 PD
60 W
4594 5444 PD
60 W
4594 5545 PD
60 W
4594 5550 PD
60 W
4595 5205 PD
60 W
4595 5367 PD
60 W
4596 5553 PD
60 W
4598 5531 PD
60 W
4598 5428 PD
60 W
4600 5539 PD
60 W
4601 5398 PD
60 W
4601 5521 PD
60 W
4602 5097 PD
60 W
4603 1130 PD
60 W
4603 5541 PD
60 W
4604 5551 PD
60 W
4605 5552 PD
60 W
4605 5115 PD
60 W
4607 4963 PD
60 W
4610 5483 PD
60 W
4610 5551 PD
60 W
4611 5340 PD
60 W
4611 5470 PD
60 W
4612 5450 PD
60 W
4615 5549 PD
60 W
4617 4376 PD
60 W
4617 5248 PD
60 W
4617 4868 PD
60 W
4619 5482 PD
60 W
4621 5541 PD
60 W
4624 5517 PD
60 W
4624 5228 PD
60 W
4625 4885 PD
60 W
4625 5502 PD
60 W
4626 4408 PD
60 W
4626 5411 PD
60 W
4627 5484 PD
60 W
4627 5552 PD
60 W
4630 5503 PD
60 W
4631 5221 PD
60 W
4634 3499 PD
60 W
4635 5268 PD
60 W
4635 5502 PD
60 W
4636 5110 PD
60 W
4637 5318 PD
60 W
4640 5546 PD
60 W
4640 5537 PD
60 W
4642 5374 PD
60 W
4643 5405 PD
60 W
4644 5552 PD
60 W
4645 5547 PD
60 W
4645 5488 PD
60 W
4645 5444 PD
60 W
4645 5486 PD
60 W
4646 5233 PD
60 W
4647 5501 PD
60 W
4648 5495 PD
60 W
4649 5390 PD
60 W
4649 5553 PD
60 W
4650 5493 PD
60 W
4652 5482 PD
60 W
4652 2344 PD
60 W
4652 5506 PD
60 W
4653 5525 PD
60 W
4653 5388 PD
60 W
4654 5458 PD
60 W
4654 5268 PD
60 W
4655 4918 PD
60 W
4655 5273 PD
60 W
4656 5514 PD
60 W
4656 5258 PD
60 W
4656 5547 PD
60 W
4656 5437 PD
60 W
4657 5141 PD
60 W
4657 5495 PD
60 W
4657 4959 PD
60 W
4659 5470 PD
60 W
4660 5517 PD
60 W
4660 5338 PD
60 W
4661 5279 PD
60 W
4662 5549 PD
60 W
4662 5177 PD
60 W
4663 5365 PD
60 W
4663 5517 PD
60 W
4665 5530 PD
60 W
4666 5531 PD
60 W
4667 5472 PD
60 W
4667 5547 PD
60 W
4668 5452 PD
60 W
4668 5541 PD
60 W
4670 5236 PD
60 W
4672 5450 PD
60 W
4672 4830 PD
60 W
4672 5542 PD
60 W
4672 5535 PD
60 W
4673 4640 PD
60 W
4675 5409 PD
60 W
4679 5545 PD
60 W
4681 5137 PD
60 W
4682 5426 PD
60 W
4683 5394 PD
60 W
4684 5464 PD
60 W
4685 5508 PD
60 W
4685 5293 PD
60 W
4686 4839 PD
60 W
4687 5472 PD
60 W
4688 5277 PD
60 W
4689 5546 PD
60 W
4692 4631 PD
60 W
4697 4791 PD
60 W
4697 5472 PD
60 W
4698 5553 PD
60 W
4699 5115 PD
60 W
4700 5536 PD
60 W
4701 5150 PD
60 W
4701 5275 PD
60 W
4702 5422 PD
60 W
4702 3326 PD
60 W
4703 4848 PD
60 W
4704 5551 PD
60 W
4704 4801 PD
60 W
4704 5549 PD
60 W
4704 5553 PD
60 W
4705 5553 PD
60 W
4707 5513 PD
60 W
4707 5358 PD
60 W
4707 5441 PD
60 W
4708 5526 PD
60 W
4709 4775 PD
60 W
4709 5184 PD
60 W
4710 5288 PD
60 W
4710 4798 PD
60 W
4711 5242 PD
60 W
4712 5196 PD
60 W
4714 5127 PD
60 W
4714 5535 PD
60 W
4714 5498 PD
60 W
4715 5539 PD
60 W
4716 5463 PD
60 W
4718 5341 PD
60 W
4719 4735 PD
60 W
4720 5548 PD
60 W
4720 5495 PD
60 W
4722 4958 PD
60 W
4722 5545 PD
60 W
4722 5552 PD
60 W
4723 5465 PD
60 W
4723 5056 PD
60 W
4726 5518 PD
60 W
4727 5514 PD
60 W
4728 5546 PD
60 W
4730 5539 PD
60 W
4730 5500 PD
60 W
4730 5487 PD
60 W
4730 5535 PD
60 W
4730 3726 PD
60 W
4731 5474 PD
60 W
4735 5490 PD
60 W
4737 3307 PD
60 W
4737 5080 PD
60 W
4738 5536 PD
60 W
4738 5429 PD
60 W
4739 5553 PD
60 W
4739 5477 PD
60 W
4740 5553 PD
60 W
4741 1130 PD
60 W
4741 4763 PD
60 W
4744 5549 PD
60 W
4745 5441 PD
60 W
4751 4019 PD
60 W
4751 5349 PD
60 W
4753 5518 PD
60 W
4755 5513 PD
60 W
4756 5537 PD
60 W
4760 5514 PD
60 W
4760 4206 PD
60 W
4762 5549 PD
60 W
4765 5550 PD
60 W
4766 5454 PD
60 W
4766 5180 PD
60 W
4768 5531 PD
60 W
4769 5481 PD
60 W
4770 5457 PD
60 W
4771 5506 PD
60 W
4773 5523 PD
60 W
4775 5496 PD
60 W
4779 5546 PD
60 W
4781 5497 PD
60 W
4782 5463 PD
60 W
4783 4927 PD
60 W
4784 5551 PD
60 W
4784 5553 PD
60 W
4785 5540 PD
60 W
4785 4158 PD
60 W
4787 4737 PD
60 W
4788 5527 PD
60 W
4788 5449 PD
60 W
4788 5552 PD
60 W
4789 5553 PD
60 W
4789 5530 PD
60 W
4790 5553 PD
60 W
4790 5549 PD
60 W
4791 5532 PD
60 W
4791 5041 PD
60 W
4792 5341 PD
60 W
4793 5503 PD
60 W
4794 4919 PD
60 W
4795 4705 PD
60 W
4795 5544 PD
60 W
4796 4848 PD
60 W
4797 4641 PD
60 W
4798 5467 PD
60 W
4799 5516 PD
60 W
4800 3816 PD
60 W
4803 5550 PD
60 W
4804 5224 PD
60 W
4804 5553 PD
60 W
4805 2410 PD
60 W
4805 5444 PD
60 W
4806 5553 PD
60 W
4806 5545 PD
60 W
4807 5497 PD
60 W
4808 5471 PD
60 W
4810 5367 PD
60 W
4812 5540 PD
60 W
4812 2656 PD
60 W
4813 5553 PD
60 W
4813 5407 PD
60 W
4815 5308 PD
60 W
4817 3755 PD
60 W
4818 4839 PD
60 W
4818 5485 PD
60 W
4820 5553 PD
60 W
4820 5317 PD
60 W
4820 3594 PD
60 W
4822 4880 PD
60 W
4822 5437 PD
60 W
4823 1130 PD
60 W
4827 5553 PD
60 W
4830 5503 PD
60 W
4833 5530 PD
60 W
4834 5520 PD
60 W
4836 4725 PD
60 W
4837 5419 PD
60 W
4837 5093 PD
60 W
4837 5451 PD
60 W
4837 5553 PD
60 W
4837 5512 PD
60 W
4838 4601 PD
60 W
4838 5440 PD
60 W
4839 5209 PD
60 W
4841 5521 PD
60 W
4841 5501 PD
60 W
4842 5357 PD
60 W
4843 5531 PD
60 W
4844 5529 PD
60 W
4851 4188 PD
60 W
4851 5241 PD
60 W
4852 4062 PD
60 W
4853 5194 PD
60 W
4856 5318 PD
60 W
4860 5345 PD
60 W
4861 5377 PD
60 W
4861 5497 PD
60 W
4867 3932 PD
60 W
4868 4657 PD
60 W
4870 5193 PD
60 W
4871 5547 PD
60 W
4872 5376 PD
60 W
4875 5553 PD
60 W
4877 5544 PD
60 W
4878 5553 PD
60 W
4881 5547 PD
60 W
4882 2743 PD
60 W
4885 4872 PD
60 W
4886 5532 PD
60 W
4886 5534 PD
60 W
4887 5316 PD
60 W
4887 5113 PD
60 W
4891 4543 PD
60 W
4894 5232 PD
60 W
4895 5231 PD
60 W
4896 5400 PD
60 W
4898 5469 PD
60 W
4898 5521 PD
60 W
4900 5536 PD
60 W
4912 5484 PD
60 W
4912 3268 PD
60 W
4912 5469 PD
60 W
4914 5429 PD
60 W
4914 5530 PD
60 W
4916 4271 PD
60 W
4916 4316 PD
60 W
4918 5311 PD
60 W
4921 5553 PD
60 W
4927 5387 PD
60 W
4928 5421 PD
60 W
4930 5469 PD
60 W
4932 5553 PD
60 W
4935 4826 PD
60 W
4937 5464 PD
60 W
4945 4392 PD
60 W
4947 5550 PD
60 W
4949 2071 PD
60 W
4949 5086 PD
60 W
4949 5330 PD
60 W
4950 4672 PD
60 W
4952 4570 PD
60 W
4952 5468 PD
60 W
4955 5527 PD
60 W
4956 5353 PD
60 W
4958 5529 PD
60 W
4960 5399 PD
60 W
4962 5446 PD
60 W
4969 4681 PD
60 W
4969 5553 PD
60 W
4972 5478 PD
60 W
4975 5249 PD
60 W
4982 5460 PD
60 W
4986 5466 PD
60 W
4992 5553 PD
60 W
4996 4406 PD
60 W
4997 5322 PD
60 W
5000 5460 PD
60 W
5002 5226 PD
60 W
5007 2900 PD
60 W
5010 5553 PD
60 W
5011 5465 PD
60 W
5012 4685 PD
60 W
5012 5429 PD
60 W
5014 5519 PD
60 W
5017 4100 PD
60 W
5018 5485 PD
60 W
5018 5420 PD
60 W
5023 5512 PD
60 W
5025 5528 PD
60 W
5030 5526 PD
60 W
5031 5550 PD
60 W
5032 5503 PD
60 W
5036 5538 PD
60 W
5036 5382 PD
60 W
5038 5538 PD
60 W
5039 5439 PD
60 W
5043 5411 PD
60 W
5043 3991 PD
60 W
5056 5511 PD
60 W
5056 5553 PD
60 W
5058 5530 PD
60 W
5058 4768 PD
60 W
5061 5553 PD
60 W
5062 5483 PD
60 W
5063 5119 PD
60 W
5064 5541 PD
60 W
5065 5512 PD
60 W
5066 5551 PD
60 W
5067 5487 PD
60 W
5070 3587 PD
60 W
5086 5180 PD
60 W
5087 5496 PD
60 W
5088 4921 PD
60 W
5094 4627 PD
60 W
5094 5550 PD
60 W
5098 2400 PD
60 W
5102 4132 PD
60 W
5102 5221 PD
60 W
5106 5508 PD
gr

gs 1029 468 6139 5087 MR c np
gr

gs 1293 949 6048 4787 MR c np
60 W
5115 5517 PD
60 W
5123 5143 PD
60 W
5141 5548 PD
60 W
5146 5483 PD
60 W
5147 5054 PD
60 W
5152 2308 PD
60 W
5155 1130 PD
60 W
5156 3320 PD
60 W
5158 5256 PD
60 W
5163 2556 PD
60 W
5166 4963 PD
60 W
5173 5281 PD
60 W
5189 5229 PD
60 W
5190 5281 PD
60 W
5192 5399 PD
60 W
5194 5476 PD
60 W
5196 5438 PD
60 W
5198 5456 PD
60 W
5200 3289 PD
60 W
5215 2163 PD
60 W
5216 5430 PD
60 W
5216 4256 PD
60 W
5217 5545 PD
60 W
5225 5280 PD
60 W
5234 4903 PD
60 W
5237 5544 PD
60 W
5246 5363 PD
60 W
5256 5553 PD
60 W
5257 5296 PD
60 W
5259 5551 PD
60 W
5259 5515 PD
60 W
5263 5522 PD
60 W
5263 5068 PD
60 W
5263 5532 PD
gr

gs 1029 468 6139 5087 MR c np
gr

gs 1293 949 6048 4787 MR c np
60 W
5274 5553 PD
60 W
5283 5278 PD
60 W
5283 5504 PD
60 W
5292 5363 PD
60 W
5292 4746 PD
60 W
5311 4992 PD
60 W
5312 5354 PD
60 W
5328 4446 PD
60 W
5333 5548 PD
60 W
5338 1130 PD
60 W
5352 2344 PD
60 W
5368 5178 PD
60 W
5377 2396 PD
60 W
5384 4796 PD
60 W
5388 5153 PD
60 W
5391 4747 PD
60 W
5392 2413 PD
60 W
5399 3340 PD
60 W
5418 5266 PD
60 W
5432 2956 PD
60 W
5436 3113 PD
60 W
5437 1130 PD
60 W
5442 5548 PD
60 W
5460 5550 PD
60 W
5465 5424 PD
60 W
5473 2322 PD
60 W
5478 2626 PD
60 W
5492 5552 PD
60 W
5540 1130 PD
60 W
5575 5544 PD
60 W
5578 1130 PD
60 W
5603 2278 PD
60 W
5603 4107 PD
60 W
5764 5066 PD
60 W
5779 5280 PD
60 W
5783 1130 PD
60 W
5794 2381 PD
60 W
5821 2401 PD
60 W
5898 5535 PD
60 W
6009 2300 PD
60 W
6150 5553 PD
60 W
6157 4658 PD
60 W
6220 4573 PD
60 W
6243 4977 PD
gr

gs 1029 468 6139 5087 MR c np
gr

gs 1293 949 6048 4787 MR c np
60 W
6290 1130 PD
60 W
6707 5522 PD
60 W
6718 2228 PD
60 W
6960 2371 PD
60 W
7159 1130 PD
gr

gs 1029 468 6139 5087 MR c np
gr

%%IncludeResource: font Helvetica
/Helvetica /ISOLatin1Encoding 264 FMSR

 938  286 mt 
(Hypergeometric k-mer enrichment p-value versus w2) s
3899 6038 mt 
(W2) s
 640 3963 mt  -90 rotate
(-log10\(p-value\)) s
90 rotate

end %%Color Dict

eplot
%%EndObject

epage
end

showpage

%%Trailer
%%EOF
