%!PS-Adobe-2.0 EPSF-1.2
%%Creator: MATLAB, The Mathworks, Inc. Version 7.6.0.324 (R2008a). Operating System: Linux 2.6.18.8-0.10-default #1 SMP Wed Jun 4 15:46:34 UTC 2008 x86_64.
%%Title: figs1/sperm_oocyte.eps
%%CreationDate: 03/18/2010  21:58:34
%%DocumentNeededFonts: Helvetica
%%DocumentProcessColors: Cyan Magenta Yellow Black
%%Extensions: CMYK
%%Pages: 1
%%BoundingBox:    -3   142   580   660
%%EndComments

%%BeginProlog
% MathWorks dictionary
/MathWorks 160 dict begin
% definition operators
/bdef {bind def} bind def
/ldef {load def} bind def
/xdef {exch def} bdef
/xstore {exch store} bdef
% operator abbreviations
/c  /clip ldef
/cc /concat ldef
/cp /closepath ldef
/gr /grestore ldef
/gs /gsave ldef
/mt /moveto ldef
/np /newpath ldef
/cm /currentmatrix ldef
/sm /setmatrix ldef
/rm /rmoveto ldef
/rl /rlineto ldef
/s {show newpath} bdef
/sc {setcmykcolor} bdef
/sr /setrgbcolor ldef
/sg /setgray ldef
/w /setlinewidth ldef
/j /setlinejoin ldef
/cap /setlinecap ldef
/rc {rectclip} bdef
/rf {rectfill} bdef
% page state control
/pgsv () def
/bpage {/pgsv save def} bdef
/epage {pgsv restore} bdef
/bplot /gsave ldef
/eplot {stroke grestore} bdef
% orientation switch
/portraitMode 0 def /landscapeMode 1 def /rotateMode 2 def
% coordinate system mappings
/dpi2point 0 def
% font control
/FontSize 0 def
/FMS {/FontSize xstore findfont [FontSize 0 0 FontSize neg 0 0]
  makefont setfont} bdef
/reencode {exch dup where {pop load} {pop StandardEncoding} ifelse
  exch dup 3 1 roll findfont dup length dict begin
  { 1 index /FID ne {def}{pop pop} ifelse } forall
  /Encoding exch def currentdict end definefont pop} bdef
/isroman {findfont /CharStrings get /Agrave known} bdef
/FMSR {3 1 roll 1 index dup isroman {reencode} {pop pop} ifelse
  exch FMS} bdef
/csm {1 dpi2point div -1 dpi2point div scale neg translate
 dup landscapeMode eq {pop -90 rotate}
  {rotateMode eq {90 rotate} if} ifelse} bdef
% line types: solid, dotted, dashed, dotdash
/SO { [] 0 setdash } bdef
/DO { [.5 dpi2point mul 4 dpi2point mul] 0 setdash } bdef
/DA { [6 dpi2point mul] 0 setdash } bdef
/DD { [.5 dpi2point mul 4 dpi2point mul 6 dpi2point mul 4
  dpi2point mul] 0 setdash } bdef
% macros for lines and objects
/L {lineto stroke} bdef
/MP {3 1 roll moveto 1 sub {rlineto} repeat} bdef
/AP {{rlineto} repeat} bdef
/PDlw -1 def
/W {/PDlw currentlinewidth def setlinewidth} def
/PP {closepath eofill} bdef
/DP {closepath stroke} bdef
/MR {4 -2 roll moveto dup  0 exch rlineto exch 0 rlineto
  neg 0 exch rlineto closepath} bdef
/FR {MR stroke} bdef
/PR {MR fill} bdef
/L1i {{currentfile picstr readhexstring pop} image} bdef
/tMatrix matrix def
/MakeOval {newpath tMatrix currentmatrix pop translate scale
0 0 1 0 360 arc tMatrix setmatrix} bdef
/FO {MakeOval stroke} bdef
/PO {MakeOval fill} bdef
/PD {currentlinewidth 2 div 0 360 arc fill
   PDlw -1 eq not {PDlw w /PDlw -1 def} if} def
/FA {newpath tMatrix currentmatrix pop translate scale
  0 0 1 5 -2 roll arc tMatrix setmatrix stroke} bdef
/PA {newpath tMatrix currentmatrix pop	translate 0 0 moveto scale
  0 0 1 5 -2 roll arc closepath tMatrix setmatrix fill} bdef
/FAn {newpath tMatrix currentmatrix pop translate scale
  0 0 1 5 -2 roll arcn tMatrix setmatrix stroke} bdef
/PAn {newpath tMatrix currentmatrix pop translate 0 0 moveto scale
  0 0 1 5 -2 roll arcn closepath tMatrix setmatrix fill} bdef
/vradius 0 def /hradius 0 def /lry 0 def
/lrx 0 def /uly 0 def /ulx 0 def /rad 0 def
/MRR {/vradius xdef /hradius xdef /lry xdef /lrx xdef /uly xdef
  /ulx xdef newpath tMatrix currentmatrix pop ulx hradius add uly
  vradius add translate hradius vradius scale 0 0 1 180 270 arc 
  tMatrix setmatrix lrx hradius sub uly vradius add translate
  hradius vradius scale 0 0 1 270 360 arc tMatrix setmatrix
  lrx hradius sub lry vradius sub translate hradius vradius scale
  0 0 1 0 90 arc tMatrix setmatrix ulx hradius add lry vradius sub
  translate hradius vradius scale 0 0 1 90 180 arc tMatrix setmatrix
  closepath} bdef
/FRR {MRR stroke } bdef
/PRR {MRR fill } bdef
/MlrRR {/lry xdef /lrx xdef /uly xdef /ulx xdef /rad lry uly sub 2 div def
  newpath tMatrix currentmatrix pop ulx rad add uly rad add translate
  rad rad scale 0 0 1 90 270 arc tMatrix setmatrix lrx rad sub lry rad
  sub translate rad rad scale 0 0 1 270 90 arc tMatrix setmatrix
  closepath} bdef
/FlrRR {MlrRR stroke } bdef
/PlrRR {MlrRR fill } bdef
/MtbRR {/lry xdef /lrx xdef /uly xdef /ulx xdef /rad lrx ulx sub 2 div def
  newpath tMatrix currentmatrix pop ulx rad add uly rad add translate
  rad rad scale 0 0 1 180 360 arc tMatrix setmatrix lrx rad sub lry rad
  sub translate rad rad scale 0 0 1 0 180 arc tMatrix setmatrix
  closepath} bdef
/FtbRR {MtbRR stroke } bdef
/PtbRR {MtbRR fill } bdef
/stri 6 array def /dtri 6 array def
/smat 6 array def /dmat 6 array def
/tmat1 6 array def /tmat2 6 array def /dif 3 array def
/asub {/ind2 exch def /ind1 exch def dup dup
  ind1 get exch ind2 get sub exch } bdef
/tri_to_matrix {
  2 0 asub 3 1 asub 4 0 asub 5 1 asub
  dup 0 get exch 1 get 7 -1 roll astore } bdef
/compute_transform {
  dmat dtri tri_to_matrix tmat1 invertmatrix 
  smat stri tri_to_matrix tmat2 concatmatrix } bdef
/ds {stri astore pop} bdef
/dt {dtri astore pop} bdef
/db {2 copy /cols xdef /rows xdef mul dup 3 mul string
  currentfile exch readhexstring pop
  dup 0 3 index getinterval /rbmap xdef
  dup 2 index dup getinterval /gbmap xdef
  1 index dup 2 mul exch getinterval /bbmap xdef pop pop}bdef
/it {gs np dtri aload pop moveto lineto lineto cp c
  cols rows 8 compute_transform 
  rbmap gbmap bbmap true 3 colorimage gr}bdef
/il {newpath moveto lineto stroke}bdef
currentdict end def
%%EndProlog

%%BeginSetup
MathWorks begin

0 cap

end
%%EndSetup

%%Page: 1 1
%%BeginPageSetup
%%PageBoundingBox:    -3   142   580   660
MathWorks begin
bpage
%%EndPageSetup

%%BeginObject: obj1
bplot

/dpi2point 12 def
portraitMode -0288 7872 csm

  249   -48  7008  6215 MR c np
76 dict begin %Colortable dictionary
/c0 { 0.000000 0.000000 0.000000 sr} bdef
/c1 { 1.000000 1.000000 1.000000 sr} bdef
/c2 { 0.900000 0.000000 0.000000 sr} bdef
/c3 { 0.000000 0.820000 0.000000 sr} bdef
/c4 { 0.000000 0.000000 0.800000 sr} bdef
/c5 { 0.910000 0.820000 0.320000 sr} bdef
/c6 { 1.000000 0.260000 0.820000 sr} bdef
/c7 { 0.000000 0.820000 0.820000 sr} bdef
c0
1 j
1 sg
   0    0 7920 6241 PR
6 w
0 5085 6138 0 0 -5085 1029 5554 4 MP
PP
-6138 0 0 5085 6138 0 0 -5085 1029 5554 5 MP stroke
4 w
DO
SO
6 w
0 sg
1029 5554 mt 7167 5554 L
1029  469 mt 7167  469 L
1029 5554 mt 1029  469 L
7167 5554 mt 7167  469 L
1029 5554 mt 7167 5554 L
1029 5554 mt 1029  469 L
1029 5554 mt 1029 5492 L
1029  469 mt 1029  530 L
%%IncludeResource: font Helvetica
/Helvetica /ISOLatin1Encoding 240 FMSR

 963 5811 mt 
(0) s
2145 5554 mt 2145 5492 L
2145  469 mt 2145  530 L
2079 5811 mt 
(2) s
3261 5554 mt 3261 5492 L
3261  469 mt 3261  530 L
3195 5811 mt 
(4) s
4377 5554 mt 4377 5492 L
4377  469 mt 4377  530 L
4311 5811 mt 
(6) s
5493 5554 mt 5493 5492 L
5493  469 mt 5493  530 L
5427 5811 mt 
(8) s
6609 5554 mt 6609 5492 L
6609  469 mt 6609  530 L
6476 5811 mt 
(10) s
1029 5554 mt 1090 5554 L
7167 5554 mt 7105 5554 L
 661 5643 mt 
(0.6) s
1029 4537 mt 1090 4537 L
7167 4537 mt 7105 4537 L
 661 4626 mt 
(0.8) s
1029 3520 mt 1090 3520 L
7167 3520 mt 7105 3520 L
 861 3609 mt 
(1) s
1029 2502 mt 1090 2502 L
7167 2502 mt 7105 2502 L
 661 2591 mt 
(1.2) s
1029 1485 mt 1090 1485 L
7167 1485 mt 7105 1485 L
 661 1574 mt 
(1.4) s
1029  469 mt 1090  469 L
7167  469 mt 7105  469 L
 661  558 mt 
(1.6) s
1029 5554 mt 7167 5554 L
1029  469 mt 7167  469 L
1029 5554 mt 1029  469 L
7167 5554 mt 7167  469 L
gs 1029 469 6139 5086 MR c np
24 w
558 14 558 -25 558 18 558 -45 558 92 558 -74 558 256 558 -62 
558 554 558 -166 1029 3520 11 MP stroke
gr

24 w
gs 763 3088 6113 1299 MR c np
80 W
1029 3520 PD
80 W
1587 3354 PD
80 W
2145 3908 PD
80 W
2703 3846 PD
80 W
3261 4102 PD
80 W
3819 4028 PD
80 W
4377 4120 PD
80 W
4935 4075 PD
80 W
5493 4093 PD
80 W
6051 4068 PD
80 W
6609 4082 PD
gr

gs 1029 469 6139 5086 MR c np
0.5 sg
558 -6 558 11 558 11 558 -45 558 33 558 -49 558 148 558 112 
558 20 558 883 1029 3520 11 MP stroke
gr

0.5 sg
gs 763 3254 6113 1696 MR c np
80 W
1029 3520 PD
80 W
1587 4403 PD
80 W
2145 4423 PD
80 W
2703 4535 PD
80 W
3261 4683 PD
80 W
3819 4634 PD
80 W
4377 4667 PD
80 W
4935 4622 PD
80 W
5493 4633 PD
80 W
6051 4644 PD
80 W
6609 4638 PD
gr

gs 1029 469 6139 5086 MR c np
gr

0 sg
%%IncludeResource: font Helvetica
/Helvetica /ISOLatin1Encoding 288 FMSR

2957 6078 mt 
(Number of factors) s
 542 4941 mt  -90 rotate
(Mean squared prediction error) s
90 rotate
1399  268 mt 
(Normalized mean squared prediction error) s
%%IncludeResource: font Helvetica
/Helvetica /ISOLatin1Encoding 120 FMSR

1012 5597 mt 
( ) s
7151  511 mt 
( ) s
6 w
1 sg
0 722 2603 0 0 -722 4505 1251 4 MP
PP
-2603 0 0 722 2603 0 0 -722 4505 1251 5 MP stroke
4 w
DO
SO
6 w
0 sg
4505 1251 mt 7108 1251 L
4505  529 mt 7108  529 L
4505 1251 mt 4505  529 L
7108 1251 mt 7108  529 L
4505 1251 mt 7108 1251 L
4505 1251 mt 4505  529 L
4505 1251 mt 7108 1251 L
4505  529 mt 7108  529 L
4505 1251 mt 4505  529 L
7108 1251 mt 7108  529 L
%%IncludeResource: font Helvetica
/Helvetica /ISOLatin1Encoding 288 FMSR

4971  822 mt 
(Sperm gene set) s
gs 4505 529 2604 723 MR c np
24 w
358 0 4576 719 2 MP stroke
gr

24 w
gs 4489 453 533 533 MR c np
80 W
4755 719 PD
gr

gs 4505 529 2604 723 MR c np
gr

4971 1163 mt 
(Oocyte gene set) s
gs 4505 529 2604 723 MR c np
0.5 sg
358 0 4576 1060 2 MP stroke
gr

0.5 sg
gs 4489 794 533 533 MR c np
80 W
4755 1060 PD
gr

gs 4505 529 2604 723 MR c np
6 w
gr

6 w

end %%Color Dict

eplot
%%EndObject

epage
end

showpage

%%Trailer
%%EOF
