%!PS-Adobe-2.0 EPSF-1.2
%%Creator: MATLAB, The Mathworks, Inc. Version 7.6.0.324 (R2008a). Operating System: Linux 2.6.18.8-0.10-default #1 SMP Wed Jun 4 15:46:34 UTC 2008 x86_64.
%%Title: ../figs1/sperm_MCS.eps
%%CreationDate: 01/02/2010  20:31:20
%%DocumentNeededFonts: Helvetica
%%DocumentProcessColors: Cyan Magenta Yellow Black
%%Extensions: CMYK
%%Pages: 1
%%BoundingBox:   -14   142   580   660
%%EndComments

%%BeginProlog
% MathWorks dictionary
/MathWorks 160 dict begin
% definition operators
/bdef {bind def} bind def
/ldef {load def} bind def
/xdef {exch def} bdef
/xstore {exch store} bdef
% operator abbreviations
/c  /clip ldef
/cc /concat ldef
/cp /closepath ldef
/gr /grestore ldef
/gs /gsave ldef
/mt /moveto ldef
/np /newpath ldef
/cm /currentmatrix ldef
/sm /setmatrix ldef
/rm /rmoveto ldef
/rl /rlineto ldef
/s {show newpath} bdef
/sc {setcmykcolor} bdef
/sr /setrgbcolor ldef
/sg /setgray ldef
/w /setlinewidth ldef
/j /setlinejoin ldef
/cap /setlinecap ldef
/rc {rectclip} bdef
/rf {rectfill} bdef
% page state control
/pgsv () def
/bpage {/pgsv save def} bdef
/epage {pgsv restore} bdef
/bplot /gsave ldef
/eplot {stroke grestore} bdef
% orientation switch
/portraitMode 0 def /landscapeMode 1 def /rotateMode 2 def
% coordinate system mappings
/dpi2point 0 def
% font control
/FontSize 0 def
/FMS {/FontSize xstore findfont [FontSize 0 0 FontSize neg 0 0]
  makefont setfont} bdef
/reencode {exch dup where {pop load} {pop StandardEncoding} ifelse
  exch dup 3 1 roll findfont dup length dict begin
  { 1 index /FID ne {def}{pop pop} ifelse } forall
  /Encoding exch def currentdict end definefont pop} bdef
/isroman {findfont /CharStrings get /Agrave known} bdef
/FMSR {3 1 roll 1 index dup isroman {reencode} {pop pop} ifelse
  exch FMS} bdef
/csm {1 dpi2point div -1 dpi2point div scale neg translate
 dup landscapeMode eq {pop -90 rotate}
  {rotateMode eq {90 rotate} if} ifelse} bdef
% line types: solid, dotted, dashed, dotdash
/SO { [] 0 setdash } bdef
/DO { [.5 dpi2point mul 4 dpi2point mul] 0 setdash } bdef
/DA { [6 dpi2point mul] 0 setdash } bdef
/DD { [.5 dpi2point mul 4 dpi2point mul 6 dpi2point mul 4
  dpi2point mul] 0 setdash } bdef
% macros for lines and objects
/L {lineto stroke} bdef
/MP {3 1 roll moveto 1 sub {rlineto} repeat} bdef
/AP {{rlineto} repeat} bdef
/PDlw -1 def
/W {/PDlw currentlinewidth def setlinewidth} def
/PP {closepath eofill} bdef
/DP {closepath stroke} bdef
/MR {4 -2 roll moveto dup  0 exch rlineto exch 0 rlineto
  neg 0 exch rlineto closepath} bdef
/FR {MR stroke} bdef
/PR {MR fill} bdef
/L1i {{currentfile picstr readhexstring pop} image} bdef
/tMatrix matrix def
/MakeOval {newpath tMatrix currentmatrix pop translate scale
0 0 1 0 360 arc tMatrix setmatrix} bdef
/FO {MakeOval stroke} bdef
/PO {MakeOval fill} bdef
/PD {currentlinewidth 2 div 0 360 arc fill
   PDlw -1 eq not {PDlw w /PDlw -1 def} if} def
/FA {newpath tMatrix currentmatrix pop translate scale
  0 0 1 5 -2 roll arc tMatrix setmatrix stroke} bdef
/PA {newpath tMatrix currentmatrix pop	translate 0 0 moveto scale
  0 0 1 5 -2 roll arc closepath tMatrix setmatrix fill} bdef
/FAn {newpath tMatrix currentmatrix pop translate scale
  0 0 1 5 -2 roll arcn tMatrix setmatrix stroke} bdef
/PAn {newpath tMatrix currentmatrix pop translate 0 0 moveto scale
  0 0 1 5 -2 roll arcn closepath tMatrix setmatrix fill} bdef
/vradius 0 def /hradius 0 def /lry 0 def
/lrx 0 def /uly 0 def /ulx 0 def /rad 0 def
/MRR {/vradius xdef /hradius xdef /lry xdef /lrx xdef /uly xdef
  /ulx xdef newpath tMatrix currentmatrix pop ulx hradius add uly
  vradius add translate hradius vradius scale 0 0 1 180 270 arc 
  tMatrix setmatrix lrx hradius sub uly vradius add translate
  hradius vradius scale 0 0 1 270 360 arc tMatrix setmatrix
  lrx hradius sub lry vradius sub translate hradius vradius scale
  0 0 1 0 90 arc tMatrix setmatrix ulx hradius add lry vradius sub
  translate hradius vradius scale 0 0 1 90 180 arc tMatrix setmatrix
  closepath} bdef
/FRR {MRR stroke } bdef
/PRR {MRR fill } bdef
/MlrRR {/lry xdef /lrx xdef /uly xdef /ulx xdef /rad lry uly sub 2 div def
  newpath tMatrix currentmatrix pop ulx rad add uly rad add translate
  rad rad scale 0 0 1 90 270 arc tMatrix setmatrix lrx rad sub lry rad
  sub translate rad rad scale 0 0 1 270 90 arc tMatrix setmatrix
  closepath} bdef
/FlrRR {MlrRR stroke } bdef
/PlrRR {MlrRR fill } bdef
/MtbRR {/lry xdef /lrx xdef /uly xdef /ulx xdef /rad lrx ulx sub 2 div def
  newpath tMatrix currentmatrix pop ulx rad add uly rad add translate
  rad rad scale 0 0 1 180 360 arc tMatrix setmatrix lrx rad sub lry rad
  sub translate rad rad scale 0 0 1 0 180 arc tMatrix setmatrix
  closepath} bdef
/FtbRR {MtbRR stroke } bdef
/PtbRR {MtbRR fill } bdef
/stri 6 array def /dtri 6 array def
/smat 6 array def /dmat 6 array def
/tmat1 6 array def /tmat2 6 array def /dif 3 array def
/asub {/ind2 exch def /ind1 exch def dup dup
  ind1 get exch ind2 get sub exch } bdef
/tri_to_matrix {
  2 0 asub 3 1 asub 4 0 asub 5 1 asub
  dup 0 get exch 1 get 7 -1 roll astore } bdef
/compute_transform {
  dmat dtri tri_to_matrix tmat1 invertmatrix 
  smat stri tri_to_matrix tmat2 concatmatrix } bdef
/ds {stri astore pop} bdef
/dt {dtri astore pop} bdef
/db {2 copy /cols xdef /rows xdef mul dup 3 mul string
  currentfile exch readhexstring pop
  dup 0 3 index getinterval /rbmap xdef
  dup 2 index dup getinterval /gbmap xdef
  1 index dup 2 mul exch getinterval /bbmap xdef pop pop}bdef
/it {gs np dtri aload pop moveto lineto lineto cp c
  cols rows 8 compute_transform 
  rbmap gbmap bbmap true 3 colorimage gr}bdef
/il {newpath moveto lineto stroke}bdef
currentdict end def
%%EndProlog

%%BeginSetup
MathWorks begin

0 cap

end
%%EndSetup

%%Page: 1 1
%%BeginPageSetup
%%PageBoundingBox:   -14   142   580   660
MathWorks begin
bpage
%%EndPageSetup

%%BeginObject: obj1
bplot

/dpi2point 12 def
portraitMode -0288 7872 csm

  115   -48  7142  6215 MR c np
76 dict begin %Colortable dictionary
/c0 { 0.000000 0.000000 0.000000 sr} bdef
/c1 { 1.000000 1.000000 1.000000 sr} bdef
/c2 { 0.900000 0.000000 0.000000 sr} bdef
/c3 { 0.000000 0.820000 0.000000 sr} bdef
/c4 { 0.000000 0.000000 0.800000 sr} bdef
/c5 { 0.910000 0.820000 0.320000 sr} bdef
/c6 { 1.000000 0.260000 0.820000 sr} bdef
/c7 { 0.000000 0.820000 0.820000 sr} bdef
c0
1 j
1 sg
   0    0 7920 6241 PR
6 w
0 5085 6138 0 0 -5085 1029 5554 4 MP
PP
-6138 0 0 5085 6138 0 0 -5085 1029 5554 5 MP stroke
4 w
DO
SO
6 w
0 sg
1029 5554 mt 7167 5554 L
1029  469 mt 7167  469 L
1029 5554 mt 1029  469 L
7167 5554 mt 7167  469 L
1029 5554 mt 7167 5554 L
1029 5554 mt 1029  469 L
1642 5554 mt 1642 5492 L
1642  469 mt 1642  530 L
%%IncludeResource: font Helvetica
/Helvetica /ISOLatin1Encoding 240 FMSR

1369 5811 mt 
(-20) s
2256 5554 mt 2256 5492 L
2256  469 mt 2256  530 L
1983 5811 mt 
(-15) s
2870 5554 mt 2870 5492 L
2870  469 mt 2870  530 L
2597 5811 mt 
(-10) s
3484 5554 mt 3484 5492 L
3484  469 mt 3484  530 L
3278 5811 mt 
(-5) s
4098 5554 mt 4098 5492 L
4098  469 mt 4098  530 L
4032 5811 mt 
(0) s
4711 5554 mt 4711 5492 L
4711  469 mt 4711  530 L
4645 5811 mt 
(5) s
5325 5554 mt 5325 5492 L
5325  469 mt 5325  530 L
5192 5811 mt 
(10) s
5939 5554 mt 5939 5492 L
5939  469 mt 5939  530 L
5806 5811 mt 
(15) s
6553 5554 mt 6553 5492 L
6553  469 mt 6553  530 L
6420 5811 mt 
(20) s
1029 5554 mt 1090 5554 L
7167 5554 mt 7105 5554 L
 861 5643 mt 
(0) s
1029 4537 mt 1090 4537 L
7167 4537 mt 7105 4537 L
 527 4626 mt 
(0.04) s
1029 3520 mt 1090 3520 L
7167 3520 mt 7105 3520 L
 527 3609 mt 
(0.08) s
1029 2503 mt 1090 2503 L
7167 2503 mt 7105 2503 L
 527 2592 mt 
(0.12) s
1029 1486 mt 1090 1486 L
7167 1486 mt 7105 1486 L
 527 1575 mt 
(0.16) s
1029  469 mt 1090  469 L
7167  469 mt 7105  469 L
 661  558 mt 
(0.2) s
1029 5554 mt 7167 5554 L
1029  469 mt 7167  469 L
1029 5554 mt 1029  469 L
7167 5554 mt 7167  469 L
gs 1029 469 6139 5086 MR c np
0 51 98 0 0 -51 1593 5554 4 MP
PP
1 sg
-98 0 0 51 98 0 0 -51 1593 5554 5 MP stroke
0 sg
0 17 98 0 0 -17 1716 5554 4 MP
PP
1 sg
-98 0 0 17 98 0 0 -17 1716 5554 5 MP stroke
0 sg
0 26 98 0 0 -26 1839 5554 4 MP
PP
1 sg
-98 0 0 26 98 0 0 -26 1839 5554 5 MP stroke
0 sg
0 60 99 0 0 -60 1961 5554 4 MP
PP
1 sg
-99 0 0 60 99 0 0 -60 1961 5554 5 MP stroke
0 sg
0 34 98 0 0 -34 2084 5554 4 MP
PP
1 sg
-98 0 0 34 98 0 0 -34 2084 5554 5 MP stroke
0 sg
0 34 98 0 0 -34 2207 5554 4 MP
PP
1 sg
-98 0 0 34 98 0 0 -34 2207 5554 5 MP stroke
0 sg
0 43 98 0 0 -43 2330 5554 4 MP
PP
1 sg
-98 0 0 43 98 0 0 -43 2330 5554 5 MP stroke
0 sg
0 77 98 0 0 -77 2453 5554 4 MP
PP
1 sg
-98 0 0 77 98 0 0 -77 2453 5554 5 MP stroke
0 sg
0 93 98 0 0 -93 2575 5554 4 MP
PP
1 sg
-98 0 0 93 98 0 0 -93 2575 5554 5 MP stroke
0 sg
0 136 98 0 0 -136 2698 5554 4 MP
PP
1 sg
-98 0 0 136 98 0 0 -136 2698 5554 5 MP stroke
0 sg
0 279 98 0 0 -279 2821 5554 4 MP
PP
1 sg
-98 0 0 279 98 0 0 -279 2821 5554 5 MP stroke
0 sg
0 347 98 0 0 -347 2944 5554 4 MP
PP
1 sg
-98 0 0 347 98 0 0 -347 2944 5554 5 MP stroke
0 sg
0 550 99 0 0 -550 3066 5554 4 MP
PP
1 sg
-99 0 0 550 99 0 0 -550 3066 5554 5 MP stroke
0 sg
0 643 98 0 0 -643 3189 5554 4 MP
PP
1 sg
-98 0 0 643 98 0 0 -643 3189 5554 5 MP stroke
0 sg
0 1074 98 0 0 -1074 3312 5554 4 MP
PP
1 sg
-98 0 0 1074 98 0 0 -1074 3312 5554 5 MP stroke
0 sg
0 1817 98 0 0 -1817 3435 5554 4 MP
PP
1 sg
-98 0 0 1817 98 0 0 -1817 3435 5554 5 MP stroke
0 sg
0 2307 99 0 0 -2307 3557 5554 4 MP
PP
1 sg
-99 0 0 2307 99 0 0 -2307 3557 5554 5 MP stroke
0 sg
0 2992 98 0 0 -2992 3680 5554 4 MP
PP
1 sg
-98 0 0 2992 98 0 0 -2992 3680 5554 5 MP stroke
0 sg
0 3304 98 0 0 -3304 3803 5554 4 MP
PP
1 sg
-98 0 0 3304 98 0 0 -3304 3803 5554 5 MP stroke
0 sg
0 2764 98 0 0 -2764 3926 5554 4 MP
PP
1 sg
-98 0 0 2764 98 0 0 -2764 3926 5554 5 MP stroke
0 sg
0 2164 99 0 0 -2164 4048 5554 4 MP
PP
1 sg
-99 0 0 2164 99 0 0 -2164 4048 5554 5 MP stroke
0 sg
0 1885 98 0 0 -1885 4171 5554 4 MP
PP
1 sg
-98 0 0 1885 98 0 0 -1885 4171 5554 5 MP stroke
0 sg
0 1496 98 0 0 -1496 4294 5554 4 MP
PP
1 sg
-98 0 0 1496 98 0 0 -1496 4294 5554 5 MP stroke
0 sg
0 1116 98 0 0 -1116 4417 5554 4 MP
PP
1 sg
-98 0 0 1116 98 0 0 -1116 4417 5554 5 MP stroke
0 sg
0 736 99 0 0 -736 4539 5554 4 MP
PP
1 sg
-99 0 0 736 99 0 0 -736 4539 5554 5 MP stroke
0 sg
0 533 98 0 0 -533 4662 5554 4 MP
PP
1 sg
-98 0 0 533 98 0 0 -533 4662 5554 5 MP stroke
0 sg
0 305 98 0 0 -305 4785 5554 4 MP
PP
1 sg
-98 0 0 305 98 0 0 -305 4785 5554 5 MP stroke
0 sg
0 212 98 0 0 -212 4908 5554 4 MP
PP
1 sg
-98 0 0 212 98 0 0 -212 4908 5554 5 MP stroke
0 sg
0 110 99 0 0 -110 5030 5554 4 MP
PP
1 sg
-99 0 0 110 99 0 0 -110 5030 5554 5 MP stroke
0 sg
0 51 98 0 0 -51 5153 5554 4 MP
PP
1 sg
-98 0 0 51 98 0 0 -51 5153 5554 5 MP stroke
0 sg
0 68 98 0 0 -68 5276 5554 4 MP
PP
1 sg
-98 0 0 68 98 0 0 -68 5276 5554 5 MP stroke
0 sg
0 34 98 0 0 -34 5399 5554 4 MP
PP
1 sg
-98 0 0 34 98 0 0 -34 5399 5554 5 MP stroke
0 sg
0 26 98 0 0 -26 5522 5554 4 MP
PP
1 sg
-98 0 0 26 98 0 0 -26 5522 5554 5 MP stroke
0 sg
0 17 98 0 0 -17 5644 5554 4 MP
PP
1 sg
-98 0 0 17 98 0 0 -17 5644 5554 5 MP stroke
0 sg
0 17 98 0 0 -17 5767 5554 4 MP
PP
1 sg
-98 0 0 17 98 0 0 -17 5767 5554 5 MP stroke
0 sg
0 17 98 0 0 -17 5890 5554 4 MP
PP
1 sg
-98 0 0 17 98 0 0 -17 5890 5554 5 MP stroke
0 sg
0 9 98 0 0 -9 6013 5554 4 MP
PP
1 sg
-98 0 0 9 98 0 0 -9 6013 5554 5 MP stroke
0 sg
0 0 99 0 0 0 6135 5554 4 MP
PP
1 sg
-99 0 0 0 99 0 0 0 6135 5554 5 MP stroke
0 sg
0 0 98 0 0 0 6258 5554 4 MP
PP
1 sg
-98 0 0 0 98 0 0 0 6258 5554 5 MP stroke
0 sg
0 0 98 0 0 0 6381 5554 4 MP
PP
1 sg
-98 0 0 0 98 0 0 0 6381 5554 5 MP stroke
0 sg
0 0 98 0 0 0 6504 5554 4 MP
PP
1 sg
-98 0 0 0 98 0 0 0 6504 5554 5 MP stroke
0 sg
6138 0 1029 5554 2 MP stroke
/c8 { 1.000000 0.000000 0.000000 sr} bdef
c8
0 0 98 0 0 0 1593 5554 4 MP
PP
1 sg
-98 0 0 0 98 0 0 0 1593 5554 5 MP stroke
c8
0 0 98 0 0 0 1716 5554 4 MP
PP
1 sg
-98 0 0 0 98 0 0 0 1716 5554 5 MP stroke
c8
0 0 98 0 0 0 1839 5554 4 MP
PP
1 sg
-98 0 0 0 98 0 0 0 1839 5554 5 MP stroke
c8
0 0 99 0 0 0 1961 5554 4 MP
PP
1 sg
-99 0 0 0 99 0 0 0 1961 5554 5 MP stroke
c8
0 509 98 0 0 -509 2084 5554 4 MP
PP
1 sg
-98 0 0 509 98 0 0 -509 2084 5554 5 MP stroke
c8
0 0 98 0 0 0 2207 5554 4 MP
PP
1 sg
-98 0 0 0 98 0 0 0 2207 5554 5 MP stroke
c8
0 0 98 0 0 0 2330 5554 4 MP
PP
1 sg
-98 0 0 0 98 0 0 0 2330 5554 5 MP stroke
c8
0 0 98 0 0 0 2453 5554 4 MP
PP
1 sg
-98 0 0 0 98 0 0 0 2453 5554 5 MP stroke
c8
0 509 98 0 0 -509 2575 5554 4 MP
PP
1 sg
-98 0 0 509 98 0 0 -509 2575 5554 5 MP stroke
c8
0 1017 98 0 0 -1017 2698 5554 4 MP
PP
1 sg
-98 0 0 1017 98 0 0 -1017 2698 5554 5 MP stroke
c8
0 0 98 0 0 0 2821 5554 4 MP
PP
1 sg
-98 0 0 0 98 0 0 0 2821 5554 5 MP stroke
c8
0 509 98 0 0 -509 2944 5554 4 MP
PP
1 sg
-98 0 0 509 98 0 0 -509 2944 5554 5 MP stroke
c8
0 0 99 0 0 0 3066 5554 4 MP
PP
1 sg
-99 0 0 0 99 0 0 0 3066 5554 5 MP stroke
c8
0 509 98 0 0 -509 3189 5554 4 MP
PP
1 sg
-98 0 0 509 98 0 0 -509 3189 5554 5 MP stroke
c8
0 509 98 0 0 -509 3312 5554 4 MP
PP
1 sg
-98 0 0 509 98 0 0 -509 3312 5554 5 MP stroke
c8
0 1017 98 0 0 -1017 3435 5554 4 MP
PP
1 sg
-98 0 0 1017 98 0 0 -1017 3435 5554 5 MP stroke
c8
0 1526 99 0 0 -1526 3557 5554 4 MP
PP
1 sg
-99 0 0 1526 99 0 0 -1526 3557 5554 5 MP stroke
c8
0 2034 98 0 0 -2034 3680 5554 4 MP
PP
1 sg
-98 0 0 2034 98 0 0 -2034 3680 5554 5 MP stroke
c8
0 1526 98 0 0 -1526 3803 5554 4 MP
PP
1 sg
-98 0 0 1526 98 0 0 -1526 3803 5554 5 MP stroke
c8
0 1526 98 0 0 -1526 3926 5554 4 MP
PP
1 sg
-98 0 0 1526 98 0 0 -1526 3926 5554 5 MP stroke
c8
0 1526 99 0 0 -1526 4048 5554 4 MP
PP
1 sg
-99 0 0 1526 99 0 0 -1526 4048 5554 5 MP stroke
c8
0 2543 98 0 0 -2543 4171 5554 4 MP
PP
1 sg
-98 0 0 2543 98 0 0 -2543 4171 5554 5 MP stroke
c8
0 0 98 0 0 0 4294 5554 4 MP
PP
1 sg
-98 0 0 0 98 0 0 0 4294 5554 5 MP stroke
c8
0 0 98 0 0 0 4417 5554 4 MP
PP
1 sg
-98 0 0 0 98 0 0 0 4417 5554 5 MP stroke
c8
0 2543 99 0 0 -2543 4539 5554 4 MP
PP
1 sg
-99 0 0 2543 99 0 0 -2543 4539 5554 5 MP stroke
c8
0 2034 98 0 0 -2034 4662 5554 4 MP
PP
1 sg
-98 0 0 2034 98 0 0 -2034 4662 5554 5 MP stroke
c8
0 0 98 0 0 0 4785 5554 4 MP
PP
1 sg
-98 0 0 0 98 0 0 0 4785 5554 5 MP stroke
c8
0 0 98 0 0 0 4908 5554 4 MP
PP
1 sg
-98 0 0 0 98 0 0 0 4908 5554 5 MP stroke
c8
0 509 99 0 0 -509 5030 5554 4 MP
PP
1 sg
-99 0 0 509 99 0 0 -509 5030 5554 5 MP stroke
c8
0 509 98 0 0 -509 5153 5554 4 MP
PP
1 sg
-98 0 0 509 98 0 0 -509 5153 5554 5 MP stroke
c8
0 0 98 0 0 0 5276 5554 4 MP
PP
1 sg
-98 0 0 0 98 0 0 0 5276 5554 5 MP stroke
c8
0 509 98 0 0 -509 5399 5554 4 MP
PP
1 sg
-98 0 0 509 98 0 0 -509 5399 5554 5 MP stroke
c8
0 1017 98 0 0 -1017 5522 5554 4 MP
PP
1 sg
-98 0 0 1017 98 0 0 -1017 5522 5554 5 MP stroke
c8
0 509 98 0 0 -509 5644 5554 4 MP
PP
1 sg
-98 0 0 509 98 0 0 -509 5644 5554 5 MP stroke
c8
0 0 98 0 0 0 5767 5554 4 MP
PP
1 sg
-98 0 0 0 98 0 0 0 5767 5554 5 MP stroke
c8
0 509 98 0 0 -509 5890 5554 4 MP
PP
1 sg
-98 0 0 509 98 0 0 -509 5890 5554 5 MP stroke
c8
0 0 98 0 0 0 6013 5554 4 MP
PP
1 sg
-98 0 0 0 98 0 0 0 6013 5554 5 MP stroke
c8
0 0 99 0 0 0 6135 5554 4 MP
PP
1 sg
-99 0 0 0 99 0 0 0 6135 5554 5 MP stroke
c8
0 0 98 0 0 0 6258 5554 4 MP
PP
1 sg
-98 0 0 0 98 0 0 0 6258 5554 5 MP stroke
c8
0 0 98 0 0 0 6381 5554 4 MP
PP
1 sg
-98 0 0 0 98 0 0 0 6381 5554 5 MP stroke
c8
0 2034 98 0 0 -2034 6504 5554 4 MP
PP
1 sg
-98 0 0 2034 98 0 0 -2034 6504 5554 5 MP stroke
gr

1 sg
0 sg
%%IncludeResource: font Helvetica
/Helvetica /ISOLatin1Encoding 288 FMSR

1896  268 mt 
(Conservation of 2nd factor k-mers) s
2057 6078 mt 
(Sperm MCS - non-sperm MCS) s
 408 4200 mt  -90 rotate
(Fraction of k-mers) s
90 rotate
%%IncludeResource: font Helvetica
/Helvetica /ISOLatin1Encoding 120 FMSR

1012 5597 mt 
( ) s
7151  511 mt 
( ) s
1 sg
0 666 3909 0 0 -666 1089 1195 4 MP
PP
-3909 0 0 666 3909 0 0 -666 1089 1195 5 MP stroke
4 w
DO
SO
6 w
0 sg
1089 1195 mt 4998 1195 L
1089  529 mt 4998  529 L
1089 1195 mt 1089  529 L
4998 1195 mt 4998  529 L
1089 1195 mt 4998 1195 L
1089 1195 mt 1089  529 L
1089 1195 mt 4998 1195 L
1089  529 mt 4998  529 L
1089 1195 mt 1089  529 L
4998 1195 mt 4998  529 L
%%IncludeResource: font Helvetica
/Helvetica /ISOLatin1Encoding 264 FMSR

1563  799 mt 
(All k-mers \(excluding top 50\)) s
gs 1089 529 3910 667 MR c np
-365 0 0 239 365 0 0 -239 1161 825 5 MP
PP
1 sg
0 0 -365 0 0 239 365 0 0 -239 1161 825 6 MP stroke
gr

1 sg
0 sg
1563 1112 mt 
(Top 50 k-mers) s
gs 1089 529 3910 667 MR c np
c8
-365 0 0 239 365 0 0 -239 1161 1137 5 MP
PP
1 sg
0 0 -365 0 0 239 365 0 0 -239 1161 1137 6 MP stroke
gr

1 sg

end %%Color Dict

eplot
%%EndObject

epage
end

showpage

%%Trailer
%%EOF
