This file contains any messages produced by compilers while
running configure, to aid debugging if configure makes a mistake.

It was created by cluster configure 1.46, which was
generated by GNU Autoconf 2.63.  Invocation command line was

  $ ./configure 

## --------- ##
## Platform. ##
## --------- ##

hostname = ika
uname -m = x86_64
uname -r = 2.6.18.8-0.10-default
uname -s = Linux
uname -v = #1 SMP Wed Jun 4 15:46:34 UTC 2008

/usr/bin/uname -p = unknown
/bin/uname -X     = unknown

/bin/arch              = x86_64
/usr/bin/arch -k       = unknown
/usr/convex/getsysinfo = unknown
/usr/bin/hostinfo      = unknown
/bin/machine           = unknown
/usr/bin/oslevel       = unknown
/bin/universe          = unknown

PATH: /usr/local/bin
PATH: /usr/bin
PATH: /usr/X11R6/bin
PATH: /bin
PATH: /usr/games
PATH: /opt/gnome/bin
PATH: /opt/kde3/bin
PATH: /usr/lib/mit/bin
PATH: /usr/lib/mit/sbin


## ----------- ##
## Core tests. ##
## ----------- ##

configure:1884: checking for a BSD-compatible install
configure:1952: result: /usr/bin/install -c
configure:1963: checking whether build environment is sane
configure:2006: result: yes
configure:2068: checking for gawk
configure:2084: found /usr/bin/gawk
configure:2095: result: gawk
configure:2106: checking whether make sets $(MAKE)
configure:2128: result: yes
configure:2360: checking for gcc
configure:2376: found /usr/bin/gcc
configure:2387: result: gcc
configure:2619: checking for C compiler version
configure:2627: gcc --version >&5
gcc (GCC) 4.1.2 20061115 (prerelease) (SUSE Linux)
Copyright (C) 2006 Free Software Foundation, Inc.
This is free software; see the source for copying conditions.  There is NO
warranty; not even for MERCHANTABILITY or FITNESS FOR A PARTICULAR PURPOSE.

configure:2631: $? = 0
configure:2638: gcc -v >&5
Using built-in specs.
Target: x86_64-suse-linux
Configured with: ../configure --enable-threads=posix --prefix=/usr --with-local-prefix=/usr/local --infodir=/usr/share/info --mandir=/usr/share/man --libdir=/usr/lib64 --libexecdir=/usr/lib64 --enable-languages=c,c++,objc,fortran,obj-c++,java,ada --enable-checking=release --with-gxx-include-dir=/usr/include/c++/4.1.2 --enable-ssp --disable-libssp --disable-libgcj --with-slibdir=/lib64 --with-system-zlib --enable-shared --enable-__cxa_atexit --enable-libstdcxx-allocator=new --program-suffix=-4.1 --enable-version-specific-runtime-libs --without-system-libunwind --with-cpu=generic --host=x86_64-suse-linux
Thread model: posix
gcc version 4.1.2 20061115 (prerelease) (SUSE Linux)
configure:2642: $? = 0
configure:2649: gcc -V >&5
gcc: '-V' option must have argument
configure:2653: $? = 1
configure:2676: checking for C compiler default output file name
configure:2698: gcc    conftest.c  >&5
configure:2702: $? = 0
configure:2740: result: a.out
configure:2759: checking whether the C compiler works
configure:2769: ./a.out
configure:2773: $? = 0
configure:2792: result: yes
configure:2799: checking whether we are cross compiling
configure:2801: result: no
configure:2804: checking for suffix of executables
configure:2811: gcc -o conftest    conftest.c  >&5
configure:2815: $? = 0
configure:2841: result: 
configure:2847: checking for suffix of object files
configure:2873: gcc -c   conftest.c >&5
configure:2877: $? = 0
configure:2902: result: o
configure:2906: checking whether we are using the GNU C compiler
configure:2935: gcc -c   conftest.c >&5
configure:2942: $? = 0
configure:2959: result: yes
configure:2968: checking whether gcc accepts -g
configure:2998: gcc -c -g  conftest.c >&5
configure:3005: $? = 0
configure:3106: result: yes
configure:3123: checking for gcc option to accept ISO C89
configure:3197: gcc  -c -g -O2  conftest.c >&5
configure:3204: $? = 0
configure:3227: result: none needed
configure:3256: checking for style of include used by make
configure:3284: result: GNU
configure:3312: checking dependency style of gcc
configure:3402: result: gcc3
configure:3427: checking how to run the C preprocessor
configure:3467: gcc -E  conftest.c
configure:3474: $? = 0
configure:3505: gcc -E  conftest.c
conftest.c:10:28: error: ac_nonexistent.h: No such file or directory
configure:3512: $? = 1
configure: failed program was:
| /* confdefs.h.  */
| #define PACKAGE_NAME "cluster"
| #define PACKAGE_TARNAME "cluster"
| #define PACKAGE_VERSION "1.46"
| #define PACKAGE_STRING "cluster 1.46"
| #define PACKAGE_BUGREPORT ""
| #define PACKAGE "cluster"
| #define VERSION "1.46"
| /* end confdefs.h.  */
| #include <ac_nonexistent.h>
configure:3545: result: gcc -E
configure:3574: gcc -E  conftest.c
configure:3581: $? = 0
configure:3612: gcc -E  conftest.c
conftest.c:10:28: error: ac_nonexistent.h: No such file or directory
configure:3619: $? = 1
configure: failed program was:
| /* confdefs.h.  */
| #define PACKAGE_NAME "cluster"
| #define PACKAGE_TARNAME "cluster"
| #define PACKAGE_VERSION "1.46"
| #define PACKAGE_STRING "cluster 1.46"
| #define PACKAGE_BUGREPORT ""
| #define PACKAGE "cluster"
| #define VERSION "1.46"
| /* end confdefs.h.  */
| #include <ac_nonexistent.h>
configure:3659: checking for grep that handles long lines and -e
configure:3719: result: /usr/bin/grep
configure:3724: checking for egrep
configure:3788: result: /usr/bin/grep -E
configure:3793: checking for ANSI C header files
configure:3823: gcc -c -g -O2  conftest.c >&5
configure:3830: $? = 0
configure:3929: gcc -o conftest -g -O2   conftest.c  >&5
configure:3933: $? = 0
configure:3939: ./conftest
configure:3943: $? = 0
configure:3961: result: yes
configure:3985: checking for sys/types.h
configure:4006: gcc -c -g -O2  conftest.c >&5
configure:4013: $? = 0
configure:4030: result: yes
configure:3985: checking for sys/stat.h
configure:4006: gcc -c -g -O2  conftest.c >&5
configure:4013: $? = 0
configure:4030: result: yes
configure:3985: checking for stdlib.h
configure:4006: gcc -c -g -O2  conftest.c >&5
configure:4013: $? = 0
configure:4030: result: yes
configure:3985: checking for string.h
configure:4006: gcc -c -g -O2  conftest.c >&5
configure:4013: $? = 0
configure:4030: result: yes
configure:3985: checking for memory.h
configure:4006: gcc -c -g -O2  conftest.c >&5
configure:4013: $? = 0
configure:4030: result: yes
configure:3985: checking for strings.h
configure:4006: gcc -c -g -O2  conftest.c >&5
configure:4013: $? = 0
configure:4030: result: yes
configure:3985: checking for inttypes.h
configure:4006: gcc -c -g -O2  conftest.c >&5
configure:4013: $? = 0
configure:4030: result: yes
configure:3985: checking for stdint.h
configure:4006: gcc -c -g -O2  conftest.c >&5
configure:4013: $? = 0
configure:4030: result: yes
configure:3985: checking for unistd.h
configure:4006: gcc -c -g -O2  conftest.c >&5
configure:4013: $? = 0
configure:4030: result: yes
configure:4054: checking float.h usability
configure:4071: gcc -c -g -O2  conftest.c >&5
configure:4078: $? = 0
configure:4092: result: yes
configure:4096: checking float.h presence
configure:4111: gcc -E  conftest.c
configure:4118: $? = 0
configure:4132: result: yes
configure:4160: checking for float.h
configure:4167: result: yes
configure:4183: checking math.h usability
configure:4200: gcc -c -g -O2  conftest.c >&5
configure:4207: $? = 0
configure:4221: result: yes
configure:4225: checking math.h presence
configure:4240: gcc -E  conftest.c
configure:4247: $? = 0
configure:4261: result: yes
configure:4289: checking for math.h
configure:4296: result: yes
configure:4312: checking stdio.h usability
configure:4329: gcc -c -g -O2  conftest.c >&5
configure:4336: $? = 0
configure:4350: result: yes
configure:4354: checking stdio.h presence
configure:4369: gcc -E  conftest.c
configure:4376: $? = 0
configure:4390: result: yes
configure:4418: checking for stdio.h
configure:4425: result: yes
configure:4432: checking for stdlib.h
configure:4437: result: yes
configure:4561: checking for string.h
configure:4566: result: yes
configure:4699: checking time.h usability
configure:4716: gcc -c -g -O2  conftest.c >&5
configure:4723: $? = 0
configure:4737: result: yes
configure:4741: checking time.h presence
configure:4756: gcc -E  conftest.c
configure:4763: $? = 0
configure:4777: result: yes
configure:4805: checking for time.h
configure:4812: result: yes
configure:4820: checking for an ANSI C-conforming const
configure:4895: gcc -c -g -O2  conftest.c >&5
configure:4902: $? = 0
configure:4917: result: yes
configure:4927: checking for size_t
configure:4955: gcc -c -g -O2  conftest.c >&5
configure:4962: $? = 0
configure:4989: gcc -c -g -O2  conftest.c >&5
conftest.c: In function 'main':
conftest.c:56: error: expected expression before ')' token
configure:4996: $? = 1
configure: failed program was:
| /* confdefs.h.  */
| #define PACKAGE_NAME "cluster"
| #define PACKAGE_TARNAME "cluster"
| #define PACKAGE_VERSION "1.46"
| #define PACKAGE_STRING "cluster 1.46"
| #define PACKAGE_BUGREPORT ""
| #define PACKAGE "cluster"
| #define VERSION "1.46"
| #define STDC_HEADERS 1
| #define HAVE_SYS_TYPES_H 1
| #define HAVE_SYS_STAT_H 1
| #define HAVE_STDLIB_H 1
| #define HAVE_STRING_H 1
| #define HAVE_MEMORY_H 1
| #define HAVE_STRINGS_H 1
| #define HAVE_INTTYPES_H 1
| #define HAVE_STDINT_H 1
| #define HAVE_UNISTD_H 1
| /* end confdefs.h.  */
| #include <stdio.h>
| #ifdef HAVE_SYS_TYPES_H
| # include <sys/types.h>
| #endif
| #ifdef HAVE_SYS_STAT_H
| # include <sys/stat.h>
| #endif
| #ifdef STDC_HEADERS
| # include <stdlib.h>
| # include <stddef.h>
| #else
| # ifdef HAVE_STDLIB_H
| #  include <stdlib.h>
| # endif
| #endif
| #ifdef HAVE_STRING_H
| # if !defined STDC_HEADERS && defined HAVE_MEMORY_H
| #  include <memory.h>
| # endif
| # include <string.h>
| #endif
| #ifdef HAVE_STRINGS_H
| # include <strings.h>
| #endif
| #ifdef HAVE_INTTYPES_H
| # include <inttypes.h>
| #endif
| #ifdef HAVE_STDINT_H
| # include <stdint.h>
| #endif
| #ifdef HAVE_UNISTD_H
| # include <unistd.h>
| #endif
| int
| main ()
| {
| if (sizeof ((size_t)))
| 	  return 0;
|   ;
|   return 0;
| }
configure:5019: result: yes
configure:5038: checking for stdlib.h
configure:5045: result: yes
configure:5179: checking for GNU libc compatible malloc
configure:5213: gcc -o conftest -g -O2   conftest.c  >&5
configure:5217: $? = 0
configure:5223: ./conftest
configure:5227: $? = 0
configure:5244: result: yes
configure:5273: checking for sqrt,exp,log in -lm
configure:5308: gcc -o conftest -g -O2   conftest.c -lm   >&5
conftest.c:29: warning: built-in function 'sqrt' declared as non-function
conftest.c:29: warning: built-in function 'exp' declared as non-function
conftest.c:29: warning: conflicting types for built-in function 'log'
configure:5315: $? = 0
configure:5336: result: yes
configure:5365: Building GUI version of Cluster 3.0 using Motif
configure:5410: checking for ranlib
configure:5426: found /usr/bin/ranlib
configure:5437: result: ranlib
configure:5459: checking for X
configure:5630: gcc -o conftest -g -O2   conftest.c -lX11 -lm  >&5
configure:5637: $? = 0
configure:5699: result: libraries , headers 
configure:5868: gcc -o conftest -g -O2   conftest.c -lm   -lX11 >&5
configure:5875: $? = 0
configure:6043: checking for gethostbyname
configure:6099: gcc -o conftest -g -O2   conftest.c -lm  >&5
configure:6106: $? = 0
configure:6126: result: yes
configure:6279: checking for connect
configure:6335: gcc -o conftest -g -O2   conftest.c -lm  >&5
configure:6342: $? = 0
configure:6362: result: yes
configure:6438: checking for remove
configure:6494: gcc -o conftest -g -O2   conftest.c -lm  >&5
configure:6501: $? = 0
configure:6521: result: yes
configure:6597: checking for shmat
configure:6653: gcc -o conftest -g -O2   conftest.c -lm  >&5
configure:6660: $? = 0
configure:6680: result: yes
configure:6765: checking for IceConnectionNumber in -lICE
configure:6800: gcc -o conftest -g -O2   conftest.c -lICE  -lm  >&5
configure:6807: $? = 0
configure:6828: result: yes
configure:6848: checking for XShapeQueryVersion in -lXext
configure:6883: gcc -o conftest -g -O2    conftest.c -lXext   -lSM -lICE -lX11   -lm  >&5
configure:6890: $? = 0
configure:6911: result: yes
configure:6929: checking for XtMalloc in -lXt
configure:6964: gcc -o conftest -g -O2    conftest.c -lXt  -lXext  -lSM -lICE -lX11   -lm  >&5
configure:6971: $? = 0
configure:6992: result: yes
configure:7010: checking for XmStringCreateSimple in -lXm
configure:7045: gcc -o conftest -g -O2    conftest.c -lXm  -lXt -lXext  -lSM -lICE -lX11   -lm  >&5
/usr/lib64/gcc/x86_64-suse-linux/4.1.2/../../../../x86_64-suse-linux/bin/ld: cannot find -lXm
collect2: ld returned 1 exit status
configure:7052: $? = 1
configure: failed program was:
| /* confdefs.h.  */
| #define PACKAGE_NAME "cluster"
| #define PACKAGE_TARNAME "cluster"
| #define PACKAGE_VERSION "1.46"
| #define PACKAGE_STRING "cluster 1.46"
| #define PACKAGE_BUGREPORT ""
| #define PACKAGE "cluster"
| #define VERSION "1.46"
| #define STDC_HEADERS 1
| #define HAVE_SYS_TYPES_H 1
| #define HAVE_SYS_STAT_H 1
| #define HAVE_STDLIB_H 1
| #define HAVE_STRING_H 1
| #define HAVE_MEMORY_H 1
| #define HAVE_STRINGS_H 1
| #define HAVE_INTTYPES_H 1
| #define HAVE_STDINT_H 1
| #define HAVE_UNISTD_H 1
| #define HAVE_STDLIB_H 1
| #define HAVE_MALLOC 1
| #define HAVE_LIBM 1
| #define HAVE_LIBXEXT 1
| #define HAVE_LIBXT 1
| /* end confdefs.h.  */
| 
| /* Override any GCC internal prototype to avoid an error.
|    Use char because int might match the return type of a GCC
|    builtin and then its argument prototype would still apply.  */
| #ifdef __cplusplus
| extern "C"
| #endif
| char XmStringCreateSimple ();
| int
| main ()
| {
| return XmStringCreateSimple ();
|   ;
|   return 0;
| }
configure:7073: result: no
configure:7084: error: Failed to locate the Motif library.
Use --without-x if you want to build the command-line version of Cluster 3.0.

## ---------------- ##
## Cache variables. ##
## ---------------- ##

ac_cv_c_compiler_gnu=yes
ac_cv_c_const=yes
ac_cv_env_CC_set=
ac_cv_env_CC_value=
ac_cv_env_CFLAGS_set=
ac_cv_env_CFLAGS_value=
ac_cv_env_CPPFLAGS_set=
ac_cv_env_CPPFLAGS_value=
ac_cv_env_CPP_set=
ac_cv_env_CPP_value=
ac_cv_env_LDFLAGS_set=
ac_cv_env_LDFLAGS_value=
ac_cv_env_LIBS_set=
ac_cv_env_LIBS_value=
ac_cv_env_XMKMF_set=
ac_cv_env_XMKMF_value=
ac_cv_env_build_alias_set=
ac_cv_env_build_alias_value=
ac_cv_env_host_alias_set=
ac_cv_env_host_alias_value=
ac_cv_env_target_alias_set=
ac_cv_env_target_alias_value=
ac_cv_func_connect=yes
ac_cv_func_gethostbyname=yes
ac_cv_func_malloc_0_nonnull=yes
ac_cv_func_remove=yes
ac_cv_func_shmat=yes
ac_cv_have_x='have_x=yes	ac_x_includes='\'''\''	ac_x_libraries='\'''\'''
ac_cv_header_float_h=yes
ac_cv_header_inttypes_h=yes
ac_cv_header_math_h=yes
ac_cv_header_memory_h=yes
ac_cv_header_stdc=yes
ac_cv_header_stdint_h=yes
ac_cv_header_stdio_h=yes
ac_cv_header_stdlib_h=yes
ac_cv_header_string_h=yes
ac_cv_header_strings_h=yes
ac_cv_header_sys_stat_h=yes
ac_cv_header_sys_types_h=yes
ac_cv_header_time_h=yes
ac_cv_header_unistd_h=yes
ac_cv_lib_ICE_IceConnectionNumber=yes
ac_cv_lib_Xext_XShapeQueryVersion=yes
ac_cv_lib_Xm_XmStringCreateSimple=no
ac_cv_lib_Xt_XtMalloc=yes
ac_cv_lib_m_sqrt=yes
ac_cv_objext=o
ac_cv_path_EGREP='/usr/bin/grep -E'
ac_cv_path_GREP=/usr/bin/grep
ac_cv_path_install='/usr/bin/install -c'
ac_cv_prog_AWK=gawk
ac_cv_prog_CPP='gcc -E'
ac_cv_prog_ac_ct_CC=gcc
ac_cv_prog_ac_ct_RANLIB=ranlib
ac_cv_prog_cc_c89=
ac_cv_prog_cc_g=yes
ac_cv_prog_make_make_set=yes
ac_cv_type_size_t=yes
am_cv_CC_dependencies_compiler_type=gcc3

## ----------------- ##
## Output variables. ##
## ----------------- ##

ACLOCAL='${SHELL} /ikadata1/leslielab/xue/PLS-svn/src/post-processing/plot_mat/clustering_PCA/cluster-1.46/missing --run aclocal-1.9'
AMDEPBACKSLASH='\'
AMDEP_FALSE='#'
AMDEP_TRUE=''
AMTAR='${SHELL} /ikadata1/leslielab/xue/PLS-svn/src/post-processing/plot_mat/clustering_PCA/cluster-1.46/missing --run tar'
AUTOCONF='${SHELL} /ikadata1/leslielab/xue/PLS-svn/src/post-processing/plot_mat/clustering_PCA/cluster-1.46/missing --run autoconf'
AUTOHEADER='${SHELL} /ikadata1/leslielab/xue/PLS-svn/src/post-processing/plot_mat/clustering_PCA/cluster-1.46/missing --run autoheader'
AUTOMAKE='${SHELL} /ikadata1/leslielab/xue/PLS-svn/src/post-processing/plot_mat/clustering_PCA/cluster-1.46/missing --run automake-1.9'
AWK='gawk'
CC='gcc'
CCDEPMODE='depmode=gcc3'
CFLAGS='-g -O2'
CPP='gcc -E'
CPPFLAGS=' '
CYGPATH_W='echo'
DEFS=''
DEPDIR='.deps'
ECHO_C=''
ECHO_N='-n'
ECHO_T=''
EGREP='/usr/bin/grep -E'
EXEEXT=''
GREP='/usr/bin/grep'
INSTALL_DATA='${INSTALL} -m 644'
INSTALL_PROGRAM='${INSTALL}'
INSTALL_SCRIPT='${INSTALL}'
INSTALL_STRIP_PROGRAM='${SHELL} $(install_sh) -c -s'
LDFLAGS=''
LIBOBJS=''
LIBS='-lXt -lXext  -lSM -lICE -lX11   -lm '
LTLIBOBJS=''
MAKEINFO='${SHELL} /ikadata1/leslielab/xue/PLS-svn/src/post-processing/plot_mat/clustering_PCA/cluster-1.46/missing --run makeinfo'
MOTIF_FALSE=''
MOTIF_TRUE=''
OBJEXT='o'
PACKAGE='cluster'
PACKAGE_BUGREPORT=''
PACKAGE_NAME='cluster'
PACKAGE_STRING='cluster 1.46'
PACKAGE_TARNAME='cluster'
PACKAGE_VERSION='1.46'
PATH_SEPARATOR=':'
RANLIB='ranlib'
SET_MAKE=''
SHELL='/bin/sh'
STRIP=''
VERSION='1.46'
XMKMF=''
X_CFLAGS=''
X_EXTRA_LIBS=''
X_LIBS=''
X_PRE_LIBS=' -lSM -lICE'
ac_ct_CC='gcc'
am__fastdepCC_FALSE='#'
am__fastdepCC_TRUE=''
am__include='include'
am__leading_dot='.'
am__quote=''
am__tar='${AMTAR} chof - "$$tardir"'
am__untar='${AMTAR} xf -'
bindir='${exec_prefix}/bin'
build_alias=''
datadir='${datarootdir}'
datarootdir='${prefix}/share'
docdir='${datarootdir}/doc/${PACKAGE_TARNAME}'
dvidir='${docdir}'
exec_prefix='NONE'
host_alias=''
htmldir='${docdir}'
includedir='${prefix}/include'
infodir='${datarootdir}/info'
install_sh='/ikadata1/leslielab/xue/PLS-svn/src/post-processing/plot_mat/clustering_PCA/cluster-1.46/install-sh'
libdir='${exec_prefix}/lib'
libexecdir='${exec_prefix}/libexec'
localedir='${datarootdir}/locale'
localstatedir='${prefix}/var'
mandir='${datarootdir}/man'
mkdir_p='mkdir -p --'
oldincludedir='/usr/include'
pdfdir='${docdir}'
prefix='NONE'
program_transform_name='s,x,x,'
psdir='${docdir}'
sbindir='${exec_prefix}/sbin'
sharedstatedir='${prefix}/com'
sysconfdir='${prefix}/etc'
target_alias=''

## ----------- ##
## confdefs.h. ##
## ----------- ##

#define PACKAGE_NAME "cluster"
#define PACKAGE_TARNAME "cluster"
#define PACKAGE_VERSION "1.46"
#define PACKAGE_STRING "cluster 1.46"
#define PACKAGE_BUGREPORT ""
#define PACKAGE "cluster"
#define VERSION "1.46"
#define STDC_HEADERS 1
#define HAVE_SYS_TYPES_H 1
#define HAVE_SYS_STAT_H 1
#define HAVE_STDLIB_H 1
#define HAVE_STRING_H 1
#define HAVE_MEMORY_H 1
#define HAVE_STRINGS_H 1
#define HAVE_INTTYPES_H 1
#define HAVE_STDINT_H 1
#define HAVE_UNISTD_H 1
#define HAVE_STDLIB_H 1
#define HAVE_MALLOC 1
#define HAVE_LIBM 1
#define HAVE_LIBXEXT 1
#define HAVE_LIBXT 1

configure: exit 1
