GACACA   0.17 CACACA
GACACA   0.29 ACACAC
GACACA   0.17 GACAC
GCGCAC   0.17 GCGCA
GCGCAC   0.29 CGCGCA
GCGCAC   0.17 GCGCGC
CGCGAG   0.29 GCGCGA
CGCGAG   0.17 CGCGCG
CTCCGC   0.29 GGCGGA
CGCGCC   0.17 AGCGCG
CGCGCC   0.29 CCGCGC
CGCGCC   0.29 GCGCGA
CGCGCC   0.17 CGCGCA
CGCGCC   0.29 GCGCGC
CGCGCC   0.17 CGCGCG
CGCGCC   0.17 CGCGC
ACATG   0.17 ACATGT
AGCGCG   0.29 CCGCGC
AGCGCG   0.29 GCGCGA
AGCGCG   0.17 CGCGCA
AGCGCG   0.29 GCGCGC
AGCGCG   0.17 CGCGCG
AGCGCG   0.17 CGCGC
CCGCCG   0.17 AGGCGG
CCGCCG   0.29 GGCGGA
CCGCCG   0.29 GCCGCC
ACTCT   0.17 ACTCTC
TAGAGA   0.29 AGAGAA
TAGAGA   0.17 AAGAGA
TAGAGA   0.29 AGAGAG
TAGAGA   0.17 GAGAGA
CACACA   0.29 ACACAC
CACACA   0.17 CACAC
AGGCGG   0.29 GGCGGA
AGGCGG   0.29 GCCGCC
ACTCTC   0.29 CTCTCC
ACTCTC   0.29 AGAGAG
ACTCTC   0.29 CTCTCA
ACTCTC   0.17 GAGAGA
ACTCTC   0.17 CCTCTC
ACTCTC   0.17 CTCTC
AGAGAA   0.29 AAGAGA
AGAGAA   0.29 CTTCTC
AGAGAA   0.17 AGAGAG
AGAGAA   0.17 AGAGGA
AGAGAA   0.29 GAGAGA
AAGAGA   0.17 AAGAGG
AAGAGA   0.29 AGAGAG
AAGAGA   0.17 GAGAGA
CTCTCC   0.17 GGAGA
CTCTCC   0.17 AGAGAG
CTCTCC   0.17 CTCTCA
CTCTCC   0.29 GAGAGA
CTCTCC   0.29 CCTCTC
CTCTCC   0.17 CTCTC
AGAAGA   0.29 AAGAAG
AGAAGA   0.29 CTTCTC
AGAAGA   0.17 AGAGGA
GGCGGA   0.17 GCCGCC
GCGCA   0.17 CGCGCA
GCGCA   0.20 GCTCA
GCGCA   0.20 CGCGC
CCGCGC   0.17 GCGCGA
CCGCGC   0.29 CGCGCA
CCGCGC   0.17 GCGCGC
CCGCGC   0.29 CGCGCG
CCGCGC   0.17 CGCGC
GCGCGA   0.29 CGCGCA
GCGCGA   0.17 GCGCGC
GCGCGA   0.29 CGCGCG
GCGCGA   0.17 CGCGC
AAGAAG   0.17 CTTCTC
AAGAAG   0.17 AAGAGG
ACACAC   0.17 CACAC
CTTCTC   0.17 CCTCTC
AAGAGG   0.29 AGAGGA
AAGAGG   0.17 CCTCTC
CGCGCA   0.29 GCGCGC
CGCGCA   0.17 CGCGCG
CGCGCA   0.17 CGCGC
AGAGAG   0.17 CTCTCA
AGAGAG   0.29 GAGAGA
AGAGAG   0.29 CCTCTC
AGAGAG   0.17 CTCTC
CTCTCA   0.29 GAGAGA
CTCTCA   0.29 CCTCTC
CTCTCA   0.17 CTCTC
AGAGGA   0.17 GAGGA
AGAGGA   0.29 CCTCTC
GAGAGA   0.17 CCTCTC
GAGAGA   0.17 CTCTC
GAGAC   0.20 GACAC
GAGAC   0.20 CTCTC
CCTCTC   0.17 CTCTC
GACAC   0.20 CACAC
CTCAC   0.20 CACAC
CTCAC   0.20 CTCTC
GCGCGC   0.29 CGCGCG
GCGCGC   0.17 CGCGC
CGCGCG   0.17 CGCGC
