k-mers:	CTAATTA	AATTAGC	AATTAA	

gene_name	counts_in_c.elegans	oocyte gene?	sperm gene?
C49C3.4		19		0	0
C17B7.7		15		1	0
C17B7.7		15		1	0
C17B7.7		15		1	0
C17B7.7		15		1	0
C17B7.7		15		1	0
C17B7.7		15		1	0
F25B4.1		9		0	0
W06D4.2		8		0	1
M70.3		7		0	1
C04G2.3		7		0	0
C36E8.5		6		0	0
Y23H5A.5		6		0	0
T22G5.6		6		0	0
F07H5.9		5		0	0
R10E9.2		5		0	1
R10E9.2		5		0	1
W09C5.1		5		0	0
T24B8.5		5		0	0
F36D1.4		5		0	1
C25D7.2		5		0	1
W09C5.1		5		0	0
Y53F4B.29		4		0	0
F34D10.4		4		0	0
ZK354.6		4		0	1
K05C4.1		4		0	0
Y53F4B.29		4		0	0
T28A8.6		4		1	0
C17E4.2		4		0	0
C15C8.3		4		0	0
R11G11.14		4		0	0
ZK20.3		3		0	0
T07D4.3		3		0	0
ZK1010.5		3		0	0
F58D5.7		3		0	0
T13A10.10		3		0	0
C55B7.4		3		0	0
ZK757.3		3		0	0
T16A9.5		3		0	1
T05C12.3		3		0	1
Y37D8A.15		3		0	0
Y49F6B.10		3		0	0
T23B3.5		3		0	1
Y49F6B.10		3		0	0
Y54G2A.24		3		0	0
C09G5.5		3		0	0
Y69F12A.2		3		0	0
C16E9.1		3		0	0
F14H8.1		3		0	1
H23N18.1		3		0	0
T16A9.5		3		0	1
H23N18.1		3		0	0
Y41D4B.16		3		0	0
Y39B6A.22		3		0	0
ZK757.3		3		0	0
T16A9.5		3		0	1
F13H6.3		3		0	0
F35E8.10		3		0	0
AH6.2		2		0	1
Y59E9AR.7		2		0	1
K08C9.1		2		0	1
R13F6.10		2		0	0
W03D2.6		2		0	1
T28H11.5		2		0	1
F42C5.3		2		0	0
C04F12.6		2		0	0
Y106G6A.4		2		0	1
F09F7.7		2		0	0
ZK381.4		2		1	0
T04A8.5		2		0	0
T02E1.6		2		0	1
F15D4.2		2		0	0
W09G12.7		2		0	0
T16G12.1		2		0	0
C34H4.2		2		0	0
F36H12.11		2		0	1
C17B7.13		2		0	0
ZK355.3		2		0	0
R13H9.1		2		0	1
F42C5.4		2		0	0
Y106G6A.4		2		0	1
F07H5.4		2		0	0
F10G8.1		2		0	1
T02E1.7		2		0	1
Y71F9AL.17		2		0	0
F22D6.10		2		0	0
T19D12.1		2		0	0
M88.6		2		0	0
C17B7.13		2		0	0
T16G12.1		2		0	0
T14A8.2		2		0	0
F08G5.6		2		0	0
C17B7.13		2		0	0
T08B1.4		2		0	0
M6.1		2		0	0
C47A4.5		2		0	1
F52B11.8		2		0	0
R193.2		2		0	0
R193.2		2		0	0
R09B5.2		2		0	0
