k-mers:	ATAAGCA	GATAAGC	CTTATC	

gene_name	counts_in_c.elegans	oocyte gene?	sperm gene?
F45D3.4		5		0	0
C17B7.13		4		0	0
F47G4.3		4		0	0
C17B7.13		4		0	0
F08G5.6		4		0	0
C17B7.13		4		0	0
R193.2		4		0	0
R193.2		4		0	0
F15E11.14		4		0	0
R193.2		4		0	0
B0554.6		4		0	0
T02E1.6		3		0	1
T02E1.7		3		0	1
T19D12.1		3		0	0
F56A4.2		3		0	0
F56A4.2		3		0	0
C16E9.1		3		0	0
B0310.5		3		0	0
C32H11.10		3		0	0
F36G9.12		3		0	0
K03A1.5		3		0	0
ZK6.10		3		0	0
R09F10.2		3		0	0
R02C2.3		3		0	0
R09F10.2		3		0	0
R09F10.2		3		0	0
C32H11.10		3		0	0
F56A4.2		3		0	0
T22G5.2		3		0	0
ZK896.7		3		0	0
ZC477.7		2		0	1
W03D8.10		2		0	1
C27H5.5		2		0	0
Y46G5A.36		2		0	0
H17B01.2		2		0	0
M88.1		2		0	0
ZK354.6		2		0	1
H17B01.2		2		0	0
Y77E11A.2		2		0	0
C34H4.2		2		0	0
ZC477.7		2		0	1
ZK1025.5		2		0	0
C10H11.6		2		0	0
Y69F12A.2		2		0	0
K01D12.9		2		0	0
T25C12.3		2		0	0
K07C5.4		2		0	0
Y11D7A.11		2		0	0
F15E11.12		2		0	1
F23B2.11		2		0	0
Y73B6BL.34		2		0	0
Y39H10A.2		2		0	0
F01G10.1		2		0	0
T15D6.10		1		0	0
C08B11.4		1		0	0
VW02B12L.1		1		0	0
C15H7.3		1		0	1
Y59E9AR.7		1		0	1
ZC477.1		1		0	1
ZC477.1		1		0	1
T22C1.8		1		0	1
T07C4.5		1		0	0
ZK1010.5		1		0	0
K08D10.8		1		0	1
T28H11.5		1		0	1
ZC477.1		1		0	1
T21E12.4		1		0	0
F58D5.7		1		0	0
C04F12.6		1		0	0
F07H5.9		1		0	0
Y53F4B.29		1		0	0
T13A10.10		1		0	0
F38A3.1		1		0	0
T04A8.5		1		0	0
T16A9.5		1		0	1
F16C3.2		1		0	0
T16G12.1		1		0	0
F32B5.3		1		0	1
VW02B12L.1		1		0	0
R10E4.2		1		1	0
F36H12.11		1		0	1
F37A4.3		1		0	0
R13H9.1		1		0	1
F08G2.5		1		0	0
T02G5.8		1		0	0
Y53F4B.29		1		0	0
ZK1248.5		1		0	1
T24B8.5		1		0	0
C04G2.3		1		0	0
W05B2.5		1		0	0
T16G12.1		1		0	0
F53B3.5		1		0	0
T08B1.4		1		0	0
H23N18.1		1		0	0
C47A4.5		1		0	1
T13C5.5		1		0	0
Y69A2AR.19		1		0	1
C02E11.1		1		0	0
F58B4.3		1		0	0
F47H4.10		1		0	0
