%!PS-Adobe-2.0 EPSF-1.2
%%Creator: MATLAB, The Mathworks, Inc. Version 7.6.0.324 (R2008a). Operating System: Linux 2.6.18.8-0.10-default #1 SMP Wed Jun 4 15:46:34 UTC 2008 x86_64.
%%Title: figs1/ACGTG.eps
%%CreationDate: 03/08/2009  17:49:53
%%DocumentNeededFonts: Helvetica
%%DocumentProcessColors: Cyan Magenta Yellow Black
%%Extensions: CMYK
%%Pages: 1
%%BoundingBox:    14   159   585   647
%%EndComments

%%BeginProlog
% MathWorks dictionary
/MathWorks 160 dict begin
% definition operators
/bdef {bind def} bind def
/ldef {load def} bind def
/xdef {exch def} bdef
/xstore {exch store} bdef
% operator abbreviations
/c  /clip ldef
/cc /concat ldef
/cp /closepath ldef
/gr /grestore ldef
/gs /gsave ldef
/mt /moveto ldef
/np /newpath ldef
/cm /currentmatrix ldef
/sm /setmatrix ldef
/rm /rmoveto ldef
/rl /rlineto ldef
/s {show newpath} bdef
/sc {setcmykcolor} bdef
/sr /setrgbcolor ldef
/sg /setgray ldef
/w /setlinewidth ldef
/j /setlinejoin ldef
/cap /setlinecap ldef
/rc {rectclip} bdef
/rf {rectfill} bdef
% page state control
/pgsv () def
/bpage {/pgsv save def} bdef
/epage {pgsv restore} bdef
/bplot /gsave ldef
/eplot {stroke grestore} bdef
% orientation switch
/portraitMode 0 def /landscapeMode 1 def /rotateMode 2 def
% coordinate system mappings
/dpi2point 0 def
% font control
/FontSize 0 def
/FMS {/FontSize xstore findfont [FontSize 0 0 FontSize neg 0 0]
  makefont setfont} bdef
/reencode {exch dup where {pop load} {pop StandardEncoding} ifelse
  exch dup 3 1 roll findfont dup length dict begin
  { 1 index /FID ne {def}{pop pop} ifelse } forall
  /Encoding exch def currentdict end definefont pop} bdef
/isroman {findfont /CharStrings get /Agrave known} bdef
/FMSR {3 1 roll 1 index dup isroman {reencode} {pop pop} ifelse
  exch FMS} bdef
/csm {1 dpi2point div -1 dpi2point div scale neg translate
 dup landscapeMode eq {pop -90 rotate}
  {rotateMode eq {90 rotate} if} ifelse} bdef
% line types: solid, dotted, dashed, dotdash
/SO { [] 0 setdash } bdef
/DO { [.5 dpi2point mul 4 dpi2point mul] 0 setdash } bdef
/DA { [6 dpi2point mul] 0 setdash } bdef
/DD { [.5 dpi2point mul 4 dpi2point mul 6 dpi2point mul 4
  dpi2point mul] 0 setdash } bdef
% macros for lines and objects
/L {lineto stroke} bdef
/MP {3 1 roll moveto 1 sub {rlineto} repeat} bdef
/AP {{rlineto} repeat} bdef
/PDlw -1 def
/W {/PDlw currentlinewidth def setlinewidth} def
/PP {closepath eofill} bdef
/DP {closepath stroke} bdef
/MR {4 -2 roll moveto dup  0 exch rlineto exch 0 rlineto
  neg 0 exch rlineto closepath} bdef
/FR {MR stroke} bdef
/PR {MR fill} bdef
/L1i {{currentfile picstr readhexstring pop} image} bdef
/tMatrix matrix def
/MakeOval {newpath tMatrix currentmatrix pop translate scale
0 0 1 0 360 arc tMatrix setmatrix} bdef
/FO {MakeOval stroke} bdef
/PO {MakeOval fill} bdef
/PD {currentlinewidth 2 div 0 360 arc fill
   PDlw -1 eq not {PDlw w /PDlw -1 def} if} def
/FA {newpath tMatrix currentmatrix pop translate scale
  0 0 1 5 -2 roll arc tMatrix setmatrix stroke} bdef
/PA {newpath tMatrix currentmatrix pop	translate 0 0 moveto scale
  0 0 1 5 -2 roll arc closepath tMatrix setmatrix fill} bdef
/FAn {newpath tMatrix currentmatrix pop translate scale
  0 0 1 5 -2 roll arcn tMatrix setmatrix stroke} bdef
/PAn {newpath tMatrix currentmatrix pop translate 0 0 moveto scale
  0 0 1 5 -2 roll arcn closepath tMatrix setmatrix fill} bdef
/vradius 0 def /hradius 0 def /lry 0 def
/lrx 0 def /uly 0 def /ulx 0 def /rad 0 def
/MRR {/vradius xdef /hradius xdef /lry xdef /lrx xdef /uly xdef
  /ulx xdef newpath tMatrix currentmatrix pop ulx hradius add uly
  vradius add translate hradius vradius scale 0 0 1 180 270 arc 
  tMatrix setmatrix lrx hradius sub uly vradius add translate
  hradius vradius scale 0 0 1 270 360 arc tMatrix setmatrix
  lrx hradius sub lry vradius sub translate hradius vradius scale
  0 0 1 0 90 arc tMatrix setmatrix ulx hradius add lry vradius sub
  translate hradius vradius scale 0 0 1 90 180 arc tMatrix setmatrix
  closepath} bdef
/FRR {MRR stroke } bdef
/PRR {MRR fill } bdef
/MlrRR {/lry xdef /lrx xdef /uly xdef /ulx xdef /rad lry uly sub 2 div def
  newpath tMatrix currentmatrix pop ulx rad add uly rad add translate
  rad rad scale 0 0 1 90 270 arc tMatrix setmatrix lrx rad sub lry rad
  sub translate rad rad scale 0 0 1 270 90 arc tMatrix setmatrix
  closepath} bdef
/FlrRR {MlrRR stroke } bdef
/PlrRR {MlrRR fill } bdef
/MtbRR {/lry xdef /lrx xdef /uly xdef /ulx xdef /rad lrx ulx sub 2 div def
  newpath tMatrix currentmatrix pop ulx rad add uly rad add translate
  rad rad scale 0 0 1 180 360 arc tMatrix setmatrix lrx rad sub lry rad
  sub translate rad rad scale 0 0 1 0 180 arc tMatrix setmatrix
  closepath} bdef
/FtbRR {MtbRR stroke } bdef
/PtbRR {MtbRR fill } bdef
/stri 6 array def /dtri 6 array def
/smat 6 array def /dmat 6 array def
/tmat1 6 array def /tmat2 6 array def /dif 3 array def
/asub {/ind2 exch def /ind1 exch def dup dup
  ind1 get exch ind2 get sub exch } bdef
/tri_to_matrix {
  2 0 asub 3 1 asub 4 0 asub 5 1 asub
  dup 0 get exch 1 get 7 -1 roll astore } bdef
/compute_transform {
  dmat dtri tri_to_matrix tmat1 invertmatrix 
  smat stri tri_to_matrix tmat2 concatmatrix } bdef
/ds {stri astore pop} bdef
/dt {dtri astore pop} bdef
/db {2 copy /cols xdef /rows xdef mul dup 3 mul string
  currentfile exch readhexstring pop
  dup 0 3 index getinterval /rbmap xdef
  dup 2 index dup getinterval /gbmap xdef
  1 index dup 2 mul exch getinterval /bbmap xdef pop pop}bdef
/it {gs np dtri aload pop moveto lineto lineto cp c
  cols rows 8 compute_transform 
  rbmap gbmap bbmap true 3 colorimage gr}bdef
/il {newpath moveto lineto stroke}bdef
currentdict end def
%%EndProlog

%%BeginSetup
MathWorks begin

0 cap

end
%%EndSetup

%%Page: 1 1
%%BeginPageSetup
%%PageBoundingBox:    14   159   585   647
MathWorks begin
bpage
%%EndPageSetup

%%BeginObject: obj1
bplot

/dpi2point 12 def
portraitMode -0288 7872 csm

  460   106  6856  5857 MR c np
76 dict begin %Colortable dictionary
/c0 { 0.000000 0.000000 0.000000 sr} bdef
/c1 { 1.000000 1.000000 1.000000 sr} bdef
/c2 { 0.900000 0.000000 0.000000 sr} bdef
/c3 { 0.000000 0.820000 0.000000 sr} bdef
/c4 { 0.000000 0.000000 0.800000 sr} bdef
/c5 { 0.910000 0.820000 0.320000 sr} bdef
/c6 { 1.000000 0.260000 0.820000 sr} bdef
/c7 { 0.000000 0.820000 0.820000 sr} bdef
c0
1 j
1 sg
   0    0 7920 6241 PR
6 w
0 2129 6138 0 0 -2129 1029 2597 4 MP
PP
-6138 0 0 2129 6138 0 0 -2129 1029 2597 5 MP stroke
4 w
DO
SO
6 w
0 sg
1029 2597 mt 7167 2597 L
1029  468 mt 7167  468 L
1029 2597 mt 1029  468 L
7167 2597 mt 7167  468 L
1029 2597 mt 7167 2597 L
1029 2597 mt 1029  468 L
1029 2597 mt 1029 2535 L
1029  468 mt 1029  529 L
%%IncludeResource: font Helvetica
/Helvetica /ISOLatin1Encoding 120 FMSR

 996 2742 mt 
(0) s
1642 2597 mt 1642 2535 L
1642  468 mt 1642  529 L
1576 2742 mt 
(50) s
2256 2597 mt 2256 2535 L
2256  468 mt 2256  529 L
2156 2742 mt 
(100) s
2870 2597 mt 2870 2535 L
2870  468 mt 2870  529 L
2770 2742 mt 
(150) s
3484 2597 mt 3484 2535 L
3484  468 mt 3484  529 L
3384 2742 mt 
(200) s
4098 2597 mt 4098 2535 L
4098  468 mt 4098  529 L
3998 2742 mt 
(250) s
4711 2597 mt 4711 2535 L
4711  468 mt 4711  529 L
4611 2742 mt 
(300) s
5325 2597 mt 5325 2535 L
5325  468 mt 5325  529 L
5225 2742 mt 
(350) s
5939 2597 mt 5939 2535 L
5939  468 mt 5939  529 L
5839 2742 mt 
(400) s
6553 2597 mt 6553 2535 L
6553  468 mt 6553  529 L
6453 2742 mt 
(450) s
7167 2597 mt 7167 2535 L
7167  468 mt 7167  529 L
7067 2742 mt 
(500) s
1029 2597 mt 1090 2597 L
7167 2597 mt 7105 2597 L
 928 2641 mt 
(0) s
1029 2171 mt 1090 2171 L
7167 2171 mt 7105 2171 L
 761 2215 mt 
(0.02) s
1029 1745 mt 1090 1745 L
7167 1745 mt 7105 1745 L
 761 1789 mt 
(0.04) s
1029 1319 mt 1090 1319 L
7167 1319 mt 7105 1319 L
 761 1363 mt 
(0.06) s
1029  893 mt 1090  893 L
7167  893 mt 7105  893 L
 761  937 mt 
(0.08) s
1029  468 mt 1090  468 L
7167  468 mt 7105  468 L
 828  512 mt 
(0.1) s
1029 2597 mt 7167 2597 L
1029  468 mt 7167  468 L
1029 2597 mt 1029  468 L
7167 2597 mt 7167  468 L
gs 1029 468 6139 2130 MR c np
0 0 99 0 0 0 979 2597 4 MP
PP
1 sg
-99 0 0 0 99 0 0 0 979 2597 5 MP stroke
0 sg
0 0 98 0 0 0 1102 2597 4 MP
PP
1 sg
-98 0 0 0 98 0 0 0 1102 2597 5 MP stroke
0 sg
0 63 98 0 0 -63 1225 2597 4 MP
PP
1 sg
-98 0 0 63 98 0 0 -63 1225 2597 5 MP stroke
0 sg
0 531 98 0 0 -531 1348 2597 4 MP
PP
1 sg
-98 0 0 531 98 0 0 -531 1348 2597 5 MP stroke
0 sg
0 1062 99 0 0 -1062 1470 2597 4 MP
PP
1 sg
-99 0 0 1062 99 0 0 -1062 1470 2597 5 MP stroke
0 sg
0 1031 98 0 0 -1031 1593 2597 4 MP
PP
1 sg
-98 0 0 1031 98 0 0 -1031 1593 2597 5 MP stroke
0 sg
0 1811 98 0 0 -1811 1716 2597 4 MP
PP
1 sg
-98 0 0 1811 98 0 0 -1811 1716 2597 5 MP stroke
0 sg
0 1655 98 0 0 -1655 1839 2597 4 MP
PP
1 sg
-98 0 0 1655 98 0 0 -1655 1839 2597 5 MP stroke
0 sg
0 1686 99 0 0 -1686 1961 2597 4 MP
PP
1 sg
-99 0 0 1686 99 0 0 -1686 1961 2597 5 MP stroke
0 sg
0 1655 98 0 0 -1655 2084 2597 4 MP
PP
1 sg
-98 0 0 1655 98 0 0 -1655 2084 2597 5 MP stroke
0 sg
0 1249 98 0 0 -1249 2207 2597 4 MP
PP
1 sg
-98 0 0 1249 98 0 0 -1249 2207 2597 5 MP stroke
0 sg
0 999 98 0 0 -999 2330 2597 4 MP
PP
1 sg
-98 0 0 999 98 0 0 -999 2330 2597 5 MP stroke
0 sg
0 500 98 0 0 -500 2453 2597 4 MP
PP
1 sg
-98 0 0 500 98 0 0 -500 2453 2597 5 MP stroke
0 sg
0 594 98 0 0 -594 2575 2597 4 MP
PP
1 sg
-98 0 0 594 98 0 0 -594 2575 2597 5 MP stroke
0 sg
0 875 98 0 0 -875 2698 2597 4 MP
PP
1 sg
-98 0 0 875 98 0 0 -875 2698 2597 5 MP stroke
0 sg
0 500 98 0 0 -500 2821 2597 4 MP
PP
1 sg
-98 0 0 500 98 0 0 -500 2821 2597 5 MP stroke
0 sg
0 500 98 0 0 -500 2944 2597 4 MP
PP
1 sg
-98 0 0 500 98 0 0 -500 2944 2597 5 MP stroke
0 sg
0 500 99 0 0 -500 3066 2597 4 MP
PP
1 sg
-99 0 0 500 99 0 0 -500 3066 2597 5 MP stroke
0 sg
0 531 98 0 0 -531 3189 2597 4 MP
PP
1 sg
-98 0 0 531 98 0 0 -531 3189 2597 5 MP stroke
0 sg
0 313 98 0 0 -313 3312 2597 4 MP
PP
1 sg
-98 0 0 313 98 0 0 -313 3312 2597 5 MP stroke
0 sg
0 219 98 0 0 -219 3435 2597 4 MP
PP
1 sg
-98 0 0 219 98 0 0 -219 3435 2597 5 MP stroke
0 sg
0 375 99 0 0 -375 3557 2597 4 MP
PP
1 sg
-99 0 0 375 99 0 0 -375 3557 2597 5 MP stroke
0 sg
0 250 98 0 0 -250 3680 2597 4 MP
PP
1 sg
-98 0 0 250 98 0 0 -250 3680 2597 5 MP stroke
0 sg
0 157 98 0 0 -157 3803 2597 4 MP
PP
1 sg
-98 0 0 157 98 0 0 -157 3803 2597 5 MP stroke
0 sg
0 94 98 0 0 -94 3926 2597 4 MP
PP
1 sg
-98 0 0 94 98 0 0 -94 3926 2597 5 MP stroke
0 sg
0 94 99 0 0 -94 4048 2597 4 MP
PP
1 sg
-99 0 0 94 99 0 0 -94 4048 2597 5 MP stroke
0 sg
0 250 98 0 0 -250 4171 2597 4 MP
PP
1 sg
-98 0 0 250 98 0 0 -250 4171 2597 5 MP stroke
0 sg
0 250 98 0 0 -250 4294 2597 4 MP
PP
1 sg
-98 0 0 250 98 0 0 -250 4294 2597 5 MP stroke
0 sg
0 219 98 0 0 -219 4417 2597 4 MP
PP
1 sg
-98 0 0 219 98 0 0 -219 4417 2597 5 MP stroke
0 sg
0 250 99 0 0 -250 4539 2597 4 MP
PP
1 sg
-99 0 0 250 99 0 0 -250 4539 2597 5 MP stroke
0 sg
0 219 98 0 0 -219 4662 2597 4 MP
PP
1 sg
-98 0 0 219 98 0 0 -219 4662 2597 5 MP stroke
0 sg
0 94 98 0 0 -94 4785 2597 4 MP
PP
1 sg
-98 0 0 94 98 0 0 -94 4785 2597 5 MP stroke
0 sg
0 32 98 0 0 -32 4908 2597 4 MP
PP
1 sg
-98 0 0 32 98 0 0 -32 4908 2597 5 MP stroke
0 sg
0 188 99 0 0 -188 5030 2597 4 MP
PP
1 sg
-99 0 0 188 99 0 0 -188 5030 2597 5 MP stroke
0 sg
0 219 98 0 0 -219 5153 2597 4 MP
PP
1 sg
-98 0 0 219 98 0 0 -219 5153 2597 5 MP stroke
0 sg
0 63 98 0 0 -63 5276 2597 4 MP
PP
1 sg
-98 0 0 63 98 0 0 -63 5276 2597 5 MP stroke
0 sg
0 219 98 0 0 -219 5399 2597 4 MP
PP
1 sg
-98 0 0 219 98 0 0 -219 5399 2597 5 MP stroke
0 sg
0 63 98 0 0 -63 5522 2597 4 MP
PP
1 sg
-98 0 0 63 98 0 0 -63 5522 2597 5 MP stroke
0 sg
0 63 98 0 0 -63 5644 2597 4 MP
PP
1 sg
-98 0 0 63 98 0 0 -63 5644 2597 5 MP stroke
0 sg
0 94 98 0 0 -94 5767 2597 4 MP
PP
1 sg
-98 0 0 94 98 0 0 -94 5767 2597 5 MP stroke
0 sg
0 188 98 0 0 -188 5890 2597 4 MP
PP
1 sg
-98 0 0 188 98 0 0 -188 5890 2597 5 MP stroke
0 sg
0 344 98 0 0 -344 6013 2597 4 MP
PP
1 sg
-98 0 0 344 98 0 0 -344 6013 2597 5 MP stroke
0 sg
0 250 99 0 0 -250 6135 2597 4 MP
PP
1 sg
-99 0 0 250 99 0 0 -250 6135 2597 5 MP stroke
0 sg
0 94 98 0 0 -94 6258 2597 4 MP
PP
1 sg
-98 0 0 94 98 0 0 -94 6258 2597 5 MP stroke
0 sg
0 188 98 0 0 -188 6381 2597 4 MP
PP
1 sg
-98 0 0 188 98 0 0 -188 6381 2597 5 MP stroke
0 sg
0 219 98 0 0 -219 6504 2597 4 MP
PP
1 sg
-98 0 0 219 98 0 0 -219 6504 2597 5 MP stroke
0 sg
0 250 99 0 0 -250 6626 2597 4 MP
PP
1 sg
-99 0 0 250 99 0 0 -250 6626 2597 5 MP stroke
0 sg
0 94 98 0 0 -94 6749 2597 4 MP
PP
1 sg
-98 0 0 94 98 0 0 -94 6749 2597 5 MP stroke
0 sg
0 94 98 0 0 -94 6872 2597 4 MP
PP
1 sg
-98 0 0 94 98 0 0 -94 6872 2597 5 MP stroke
0 sg
0 125 98 0 0 -125 6995 2597 4 MP
PP
1 sg
-98 0 0 125 98 0 0 -125 6995 2597 5 MP stroke
0 sg
0 0 99 0 0 0 7117 2597 4 MP
PP
1 sg
-99 0 0 0 99 0 0 0 7117 2597 5 MP stroke
0 sg
6138 0 1029 2597 2 MP stroke
gr

%%IncludeResource: font Helvetica
/Helvetica /ISOLatin1Encoding 192 FMSR

1654  357 mt 
(Distribution of distance of ACGTG to TSS in sperm genes) s
3408 2938 mt 
(Distance to TSS) s
 663 2325 mt  -90 rotate
(Fraction of k-mers) s
90 rotate
1 sg
0 2129 6138 0 0 -2129 1029 5554 4 MP
PP
-6138 0 0 2129 6138 0 0 -2129 1029 5554 5 MP stroke
4 w
DO
SO
6 w
0 sg
1029 5554 mt 7167 5554 L
1029 3425 mt 7167 3425 L
1029 5554 mt 1029 3425 L
7167 5554 mt 7167 3425 L
1029 5554 mt 7167 5554 L
1029 5554 mt 1029 3425 L
1029 5554 mt 1029 5492 L
1029 3425 mt 1029 3486 L
%%IncludeResource: font Helvetica
/Helvetica /ISOLatin1Encoding 120 FMSR

 996 5699 mt 
(0) s
1642 5554 mt 1642 5492 L
1642 3425 mt 1642 3486 L
1576 5699 mt 
(50) s
2256 5554 mt 2256 5492 L
2256 3425 mt 2256 3486 L
2156 5699 mt 
(100) s
2870 5554 mt 2870 5492 L
2870 3425 mt 2870 3486 L
2770 5699 mt 
(150) s
3484 5554 mt 3484 5492 L
3484 3425 mt 3484 3486 L
3384 5699 mt 
(200) s
4098 5554 mt 4098 5492 L
4098 3425 mt 4098 3486 L
3998 5699 mt 
(250) s
4711 5554 mt 4711 5492 L
4711 3425 mt 4711 3486 L
4611 5699 mt 
(300) s
5325 5554 mt 5325 5492 L
5325 3425 mt 5325 3486 L
5225 5699 mt 
(350) s
5939 5554 mt 5939 5492 L
5939 3425 mt 5939 3486 L
5839 5699 mt 
(400) s
6553 5554 mt 6553 5492 L
6553 3425 mt 6553 3486 L
6453 5699 mt 
(450) s
7167 5554 mt 7167 5492 L
7167 3425 mt 7167 3486 L
7067 5699 mt 
(500) s
1029 5554 mt 1090 5554 L
7167 5554 mt 7105 5554 L
 928 5598 mt 
(0) s
1029 5128 mt 1090 5128 L
7167 5128 mt 7105 5128 L
 761 5172 mt 
(0.02) s
1029 4702 mt 1090 4702 L
7167 4702 mt 7105 4702 L
 761 4746 mt 
(0.04) s
1029 4276 mt 1090 4276 L
7167 4276 mt 7105 4276 L
 761 4320 mt 
(0.06) s
1029 3850 mt 1090 3850 L
7167 3850 mt 7105 3850 L
 761 3894 mt 
(0.08) s
1029 3425 mt 1090 3425 L
7167 3425 mt 7105 3425 L
 828 3469 mt 
(0.1) s
1029 5554 mt 7167 5554 L
1029 3425 mt 7167 3425 L
1029 5554 mt 1029 3425 L
7167 5554 mt 7167 3425 L
gs 1029 3425 6139 2130 MR c np
0 0 99 0 0 0 979 5554 4 MP
PP
1 sg
-99 0 0 0 99 0 0 0 979 5554 5 MP stroke
0 sg
0 0 98 0 0 0 1102 5554 4 MP
PP
1 sg
-98 0 0 0 98 0 0 0 1102 5554 5 MP stroke
0 sg
0 135 98 0 0 -135 1225 5554 4 MP
PP
1 sg
-98 0 0 135 98 0 0 -135 1225 5554 5 MP stroke
0 sg
0 329 98 0 0 -329 1348 5554 4 MP
PP
1 sg
-98 0 0 329 98 0 0 -329 1348 5554 5 MP stroke
0 sg
0 605 99 0 0 -605 1470 5554 4 MP
PP
1 sg
-99 0 0 605 99 0 0 -605 1470 5554 5 MP stroke
0 sg
0 612 98 0 0 -612 1593 5554 4 MP
PP
1 sg
-98 0 0 612 98 0 0 -612 1593 5554 5 MP stroke
0 sg
0 597 98 0 0 -597 1716 5554 4 MP
PP
1 sg
-98 0 0 597 98 0 0 -597 1716 5554 5 MP stroke
0 sg
0 627 98 0 0 -627 1839 5554 4 MP
PP
1 sg
-98 0 0 627 98 0 0 -627 1839 5554 5 MP stroke
0 sg
0 672 99 0 0 -672 1961 5554 4 MP
PP
1 sg
-99 0 0 672 99 0 0 -672 1961 5554 5 MP stroke
0 sg
0 694 98 0 0 -694 2084 5554 4 MP
PP
1 sg
-98 0 0 694 98 0 0 -694 2084 5554 5 MP stroke
0 sg
0 448 98 0 0 -448 2207 5554 4 MP
PP
1 sg
-98 0 0 448 98 0 0 -448 2207 5554 5 MP stroke
0 sg
0 582 98 0 0 -582 2330 5554 4 MP
PP
1 sg
-98 0 0 582 98 0 0 -582 2330 5554 5 MP stroke
0 sg
0 455 98 0 0 -455 2453 5554 4 MP
PP
1 sg
-98 0 0 455 98 0 0 -455 2453 5554 5 MP stroke
0 sg
0 485 98 0 0 -485 2575 5554 4 MP
PP
1 sg
-98 0 0 485 98 0 0 -485 2575 5554 5 MP stroke
0 sg
0 403 98 0 0 -403 2698 5554 4 MP
PP
1 sg
-98 0 0 403 98 0 0 -403 2698 5554 5 MP stroke
0 sg
0 545 98 0 0 -545 2821 5554 4 MP
PP
1 sg
-98 0 0 545 98 0 0 -545 2821 5554 5 MP stroke
0 sg
0 485 98 0 0 -485 2944 5554 4 MP
PP
1 sg
-98 0 0 485 98 0 0 -485 2944 5554 5 MP stroke
0 sg
0 448 99 0 0 -448 3066 5554 4 MP
PP
1 sg
-99 0 0 448 99 0 0 -448 3066 5554 5 MP stroke
0 sg
0 485 98 0 0 -485 3189 5554 4 MP
PP
1 sg
-98 0 0 485 98 0 0 -485 3189 5554 5 MP stroke
0 sg
0 508 98 0 0 -508 3312 5554 4 MP
PP
1 sg
-98 0 0 508 98 0 0 -508 3312 5554 5 MP stroke
0 sg
0 478 98 0 0 -478 3435 5554 4 MP
PP
1 sg
-98 0 0 478 98 0 0 -478 3435 5554 5 MP stroke
0 sg
0 530 99 0 0 -530 3557 5554 4 MP
PP
1 sg
-99 0 0 530 99 0 0 -530 3557 5554 5 MP stroke
0 sg
0 411 98 0 0 -411 3680 5554 4 MP
PP
1 sg
-98 0 0 411 98 0 0 -411 3680 5554 5 MP stroke
0 sg
0 381 98 0 0 -381 3803 5554 4 MP
PP
1 sg
-98 0 0 381 98 0 0 -381 3803 5554 5 MP stroke
0 sg
0 455 98 0 0 -455 3926 5554 4 MP
PP
1 sg
-98 0 0 455 98 0 0 -455 3926 5554 5 MP stroke
0 sg
0 522 99 0 0 -522 4048 5554 4 MP
PP
1 sg
-99 0 0 522 99 0 0 -522 4048 5554 5 MP stroke
0 sg
0 418 98 0 0 -418 4171 5554 4 MP
PP
1 sg
-98 0 0 418 98 0 0 -418 4171 5554 5 MP stroke
0 sg
0 560 98 0 0 -560 4294 5554 4 MP
PP
1 sg
-98 0 0 560 98 0 0 -560 4294 5554 5 MP stroke
0 sg
0 388 98 0 0 -388 4417 5554 4 MP
PP
1 sg
-98 0 0 388 98 0 0 -388 4417 5554 5 MP stroke
0 sg
0 381 99 0 0 -381 4539 5554 4 MP
PP
1 sg
-99 0 0 381 99 0 0 -381 4539 5554 5 MP stroke
0 sg
0 358 98 0 0 -358 4662 5554 4 MP
PP
1 sg
-98 0 0 358 98 0 0 -358 4662 5554 5 MP stroke
0 sg
0 306 98 0 0 -306 4785 5554 4 MP
PP
1 sg
-98 0 0 306 98 0 0 -306 4785 5554 5 MP stroke
0 sg
0 396 98 0 0 -396 4908 5554 4 MP
PP
1 sg
-98 0 0 396 98 0 0 -396 4908 5554 5 MP stroke
0 sg
0 388 99 0 0 -388 5030 5554 4 MP
PP
1 sg
-99 0 0 388 99 0 0 -388 5030 5554 5 MP stroke
0 sg
0 463 98 0 0 -463 5153 5554 4 MP
PP
1 sg
-98 0 0 463 98 0 0 -463 5153 5554 5 MP stroke
0 sg
0 485 98 0 0 -485 5276 5554 4 MP
PP
1 sg
-98 0 0 485 98 0 0 -485 5276 5554 5 MP stroke
0 sg
0 493 98 0 0 -493 5399 5554 4 MP
PP
1 sg
-98 0 0 493 98 0 0 -493 5399 5554 5 MP stroke
0 sg
0 426 98 0 0 -426 5522 5554 4 MP
PP
1 sg
-98 0 0 426 98 0 0 -426 5522 5554 5 MP stroke
0 sg
0 284 98 0 0 -284 5644 5554 4 MP
PP
1 sg
-98 0 0 284 98 0 0 -284 5644 5554 5 MP stroke
0 sg
0 411 98 0 0 -411 5767 5554 4 MP
PP
1 sg
-98 0 0 411 98 0 0 -411 5767 5554 5 MP stroke
0 sg
0 418 98 0 0 -418 5890 5554 4 MP
PP
1 sg
-98 0 0 418 98 0 0 -418 5890 5554 5 MP stroke
0 sg
0 366 98 0 0 -366 6013 5554 4 MP
PP
1 sg
-98 0 0 366 98 0 0 -366 6013 5554 5 MP stroke
0 sg
0 344 99 0 0 -344 6135 5554 4 MP
PP
1 sg
-99 0 0 344 99 0 0 -344 6135 5554 5 MP stroke
0 sg
0 426 98 0 0 -426 6258 5554 4 MP
PP
1 sg
-98 0 0 426 98 0 0 -426 6258 5554 5 MP stroke
0 sg
0 254 98 0 0 -254 6381 5554 4 MP
PP
1 sg
-98 0 0 254 98 0 0 -254 6381 5554 5 MP stroke
0 sg
0 403 98 0 0 -403 6504 5554 4 MP
PP
1 sg
-98 0 0 403 98 0 0 -403 6504 5554 5 MP stroke
0 sg
0 373 99 0 0 -373 6626 5554 4 MP
PP
1 sg
-99 0 0 373 99 0 0 -373 6626 5554 5 MP stroke
0 sg
0 321 98 0 0 -321 6749 5554 4 MP
PP
1 sg
-98 0 0 321 98 0 0 -321 6749 5554 5 MP stroke
0 sg
0 329 98 0 0 -329 6872 5554 4 MP
PP
1 sg
-98 0 0 329 98 0 0 -329 6872 5554 5 MP stroke
0 sg
0 321 98 0 0 -321 6995 5554 4 MP
PP
1 sg
-98 0 0 321 98 0 0 -321 6995 5554 5 MP stroke
0 sg
0 112 99 0 0 -112 7117 5554 4 MP
PP
1 sg
-99 0 0 112 99 0 0 -112 7117 5554 5 MP stroke
0 sg
6138 0 1029 5554 2 MP stroke
gr

%%IncludeResource: font Helvetica
/Helvetica /ISOLatin1Encoding 192 FMSR

1438 3314 mt 
(Distribution of distance of ACGTG to TSS in non-sperm genes) s
3408 5895 mt 
(Distance to TSS) s
 663 5282 mt  -90 rotate
(Fraction of k-mers) s
90 rotate

end %%Color Dict

eplot
%%EndObject

epage
end

showpage

%%Trailer
%%EOF
