%!PS-Adobe-2.0 EPSF-1.2
%%Creator: MATLAB, The Mathworks, Inc. Version 7.6.0.324 (R2008a). Operating System: Linux 2.6.18.8-0.10-default #1 SMP Wed Jun 4 15:46:34 UTC 2008 x86_64.
%%Title: ../figs1/cluster_E.eps
%%CreationDate: 03/23/2009  01:56:39
%%DocumentNeededFonts: Helvetica
%%DocumentProcessColors: Cyan Magenta Yellow Black
%%Extensions: CMYK
%%Pages: 1
%%BoundingBox:    15   155   612   649
%%EndComments

%%BeginProlog
% MathWorks dictionary
/MathWorks 160 dict begin
% definition operators
/bdef {bind def} bind def
/ldef {load def} bind def
/xdef {exch def} bdef
/xstore {exch store} bdef
% operator abbreviations
/c  /clip ldef
/cc /concat ldef
/cp /closepath ldef
/gr /grestore ldef
/gs /gsave ldef
/mt /moveto ldef
/np /newpath ldef
/cm /currentmatrix ldef
/sm /setmatrix ldef
/rm /rmoveto ldef
/rl /rlineto ldef
/s {show newpath} bdef
/sc {setcmykcolor} bdef
/sr /setrgbcolor ldef
/sg /setgray ldef
/w /setlinewidth ldef
/j /setlinejoin ldef
/cap /setlinecap ldef
/rc {rectclip} bdef
/rf {rectfill} bdef
% page state control
/pgsv () def
/bpage {/pgsv save def} bdef
/epage {pgsv restore} bdef
/bplot /gsave ldef
/eplot {stroke grestore} bdef
% orientation switch
/portraitMode 0 def /landscapeMode 1 def /rotateMode 2 def
% coordinate system mappings
/dpi2point 0 def
% font control
/FontSize 0 def
/FMS {/FontSize xstore findfont [FontSize 0 0 FontSize neg 0 0]
  makefont setfont} bdef
/reencode {exch dup where {pop load} {pop StandardEncoding} ifelse
  exch dup 3 1 roll findfont dup length dict begin
  { 1 index /FID ne {def}{pop pop} ifelse } forall
  /Encoding exch def currentdict end definefont pop} bdef
/isroman {findfont /CharStrings get /Agrave known} bdef
/FMSR {3 1 roll 1 index dup isroman {reencode} {pop pop} ifelse
  exch FMS} bdef
/csm {1 dpi2point div -1 dpi2point div scale neg translate
 dup landscapeMode eq {pop -90 rotate}
  {rotateMode eq {90 rotate} if} ifelse} bdef
% line types: solid, dotted, dashed, dotdash
/SO { [] 0 setdash } bdef
/DO { [.5 dpi2point mul 4 dpi2point mul] 0 setdash } bdef
/DA { [6 dpi2point mul] 0 setdash } bdef
/DD { [.5 dpi2point mul 4 dpi2point mul 6 dpi2point mul 4
  dpi2point mul] 0 setdash } bdef
% macros for lines and objects
/L {lineto stroke} bdef
/MP {3 1 roll moveto 1 sub {rlineto} repeat} bdef
/AP {{rlineto} repeat} bdef
/PDlw -1 def
/W {/PDlw currentlinewidth def setlinewidth} def
/PP {closepath eofill} bdef
/DP {closepath stroke} bdef
/MR {4 -2 roll moveto dup  0 exch rlineto exch 0 rlineto
  neg 0 exch rlineto closepath} bdef
/FR {MR stroke} bdef
/PR {MR fill} bdef
/L1i {{currentfile picstr readhexstring pop} image} bdef
/tMatrix matrix def
/MakeOval {newpath tMatrix currentmatrix pop translate scale
0 0 1 0 360 arc tMatrix setmatrix} bdef
/FO {MakeOval stroke} bdef
/PO {MakeOval fill} bdef
/PD {currentlinewidth 2 div 0 360 arc fill
   PDlw -1 eq not {PDlw w /PDlw -1 def} if} def
/FA {newpath tMatrix currentmatrix pop translate scale
  0 0 1 5 -2 roll arc tMatrix setmatrix stroke} bdef
/PA {newpath tMatrix currentmatrix pop	translate 0 0 moveto scale
  0 0 1 5 -2 roll arc closepath tMatrix setmatrix fill} bdef
/FAn {newpath tMatrix currentmatrix pop translate scale
  0 0 1 5 -2 roll arcn tMatrix setmatrix stroke} bdef
/PAn {newpath tMatrix currentmatrix pop translate 0 0 moveto scale
  0 0 1 5 -2 roll arcn closepath tMatrix setmatrix fill} bdef
/vradius 0 def /hradius 0 def /lry 0 def
/lrx 0 def /uly 0 def /ulx 0 def /rad 0 def
/MRR {/vradius xdef /hradius xdef /lry xdef /lrx xdef /uly xdef
  /ulx xdef newpath tMatrix currentmatrix pop ulx hradius add uly
  vradius add translate hradius vradius scale 0 0 1 180 270 arc 
  tMatrix setmatrix lrx hradius sub uly vradius add translate
  hradius vradius scale 0 0 1 270 360 arc tMatrix setmatrix
  lrx hradius sub lry vradius sub translate hradius vradius scale
  0 0 1 0 90 arc tMatrix setmatrix ulx hradius add lry vradius sub
  translate hradius vradius scale 0 0 1 90 180 arc tMatrix setmatrix
  closepath} bdef
/FRR {MRR stroke } bdef
/PRR {MRR fill } bdef
/MlrRR {/lry xdef /lrx xdef /uly xdef /ulx xdef /rad lry uly sub 2 div def
  newpath tMatrix currentmatrix pop ulx rad add uly rad add translate
  rad rad scale 0 0 1 90 270 arc tMatrix setmatrix lrx rad sub lry rad
  sub translate rad rad scale 0 0 1 270 90 arc tMatrix setmatrix
  closepath} bdef
/FlrRR {MlrRR stroke } bdef
/PlrRR {MlrRR fill } bdef
/MtbRR {/lry xdef /lrx xdef /uly xdef /ulx xdef /rad lrx ulx sub 2 div def
  newpath tMatrix currentmatrix pop ulx rad add uly rad add translate
  rad rad scale 0 0 1 180 360 arc tMatrix setmatrix lrx rad sub lry rad
  sub translate rad rad scale 0 0 1 0 180 arc tMatrix setmatrix
  closepath} bdef
/FtbRR {MtbRR stroke } bdef
/PtbRR {MtbRR fill } bdef
/stri 6 array def /dtri 6 array def
/smat 6 array def /dmat 6 array def
/tmat1 6 array def /tmat2 6 array def /dif 3 array def
/asub {/ind2 exch def /ind1 exch def dup dup
  ind1 get exch ind2 get sub exch } bdef
/tri_to_matrix {
  2 0 asub 3 1 asub 4 0 asub 5 1 asub
  dup 0 get exch 1 get 7 -1 roll astore } bdef
/compute_transform {
  dmat dtri tri_to_matrix tmat1 invertmatrix 
  smat stri tri_to_matrix tmat2 concatmatrix } bdef
/ds {stri astore pop} bdef
/dt {dtri astore pop} bdef
/db {2 copy /cols xdef /rows xdef mul dup 3 mul string
  currentfile exch readhexstring pop
  dup 0 3 index getinterval /rbmap xdef
  dup 2 index dup getinterval /gbmap xdef
  1 index dup 2 mul exch getinterval /bbmap xdef pop pop}bdef
/it {gs np dtri aload pop moveto lineto lineto cp c
  cols rows 8 compute_transform 
  rbmap gbmap bbmap true 3 colorimage gr}bdef
/il {newpath moveto lineto stroke}bdef
currentdict end def
%%EndProlog

%%BeginSetup
MathWorks begin

0 cap

end
%%EndSetup

%%Page: 1 1
%%BeginPageSetup
%%PageBoundingBox:    15   155   612   649
MathWorks begin
bpage
%%EndPageSetup

%%BeginObject: obj1
bplot

/dpi2point 12 def
portraitMode -0288 7872 csm

  471    78  7172  5931 MR c np
76 dict begin %Colortable dictionary
/c0 { 0.000000 0.000000 0.000000 sr} bdef
/c1 { 1.000000 1.000000 1.000000 sr} bdef
/c2 { 0.900000 0.000000 0.000000 sr} bdef
/c3 { 0.000000 0.820000 0.000000 sr} bdef
/c4 { 0.000000 0.000000 0.800000 sr} bdef
/c5 { 0.910000 0.820000 0.320000 sr} bdef
/c6 { 1.000000 0.260000 0.820000 sr} bdef
/c7 { 0.000000 0.820000 0.820000 sr} bdef
c0
1 j
1 sg
   0    0 7920 6241 PR
6 w
0 5086 6138 0 0 -5086 1029 5554 4 MP
PP
-6138 0 0 5086 6138 0 0 -5086 1029 5554 5 MP stroke
4 w
DO
SO
6 w
0 sg
1029 5554 mt 7167 5554 L
1029  468 mt 7167  468 L
1029 5554 mt 1029  468 L
7167 5554 mt 7167  468 L
1029 5554 mt 7167 5554 L
1029 5554 mt 1029  468 L
2052 5554 mt 2052 5492 L
2052  468 mt 2052  529 L
%%IncludeResource: font Helvetica
/Helvetica /ISOLatin1Encoding 120 FMSR

1916 5699 mt 
(-10) s
4609 5554 mt 4609 5492 L
4609  468 mt 4609  529 L
4506 5699 mt 
(-5) s
7167 5554 mt 7167 5492 L
7167  468 mt 7167  529 L
7134 5699 mt 
(0) s
1029 5554 mt 1090 5554 L
7167 5554 mt 7105 5554 L
 928 5598 mt 
(0) s
1029 3011 mt 1090 3011 L
7167 3011 mt 7105 3011 L
 828 3055 mt 
(0.5) s
1029  468 mt 1090  468 L
7167  468 mt 7105  468 L
 928  512 mt 
(1) s
1029 5554 mt 7167 5554 L
1029  468 mt 7167  468 L
1029 5554 mt 1029  468 L
7167 5554 mt 7167  468 L
gs 1029 468 6139 5087 MR c np
/c8 { 1.000000 0.000000 0.000000 sr} bdef
c8
0 -101 18 0 0 -102 19 0 0 -102 46 0 0 -101 25 0 
0 -102 67 0 0 -102 34 0 0 -102 42 0 0 -101 40 0 
0 -102 136 0 0 -102 1 0 0 -101 5 0 0 -102 62 0 
0 -102 66 0 0 -102 6 0 0 -101 14 0 0 -102 27 0 
0 -102 19 0 0 -101 13 0 0 -102 53 0 0 -102 22 0 
0 -102 19 0 0 -101 19 0 0 -102 46 0 0 -102 22 0 
0 -102 29 0 0 -101 49 0 0 -102 3 0 0 -102 233 0 
0 -101 45 0 0 -102 75 0 0 -102 23 0 0 -102 72 0 
0 -101 89 0 0 -102 117 0 0 -102 94 0 0 -101 133 0 
0 -102 93 0 0 -102 190 0 0 -102 98 0 0 -101 165 0 
0 -102 40 0 0 -102 395 0 0 -101 14 0 0 -102 803 0 
0 -102 25 0 0 -102 54 0 0 -101 56 0 0 -102 110 0 
0 -102 3286 5452 98 MP stroke
gr

c8
0 sg
%%IncludeResource: font Helvetica
/Helvetica /ISOLatin1Encoding 240 FMSR

3396 5930 mt 
(Log10\(p-val\)) s
 719 4788 mt  -90 rotate
(Accumulative distribution function) s
90 rotate
%%IncludeResource: font Helvetica
/Helvetica /ISOLatin1Encoding 216 FMSR

 623  352 mt 
(Empirical CDF for log10\(p-val\) measuring k-mer enrichment i\
n cluster E) s
gs 1029 468 6139 5087 MR c np
/c9 { 0.000000 0.000000 1.000000 sr} bdef
c9
0 -101 285 0 0 -102 18 0 0 -102 293 0 0 -101 16 0 
0 -102 170 0 0 -102 34 0 0 -102 94 0 0 -101 10 0 
0 -102 24 0 0 -102 14 0 0 -101 92 0 0 -102 131 0 
0 -102 139 0 0 -102 8 0 0 -101 33 0 0 -102 32 0 
0 -102 97 0 0 -101 28 0 0 -102 96 0 0 -102 18 0 
0 -102 37 0 0 -101 115 0 0 -102 39 0 0 -102 25 0 
0 -102 22 0 0 -101 178 0 0 -102 18 0 0 -102 331 0 
0 -101 4 0 0 -102 327 0 0 -102 12 0 0 -102 155 0 
0 -101 146 0 0 -102 15 0 0 -102 11 0 0 -101 232 0 
0 -102 10 0 0 -102 4 0 0 -102 218 0 0 -101 72 0 
0 -102 120 0 0 -102 530 0 0 -101 115 0 0 -102 284 0 
0 -102 7 0 0 -102 318 0 0 -101 109 0 0 -102 321 0 
0 -102 29 0 0 -102 1652 5554 100 MP stroke
gr

c9
0 sg
%%IncludeResource: font Helvetica
/Helvetica /ISOLatin1Encoding 120 FMSR

1012 5597 mt 
( ) s
7151  510 mt 
( ) s
1 sg
0 612 1753 0 0 -612 1089 1140 4 MP
PP
-1753 0 0 612 1753 0 0 -612 1089 1140 5 MP stroke
4 w
DO
SO
6 w
0 sg
1089 1140 mt 2842 1140 L
1089  528 mt 2842  528 L
1089 1140 mt 1089  528 L
2842 1140 mt 2842  528 L
1089 1140 mt 2842 1140 L
1089 1140 mt 1089  528 L
1089 1140 mt 2842 1140 L
1089  528 mt 2842  528 L
1089 1140 mt 1089  528 L
2842 1140 mt 2842  528 L
%%IncludeResource: font Helvetica
/Helvetica /ISOLatin1Encoding 240 FMSR

1142  767 mt 
(non-oocyte) s
gs 1089 528 1754 613 MR c np
c8
40 0 1097 681 2 MP stroke
gr

c8
0 sg
1142 1072 mt 
(oocyte) s
gs 1089 528 1754 613 MR c np
c9
40 0 1097 986 2 MP stroke
gr

c9

end %%Color Dict

eplot
%%EndObject

epage
end

showpage

%%Trailer
%%EOF
