%!PS-Adobe-2.0 EPSF-1.2
%%Creator: MATLAB, The Mathworks, Inc. Version 7.6.0.324 (R2008a). Operating System: Linux 2.6.18.8-0.10-default #1 SMP Wed Jun 4 15:46:34 UTC 2008 x86_64.
%%Title: ../figs1/count_edge.eps
%%CreationDate: 03/22/2009  23:49:48
%%DocumentNeededFonts: Helvetica
%%DocumentProcessColors: Cyan Magenta Yellow Black
%%Extensions: CMYK
%%Pages: 1
%%BoundingBox:    25   161   580   642
%%EndComments

%%BeginProlog
% MathWorks dictionary
/MathWorks 160 dict begin
% definition operators
/bdef {bind def} bind def
/ldef {load def} bind def
/xdef {exch def} bdef
/xstore {exch store} bdef
% operator abbreviations
/c  /clip ldef
/cc /concat ldef
/cp /closepath ldef
/gr /grestore ldef
/gs /gsave ldef
/mt /moveto ldef
/np /newpath ldef
/cm /currentmatrix ldef
/sm /setmatrix ldef
/rm /rmoveto ldef
/rl /rlineto ldef
/s {show newpath} bdef
/sc {setcmykcolor} bdef
/sr /setrgbcolor ldef
/sg /setgray ldef
/w /setlinewidth ldef
/j /setlinejoin ldef
/cap /setlinecap ldef
/rc {rectclip} bdef
/rf {rectfill} bdef
% page state control
/pgsv () def
/bpage {/pgsv save def} bdef
/epage {pgsv restore} bdef
/bplot /gsave ldef
/eplot {stroke grestore} bdef
% orientation switch
/portraitMode 0 def /landscapeMode 1 def /rotateMode 2 def
% coordinate system mappings
/dpi2point 0 def
% font control
/FontSize 0 def
/FMS {/FontSize xstore findfont [FontSize 0 0 FontSize neg 0 0]
  makefont setfont} bdef
/reencode {exch dup where {pop load} {pop StandardEncoding} ifelse
  exch dup 3 1 roll findfont dup length dict begin
  { 1 index /FID ne {def}{pop pop} ifelse } forall
  /Encoding exch def currentdict end definefont pop} bdef
/isroman {findfont /CharStrings get /Agrave known} bdef
/FMSR {3 1 roll 1 index dup isroman {reencode} {pop pop} ifelse
  exch FMS} bdef
/csm {1 dpi2point div -1 dpi2point div scale neg translate
 dup landscapeMode eq {pop -90 rotate}
  {rotateMode eq {90 rotate} if} ifelse} bdef
% line types: solid, dotted, dashed, dotdash
/SO { [] 0 setdash } bdef
/DO { [.5 dpi2point mul 4 dpi2point mul] 0 setdash } bdef
/DA { [6 dpi2point mul] 0 setdash } bdef
/DD { [.5 dpi2point mul 4 dpi2point mul 6 dpi2point mul 4
  dpi2point mul] 0 setdash } bdef
% macros for lines and objects
/L {lineto stroke} bdef
/MP {3 1 roll moveto 1 sub {rlineto} repeat} bdef
/AP {{rlineto} repeat} bdef
/PDlw -1 def
/W {/PDlw currentlinewidth def setlinewidth} def
/PP {closepath eofill} bdef
/DP {closepath stroke} bdef
/MR {4 -2 roll moveto dup  0 exch rlineto exch 0 rlineto
  neg 0 exch rlineto closepath} bdef
/FR {MR stroke} bdef
/PR {MR fill} bdef
/L1i {{currentfile picstr readhexstring pop} image} bdef
/tMatrix matrix def
/MakeOval {newpath tMatrix currentmatrix pop translate scale
0 0 1 0 360 arc tMatrix setmatrix} bdef
/FO {MakeOval stroke} bdef
/PO {MakeOval fill} bdef
/PD {currentlinewidth 2 div 0 360 arc fill
   PDlw -1 eq not {PDlw w /PDlw -1 def} if} def
/FA {newpath tMatrix currentmatrix pop translate scale
  0 0 1 5 -2 roll arc tMatrix setmatrix stroke} bdef
/PA {newpath tMatrix currentmatrix pop	translate 0 0 moveto scale
  0 0 1 5 -2 roll arc closepath tMatrix setmatrix fill} bdef
/FAn {newpath tMatrix currentmatrix pop translate scale
  0 0 1 5 -2 roll arcn tMatrix setmatrix stroke} bdef
/PAn {newpath tMatrix currentmatrix pop translate 0 0 moveto scale
  0 0 1 5 -2 roll arcn closepath tMatrix setmatrix fill} bdef
/vradius 0 def /hradius 0 def /lry 0 def
/lrx 0 def /uly 0 def /ulx 0 def /rad 0 def
/MRR {/vradius xdef /hradius xdef /lry xdef /lrx xdef /uly xdef
  /ulx xdef newpath tMatrix currentmatrix pop ulx hradius add uly
  vradius add translate hradius vradius scale 0 0 1 180 270 arc 
  tMatrix setmatrix lrx hradius sub uly vradius add translate
  hradius vradius scale 0 0 1 270 360 arc tMatrix setmatrix
  lrx hradius sub lry vradius sub translate hradius vradius scale
  0 0 1 0 90 arc tMatrix setmatrix ulx hradius add lry vradius sub
  translate hradius vradius scale 0 0 1 90 180 arc tMatrix setmatrix
  closepath} bdef
/FRR {MRR stroke } bdef
/PRR {MRR fill } bdef
/MlrRR {/lry xdef /lrx xdef /uly xdef /ulx xdef /rad lry uly sub 2 div def
  newpath tMatrix currentmatrix pop ulx rad add uly rad add translate
  rad rad scale 0 0 1 90 270 arc tMatrix setmatrix lrx rad sub lry rad
  sub translate rad rad scale 0 0 1 270 90 arc tMatrix setmatrix
  closepath} bdef
/FlrRR {MlrRR stroke } bdef
/PlrRR {MlrRR fill } bdef
/MtbRR {/lry xdef /lrx xdef /uly xdef /ulx xdef /rad lrx ulx sub 2 div def
  newpath tMatrix currentmatrix pop ulx rad add uly rad add translate
  rad rad scale 0 0 1 180 360 arc tMatrix setmatrix lrx rad sub lry rad
  sub translate rad rad scale 0 0 1 0 180 arc tMatrix setmatrix
  closepath} bdef
/FtbRR {MtbRR stroke } bdef
/PtbRR {MtbRR fill } bdef
/stri 6 array def /dtri 6 array def
/smat 6 array def /dmat 6 array def
/tmat1 6 array def /tmat2 6 array def /dif 3 array def
/asub {/ind2 exch def /ind1 exch def dup dup
  ind1 get exch ind2 get sub exch } bdef
/tri_to_matrix {
  2 0 asub 3 1 asub 4 0 asub 5 1 asub
  dup 0 get exch 1 get 7 -1 roll astore } bdef
/compute_transform {
  dmat dtri tri_to_matrix tmat1 invertmatrix 
  smat stri tri_to_matrix tmat2 concatmatrix } bdef
/ds {stri astore pop} bdef
/dt {dtri astore pop} bdef
/db {2 copy /cols xdef /rows xdef mul dup 3 mul string
  currentfile exch readhexstring pop
  dup 0 3 index getinterval /rbmap xdef
  dup 2 index dup getinterval /gbmap xdef
  1 index dup 2 mul exch getinterval /bbmap xdef pop pop}bdef
/it {gs np dtri aload pop moveto lineto lineto cp c
  cols rows 8 compute_transform 
  rbmap gbmap bbmap true 3 colorimage gr}bdef
/il {newpath moveto lineto stroke}bdef
currentdict end def
%%EndProlog

%%BeginSetup
MathWorks begin

0 cap

end
%%EndSetup

%%Page: 1 1
%%BeginPageSetup
%%PageBoundingBox:    25   161   580   642
MathWorks begin
bpage
%%EndPageSetup

%%BeginObject: obj1
bplot

/dpi2point 12 def
portraitMode -0288 7872 csm

  588   161  6669  5778 MR c np
76 dict begin %Colortable dictionary
/c0 { 0.000000 0.000000 0.000000 sr} bdef
/c1 { 1.000000 1.000000 1.000000 sr} bdef
/c2 { 0.900000 0.000000 0.000000 sr} bdef
/c3 { 0.000000 0.820000 0.000000 sr} bdef
/c4 { 0.000000 0.000000 0.800000 sr} bdef
/c5 { 0.910000 0.820000 0.320000 sr} bdef
/c6 { 1.000000 0.260000 0.820000 sr} bdef
/c7 { 0.000000 0.820000 0.820000 sr} bdef
c0
1 j
1 sg
   0    0 7920 6241 PR
6 w
0 5086 6138 0 0 -5086 1029 5554 4 MP
PP
-6138 0 0 5086 6138 0 0 -5086 1029 5554 5 MP stroke
4 w
DO
SO
6 w
0 sg
1029 5554 mt 7167 5554 L
1029  468 mt 7167  468 L
1029 5554 mt 1029  468 L
7167 5554 mt 7167  468 L
1029 5554 mt 7167 5554 L
1029 5554 mt 1029  468 L
1642 5554 mt 1642 5492 L
1642  468 mt 1642  529 L
%%IncludeResource: font Helvetica
/Helvetica /ISOLatin1Encoding 120 FMSR

1609 5699 mt 
(1) s
2870 5554 mt 2870 5492 L
2870  468 mt 2870  529 L
2837 5699 mt 
(2) s
4098 5554 mt 4098 5492 L
4098  468 mt 4098  529 L
4065 5699 mt 
(3) s
5325 5554 mt 5325 5492 L
5325  468 mt 5325  529 L
5292 5699 mt 
(4) s
6553 5554 mt 6553 5492 L
6553  468 mt 6553  529 L
6520 5699 mt 
(5) s
1029 5554 mt 1090 5554 L
7167 5554 mt 7105 5554 L
 928 5598 mt 
(0) s
1029 4918 mt 1090 4918 L
7167 4918 mt 7105 4918 L
 861 4962 mt 
(10) s
1029 4282 mt 1090 4282 L
7167 4282 mt 7105 4282 L
 861 4326 mt 
(20) s
1029 3646 mt 1090 3646 L
7167 3646 mt 7105 3646 L
 861 3690 mt 
(30) s
1029 3011 mt 1090 3011 L
7167 3011 mt 7105 3011 L
 861 3055 mt 
(40) s
1029 2375 mt 1090 2375 L
7167 2375 mt 7105 2375 L
 861 2419 mt 
(50) s
1029 1739 mt 1090 1739 L
7167 1739 mt 7105 1739 L
 861 1783 mt 
(60) s
1029 1103 mt 1090 1103 L
7167 1103 mt 7105 1103 L
 861 1147 mt 
(70) s
1029  468 mt 1090  468 L
7167  468 mt 7105  468 L
 861  512 mt 
(80) s
1029 5554 mt 7167 5554 L
1029  468 mt 7167  468 L
1029 5554 mt 1029  468 L
7167 5554 mt 7167  468 L
gs 1029 468 6139 5087 MR c np
/c8 { 0.000000 0.000000 0.562500 sr} bdef
c8
0 2612 179 0 0 -2612 1218 5554 4 MP
PP
0 sg
-179 0 0 2612 179 0 0 -2612 1218 5554 5 MP stroke
c8
0 975 178 0 0 -975 2446 5554 4 MP
PP
0 sg
-178 0 0 975 178 0 0 -975 2446 5554 5 MP stroke
c8
0 1319 179 0 0 -1319 3673 5554 4 MP
PP
0 sg
-179 0 0 1319 179 0 0 -1319 3673 5554 5 MP stroke
c8
0 876 179 0 0 -876 4901 5554 4 MP
PP
0 sg
-179 0 0 876 179 0 0 -876 4901 5554 5 MP stroke
c8
0 816 178 0 0 -816 6129 5554 4 MP
PP
0 sg
-178 0 0 816 178 0 0 -816 6129 5554 5 MP stroke
6138 0 1029 5554 2 MP stroke
/c9 { 0.000000 0.875000 1.000000 sr} bdef
c9
0 2487 179 0 0 -2487 1441 5554 4 MP
PP
0 sg
-179 0 0 2487 179 0 0 -2487 1441 5554 5 MP stroke
c9
0 1392 179 0 0 -1392 2669 5554 4 MP
PP
0 sg
-179 0 0 1392 179 0 0 -1392 2669 5554 5 MP stroke
c9
0 1195 178 0 0 -1195 3897 5554 4 MP
PP
0 sg
-178 0 0 1195 178 0 0 -1195 3897 5554 5 MP stroke
c9
0 1541 179 0 0 -1541 5124 5554 4 MP
PP
0 sg
-179 0 0 1541 179 0 0 -1541 5124 5554 5 MP stroke
c9
0 722 178 0 0 -722 6352 5554 4 MP
PP
0 sg
-178 0 0 722 178 0 0 -722 6352 5554 5 MP stroke
/c10 { 1.000000 0.812500 0.000000 sr} bdef
c10
0 4308 178 0 0 -4308 1665 5554 4 MP
PP
0 sg
-178 0 0 4308 178 0 0 -4308 1665 5554 5 MP stroke
c10
0 1491 179 0 0 -1491 2892 5554 4 MP
PP
0 sg
-179 0 0 1491 179 0 0 -1491 2892 5554 5 MP stroke
c10
0 2691 178 0 0 -2691 4120 5554 4 MP
PP
0 sg
-178 0 0 2691 178 0 0 -2691 4120 5554 5 MP stroke
c10
0 1199 179 0 0 -1199 5347 5554 4 MP
PP
0 sg
-179 0 0 1199 179 0 0 -1199 5347 5554 5 MP stroke
c10
0 972 179 0 0 -972 6575 5554 4 MP
PP
0 sg
-179 0 0 972 179 0 0 -972 6575 5554 5 MP stroke
/c11 { 0.500000 0.000000 0.000000 sr} bdef
c11
0 4480 178 0 0 -4480 1888 5554 4 MP
PP
0 sg
-178 0 0 4480 178 0 0 -4480 1888 5554 5 MP stroke
c11
0 1170 179 0 0 -1170 3115 5554 4 MP
PP
0 sg
-179 0 0 1170 179 0 0 -1170 3115 5554 5 MP stroke
c11
0 959 179 0 0 -959 4343 5554 4 MP
PP
0 sg
-179 0 0 959 179 0 0 -959 4343 5554 5 MP stroke
c11
0 1931 178 0 0 -1931 5571 5554 4 MP
PP
0 sg
-178 0 0 1931 178 0 0 -1931 5571 5554 5 MP stroke
c11
0 1439 179 0 0 -1439 6798 5554 4 MP
PP
0 sg
-179 0 0 1439 179 0 0 -1439 6798 5554 5 MP stroke
gr

%%IncludeResource: font Helvetica
/Helvetica /ISOLatin1Encoding 168 FMSR

 769 3842 mt  -90 rotate
(Total number of edges) s
90 rotate
3633 5877 mt 
(Latent factor) s
%%IncludeResource: font Helvetica
/Helvetica /ISOLatin1Encoding 144 FMSR

1140  368 mt 
(Number of edges in graph-mers for the first five latent fac\
tors under different PLS constraints) s
%%IncludeResource: font Helvetica
/Helvetica /ISOLatin1Encoding 120 FMSR

1012 5597 mt 
( ) s
7151  510 mt 
( ) s
1 sg
0 846 3424 0 0 -846 3684 1374 4 MP
PP
-3424 0 0 846 3424 0 0 -846 3684 1374 5 MP stroke
4 w
DO
SO
6 w
0 sg
3684 1374 mt 7108 1374 L
3684  528 mt 7108  528 L
3684 1374 mt 3684  528 L
7108 1374 mt 7108  528 L
3684 1374 mt 7108 1374 L
3684 1374 mt 3684  528 L
3684 1374 mt 7108 1374 L
3684  528 mt 7108  528 L
3684 1374 mt 3684  528 L
7108 1374 mt 7108  528 L
%%IncludeResource: font Helvetica
/Helvetica /ISOLatin1Encoding 168 FMSR

4149  708 mt 
(Standard PLS) s
gs 3684 528 3425 847 MR c np
c8
-358 0 0 151 358 0 0 -151 3755 723 5 MP
PP
0 sg
0 0 -358 0 0 151 358 0 0 -151 3755 723 6 MP stroke
gr

4149  910 mt 
(Lasso constrained PLS) s
gs 3684 528 3425 847 MR c np
c9
-358 0 0 151 358 0 0 -151 3755 925 5 MP
PP
0 sg
0 0 -358 0 0 151 358 0 0 -151 3755 925 6 MP stroke
gr

4149 1113 mt 
(Graph constrained PLS) s
gs 3684 528 3425 847 MR c np
c10
-358 0 0 151 358 0 0 -151 3755 1127 5 MP
PP
0 sg
0 0 -358 0 0 151 358 0 0 -151 3755 1127 6 MP stroke
gr

4149 1315 mt 
(Both Lasso and graph constrained PLS) s
gs 3684 528 3425 847 MR c np
c11
-358 0 0 151 358 0 0 -151 3755 1329 5 MP
PP
0 sg
0 0 -358 0 0 151 358 0 0 -151 3755 1329 6 MP stroke
gr


end %%Color Dict

eplot
%%EndObject

epage
end

showpage

%%Trailer
%%EOF
