%!PS-Adobe-2.0 EPSF-1.2
%%Creator: MATLAB, The Mathworks, Inc. Version 7.6.0.324 (R2008a). Operating System: Linux 2.6.18.8-0.10-default #1 SMP Wed Jun 4 15:46:34 UTC 2008 x86_64.
%%Title: ../figs1/hist_o.eps
%%CreationDate: 03/02/2009  17:33:42
%%DocumentNeededFonts: Helvetica
%%DocumentProcessColors: Cyan Magenta Yellow Black
%%Extensions: CMYK
%%Pages: 1
%%BoundingBox:    14   157   582   647
%%EndComments

%%BeginProlog
% MathWorks dictionary
/MathWorks 160 dict begin
% definition operators
/bdef {bind def} bind def
/ldef {load def} bind def
/xdef {exch def} bdef
/xstore {exch store} bdef
% operator abbreviations
/c  /clip ldef
/cc /concat ldef
/cp /closepath ldef
/gr /grestore ldef
/gs /gsave ldef
/mt /moveto ldef
/np /newpath ldef
/cm /currentmatrix ldef
/sm /setmatrix ldef
/rm /rmoveto ldef
/rl /rlineto ldef
/s {show newpath} bdef
/sc {setcmykcolor} bdef
/sr /setrgbcolor ldef
/sg /setgray ldef
/w /setlinewidth ldef
/j /setlinejoin ldef
/cap /setlinecap ldef
/rc {rectclip} bdef
/rf {rectfill} bdef
% page state control
/pgsv () def
/bpage {/pgsv save def} bdef
/epage {pgsv restore} bdef
/bplot /gsave ldef
/eplot {stroke grestore} bdef
% orientation switch
/portraitMode 0 def /landscapeMode 1 def /rotateMode 2 def
% coordinate system mappings
/dpi2point 0 def
% font control
/FontSize 0 def
/FMS {/FontSize xstore findfont [FontSize 0 0 FontSize neg 0 0]
  makefont setfont} bdef
/reencode {exch dup where {pop load} {pop StandardEncoding} ifelse
  exch dup 3 1 roll findfont dup length dict begin
  { 1 index /FID ne {def}{pop pop} ifelse } forall
  /Encoding exch def currentdict end definefont pop} bdef
/isroman {findfont /CharStrings get /Agrave known} bdef
/FMSR {3 1 roll 1 index dup isroman {reencode} {pop pop} ifelse
  exch FMS} bdef
/csm {1 dpi2point div -1 dpi2point div scale neg translate
 dup landscapeMode eq {pop -90 rotate}
  {rotateMode eq {90 rotate} if} ifelse} bdef
% line types: solid, dotted, dashed, dotdash
/SO { [] 0 setdash } bdef
/DO { [.5 dpi2point mul 4 dpi2point mul] 0 setdash } bdef
/DA { [6 dpi2point mul] 0 setdash } bdef
/DD { [.5 dpi2point mul 4 dpi2point mul 6 dpi2point mul 4
  dpi2point mul] 0 setdash } bdef
% macros for lines and objects
/L {lineto stroke} bdef
/MP {3 1 roll moveto 1 sub {rlineto} repeat} bdef
/AP {{rlineto} repeat} bdef
/PDlw -1 def
/W {/PDlw currentlinewidth def setlinewidth} def
/PP {closepath eofill} bdef
/DP {closepath stroke} bdef
/MR {4 -2 roll moveto dup  0 exch rlineto exch 0 rlineto
  neg 0 exch rlineto closepath} bdef
/FR {MR stroke} bdef
/PR {MR fill} bdef
/L1i {{currentfile picstr readhexstring pop} image} bdef
/tMatrix matrix def
/MakeOval {newpath tMatrix currentmatrix pop translate scale
0 0 1 0 360 arc tMatrix setmatrix} bdef
/FO {MakeOval stroke} bdef
/PO {MakeOval fill} bdef
/PD {currentlinewidth 2 div 0 360 arc fill
   PDlw -1 eq not {PDlw w /PDlw -1 def} if} def
/FA {newpath tMatrix currentmatrix pop translate scale
  0 0 1 5 -2 roll arc tMatrix setmatrix stroke} bdef
/PA {newpath tMatrix currentmatrix pop	translate 0 0 moveto scale
  0 0 1 5 -2 roll arc closepath tMatrix setmatrix fill} bdef
/FAn {newpath tMatrix currentmatrix pop translate scale
  0 0 1 5 -2 roll arcn tMatrix setmatrix stroke} bdef
/PAn {newpath tMatrix currentmatrix pop translate 0 0 moveto scale
  0 0 1 5 -2 roll arcn closepath tMatrix setmatrix fill} bdef
/vradius 0 def /hradius 0 def /lry 0 def
/lrx 0 def /uly 0 def /ulx 0 def /rad 0 def
/MRR {/vradius xdef /hradius xdef /lry xdef /lrx xdef /uly xdef
  /ulx xdef newpath tMatrix currentmatrix pop ulx hradius add uly
  vradius add translate hradius vradius scale 0 0 1 180 270 arc 
  tMatrix setmatrix lrx hradius sub uly vradius add translate
  hradius vradius scale 0 0 1 270 360 arc tMatrix setmatrix
  lrx hradius sub lry vradius sub translate hradius vradius scale
  0 0 1 0 90 arc tMatrix setmatrix ulx hradius add lry vradius sub
  translate hradius vradius scale 0 0 1 90 180 arc tMatrix setmatrix
  closepath} bdef
/FRR {MRR stroke } bdef
/PRR {MRR fill } bdef
/MlrRR {/lry xdef /lrx xdef /uly xdef /ulx xdef /rad lry uly sub 2 div def
  newpath tMatrix currentmatrix pop ulx rad add uly rad add translate
  rad rad scale 0 0 1 90 270 arc tMatrix setmatrix lrx rad sub lry rad
  sub translate rad rad scale 0 0 1 270 90 arc tMatrix setmatrix
  closepath} bdef
/FlrRR {MlrRR stroke } bdef
/PlrRR {MlrRR fill } bdef
/MtbRR {/lry xdef /lrx xdef /uly xdef /ulx xdef /rad lrx ulx sub 2 div def
  newpath tMatrix currentmatrix pop ulx rad add uly rad add translate
  rad rad scale 0 0 1 180 360 arc tMatrix setmatrix lrx rad sub lry rad
  sub translate rad rad scale 0 0 1 0 180 arc tMatrix setmatrix
  closepath} bdef
/FtbRR {MtbRR stroke } bdef
/PtbRR {MtbRR fill } bdef
/stri 6 array def /dtri 6 array def
/smat 6 array def /dmat 6 array def
/tmat1 6 array def /tmat2 6 array def /dif 3 array def
/asub {/ind2 exch def /ind1 exch def dup dup
  ind1 get exch ind2 get sub exch } bdef
/tri_to_matrix {
  2 0 asub 3 1 asub 4 0 asub 5 1 asub
  dup 0 get exch 1 get 7 -1 roll astore } bdef
/compute_transform {
  dmat dtri tri_to_matrix tmat1 invertmatrix 
  smat stri tri_to_matrix tmat2 concatmatrix } bdef
/ds {stri astore pop} bdef
/dt {dtri astore pop} bdef
/db {2 copy /cols xdef /rows xdef mul dup 3 mul string
  currentfile exch readhexstring pop
  dup 0 3 index getinterval /rbmap xdef
  dup 2 index dup getinterval /gbmap xdef
  1 index dup 2 mul exch getinterval /bbmap xdef pop pop}bdef
/it {gs np dtri aload pop moveto lineto lineto cp c
  cols rows 8 compute_transform 
  rbmap gbmap bbmap true 3 colorimage gr}bdef
/il {newpath moveto lineto stroke}bdef
currentdict end def
%%EndProlog

%%BeginSetup
MathWorks begin

0 cap

end
%%EndSetup

%%Page: 1 1
%%BeginPageSetup
%%PageBoundingBox:    14   157   582   647
MathWorks begin
bpage
%%EndPageSetup

%%BeginObject: obj1
bplot

/dpi2point 12 def
portraitMode -0288 7872 csm

  465    99  6818  5887 MR c np
76 dict begin %Colortable dictionary
/c0 { 0.000000 0.000000 0.000000 sr} bdef
/c1 { 1.000000 1.000000 1.000000 sr} bdef
/c2 { 0.900000 0.000000 0.000000 sr} bdef
/c3 { 0.000000 0.820000 0.000000 sr} bdef
/c4 { 0.000000 0.000000 0.800000 sr} bdef
/c5 { 0.910000 0.820000 0.320000 sr} bdef
/c6 { 1.000000 0.260000 0.820000 sr} bdef
/c7 { 0.000000 0.820000 0.820000 sr} bdef
c0
1 j
1 sg
   0    0 7920 6241 PR
6 w
0 2108 6138 0 0 -2108 1029 2597 4 MP
PP
-6138 0 0 2108 6138 0 0 -2108 1029 2597 5 MP stroke
4 w
DO
SO
6 w
0 sg
1029 2597 mt 7167 2597 L
1029  489 mt 7167  489 L
1029 2597 mt 1029  489 L
7167 2597 mt 7167  489 L
1029 2597 mt 7167 2597 L
1029 2597 mt 1029  489 L
1029 2597 mt 1029 2535 L
1029  489 mt 1029  550 L
%%IncludeResource: font Helvetica
/Helvetica /ISOLatin1Encoding 120 FMSR

 893 2742 mt 
(-25) s
1642 2597 mt 1642 2535 L
1642  489 mt 1642  550 L
1506 2742 mt 
(-20) s
2256 2597 mt 2256 2535 L
2256  489 mt 2256  550 L
2120 2742 mt 
(-15) s
2870 2597 mt 2870 2535 L
2870  489 mt 2870  550 L
2734 2742 mt 
(-10) s
3484 2597 mt 3484 2535 L
3484  489 mt 3484  550 L
3381 2742 mt 
(-5) s
4098 2597 mt 4098 2535 L
4098  489 mt 4098  550 L
4065 2742 mt 
(0) s
4711 2597 mt 4711 2535 L
4711  489 mt 4711  550 L
4678 2742 mt 
(5) s
5325 2597 mt 5325 2535 L
5325  489 mt 5325  550 L
5259 2742 mt 
(10) s
5939 2597 mt 5939 2535 L
5939  489 mt 5939  550 L
5873 2742 mt 
(15) s
6553 2597 mt 6553 2535 L
6553  489 mt 6553  550 L
6487 2742 mt 
(20) s
7167 2597 mt 7167 2535 L
7167  489 mt 7167  550 L
7101 2742 mt 
(25) s
1029 2597 mt 1090 2597 L
7167 2597 mt 7105 2597 L
 928 2641 mt 
(0) s
1029 2295 mt 1090 2295 L
7167 2295 mt 7105 2295 L
 928 2339 mt 
(1) s
1029 1994 mt 1090 1994 L
7167 1994 mt 7105 1994 L
 928 2038 mt 
(2) s
1029 1693 mt 1090 1693 L
7167 1693 mt 7105 1693 L
 928 1737 mt 
(3) s
1029 1392 mt 1090 1392 L
7167 1392 mt 7105 1392 L
 928 1436 mt 
(4) s
1029 1091 mt 1090 1091 L
7167 1091 mt 7105 1091 L
 928 1135 mt 
(5) s
1029  790 mt 1090  790 L
7167  790 mt 7105  790 L
 928  834 mt 
(6) s
1029  489 mt 1090  489 L
7167  489 mt 7105  489 L
 928  533 mt 
(7) s
1029 2597 mt 7167 2597 L
1029  489 mt 7167  489 L
1029 2597 mt 1029  489 L
7167 2597 mt 7167  489 L
gs 1029 489 6139 2109 MR c np
0 0 98 0 0 0 1593 2597 4 MP
PP
1 sg
-98 0 0 0 98 0 0 0 1593 2597 5 MP stroke
0 sg
0 0 98 0 0 0 1716 2597 4 MP
PP
1 sg
-98 0 0 0 98 0 0 0 1716 2597 5 MP stroke
0 sg
0 0 98 0 0 0 1839 2597 4 MP
PP
1 sg
-98 0 0 0 98 0 0 0 1839 2597 5 MP stroke
0 sg
0 0 99 0 0 0 1961 2597 4 MP
PP
1 sg
-99 0 0 0 99 0 0 0 1961 2597 5 MP stroke
0 sg
0 0 98 0 0 0 2084 2597 4 MP
PP
1 sg
-98 0 0 0 98 0 0 0 2084 2597 5 MP stroke
0 sg
0 0 98 0 0 0 2207 2597 4 MP
PP
1 sg
-98 0 0 0 98 0 0 0 2207 2597 5 MP stroke
0 sg
0 0 98 0 0 0 2330 2597 4 MP
PP
1 sg
-98 0 0 0 98 0 0 0 2330 2597 5 MP stroke
0 sg
0 0 98 0 0 0 2453 2597 4 MP
PP
1 sg
-98 0 0 0 98 0 0 0 2453 2597 5 MP stroke
0 sg
0 0 98 0 0 0 2575 2597 4 MP
PP
1 sg
-98 0 0 0 98 0 0 0 2575 2597 5 MP stroke
0 sg
0 0 98 0 0 0 2698 2597 4 MP
PP
1 sg
-98 0 0 0 98 0 0 0 2698 2597 5 MP stroke
0 sg
0 0 98 0 0 0 2821 2597 4 MP
PP
1 sg
-98 0 0 0 98 0 0 0 2821 2597 5 MP stroke
0 sg
0 0 98 0 0 0 2944 2597 4 MP
PP
1 sg
-98 0 0 0 98 0 0 0 2944 2597 5 MP stroke
0 sg
0 0 99 0 0 0 3066 2597 4 MP
PP
1 sg
-99 0 0 0 99 0 0 0 3066 2597 5 MP stroke
0 sg
0 0 98 0 0 0 3189 2597 4 MP
PP
1 sg
-98 0 0 0 98 0 0 0 3189 2597 5 MP stroke
0 sg
0 0 98 0 0 0 3312 2597 4 MP
PP
1 sg
-98 0 0 0 98 0 0 0 3312 2597 5 MP stroke
0 sg
0 0 98 0 0 0 3435 2597 4 MP
PP
1 sg
-98 0 0 0 98 0 0 0 3435 2597 5 MP stroke
0 sg
0 302 99 0 0 -302 3557 2597 4 MP
PP
1 sg
-99 0 0 302 99 0 0 -302 3557 2597 5 MP stroke
0 sg
0 302 98 0 0 -302 3680 2597 4 MP
PP
1 sg
-98 0 0 302 98 0 0 -302 3680 2597 5 MP stroke
0 sg
0 603 98 0 0 -603 3803 2597 4 MP
PP
1 sg
-98 0 0 603 98 0 0 -603 3803 2597 5 MP stroke
0 sg
0 1205 98 0 0 -1205 3926 2597 4 MP
PP
1 sg
-98 0 0 1205 98 0 0 -1205 3926 2597 5 MP stroke
0 sg
0 904 99 0 0 -904 4048 2597 4 MP
PP
1 sg
-99 0 0 904 99 0 0 -904 4048 2597 5 MP stroke
0 sg
0 1807 98 0 0 -1807 4171 2597 4 MP
PP
1 sg
-98 0 0 1807 98 0 0 -1807 4171 2597 5 MP stroke
0 sg
0 0 98 0 0 0 4294 2597 4 MP
PP
1 sg
-98 0 0 0 98 0 0 0 4294 2597 5 MP stroke
0 sg
0 1807 98 0 0 -1807 4417 2597 4 MP
PP
1 sg
-98 0 0 1807 98 0 0 -1807 4417 2597 5 MP stroke
0 sg
0 2108 99 0 0 -2108 4539 2597 4 MP
PP
1 sg
-99 0 0 2108 99 0 0 -2108 4539 2597 5 MP stroke
0 sg
0 603 98 0 0 -603 4662 2597 4 MP
PP
1 sg
-98 0 0 603 98 0 0 -603 4662 2597 5 MP stroke
0 sg
0 302 98 0 0 -302 4785 2597 4 MP
PP
1 sg
-98 0 0 302 98 0 0 -302 4785 2597 5 MP stroke
0 sg
0 603 98 0 0 -603 4908 2597 4 MP
PP
1 sg
-98 0 0 603 98 0 0 -603 4908 2597 5 MP stroke
0 sg
0 1205 99 0 0 -1205 5030 2597 4 MP
PP
1 sg
-99 0 0 1205 99 0 0 -1205 5030 2597 5 MP stroke
0 sg
0 904 98 0 0 -904 5153 2597 4 MP
PP
1 sg
-98 0 0 904 98 0 0 -904 5153 2597 5 MP stroke
0 sg
0 603 98 0 0 -603 5276 2597 4 MP
PP
1 sg
-98 0 0 603 98 0 0 -603 5276 2597 5 MP stroke
0 sg
0 0 98 0 0 0 5399 2597 4 MP
PP
1 sg
-98 0 0 0 98 0 0 0 5399 2597 5 MP stroke
0 sg
0 603 98 0 0 -603 5522 2597 4 MP
PP
1 sg
-98 0 0 603 98 0 0 -603 5522 2597 5 MP stroke
0 sg
0 0 98 0 0 0 5644 2597 4 MP
PP
1 sg
-98 0 0 0 98 0 0 0 5644 2597 5 MP stroke
0 sg
0 0 98 0 0 0 5767 2597 4 MP
PP
1 sg
-98 0 0 0 98 0 0 0 5767 2597 5 MP stroke
0 sg
0 302 98 0 0 -302 5890 2597 4 MP
PP
1 sg
-98 0 0 302 98 0 0 -302 5890 2597 5 MP stroke
0 sg
0 0 98 0 0 0 6013 2597 4 MP
PP
1 sg
-98 0 0 0 98 0 0 0 6013 2597 5 MP stroke
0 sg
0 302 99 0 0 -302 6135 2597 4 MP
PP
1 sg
-99 0 0 302 99 0 0 -302 6135 2597 5 MP stroke
0 sg
0 302 98 0 0 -302 6258 2597 4 MP
PP
1 sg
-98 0 0 302 98 0 0 -302 6258 2597 5 MP stroke
0 sg
0 0 98 0 0 0 6381 2597 4 MP
PP
1 sg
-98 0 0 0 98 0 0 0 6381 2597 5 MP stroke
0 sg
0 302 98 0 0 -302 6504 2597 4 MP
PP
1 sg
-98 0 0 302 98 0 0 -302 6504 2597 5 MP stroke
0 sg
6138 0 1029 2597 2 MP stroke
gr

%%IncludeResource: font Helvetica
/Helvetica /ISOLatin1Encoding 216 FMSR

2015  373 mt 
(Distribution of MCS for top 50 k-mers in w1) s
2554 2956 mt 
(oocyte MCS - non-oocyte MCS) s
 825 2416 mt  -90 rotate
(number of k-mers) s
90 rotate
1 sg
0 2108 6138 0 0 -2108 1029 5554 4 MP
PP
-6138 0 0 2108 6138 0 0 -2108 1029 5554 5 MP stroke
4 w
DO
SO
6 w
0 sg
1029 5554 mt 7167 5554 L
1029 3446 mt 7167 3446 L
1029 5554 mt 1029 3446 L
7167 5554 mt 7167 3446 L
1029 5554 mt 7167 5554 L
1029 5554 mt 1029 3446 L
1029 5554 mt 1029 5492 L
1029 3446 mt 1029 3507 L
%%IncludeResource: font Helvetica
/Helvetica /ISOLatin1Encoding 120 FMSR

 893 5699 mt 
(-25) s
1642 5554 mt 1642 5492 L
1642 3446 mt 1642 3507 L
1506 5699 mt 
(-20) s
2256 5554 mt 2256 5492 L
2256 3446 mt 2256 3507 L
2120 5699 mt 
(-15) s
2870 5554 mt 2870 5492 L
2870 3446 mt 2870 3507 L
2734 5699 mt 
(-10) s
3484 5554 mt 3484 5492 L
3484 3446 mt 3484 3507 L
3381 5699 mt 
(-5) s
4098 5554 mt 4098 5492 L
4098 3446 mt 4098 3507 L
4065 5699 mt 
(0) s
4711 5554 mt 4711 5492 L
4711 3446 mt 4711 3507 L
4678 5699 mt 
(5) s
5325 5554 mt 5325 5492 L
5325 3446 mt 5325 3507 L
5259 5699 mt 
(10) s
5939 5554 mt 5939 5492 L
5939 3446 mt 5939 3507 L
5873 5699 mt 
(15) s
6553 5554 mt 6553 5492 L
6553 3446 mt 6553 3507 L
6487 5699 mt 
(20) s
7167 5554 mt 7167 5492 L
7167 3446 mt 7167 3507 L
7101 5699 mt 
(25) s
1029 5554 mt 1090 5554 L
7167 5554 mt 7105 5554 L
 928 5598 mt 
(0) s
1029 5132 mt 1090 5132 L
7167 5132 mt 7105 5132 L
 794 5176 mt 
(100) s
1029 4710 mt 1090 4710 L
7167 4710 mt 7105 4710 L
 794 4754 mt 
(200) s
1029 4289 mt 1090 4289 L
7167 4289 mt 7105 4289 L
 794 4333 mt 
(300) s
1029 3867 mt 1090 3867 L
7167 3867 mt 7105 3867 L
 794 3911 mt 
(400) s
1029 3446 mt 1090 3446 L
7167 3446 mt 7105 3446 L
 794 3490 mt 
(500) s
1029 5554 mt 7167 5554 L
1029 3446 mt 7167 3446 L
1029 5554 mt 1029 3446 L
7167 5554 mt 7167 3446 L
gs 1029 3446 6139 2109 MR c np
0 30 98 0 0 -30 1593 5554 4 MP
PP
1 sg
-98 0 0 30 98 0 0 -30 1593 5554 5 MP stroke
0 sg
0 9 98 0 0 -9 1716 5554 4 MP
PP
1 sg
-98 0 0 9 98 0 0 -9 1716 5554 5 MP stroke
0 sg
0 9 98 0 0 -9 1839 5554 4 MP
PP
1 sg
-98 0 0 9 98 0 0 -9 1839 5554 5 MP stroke
0 sg
0 0 99 0 0 0 1961 5554 4 MP
PP
1 sg
-99 0 0 0 99 0 0 0 1961 5554 5 MP stroke
0 sg
0 13 98 0 0 -13 2084 5554 4 MP
PP
1 sg
-98 0 0 13 98 0 0 -13 2084 5554 5 MP stroke
0 sg
0 22 98 0 0 -22 2207 5554 4 MP
PP
1 sg
-98 0 0 22 98 0 0 -22 2207 5554 5 MP stroke
0 sg
0 0 98 0 0 0 2330 5554 4 MP
PP
1 sg
-98 0 0 0 98 0 0 0 2330 5554 5 MP stroke
0 sg
0 55 98 0 0 -55 2453 5554 4 MP
PP
1 sg
-98 0 0 55 98 0 0 -55 2453 5554 5 MP stroke
0 sg
0 30 98 0 0 -30 2575 5554 4 MP
PP
1 sg
-98 0 0 30 98 0 0 -30 2575 5554 5 MP stroke
0 sg
0 64 98 0 0 -64 2698 5554 4 MP
PP
1 sg
-98 0 0 64 98 0 0 -64 2698 5554 5 MP stroke
0 sg
0 106 98 0 0 -106 2821 5554 4 MP
PP
1 sg
-98 0 0 106 98 0 0 -106 2821 5554 5 MP stroke
0 sg
0 68 98 0 0 -68 2944 5554 4 MP
PP
1 sg
-98 0 0 68 98 0 0 -68 2944 5554 5 MP stroke
0 sg
0 169 99 0 0 -169 3066 5554 4 MP
PP
1 sg
-99 0 0 169 99 0 0 -169 3066 5554 5 MP stroke
0 sg
0 237 98 0 0 -237 3189 5554 4 MP
PP
1 sg
-98 0 0 237 98 0 0 -237 3189 5554 5 MP stroke
0 sg
0 409 98 0 0 -409 3312 5554 4 MP
PP
1 sg
-98 0 0 409 98 0 0 -409 3312 5554 5 MP stroke
0 sg
0 646 98 0 0 -646 3435 5554 4 MP
PP
1 sg
-98 0 0 646 98 0 0 -646 3435 5554 5 MP stroke
0 sg
0 1029 99 0 0 -1029 3557 5554 4 MP
PP
1 sg
-99 0 0 1029 99 0 0 -1029 3557 5554 5 MP stroke
0 sg
0 1333 98 0 0 -1333 3680 5554 4 MP
PP
1 sg
-98 0 0 1333 98 0 0 -1333 3680 5554 5 MP stroke
0 sg
0 1687 98 0 0 -1687 3803 5554 4 MP
PP
1 sg
-98 0 0 1687 98 0 0 -1687 3803 5554 5 MP stroke
0 sg
0 1780 98 0 0 -1780 3926 5554 4 MP
PP
1 sg
-98 0 0 1780 98 0 0 -1780 3926 5554 5 MP stroke
0 sg
0 1434 99 0 0 -1434 4048 5554 4 MP
PP
1 sg
-99 0 0 1434 99 0 0 -1434 4048 5554 5 MP stroke
0 sg
0 1114 98 0 0 -1114 4171 5554 4 MP
PP
1 sg
-98 0 0 1114 98 0 0 -1114 4171 5554 5 MP stroke
0 sg
0 797 98 0 0 -797 4294 5554 4 MP
PP
1 sg
-98 0 0 797 98 0 0 -797 4294 5554 5 MP stroke
0 sg
0 629 98 0 0 -629 4417 5554 4 MP
PP
1 sg
-98 0 0 629 98 0 0 -629 4417 5554 5 MP stroke
0 sg
0 372 99 0 0 -372 4539 5554 4 MP
PP
1 sg
-99 0 0 372 99 0 0 -372 4539 5554 5 MP stroke
0 sg
0 207 98 0 0 -207 4662 5554 4 MP
PP
1 sg
-98 0 0 207 98 0 0 -207 4662 5554 5 MP stroke
0 sg
0 194 98 0 0 -194 4785 5554 4 MP
PP
1 sg
-98 0 0 194 98 0 0 -194 4785 5554 5 MP stroke
0 sg
0 97 98 0 0 -97 4908 5554 4 MP
PP
1 sg
-98 0 0 97 98 0 0 -97 4908 5554 5 MP stroke
0 sg
0 72 99 0 0 -72 5030 5554 4 MP
PP
1 sg
-99 0 0 72 99 0 0 -72 5030 5554 5 MP stroke
0 sg
0 26 98 0 0 -26 5153 5554 4 MP
PP
1 sg
-98 0 0 26 98 0 0 -26 5153 5554 5 MP stroke
0 sg
0 13 98 0 0 -13 5276 5554 4 MP
PP
1 sg
-98 0 0 13 98 0 0 -13 5276 5554 5 MP stroke
0 sg
0 22 98 0 0 -22 5399 5554 4 MP
PP
1 sg
-98 0 0 22 98 0 0 -22 5399 5554 5 MP stroke
0 sg
0 5 98 0 0 -5 5522 5554 4 MP
PP
1 sg
-98 0 0 5 98 0 0 -5 5522 5554 5 MP stroke
0 sg
0 9 98 0 0 -9 5644 5554 4 MP
PP
1 sg
-98 0 0 9 98 0 0 -9 5644 5554 5 MP stroke
0 sg
0 5 98 0 0 -5 5767 5554 4 MP
PP
1 sg
-98 0 0 5 98 0 0 -5 5767 5554 5 MP stroke
0 sg
0 5 98 0 0 -5 5890 5554 4 MP
PP
1 sg
-98 0 0 5 98 0 0 -5 5890 5554 5 MP stroke
0 sg
0 0 98 0 0 0 6013 5554 4 MP
PP
1 sg
-98 0 0 0 98 0 0 0 6013 5554 5 MP stroke
0 sg
0 5 99 0 0 -5 6135 5554 4 MP
PP
1 sg
-99 0 0 5 99 0 0 -5 6135 5554 5 MP stroke
0 sg
0 5 98 0 0 -5 6258 5554 4 MP
PP
1 sg
-98 0 0 5 98 0 0 -5 6258 5554 5 MP stroke
0 sg
0 0 98 0 0 0 6381 5554 4 MP
PP
1 sg
-98 0 0 0 98 0 0 0 6381 5554 5 MP stroke
0 sg
0 0 98 0 0 0 6504 5554 4 MP
PP
1 sg
-98 0 0 0 98 0 0 0 6504 5554 5 MP stroke
0 sg
6138 0 1029 5554 2 MP stroke
gr

%%IncludeResource: font Helvetica
/Helvetica /ISOLatin1Encoding 216 FMSR

1322 3330 mt 
(Distribution of MCS for all k-mers \(excluding top 50\) in w1) s
2554 5913 mt 
(oocyte MCS - non-oocyte MCS) s
 691 5373 mt  -90 rotate
(number of k-mers) s
90 rotate

end %%Color Dict

eplot
%%EndObject

epage
end

showpage

%%Trailer
%%EOF
