%!PS-Adobe-2.0 EPSF-1.2
%%Creator: MATLAB, The Mathworks, Inc. Version 7.6.0.324 (R2008a). Operating System: Linux 2.6.18.8-0.10-default #1 SMP Wed Jun 4 15:46:34 UTC 2008 x86_64.
%%Title: figs1/oocyte_pval.eps
%%CreationDate: 03/26/2009  01:21:45
%%DocumentNeededFonts: Helvetica
%%DocumentProcessColors: Cyan Magenta Yellow Black
%%Extensions: CMYK
%%Pages: 1
%%BoundingBox:    20   157   580   649
%%EndComments

%%BeginProlog
% MathWorks dictionary
/MathWorks 160 dict begin
% definition operators
/bdef {bind def} bind def
/ldef {load def} bind def
/xdef {exch def} bdef
/xstore {exch store} bdef
% operator abbreviations
/c  /clip ldef
/cc /concat ldef
/cp /closepath ldef
/gr /grestore ldef
/gs /gsave ldef
/mt /moveto ldef
/np /newpath ldef
/cm /currentmatrix ldef
/sm /setmatrix ldef
/rm /rmoveto ldef
/rl /rlineto ldef
/s {show newpath} bdef
/sc {setcmykcolor} bdef
/sr /setrgbcolor ldef
/sg /setgray ldef
/w /setlinewidth ldef
/j /setlinejoin ldef
/cap /setlinecap ldef
/rc {rectclip} bdef
/rf {rectfill} bdef
% page state control
/pgsv () def
/bpage {/pgsv save def} bdef
/epage {pgsv restore} bdef
/bplot /gsave ldef
/eplot {stroke grestore} bdef
% orientation switch
/portraitMode 0 def /landscapeMode 1 def /rotateMode 2 def
% coordinate system mappings
/dpi2point 0 def
% font control
/FontSize 0 def
/FMS {/FontSize xstore findfont [FontSize 0 0 FontSize neg 0 0]
  makefont setfont} bdef
/reencode {exch dup where {pop load} {pop StandardEncoding} ifelse
  exch dup 3 1 roll findfont dup length dict begin
  { 1 index /FID ne {def}{pop pop} ifelse } forall
  /Encoding exch def currentdict end definefont pop} bdef
/isroman {findfont /CharStrings get /Agrave known} bdef
/FMSR {3 1 roll 1 index dup isroman {reencode} {pop pop} ifelse
  exch FMS} bdef
/csm {1 dpi2point div -1 dpi2point div scale neg translate
 dup landscapeMode eq {pop -90 rotate}
  {rotateMode eq {90 rotate} if} ifelse} bdef
% line types: solid, dotted, dashed, dotdash
/SO { [] 0 setdash } bdef
/DO { [.5 dpi2point mul 4 dpi2point mul] 0 setdash } bdef
/DA { [6 dpi2point mul] 0 setdash } bdef
/DD { [.5 dpi2point mul 4 dpi2point mul 6 dpi2point mul 4
  dpi2point mul] 0 setdash } bdef
% macros for lines and objects
/L {lineto stroke} bdef
/MP {3 1 roll moveto 1 sub {rlineto} repeat} bdef
/AP {{rlineto} repeat} bdef
/PDlw -1 def
/W {/PDlw currentlinewidth def setlinewidth} def
/PP {closepath eofill} bdef
/DP {closepath stroke} bdef
/MR {4 -2 roll moveto dup  0 exch rlineto exch 0 rlineto
  neg 0 exch rlineto closepath} bdef
/FR {MR stroke} bdef
/PR {MR fill} bdef
/L1i {{currentfile picstr readhexstring pop} image} bdef
/tMatrix matrix def
/MakeOval {newpath tMatrix currentmatrix pop translate scale
0 0 1 0 360 arc tMatrix setmatrix} bdef
/FO {MakeOval stroke} bdef
/PO {MakeOval fill} bdef
/PD {currentlinewidth 2 div 0 360 arc fill
   PDlw -1 eq not {PDlw w /PDlw -1 def} if} def
/FA {newpath tMatrix currentmatrix pop translate scale
  0 0 1 5 -2 roll arc tMatrix setmatrix stroke} bdef
/PA {newpath tMatrix currentmatrix pop	translate 0 0 moveto scale
  0 0 1 5 -2 roll arc closepath tMatrix setmatrix fill} bdef
/FAn {newpath tMatrix currentmatrix pop translate scale
  0 0 1 5 -2 roll arcn tMatrix setmatrix stroke} bdef
/PAn {newpath tMatrix currentmatrix pop translate 0 0 moveto scale
  0 0 1 5 -2 roll arcn closepath tMatrix setmatrix fill} bdef
/vradius 0 def /hradius 0 def /lry 0 def
/lrx 0 def /uly 0 def /ulx 0 def /rad 0 def
/MRR {/vradius xdef /hradius xdef /lry xdef /lrx xdef /uly xdef
  /ulx xdef newpath tMatrix currentmatrix pop ulx hradius add uly
  vradius add translate hradius vradius scale 0 0 1 180 270 arc 
  tMatrix setmatrix lrx hradius sub uly vradius add translate
  hradius vradius scale 0 0 1 270 360 arc tMatrix setmatrix
  lrx hradius sub lry vradius sub translate hradius vradius scale
  0 0 1 0 90 arc tMatrix setmatrix ulx hradius add lry vradius sub
  translate hradius vradius scale 0 0 1 90 180 arc tMatrix setmatrix
  closepath} bdef
/FRR {MRR stroke } bdef
/PRR {MRR fill } bdef
/MlrRR {/lry xdef /lrx xdef /uly xdef /ulx xdef /rad lry uly sub 2 div def
  newpath tMatrix currentmatrix pop ulx rad add uly rad add translate
  rad rad scale 0 0 1 90 270 arc tMatrix setmatrix lrx rad sub lry rad
  sub translate rad rad scale 0 0 1 270 90 arc tMatrix setmatrix
  closepath} bdef
/FlrRR {MlrRR stroke } bdef
/PlrRR {MlrRR fill } bdef
/MtbRR {/lry xdef /lrx xdef /uly xdef /ulx xdef /rad lrx ulx sub 2 div def
  newpath tMatrix currentmatrix pop ulx rad add uly rad add translate
  rad rad scale 0 0 1 180 360 arc tMatrix setmatrix lrx rad sub lry rad
  sub translate rad rad scale 0 0 1 0 180 arc tMatrix setmatrix
  closepath} bdef
/FtbRR {MtbRR stroke } bdef
/PtbRR {MtbRR fill } bdef
/stri 6 array def /dtri 6 array def
/smat 6 array def /dmat 6 array def
/tmat1 6 array def /tmat2 6 array def /dif 3 array def
/asub {/ind2 exch def /ind1 exch def dup dup
  ind1 get exch ind2 get sub exch } bdef
/tri_to_matrix {
  2 0 asub 3 1 asub 4 0 asub 5 1 asub
  dup 0 get exch 1 get 7 -1 roll astore } bdef
/compute_transform {
  dmat dtri tri_to_matrix tmat1 invertmatrix 
  smat stri tri_to_matrix tmat2 concatmatrix } bdef
/ds {stri astore pop} bdef
/dt {dtri astore pop} bdef
/db {2 copy /cols xdef /rows xdef mul dup 3 mul string
  currentfile exch readhexstring pop
  dup 0 3 index getinterval /rbmap xdef
  dup 2 index dup getinterval /gbmap xdef
  1 index dup 2 mul exch getinterval /bbmap xdef pop pop}bdef
/it {gs np dtri aload pop moveto lineto lineto cp c
  cols rows 8 compute_transform 
  rbmap gbmap bbmap true 3 colorimage gr}bdef
/il {newpath moveto lineto stroke}bdef
currentdict end def
%%EndProlog

%%BeginSetup
MathWorks begin

0 cap

end
%%EndSetup

%%Page: 1 1
%%BeginPageSetup
%%PageBoundingBox:    20   157   580   649
MathWorks begin
bpage
%%EndPageSetup

%%BeginObject: obj1
bplot

/dpi2point 12 def
portraitMode -0288 7872 csm

  529    78  6720  5908 MR c np
76 dict begin %Colortable dictionary
/c0 { 0.000000 0.000000 0.000000 sr} bdef
/c1 { 1.000000 1.000000 1.000000 sr} bdef
/c2 { 0.900000 0.000000 0.000000 sr} bdef
/c3 { 0.000000 0.820000 0.000000 sr} bdef
/c4 { 0.000000 0.000000 0.800000 sr} bdef
/c5 { 0.910000 0.820000 0.320000 sr} bdef
/c6 { 1.000000 0.260000 0.820000 sr} bdef
/c7 { 0.000000 0.820000 0.820000 sr} bdef
c0
1 j
1 sg
   0    0 7920 6241 PR
6 w
0 5086 6138 0 0 -5086 1029 5554 4 MP
PP
-6138 0 0 5086 6138 0 0 -5086 1029 5554 5 MP stroke
4 w
DO
SO
6 w
0 sg
1029 5554 mt 7167 5554 L
1029  468 mt 7167  468 L
1029 5554 mt 1029  468 L
7167 5554 mt 7167  468 L
1029 5554 mt 7167 5554 L
1029 5554 mt 1029  468 L
1029 5554 mt 1029 5492 L
1029  468 mt 1029  529 L
%%IncludeResource: font Helvetica
/Helvetica /ISOLatin1Encoding 120 FMSR

 926 5699 mt 
(-3) s
1642 5554 mt 1642 5492 L
1642  468 mt 1642  529 L
1539 5699 mt 
(-2) s
2256 5554 mt 2256 5492 L
2256  468 mt 2256  529 L
2153 5699 mt 
(-1) s
2870 5554 mt 2870 5492 L
2870  468 mt 2870  529 L
2837 5699 mt 
(0) s
3484 5554 mt 3484 5492 L
3484  468 mt 3484  529 L
3451 5699 mt 
(1) s
4098 5554 mt 4098 5492 L
4098  468 mt 4098  529 L
4065 5699 mt 
(2) s
4711 5554 mt 4711 5492 L
4711  468 mt 4711  529 L
4678 5699 mt 
(3) s
5325 5554 mt 5325 5492 L
5325  468 mt 5325  529 L
5292 5699 mt 
(4) s
5939 5554 mt 5939 5492 L
5939  468 mt 5939  529 L
5906 5699 mt 
(5) s
6553 5554 mt 6553 5492 L
6553  468 mt 6553  529 L
6520 5699 mt 
(6) s
7167 5554 mt 7167 5492 L
7167  468 mt 7167  529 L
7134 5699 mt 
(7) s
1029 5554 mt 1090 5554 L
7167 5554 mt 7105 5554 L
 858 5598 mt 
(-2) s
1029 4988 mt 1090 4988 L
7167 4988 mt 7105 4988 L
 928 5032 mt 
(0) s
1029 4423 mt 1090 4423 L
7167 4423 mt 7105 4423 L
 928 4467 mt 
(2) s
1029 3858 mt 1090 3858 L
7167 3858 mt 7105 3858 L
 928 3902 mt 
(4) s
1029 3293 mt 1090 3293 L
7167 3293 mt 7105 3293 L
 928 3337 mt 
(6) s
1029 2728 mt 1090 2728 L
7167 2728 mt 7105 2728 L
 928 2772 mt 
(8) s
1029 2163 mt 1090 2163 L
7167 2163 mt 7105 2163 L
 861 2207 mt 
(10) s
1029 1598 mt 1090 1598 L
7167 1598 mt 7105 1598 L
 861 1642 mt 
(12) s
1029 1033 mt 1090 1033 L
7167 1033 mt 7105 1033 L
 861 1077 mt 
(14) s
1029  468 mt 1090  468 L
7167  468 mt 7105  468 L
 861  512 mt 
(16) s
1029 5554 mt 7167 5554 L
1029  468 mt 7167  468 L
1029 5554 mt 1029  468 L
7167 5554 mt 7167  468 L
gs 1029 468 6139 5087 MR c np
gr

gs 1158 384 5494 4786 MR c np
60 W
1339 4988 PD
60 W
1496 4988 PD
60 W
1683 4963 PD
60 W
1717 4988 PD
60 W
1717 4952 PD
60 W
1729 4988 PD
60 W
1743 4988 PD
60 W
1760 4986 PD
60 W
1814 4988 PD
60 W
1941 4988 PD
60 W
1948 4987 PD
60 W
1967 4988 PD
60 W
1983 4988 PD
60 W
1992 4961 PD
60 W
1993 4988 PD
60 W
1995 4988 PD
60 W
2003 4988 PD
60 W
2010 4988 PD
60 W
2019 4988 PD
60 W
2027 4986 PD
60 W
2034 4988 PD
60 W
2036 4981 PD
60 W
2046 4988 PD
60 W
2050 4947 PD
60 W
2050 4979 PD
60 W
2058 4988 PD
60 W
2061 4968 PD
60 W
2071 4968 PD
60 W
2072 4980 PD
60 W
2077 4942 PD
60 W
2082 4988 PD
60 W
2082 4961 PD
60 W
2093 4988 PD
60 W
2101 4988 PD
60 W
2103 4988 PD
60 W
2105 4987 PD
60 W
2108 4949 PD
60 W
2109 4988 PD
60 W
2115 4949 PD
60 W
2119 4988 PD
60 W
2126 4988 PD
60 W
2128 4988 PD
60 W
2131 4987 PD
60 W
2132 4978 PD
60 W
2133 4988 PD
60 W
2134 4988 PD
60 W
2141 4985 PD
60 W
2143 4986 PD
60 W
2144 4987 PD
60 W
2144 4973 PD
60 W
2144 4941 PD
60 W
2146 4988 PD
60 W
2159 4988 PD
60 W
2177 4781 PD
60 W
2182 4988 PD
60 W
2183 4981 PD
60 W
2184 4988 PD
60 W
2186 4939 PD
60 W
2189 4980 PD
60 W
2190 4988 PD
60 W
2194 4987 PD
60 W
2197 4988 PD
60 W
2200 4967 PD
60 W
2201 4985 PD
60 W
2202 4972 PD
60 W
2205 4988 PD
60 W
2207 4988 PD
60 W
2208 4988 PD
60 W
2209 4988 PD
60 W
2211 4988 PD
60 W
2214 4988 PD
60 W
2215 4980 PD
60 W
2216 4918 PD
60 W
2221 4969 PD
60 W
2222 4966 PD
60 W
2224 4985 PD
60 W
2226 4939 PD
60 W
2230 4977 PD
60 W
2232 4987 PD
60 W
2234 4988 PD
60 W
2236 4988 PD
60 W
2239 4988 PD
60 W
2239 4958 PD
60 W
2243 4988 PD
60 W
2244 4980 PD
60 W
2245 4988 PD
60 W
2245 4975 PD
60 W
2248 4898 PD
60 W
2250 4949 PD
60 W
2251 4981 PD
60 W
2251 4987 PD
60 W
2253 4988 PD
60 W
2254 4985 PD
60 W
2255 4918 PD
60 W
2260 4978 PD
60 W
2265 4909 PD
60 W
2272 4983 PD
60 W
2272 4988 PD
60 W
2274 4988 PD
60 W
2275 4988 PD
60 W
2276 4948 PD
60 W
2276 4896 PD
60 W
2276 4988 PD
60 W
2280 4906 PD
60 W
2280 4988 PD
60 W
2281 4988 PD
60 W
2283 4886 PD
60 W
2283 4842 PD
60 W
2284 4988 PD
60 W
2290 4970 PD
60 W
2292 4952 PD
60 W
2294 4962 PD
60 W
2296 4988 PD
60 W
2297 4985 PD
60 W
2299 4988 PD
60 W
2299 4984 PD
60 W
2303 4922 PD
60 W
2303 4957 PD
60 W
2304 4988 PD
60 W
2307 4988 PD
60 W
2307 4986 PD
60 W
2307 4944 PD
60 W
2308 4987 PD
60 W
2308 4983 PD
60 W
2308 4985 PD
60 W
2310 4971 PD
60 W
2311 4975 PD
60 W
2312 4982 PD
60 W
2313 4984 PD
60 W
2313 4930 PD
60 W
2314 4911 PD
60 W
2319 4865 PD
60 W
2320 4755 PD
60 W
2321 4981 PD
60 W
2322 4988 PD
60 W
2323 4987 PD
60 W
2323 4979 PD
60 W
2323 4987 PD
60 W
2324 4842 PD
60 W
2325 4810 PD
60 W
2325 4988 PD
60 W
2326 4987 PD
60 W
2327 4978 PD
60 W
2329 4988 PD
60 W
2332 4890 PD
60 W
2335 4986 PD
60 W
2335 4875 PD
60 W
2336 4958 PD
60 W
2337 4988 PD
60 W
2339 4973 PD
60 W
2341 4988 PD
60 W
2341 4878 PD
60 W
2341 4985 PD
60 W
2342 4988 PD
60 W
2343 4967 PD
60 W
2343 4988 PD
60 W
2343 4985 PD
60 W
2344 4767 PD
60 W
2345 4986 PD
60 W
2347 4988 PD
60 W
2348 4834 PD
60 W
2348 4987 PD
60 W
2349 4979 PD
60 W
2350 4988 PD
60 W
2351 4898 PD
60 W
2353 4973 PD
60 W
2354 4772 PD
60 W
2355 4984 PD
60 W
2356 4900 PD
60 W
2357 4988 PD
60 W
2359 4813 PD
60 W
2360 4988 PD
60 W
2362 4988 PD
60 W
2365 4983 PD
60 W
2365 4988 PD
60 W
2365 4975 PD
60 W
2366 4988 PD
60 W
2367 4983 PD
60 W
2368 4975 PD
60 W
2368 4925 PD
60 W
2369 4988 PD
60 W
2371 4978 PD
60 W
2372 4987 PD
60 W
2373 4979 PD
60 W
2374 4975 PD
60 W
2374 4987 PD
60 W
2375 4953 PD
60 W
2375 4879 PD
60 W
2377 4988 PD
60 W
2379 4988 PD
60 W
2380 4988 PD
60 W
2383 4421 PD
60 W
2385 4986 PD
60 W
2385 4973 PD
60 W
2386 4974 PD
60 W
2387 4981 PD
60 W
2387 4986 PD
60 W
2387 4988 PD
60 W
2388 4980 PD
60 W
2388 4982 PD
60 W
2390 4983 PD
60 W
2390 4961 PD
60 W
2391 4929 PD
60 W
2392 4932 PD
60 W
2393 4988 PD
60 W
2393 4980 PD
60 W
2396 4985 PD
60 W
2396 4874 PD
60 W
2396 4987 PD
60 W
2398 4952 PD
60 W
2399 4964 PD
60 W
2399 4911 PD
60 W
2399 4982 PD
60 W
2401 4988 PD
60 W
2402 4977 PD
60 W
2402 4954 PD
60 W
2404 4986 PD
60 W
2404 4837 PD
60 W
2405 4988 PD
60 W
2405 4983 PD
60 W
2405 4934 PD
60 W
2406 4963 PD
60 W
2406 4893 PD
60 W
2408 4901 PD
60 W
2409 4988 PD
60 W
2410 4666 PD
60 W
2411 4974 PD
60 W
2412 4984 PD
60 W
2412 4986 PD
60 W
2413 4979 PD
60 W
2416 4987 PD
60 W
2417 4860 PD
60 W
2417 4987 PD
60 W
2418 4899 PD
60 W
2419 4970 PD
60 W
2421 4955 PD
60 W
2423 4775 PD
60 W
2423 4982 PD
60 W
2423 4920 PD
60 W
2424 4986 PD
60 W
2424 4969 PD
60 W
2424 4974 PD
60 W
2426 4970 PD
60 W
2426 4988 PD
60 W
2427 4988 PD
60 W
2428 4267 PD
60 W
2429 4987 PD
60 W
2429 4984 PD
60 W
2430 4985 PD
60 W
2430 4988 PD
60 W
2430 4986 PD
60 W
2431 4978 PD
60 W
2432 4970 PD
60 W
2432 4988 PD
60 W
2433 4919 PD
60 W
2433 4983 PD
60 W
2434 4966 PD
60 W
2434 4988 PD
60 W
2434 4956 PD
60 W
2436 4988 PD
60 W
2436 4947 PD
60 W
2437 4988 PD
60 W
2438 4987 PD
60 W
2438 4964 PD
60 W
2438 4988 PD
60 W
2439 4987 PD
60 W
2439 4985 PD
60 W
2439 4988 PD
60 W
2440 4802 PD
60 W
2441 4978 PD
60 W
2441 4873 PD
60 W
2441 4970 PD
60 W
2442 4986 PD
60 W
2442 4984 PD
60 W
2443 4988 PD
60 W
2443 4984 PD
60 W
2443 4774 PD
60 W
2444 4987 PD
60 W
2444 2411 PD
60 W
2444 4988 PD
60 W
2445 4859 PD
60 W
2445 4987 PD
60 W
2446 4988 PD
60 W
2447 4985 PD
60 W
2447 4816 PD
60 W
2447 4960 PD
60 W
2448 4825 PD
60 W
2448 4974 PD
60 W
2448 4988 PD
60 W
2449 4863 PD
60 W
2450 4804 PD
60 W
2450 4988 PD
60 W
2451 4841 PD
60 W
2451 4988 PD
60 W
2452 4919 PD
60 W
2452 4955 PD
60 W
2453 4984 PD
60 W
2454 4870 PD
60 W
2455 4988 PD
60 W
2456 4981 PD
60 W
2457 4983 PD
60 W
2459 4985 PD
60 W
2460 4988 PD
60 W
2460 4973 PD
60 W
2461 4983 PD
60 W
2461 4986 PD
60 W
2461 4988 PD
60 W
2462 4988 PD
60 W
2464 4986 PD
60 W
2465 4988 PD
60 W
2465 4956 PD
60 W
2465 4982 PD
60 W
2466 4943 PD
60 W
2467 4988 PD
60 W
2468 4988 PD
60 W
2469 4988 PD
60 W
2470 4883 PD
60 W
2470 4969 PD
60 W
2470 4784 PD
60 W
2470 4988 PD
60 W
2471 4988 PD
60 W
2471 4972 PD
60 W
2472 4987 PD
60 W
2473 4988 PD
60 W
2473 4979 PD
60 W
2474 4984 PD
60 W
2475 4916 PD
60 W
2475 4988 PD
60 W
2476 4920 PD
60 W
2476 4886 PD
60 W
2477 4985 PD
60 W
2478 4988 PD
60 W
2478 4929 PD
60 W
2478 4988 PD
60 W
2479 4965 PD
60 W
2479 4936 PD
60 W
2481 4988 PD
60 W
2481 4944 PD
60 W
2482 4947 PD
60 W
2482 4888 PD
60 W
2482 4873 PD
60 W
2482 4926 PD
60 W
2483 4870 PD
60 W
2484 4807 PD
60 W
2484 4987 PD
60 W
2484 4953 PD
60 W
2484 4957 PD
60 W
2486 4988 PD
60 W
2487 4983 PD
60 W
2487 4398 PD
60 W
2488 4341 PD
60 W
2489 4988 PD
60 W
2489 4983 PD
60 W
2489 4988 PD
60 W
2490 4984 PD
60 W
2490 4685 PD
60 W
2490 4802 PD
60 W
2490 4982 PD
60 W
2490 4981 PD
60 W
2490 4971 PD
60 W
2491 4985 PD
60 W
2492 4869 PD
60 W
2493 4979 PD
60 W
2493 4954 PD
60 W
2493 4963 PD
60 W
2493 4988 PD
60 W
2494 4927 PD
60 W
2494 4987 PD
60 W
2495 4951 PD
60 W
2496 4983 PD
60 W
2496 4905 PD
60 W
2496 4969 PD
60 W
2496 4988 PD
60 W
2496 4866 PD
60 W
2497 4900 PD
60 W
2498 4988 PD
60 W
2498 4599 PD
60 W
2499 4729 PD
60 W
2499 4986 PD
60 W
2499 4985 PD
60 W
2500 4988 PD
60 W
2501 4988 PD
60 W
2501 4986 PD
60 W
2502 4929 PD
60 W
2502 4988 PD
60 W
2503 4796 PD
60 W
2504 4988 PD
60 W
2504 4966 PD
60 W
2504 4988 PD
60 W
2504 4897 PD
60 W
2504 4988 PD
60 W
2505 4798 PD
60 W
2505 4954 PD
60 W
2505 4977 PD
60 W
2506 4962 PD
60 W
2506 4987 PD
60 W
2506 4988 PD
60 W
2507 4988 PD
60 W
2508 4988 PD
60 W
2508 4986 PD
60 W
2509 4954 PD
60 W
2509 4597 PD
60 W
2510 4987 PD
60 W
2511 4918 PD
60 W
2511 4936 PD
60 W
2512 4981 PD
60 W
2512 4963 PD
60 W
2512 4977 PD
60 W
2513 4907 PD
60 W
2513 4983 PD
60 W
2513 4985 PD
60 W
2514 4987 PD
60 W
2514 4896 PD
60 W
2515 4723 PD
60 W
2516 4987 PD
60 W
2516 4983 PD
60 W
2516 4942 PD
60 W
2516 4988 PD
60 W
2517 4980 PD
60 W
2517 4970 PD
60 W
2518 4988 PD
60 W
2520 4926 PD
60 W
2520 4988 PD
60 W
2521 4889 PD
60 W
2522 4988 PD
60 W
2522 4981 PD
60 W
2523 4978 PD
60 W
2524 4988 PD
60 W
2526 4946 PD
60 W
2526 4713 PD
60 W
2526 4985 PD
60 W
2527 4980 PD
60 W
2527 4937 PD
60 W
2530 4978 PD
60 W
2530 4935 PD
60 W
2530 4901 PD
60 W
2530 4195 PD
60 W
2531 4988 PD
60 W
2532 4986 PD
60 W
2533 4987 PD
60 W
2533 4952 PD
60 W
2533 4988 PD
60 W
2533 4877 PD
60 W
2535 4988 PD
60 W
2535 4977 PD
60 W
2536 4988 PD
60 W
2536 4985 PD
60 W
2537 4988 PD
60 W
2538 4642 PD
60 W
2538 4980 PD
60 W
2538 4988 PD
60 W
2538 4985 PD
60 W
2538 4977 PD
60 W
2539 4988 PD
60 W
2539 4986 PD
60 W
2540 4937 PD
60 W
2540 4967 PD
60 W
2540 4892 PD
60 W
2540 4912 PD
60 W
2540 4964 PD
60 W
2541 4834 PD
60 W
2541 4958 PD
60 W
2541 4923 PD
60 W
2542 4971 PD
60 W
2542 4988 PD
60 W
2542 4981 PD
60 W
2543 4963 PD
60 W
2544 4931 PD
60 W
2544 4969 PD
60 W
2544 4988 PD
60 W
2545 4883 PD
60 W
2546 4987 PD
60 W
2548 4914 PD
60 W
2549 4986 PD
60 W
2550 4988 PD
60 W
2550 4987 PD
60 W
2550 4810 PD
60 W
2551 4986 PD
60 W
2551 4988 PD
60 W
2551 4936 PD
60 W
2553 4425 PD
60 W
2554 4937 PD
60 W
2554 4886 PD
60 W
2554 4952 PD
60 W
2554 4953 PD
60 W
2554 4948 PD
60 W
2555 4919 PD
60 W
2555 4988 PD
60 W
2555 4969 PD
60 W
2555 4988 PD
60 W
2556 4933 PD
60 W
2556 4988 PD
60 W
2557 4956 PD
60 W
2557 4987 PD
60 W
2557 4896 PD
60 W
2557 4986 PD
60 W
2557 4972 PD
60 W
2557 4984 PD
60 W
2558 4980 PD
60 W
2558 4975 PD
60 W
2559 4930 PD
60 W
2560 4968 PD
60 W
2560 4988 PD
60 W
2561 4987 PD
60 W
2561 4988 PD
60 W
2561 4977 PD
60 W
2561 4984 PD
60 W
2562 4988 PD
60 W
2562 4984 PD
60 W
2563 4988 PD
60 W
2563 4984 PD
60 W
2564 4988 PD
60 W
2564 4680 PD
60 W
2565 4982 PD
60 W
2566 4984 PD
60 W
2567 4935 PD
60 W
2567 4981 PD
60 W
2567 4973 PD
60 W
2568 4918 PD
60 W
2569 4988 PD
60 W
2569 4956 PD
60 W
2570 4929 PD
60 W
2570 4988 PD
60 W
2570 4924 PD
60 W
2570 4972 PD
60 W
2570 4983 PD
60 W
2570 4984 PD
60 W
2571 4965 PD
60 W
2571 4986 PD
60 W
2572 4618 PD
60 W
2572 4985 PD
60 W
2572 4982 PD
60 W
2572 4988 PD
60 W
2572 4978 PD
60 W
2572 4898 PD
60 W
2573 4949 PD
60 W
2573 4988 PD
60 W
2573 4982 PD
60 W
2573 4977 PD
60 W
2574 4953 PD
60 W
2575 4987 PD
60 W
2575 4988 PD
60 W
2576 4986 PD
60 W
2576 4953 PD
60 W
2577 4988 PD
60 W
2577 4976 PD
60 W
2578 4988 PD
60 W
2578 4987 PD
60 W
2578 4928 PD
60 W
2578 4985 PD
60 W
2579 4984 PD
60 W
2579 4987 PD
60 W
2579 4970 PD
60 W
2580 4981 PD
60 W
2580 4988 PD
60 W
2581 4982 PD
60 W
2582 4988 PD
60 W
2582 4898 PD
60 W
2582 4837 PD
60 W
2582 4849 PD
60 W
2582 4987 PD
60 W
2582 4988 PD
60 W
2583 4987 PD
60 W
2584 4987 PD
60 W
2584 4964 PD
60 W
2584 4953 PD
60 W
2585 4806 PD
60 W
2585 4793 PD
60 W
2585 4980 PD
60 W
2586 4605 PD
60 W
2586 4988 PD
60 W
2586 4763 PD
60 W
2587 4917 PD
60 W
2587 4752 PD
60 W
2587 4988 PD
60 W
2588 4861 PD
60 W
2589 4959 PD
60 W
2589 4957 PD
60 W
2589 4805 PD
60 W
2589 4975 PD
60 W
2589 4949 PD
60 W
2589 4988 PD
60 W
2590 4849 PD
60 W
2590 4984 PD
60 W
2591 4963 PD
60 W
2591 4916 PD
60 W
2591 4926 PD
60 W
2591 4858 PD
60 W
2591 4988 PD
60 W
2592 4965 PD
60 W
2592 4988 PD
60 W
2592 4840 PD
60 W
2593 4988 PD
60 W
2593 4900 PD
60 W
2594 4988 PD
60 W
2594 4983 PD
60 W
2594 4906 PD
60 W
2595 4907 PD
60 W
2595 4985 PD
60 W
2595 4988 PD
60 W
2595 4914 PD
60 W
2595 4975 PD
60 W
2596 4988 PD
60 W
2597 4943 PD
60 W
2597 4983 PD
60 W
2597 4985 PD
60 W
2597 4757 PD
60 W
2598 4953 PD
60 W
2598 4537 PD
60 W
2598 4948 PD
60 W
2598 4880 PD
60 W
2599 4966 PD
60 W
2599 4986 PD
60 W
2600 4825 PD
60 W
2600 4950 PD
60 W
2600 4929 PD
60 W
2600 4986 PD
60 W
2601 4911 PD
60 W
2601 4985 PD
60 W
2602 4978 PD
60 W
2602 4980 PD
60 W
2602 4948 PD
60 W
2602 4988 PD
60 W
2603 4983 PD
60 W
2603 4878 PD
60 W
2603 4765 PD
60 W
2603 4930 PD
60 W
2604 4752 PD
60 W
2604 4988 PD
60 W
2604 4984 PD
60 W
2604 4948 PD
60 W
2605 4899 PD
60 W
2605 4947 PD
60 W
2606 4631 PD
60 W
2606 4988 PD
60 W
2606 4905 PD
60 W
2607 4911 PD
60 W
2607 4965 PD
60 W
2607 4877 PD
60 W
2608 3360 PD
60 W
2608 4982 PD
60 W
2609 4951 PD
60 W
2609 4975 PD
60 W
2609 4988 PD
60 W
2610 4988 PD
60 W
2610 4984 PD
60 W
2610 4986 PD
60 W
2610 4640 PD
60 W
2610 4968 PD
60 W
2610 4946 PD
60 W
2611 4937 PD
60 W
2611 4966 PD
60 W
2611 4972 PD
60 W
2611 4821 PD
60 W
2612 4988 PD
60 W
2612 4987 PD
60 W
2612 4985 PD
60 W
2613 4987 PD
60 W
2613 4867 PD
60 W
2613 4812 PD
60 W
2613 4988 PD
60 W
2613 4949 PD
60 W
2614 4356 PD
60 W
2614 4957 PD
60 W
2615 4970 PD
60 W
2615 4873 PD
60 W
2615 4985 PD
60 W
2615 4834 PD
60 W
2616 4988 PD
60 W
2616 4943 PD
60 W
2616 4958 PD
60 W
2616 4959 PD
60 W
2616 4897 PD
60 W
2616 4877 PD
60 W
2617 4988 PD
60 W
2617 4987 PD
60 W
2617 4864 PD
60 W
2617 4935 PD
60 W
2617 4914 PD
60 W
2618 4977 PD
60 W
2618 4882 PD
60 W
2619 4978 PD
60 W
2620 4891 PD
60 W
2620 4982 PD
60 W
2620 4987 PD
60 W
2620 4988 PD
60 W
2620 4821 PD
60 W
2620 4847 PD
60 W
2621 4974 PD
60 W
2621 4981 PD
60 W
2622 4979 PD
60 W
2622 4988 PD
60 W
2623 4864 PD
60 W
2623 4961 PD
60 W
2623 4987 PD
60 W
2623 4974 PD
60 W
2624 4853 PD
60 W
2625 4621 PD
60 W
2625 4939 PD
60 W
2625 4988 PD
60 W
2626 4985 PD
60 W
2626 4918 PD
60 W
2627 4951 PD
60 W
2627 4987 PD
60 W
2627 4985 PD
60 W
2628 4987 PD
60 W
2628 4988 PD
60 W
2628 4984 PD
60 W
2628 4982 PD
60 W
2628 4696 PD
60 W
2628 4988 PD
60 W
2628 4608 PD
60 W
2629 4988 PD
60 W
2629 4973 PD
60 W
2629 4984 PD
60 W
2629 4877 PD
60 W
2629 4958 PD
60 W
2629 4988 PD
60 W
2630 4814 PD
60 W
2631 3287 PD
60 W
2631 4764 PD
60 W
2632 4983 PD
60 W
2632 4987 PD
60 W
2633 4839 PD
60 W
2633 4813 PD
60 W
2634 4986 PD
60 W
2634 4963 PD
60 W
2634 4988 PD
60 W
2635 4947 PD
60 W
2635 4986 PD
60 W
2635 4894 PD
60 W
2636 4982 PD
60 W
2636 4776 PD
60 W
2636 4966 PD
60 W
2636 4980 PD
60 W
2637 4471 PD
60 W
2637 4849 PD
60 W
2637 4986 PD
60 W
2637 4982 PD
60 W
2637 4971 PD
60 W
2638 4860 PD
60 W
2638 4963 PD
60 W
2638 4739 PD
60 W
2638 4981 PD
60 W
2638 4892 PD
60 W
2638 4975 PD
60 W
2639 4974 PD
60 W
2639 4950 PD
60 W
2639 4975 PD
60 W
2639 4988 PD
60 W
2639 4979 PD
60 W
2640 4974 PD
60 W
2640 4986 PD
60 W
2640 4844 PD
60 W
2640 4970 PD
60 W
2641 4960 PD
60 W
2641 4977 PD
60 W
2641 4987 PD
60 W
2642 4972 PD
60 W
2642 4988 PD
60 W
2642 4953 PD
60 W
2642 4920 PD
60 W
2643 4988 PD
60 W
2643 4985 PD
60 W
2643 4896 PD
60 W
2643 4847 PD
60 W
2643 4885 PD
60 W
2643 4857 PD
60 W
2643 4962 PD
60 W
2644 4976 PD
60 W
2644 4977 PD
60 W
2644 4988 PD
60 W
2645 4982 PD
60 W
2645 4987 PD
60 W
2645 4988 PD
60 W
2645 4978 PD
60 W
2646 4972 PD
60 W
2646 4981 PD
60 W
2647 4981 PD
60 W
2647 4976 PD
60 W
2647 4958 PD
60 W
2647 4965 PD
60 W
2647 4863 PD
60 W
2648 4984 PD
60 W
2648 4754 PD
60 W
2648 4970 PD
60 W
2648 4904 PD
60 W
2648 4988 PD
60 W
2650 4976 PD
60 W
2650 4848 PD
60 W
2650 4960 PD
60 W
2651 4945 PD
60 W
2651 4962 PD
60 W
2651 4837 PD
60 W
2651 4871 PD
60 W
2651 4964 PD
60 W
2652 4987 PD
60 W
2652 4887 PD
60 W
2653 4988 PD
60 W
2653 4987 PD
60 W
2653 4974 PD
60 W
2654 4934 PD
60 W
2654 4902 PD
60 W
2654 4987 PD
60 W
2655 4982 PD
60 W
2655 4936 PD
60 W
2655 4957 PD
60 W
2656 4987 PD
60 W
2656 4966 PD
60 W
2657 4968 PD
60 W
2657 4960 PD
60 W
2657 4937 PD
60 W
2657 4975 PD
60 W
2657 4983 PD
60 W
2658 4987 PD
60 W
2658 4953 PD
60 W
2658 4979 PD
60 W
2658 4923 PD
60 W
2659 4988 PD
60 W
2659 4830 PD
60 W
2659 4986 PD
60 W
2659 4988 PD
60 W
2660 4970 PD
60 W
2660 4826 PD
60 W
2660 4973 PD
60 W
2661 4988 PD
60 W
2661 4478 PD
60 W
2661 4497 PD
60 W
2661 4953 PD
60 W
2661 4957 PD
60 W
2662 4942 PD
60 W
2662 4983 PD
60 W
2662 4880 PD
60 W
2662 4918 PD
60 W
2662 4980 PD
60 W
2662 4988 PD
60 W
2663 4987 PD
60 W
2663 4988 PD
60 W
2663 4862 PD
60 W
2663 4988 PD
60 W
2664 4976 PD
60 W
2664 4987 PD
60 W
2664 4944 PD
60 W
2664 4984 PD
60 W
2664 4978 PD
60 W
2664 4983 PD
60 W
2665 4907 PD
60 W
2665 4985 PD
60 W
2666 4939 PD
60 W
2667 4985 PD
60 W
2667 4938 PD
60 W
2667 4976 PD
60 W
2668 4988 PD
60 W
2669 4988 PD
60 W
2669 4977 PD
60 W
2669 4899 PD
60 W
2669 4986 PD
60 W
2670 4986 PD
60 W
2671 4987 PD
60 W
2671 4973 PD
60 W
2671 4970 PD
60 W
2672 4886 PD
60 W
2672 4977 PD
60 W
2673 4986 PD
60 W
2673 4791 PD
60 W
2673 4948 PD
60 W
2675 4965 PD
60 W
2675 4969 PD
60 W
2675 4802 PD
60 W
2675 4930 PD
60 W
2675 4392 PD
60 W
2675 4909 PD
60 W
2676 4985 PD
60 W
2676 4800 PD
60 W
2676 4980 PD
60 W
2677 4771 PD
60 W
2677 4983 PD
60 W
2677 4924 PD
60 W
2677 4966 PD
60 W
2677 4975 PD
60 W
2677 4028 PD
60 W
2677 4589 PD
60 W
2678 4922 PD
60 W
2678 4975 PD
60 W
2679 4889 PD
60 W
2679 4985 PD
60 W
2679 4861 PD
60 W
2680 4988 PD
60 W
2680 4972 PD
60 W
2680 4985 PD
60 W
2681 4924 PD
60 W
2681 4988 PD
60 W
2681 4971 PD
60 W
2682 4988 PD
60 W
2682 4912 PD
60 W
2682 4876 PD
60 W
2682 4933 PD
60 W
2682 4707 PD
60 W
2682 4954 PD
60 W
2683 4965 PD
60 W
2683 4945 PD
60 W
2683 4924 PD
60 W
2683 4819 PD
60 W
2683 4977 PD
60 W
2684 4634 PD
60 W
2684 4988 PD
60 W
2685 4887 PD
60 W
2685 4988 PD
60 W
2685 4982 PD
60 W
2685 4977 PD
60 W
2685 4988 PD
60 W
2685 4984 PD
60 W
2685 4837 PD
60 W
2686 4943 PD
60 W
2686 4458 PD
60 W
2686 4938 PD
60 W
2686 4964 PD
60 W
2686 4865 PD
60 W
2687 4967 PD
60 W
2687 4871 PD
60 W
2687 4934 PD
60 W
2688 4912 PD
60 W
2688 4981 PD
60 W
2688 4983 PD
60 W
2689 4988 PD
60 W
2689 4949 PD
60 W
2689 4821 PD
60 W
2689 4960 PD
60 W
2690 4982 PD
60 W
2690 4853 PD
60 W
2690 4987 PD
60 W
2690 4984 PD
60 W
2691 4956 PD
60 W
2691 4884 PD
60 W
2691 4988 PD
60 W
2691 4987 PD
60 W
2691 4986 PD
60 W
2692 4884 PD
60 W
2693 4985 PD
60 W
2693 4602 PD
60 W
2693 4986 PD
60 W
2693 4898 PD
60 W
2693 4968 PD
60 W
2693 4889 PD
60 W
2694 4758 PD
60 W
2694 4975 PD
60 W
2694 4988 PD
60 W
2694 4963 PD
60 W
2694 4719 PD
60 W
2694 4893 PD
60 W
2694 4934 PD
60 W
2694 4988 PD
60 W
2694 4957 PD
60 W
2695 4793 PD
60 W
2696 4982 PD
60 W
2696 4911 PD
60 W
2696 4901 PD
60 W
2697 4875 PD
60 W
2697 4975 PD
60 W
2697 4937 PD
60 W
2697 4973 PD
60 W
2697 4982 PD
60 W
2697 4627 PD
60 W
2697 4938 PD
60 W
2698 4924 PD
60 W
2698 4842 PD
60 W
2698 4983 PD
60 W
2698 4988 PD
60 W
2698 4829 PD
60 W
2698 4988 PD
60 W
2698 4987 PD
60 W
2699 4832 PD
60 W
2700 4986 PD
60 W
2700 4921 PD
60 W
2700 4986 PD
60 W
2700 4829 PD
60 W
2700 4946 PD
60 W
2700 4975 PD
60 W
2701 4988 PD
60 W
2701 4986 PD
60 W
2702 4988 PD
60 W
2702 4971 PD
60 W
2702 4964 PD
60 W
2702 4988 PD
60 W
2702 4795 PD
60 W
2702 4749 PD
60 W
2703 4899 PD
60 W
2703 4988 PD
60 W
2703 4967 PD
60 W
2703 4984 PD
60 W
2704 4053 PD
60 W
2704 4962 PD
60 W
2704 4988 PD
60 W
2704 4978 PD
60 W
2704 4982 PD
60 W
2705 4711 PD
60 W
2705 4705 PD
60 W
2705 4980 PD
60 W
2705 4987 PD
60 W
2705 4597 PD
60 W
2706 4984 PD
60 W
2706 4957 PD
60 W
2706 4962 PD
60 W
2706 4961 PD
60 W
2706 4965 PD
60 W
2706 4978 PD
60 W
2706 4988 PD
60 W
2707 4974 PD
60 W
2707 4988 PD
60 W
2707 4968 PD
60 W
2707 4987 PD
60 W
2708 4942 PD
60 W
2708 4981 PD
60 W
2708 4960 PD
60 W
2708 4971 PD
60 W
2708 4988 PD
60 W
2708 4978 PD
60 W
2708 4988 PD
60 W
2709 4920 PD
60 W
2709 4987 PD
60 W
2709 4983 PD
60 W
2709 4951 PD
60 W
2709 4952 PD
60 W
2710 4928 PD
60 W
2710 4986 PD
60 W
2710 4955 PD
60 W
2710 4928 PD
60 W
2711 4953 PD
60 W
2711 4848 PD
60 W
2711 4972 PD
60 W
2711 4965 PD
60 W
2711 4889 PD
60 W
2711 4988 PD
60 W
2712 4895 PD
60 W
2712 4899 PD
60 W
2712 4982 PD
60 W
2712 4859 PD
60 W
2713 4899 PD
60 W
2713 4655 PD
60 W
2713 4930 PD
60 W
2713 4926 PD
60 W
2713 4925 PD
60 W
2714 4984 PD
60 W
2714 4980 PD
60 W
2714 4513 PD
60 W
2714 4988 PD
60 W
2715 4954 PD
60 W
2715 4657 PD
60 W
2715 4987 PD
60 W
2715 4969 PD
60 W
2715 4937 PD
60 W
2715 4987 PD
60 W
2716 4962 PD
60 W
2716 4978 PD
60 W
2716 4957 PD
60 W
2717 4866 PD
60 W
2717 4846 PD
60 W
2717 4924 PD
60 W
2718 4979 PD
60 W
2718 4790 PD
60 W
2718 4745 PD
60 W
2718 4840 PD
60 W
2719 4938 PD
60 W
2719 4982 PD
60 W
2719 4641 PD
60 W
2721 4955 PD
60 W
2721 4950 PD
60 W
2722 4928 PD
60 W
2722 4974 PD
60 W
2722 4941 PD
60 W
2722 4764 PD
60 W
2723 4958 PD
60 W
2723 4820 PD
60 W
2723 4948 PD
60 W
2724 4904 PD
60 W
2725 4960 PD
60 W
2725 4988 PD
60 W
2725 4971 PD
60 W
2725 4988 PD
60 W
2725 4982 PD
60 W
2726 4987 PD
60 W
2726 4708 PD
60 W
2726 4910 PD
60 W
2726 4982 PD
60 W
2726 4985 PD
60 W
2727 4878 PD
60 W
2727 4957 PD
60 W
2727 4751 PD
60 W
2727 4873 PD
60 W
2727 4988 PD
60 W
2727 4987 PD
60 W
2727 4908 PD
60 W
2727 4958 PD
60 W
2728 4844 PD
60 W
2728 4987 PD
60 W
2728 4981 PD
60 W
2728 4982 PD
60 W
2729 4976 PD
60 W
2730 4801 PD
60 W
2730 4900 PD
60 W
2731 4988 PD
60 W
2731 4333 PD
60 W
2731 4485 PD
60 W
2731 4977 PD
60 W
2731 4692 PD
60 W
2731 4988 PD
60 W
2732 4971 PD
60 W
2733 4780 PD
60 W
2734 4977 PD
60 W
2734 4972 PD
60 W
2734 4903 PD
60 W
2734 4975 PD
60 W
2735 4955 PD
60 W
2735 4865 PD
60 W
2735 4983 PD
60 W
2735 4943 PD
60 W
2735 4911 PD
60 W
2736 4988 PD
60 W
2736 4942 PD
60 W
2736 4967 PD
60 W
2736 4966 PD
60 W
2737 4975 PD
60 W
2737 4945 PD
60 W
2737 4980 PD
60 W
2737 4951 PD
60 W
2737 4988 PD
60 W
2738 4986 PD
60 W
2738 4971 PD
60 W
2738 4984 PD
60 W
2738 4971 PD
60 W
2738 4862 PD
60 W
2739 4881 PD
60 W
2739 4748 PD
60 W
2739 4944 PD
60 W
2739 4951 PD
60 W
2740 4900 PD
60 W
2740 4033 PD
60 W
2740 4988 PD
60 W
2741 4985 PD
60 W
2741 4953 PD
60 W
2741 4900 PD
60 W
2742 4842 PD
60 W
2742 4905 PD
60 W
2742 4988 PD
60 W
2742 4986 PD
60 W
2743 4978 PD
60 W
2743 4988 PD
60 W
2743 4976 PD
60 W
2743 4974 PD
60 W
2744 4988 PD
60 W
2744 4884 PD
60 W
2745 4983 PD
60 W
2745 4880 PD
60 W
2745 3904 PD
60 W
2745 4988 PD
60 W
2745 4891 PD
60 W
2745 4984 PD
60 W
2746 4986 PD
60 W
2746 4982 PD
60 W
2749 4984 PD
60 W
2749 4988 PD
60 W
2749 4478 PD
60 W
2749 4985 PD
60 W
2750 4902 PD
60 W
2750 4944 PD
60 W
2750 4988 PD
60 W
2750 4972 PD
60 W
2750 4987 PD
60 W
2751 4975 PD
60 W
2751 4988 PD
60 W
2751 4945 PD
60 W
2751 4917 PD
60 W
2752 4983 PD
60 W
2752 4878 PD
60 W
2752 4988 PD
60 W
2752 4802 PD
60 W
2752 4396 PD
60 W
2753 4946 PD
60 W
2754 4938 PD
60 W
2755 4974 PD
60 W
2755 4981 PD
60 W
2755 4918 PD
60 W
2755 4949 PD
60 W
2755 4501 PD
60 W
2755 4986 PD
60 W
2755 4988 PD
60 W
2755 4986 PD
60 W
2756 4960 PD
60 W
2756 4988 PD
60 W
2756 4971 PD
60 W
2757 4986 PD
60 W
2757 4988 PD
60 W
2757 4930 PD
60 W
2758 4988 PD
60 W
2758 4760 PD
60 W
2758 4950 PD
60 W
2758 4842 PD
60 W
2758 4988 PD
60 W
2758 4862 PD
60 W
2759 4983 PD
60 W
2760 4987 PD
60 W
2760 4986 PD
60 W
2760 4812 PD
60 W
2761 4984 PD
60 W
2761 4737 PD
60 W
2761 4918 PD
60 W
2761 4916 PD
60 W
2761 4856 PD
60 W
2762 4940 PD
60 W
2762 4962 PD
60 W
2763 4976 PD
60 W
2763 4870 PD
60 W
2763 4923 PD
60 W
2763 4981 PD
60 W
2764 4977 PD
60 W
2764 4947 PD
60 W
2764 4932 PD
60 W
2765 4820 PD
60 W
2765 4987 PD
60 W
2765 4981 PD
60 W
2765 4863 PD
60 W
2766 4962 PD
60 W
2766 4975 PD
60 W
2766 4961 PD
60 W
2766 4978 PD
60 W
2767 4951 PD
60 W
2767 4987 PD
60 W
2767 4975 PD
60 W
2768 4944 PD
60 W
2768 4963 PD
60 W
2769 4917 PD
60 W
2769 4988 PD
60 W
2769 4914 PD
60 W
2769 4984 PD
60 W
2769 4979 PD
60 W
2769 4897 PD
60 W
2770 4950 PD
60 W
2770 4968 PD
60 W
2770 4947 PD
60 W
2771 4689 PD
60 W
2771 4988 PD
60 W
2771 4643 PD
60 W
2771 4966 PD
60 W
2771 4836 PD
60 W
2772 4961 PD
60 W
2772 4940 PD
60 W
2772 4854 PD
60 W
2772 4726 PD
60 W
2773 4985 PD
60 W
2773 4813 PD
60 W
2773 4988 PD
60 W
2773 4668 PD
60 W
2774 4975 PD
60 W
2774 4974 PD
60 W
2775 4902 PD
60 W
2775 4898 PD
60 W
2775 4965 PD
60 W
2775 4981 PD
60 W
2776 4954 PD
60 W
2776 4986 PD
60 W
2776 4988 PD
60 W
2776 4903 PD
60 W
2777 4918 PD
60 W
2777 4405 PD
60 W
2777 4971 PD
60 W
2777 4965 PD
60 W
2778 4977 PD
60 W
2778 4976 PD
60 W
2779 4967 PD
60 W
2779 4786 PD
60 W
2779 4942 PD
60 W
2779 4383 PD
60 W
2779 4988 PD
60 W
2779 4986 PD
60 W
2779 4985 PD
60 W
2779 4988 PD
60 W
2780 4988 PD
60 W
2780 4793 PD
60 W
2780 4968 PD
60 W
2780 4974 PD
60 W
2781 4965 PD
60 W
2781 4785 PD
60 W
2781 4964 PD
60 W
2782 4752 PD
60 W
2782 4939 PD
60 W
2782 4959 PD
60 W
2782 4973 PD
60 W
2783 4982 PD
60 W
2783 4988 PD
60 W
2783 4844 PD
60 W
2783 4909 PD
60 W
2783 4987 PD
60 W
2784 4968 PD
60 W
2784 4756 PD
60 W
2784 4979 PD
60 W
2784 4977 PD
60 W
2785 4709 PD
60 W
2785 4932 PD
60 W
2785 4988 PD
60 W
2785 4909 PD
60 W
2785 4915 PD
60 W
2785 4988 PD
60 W
2786 4853 PD
60 W
2786 4951 PD
60 W
2786 4957 PD
60 W
2787 4959 PD
60 W
2787 4988 PD
60 W
2788 4988 PD
60 W
2788 4372 PD
60 W
2788 4986 PD
60 W
2788 4687 PD
60 W
2788 4982 PD
60 W
2789 4988 PD
60 W
2789 4982 PD
60 W
2790 4985 PD
60 W
2790 4988 PD
60 W
2790 4532 PD
60 W
2791 4946 PD
60 W
2791 4982 PD
60 W
2791 4979 PD
60 W
2791 4808 PD
60 W
2791 4618 PD
60 W
2791 4920 PD
60 W
2792 4854 PD
60 W
2792 4978 PD
60 W
2792 4982 PD
60 W
2793 4909 PD
60 W
2793 4953 PD
60 W
2793 4964 PD
60 W
2793 4953 PD
60 W
2793 4968 PD
60 W
2793 4901 PD
60 W
2794 3930 PD
60 W
2794 4918 PD
60 W
2794 4988 PD
60 W
2794 4975 PD
60 W
2794 4856 PD
60 W
2795 4883 PD
60 W
2795 4796 PD
60 W
2795 4951 PD
60 W
2795 4804 PD
60 W
2796 4913 PD
60 W
2796 4978 PD
60 W
2796 4917 PD
60 W
2797 4977 PD
60 W
2797 4884 PD
60 W
2798 4987 PD
60 W
2798 4950 PD
60 W
2798 4988 PD
60 W
2799 4988 PD
60 W
2799 4940 PD
60 W
2799 4945 PD
60 W
2799 4966 PD
60 W
2799 4974 PD
60 W
2800 4985 PD
60 W
2801 4155 PD
60 W
2801 4952 PD
60 W
2801 4950 PD
60 W
2801 4686 PD
60 W
2801 4988 PD
60 W
2802 4891 PD
60 W
2802 4953 PD
60 W
2802 4988 PD
60 W
2802 4984 PD
60 W
2802 4966 PD
60 W
2803 4972 PD
60 W
2803 4821 PD
60 W
2803 4985 PD
60 W
2803 4988 PD
60 W
2803 4969 PD
60 W
2804 4910 PD
60 W
2804 4887 PD
60 W
2804 4933 PD
60 W
2804 4934 PD
60 W
2804 4893 PD
60 W
2804 4987 PD
60 W
2805 4972 PD
60 W
2805 4984 PD
60 W
2805 4879 PD
60 W
2805 4983 PD
60 W
2806 4932 PD
60 W
2806 4983 PD
60 W
2806 4885 PD
60 W
2806 4988 PD
60 W
2807 4974 PD
60 W
2807 4958 PD
60 W
2807 4760 PD
60 W
2807 4988 PD
60 W
2807 4957 PD
60 W
2808 4755 PD
60 W
2809 4720 PD
60 W
2809 4983 PD
60 W
2810 4897 PD
60 W
2810 4859 PD
60 W
2810 4792 PD
60 W
2810 4988 PD
60 W
2810 4776 PD
60 W
2810 4986 PD
60 W
2811 4984 PD
60 W
2811 4982 PD
60 W
2812 4971 PD
60 W
2812 4811 PD
60 W
2812 4743 PD
60 W
2812 4638 PD
60 W
2812 4982 PD
60 W
2812 4988 PD
60 W
2814 4759 PD
60 W
2814 4818 PD
60 W
2814 4987 PD
60 W
2815 4808 PD
60 W
2815 4907 PD
60 W
2816 4784 PD
60 W
2816 4898 PD
60 W
2816 4988 PD
60 W
2816 4975 PD
60 W
2817 4983 PD
60 W
2817 4960 PD
60 W
2818 4971 PD
60 W
2818 4988 PD
60 W
2818 4623 PD
60 W
2818 4979 PD
60 W
2819 4879 PD
60 W
2819 4839 PD
60 W
2820 4766 PD
60 W
2820 4416 PD
60 W
2820 4926 PD
60 W
2821 4778 PD
60 W
2821 4825 PD
60 W
2821 4560 PD
60 W
2821 4987 PD
60 W
2822 4985 PD
60 W
2822 4663 PD
60 W
2823 4922 PD
60 W
2823 4971 PD
60 W
2824 4942 PD
60 W
2824 4684 PD
60 W
2825 4765 PD
60 W
2825 4984 PD
60 W
2825 4968 PD
60 W
2825 4943 PD
60 W
2825 4953 PD
60 W
2825 4983 PD
60 W
2825 4958 PD
60 W
2826 4649 PD
60 W
2826 4988 PD
60 W
2826 4921 PD
60 W
2826 4895 PD
60 W
2827 4809 PD
60 W
2827 4987 PD
60 W
2827 4883 PD
60 W
2827 4977 PD
60 W
2827 4971 PD
60 W
2827 4682 PD
60 W
2827 4988 PD
60 W
2828 4934 PD
60 W
2829 4323 PD
60 W
2830 4956 PD
60 W
2831 4712 PD
60 W
2831 4950 PD
60 W
2831 2211 PD
60 W
2831 4982 PD
60 W
2831 4841 PD
60 W
2831 4947 PD
60 W
2832 4988 PD
60 W
2832 4955 PD
60 W
2832 4901 PD
60 W
2833 4868 PD
60 W
2833 4972 PD
60 W
2833 4937 PD
60 W
2833 4788 PD
60 W
2833 4886 PD
60 W
2833 4957 PD
60 W
2834 4963 PD
60 W
2834 4869 PD
60 W
2834 4949 PD
60 W
2834 4893 PD
60 W
2834 4917 PD
60 W
2834 4963 PD
60 W
2834 4972 PD
60 W
2835 4979 PD
60 W
2835 4932 PD
60 W
2835 4890 PD
60 W
2835 4870 PD
60 W
2836 4903 PD
60 W
2836 4837 PD
60 W
2836 4912 PD
60 W
2836 4988 PD
60 W
2836 4927 PD
60 W
2837 4756 PD
60 W
2837 4983 PD
60 W
2837 4924 PD
60 W
2837 4926 PD
60 W
2837 4934 PD
60 W
2837 4836 PD
60 W
2837 4980 PD
60 W
2837 4978 PD
60 W
2838 4904 PD
60 W
2838 4870 PD
60 W
2839 4979 PD
60 W
2839 4988 PD
60 W
2839 4965 PD
60 W
2840 4549 PD
60 W
2840 4814 PD
60 W
2840 4907 PD
60 W
2841 4947 PD
60 W
2841 4933 PD
60 W
2841 4988 PD
60 W
2842 4665 PD
60 W
2842 4697 PD
60 W
2842 4929 PD
60 W
2843 4909 PD
60 W
2843 4859 PD
60 W
2843 4939 PD
60 W
2844 4979 PD
60 W
2844 4968 PD
60 W
2844 4972 PD
60 W
2844 4988 PD
60 W
2844 4868 PD
60 W
2844 4904 PD
60 W
2844 4890 PD
60 W
2845 4982 PD
60 W
2845 4980 PD
60 W
2845 4972 PD
60 W
2845 4981 PD
60 W
2845 4914 PD
60 W
2845 4843 PD
60 W
2845 4568 PD
60 W
2845 4827 PD
60 W
2846 4818 PD
60 W
2846 4974 PD
60 W
2846 4860 PD
60 W
2847 4853 PD
60 W
2847 4960 PD
60 W
2847 4973 PD
60 W
2847 4766 PD
60 W
2848 4962 PD
60 W
2848 4729 PD
60 W
2848 4807 PD
60 W
2848 4891 PD
60 W
2849 4741 PD
60 W
2849 4314 PD
60 W
2849 4865 PD
60 W
2849 4926 PD
60 W
2850 4907 PD
60 W
2850 4688 PD
60 W
2850 4987 PD
60 W
2851 4978 PD
60 W
2851 4850 PD
60 W
2851 4946 PD
60 W
2851 4988 PD
60 W
2851 4799 PD
60 W
2851 4675 PD
60 W
2851 4963 PD
60 W
2851 4913 PD
60 W
2851 4710 PD
60 W
2851 4988 PD
60 W
2852 4975 PD
60 W
2852 4919 PD
60 W
2852 4986 PD
60 W
2853 4974 PD
60 W
2854 4877 PD
60 W
2854 4627 PD
60 W
2854 4973 PD
60 W
2854 4957 PD
60 W
2854 4788 PD
60 W
2854 4955 PD
60 W
2855 4943 PD
60 W
2855 4879 PD
60 W
2855 4901 PD
60 W
2856 4982 PD
60 W
2856 4919 PD
60 W
2856 4677 PD
60 W
2856 4785 PD
60 W
2856 4849 PD
60 W
2857 4978 PD
60 W
2857 4957 PD
60 W
2857 4958 PD
60 W
2858 4910 PD
60 W
2858 4915 PD
60 W
2858 4986 PD
60 W
2858 4987 PD
60 W
2858 4871 PD
60 W
2858 4964 PD
60 W
2859 4900 PD
60 W
2859 4988 PD
60 W
2859 4925 PD
60 W
2859 4915 PD
60 W
2859 4977 PD
60 W
2859 4918 PD
60 W
2859 4967 PD
60 W
2859 4988 PD
60 W
2860 4985 PD
60 W
2860 4976 PD
60 W
2860 4988 PD
60 W
2861 4804 PD
60 W
2861 4849 PD
60 W
2861 4969 PD
60 W
2862 4982 PD
60 W
2862 4987 PD
60 W
2862 4899 PD
60 W
2862 4965 PD
60 W
2862 2115 PD
60 W
2863 4978 PD
60 W
2863 4987 PD
60 W
2863 4667 PD
60 W
2863 4988 PD
60 W
2864 4859 PD
60 W
2864 4988 PD
60 W
2865 4962 PD
60 W
2865 4648 PD
60 W
2865 4981 PD
60 W
2865 4979 PD
60 W
2865 4869 PD
60 W
2865 4959 PD
60 W
2866 4741 PD
60 W
2867 4959 PD
60 W
2867 4431 PD
60 W
2867 4936 PD
60 W
2867 4984 PD
60 W
2867 4983 PD
60 W
2868 4984 PD
60 W
2868 4983 PD
60 W
2868 4985 PD
60 W
2868 4988 PD
60 W
2869 4575 PD
60 W
2869 4818 PD
60 W
2870 4988 PD
60 W
2870 4895 PD
60 W
2870 4934 PD
60 W
2870 4707 PD
60 W
2870 4973 PD
60 W
2870 4847 PD
60 W
2870 4862 PD
60 W
2870 4988 PD
60 W
2870 4963 PD
60 W
2870 4984 PD
60 W
2870 4963 PD
60 W
2870 4930 PD
60 W
2870 4987 PD
60 W
2870 4953 PD
60 W
2870 4935 PD
60 W
2870 4907 PD
60 W
2870 4944 PD
60 W
2870 4247 PD
60 W
2870 4765 PD
60 W
2870 4929 PD
60 W
2870 4296 PD
60 W
2870 4406 PD
60 W
2870 4215 PD
60 W
2870 4679 PD
60 W
2870 4646 PD
60 W
2870 4739 PD
60 W
2870 4755 PD
60 W
2870 4988 PD
60 W
2870 4900 PD
60 W
2870 4854 PD
60 W
2870 4917 PD
60 W
2870 4982 PD
60 W
2870 4905 PD
60 W
2870 4985 PD
60 W
2870 4895 PD
60 W
2870 4750 PD
60 W
2870 4903 PD
60 W
2870 4844 PD
60 W
2870 4972 PD
60 W
2870 4849 PD
60 W
2870 4815 PD
60 W
2870 4986 PD
60 W
2870 4985 PD
60 W
2870 4935 PD
60 W
2870 4872 PD
60 W
2870 4357 PD
60 W
2870 4904 PD
60 W
2870 4988 PD
60 W
2870 4947 PD
60 W
2870 4968 PD
60 W
2870 4674 PD
60 W
2870 4988 PD
60 W
2870 4964 PD
60 W
2870 4851 PD
60 W
2870 4762 PD
60 W
2870 4988 PD
60 W
2870 4963 PD
60 W
2870 4988 PD
60 W
2870 4898 PD
60 W
2870 4831 PD
60 W
2870 4724 PD
60 W
2870 4121 PD
60 W
2870 4987 PD
60 W
2870 4244 PD
60 W
2870 4920 PD
60 W
2870 4901 PD
60 W
2870 4855 PD
60 W
2870 4716 PD
60 W
2870 4841 PD
60 W
2870 4965 PD
60 W
2870 4935 PD
60 W
2870 4879 PD
60 W
2870 4878 PD
60 W
2870 4952 PD
60 W
2870 4888 PD
60 W
2870 4612 PD
60 W
2870 4939 PD
60 W
2870 4937 PD
60 W
2870 4358 PD
60 W
2870 4981 PD
60 W
2870 4626 PD
60 W
2870 4827 PD
60 W
2870 4988 PD
60 W
2870 4926 PD
60 W
2870 4965 PD
60 W
2870 4915 PD
60 W
2870 4948 PD
60 W
2870 4939 PD
60 W
2870 4682 PD
60 W
2870 4889 PD
60 W
2870 4947 PD
60 W
2870 4787 PD
60 W
2870 4948 PD
60 W
2870 4906 PD
60 W
2870 4465 PD
60 W
2870 4984 PD
60 W
2870 4839 PD
60 W
2870 4586 PD
60 W
2870 3898 PD
60 W
2870 4698 PD
60 W
2870 4969 PD
60 W
2870 4947 PD
60 W
2870 4971 PD
60 W
2870 4988 PD
60 W
2870 4958 PD
60 W
2870 4791 PD
60 W
2870 4865 PD
60 W
2870 4955 PD
60 W
2870 4499 PD
60 W
2870 4847 PD
60 W
2870 4782 PD
60 W
2870 4654 PD
60 W
2870 4774 PD
60 W
2870 4275 PD
60 W
2870 4911 PD
60 W
2870 4903 PD
60 W
2870 4975 PD
60 W
2870 4729 PD
60 W
2870 4407 PD
60 W
2870 4787 PD
60 W
2870 4948 PD
60 W
2870 4971 PD
60 W
2870 4963 PD
60 W
2870 4585 PD
60 W
2870 4915 PD
60 W
2870 4961 PD
60 W
2870 4980 PD
60 W
2870 4794 PD
60 W
2870 4975 PD
60 W
2870 4778 PD
60 W
2870 4933 PD
60 W
2870 4853 PD
60 W
2870 4958 PD
60 W
2870 4817 PD
60 W
2870 4837 PD
60 W
2870 4731 PD
60 W
2870 4824 PD
60 W
2870 4798 PD
60 W
2870 4753 PD
60 W
2870 4898 PD
60 W
2870 4986 PD
60 W
2870 4927 PD
60 W
2870 3742 PD
60 W
2870 4925 PD
60 W
2870 4754 PD
60 W
2870 4971 PD
60 W
2870 4783 PD
60 W
2870 4742 PD
60 W
2870 4909 PD
60 W
2870 4945 PD
60 W
2870 4960 PD
60 W
2870 4861 PD
60 W
2870 4980 PD
60 W
2870 4881 PD
60 W
2870 4988 PD
60 W
2870 4488 PD
60 W
2870 4853 PD
60 W
2870 4783 PD
60 W
2870 4973 PD
60 W
2870 4960 PD
60 W
2870 4828 PD
60 W
2870 4833 PD
60 W
2870 4971 PD
60 W
2870 3214 PD
60 W
2870 4650 PD
60 W
2870 4884 PD
60 W
2870 4646 PD
60 W
2870 4475 PD
60 W
2870 4449 PD
60 W
2870 4723 PD
60 W
2870 4854 PD
60 W
2870 4951 PD
60 W
2870 4970 PD
60 W
2870 4521 PD
60 W
2870 4973 PD
60 W
2870 4812 PD
60 W
2870 4984 PD
60 W
2870 4988 PD
60 W
2870 4985 PD
60 W
2870 4955 PD
60 W
2870 4966 PD
60 W
2870 4976 PD
60 W
2870 4984 PD
60 W
2870 4809 PD
60 W
2870 4986 PD
60 W
2870 4962 PD
60 W
2870 4953 PD
60 W
2870 4988 PD
60 W
2870 4969 PD
60 W
2870 4632 PD
60 W
2870 4885 PD
60 W
2870 4495 PD
60 W
2870 4907 PD
60 W
2870 4955 PD
60 W
2870 4921 PD
60 W
2870 4973 PD
60 W
2870 4897 PD
60 W
2870 4921 PD
60 W
2870 4858 PD
60 W
2870 4885 PD
60 W
2870 4625 PD
60 W
2870 4971 PD
60 W
2870 4789 PD
60 W
2870 4655 PD
60 W
2870 4756 PD
60 W
2870 2293 PD
60 W
2870 4977 PD
60 W
2870 4818 PD
60 W
2870 4788 PD
60 W
2870 4963 PD
60 W
2870 4765 PD
60 W
2870 4962 PD
60 W
2870 4900 PD
60 W
2870 4839 PD
60 W
2870 4949 PD
60 W
2870 4941 PD
60 W
2870 4909 PD
60 W
2870 4732 PD
60 W
2870 4800 PD
60 W
2870 4988 PD
60 W
2870 4987 PD
60 W
2870 4705 PD
60 W
2870 4931 PD
60 W
2870 4964 PD
60 W
2870 4506 PD
60 W
2870 4984 PD
60 W
2870 4031 PD
60 W
2870 4382 PD
60 W
2870 4972 PD
60 W
2870 4929 PD
60 W
2870 4824 PD
60 W
2870 4988 PD
60 W
2870 4902 PD
60 W
2870 4880 PD
60 W
2870 4983 PD
60 W
2870 4931 PD
60 W
2870 4940 PD
60 W
2870 4904 PD
60 W
2870 4960 PD
60 W
2870 4988 PD
60 W
2870 4967 PD
60 W
2870 4988 PD
60 W
2870 4868 PD
60 W
2870 4925 PD
60 W
2870 4976 PD
60 W
2870 4896 PD
60 W
2870 4927 PD
60 W
2870 4960 PD
60 W
2870 4639 PD
60 W
2870 4792 PD
60 W
2870 4948 PD
60 W
2870 4985 PD
60 W
2870 4306 PD
60 W
2870 4937 PD
60 W
2870 4922 PD
60 W
2870 4865 PD
60 W
2870 4923 PD
60 W
2870 4458 PD
60 W
2870 4979 PD
60 W
2870 4941 PD
60 W
2870 4902 PD
60 W
2870 4891 PD
60 W
2870 4985 PD
60 W
2870 4809 PD
60 W
2870 4901 PD
60 W
2870 4654 PD
60 W
2870 4987 PD
60 W
2870 4948 PD
60 W
2870 4847 PD
60 W
2870 4825 PD
60 W
2870 4534 PD
60 W
2870 4940 PD
60 W
2870 4832 PD
60 W
2870 4978 PD
60 W
2870 4987 PD
60 W
2870 3746 PD
60 W
2870 4346 PD
60 W
2870 4935 PD
60 W
2870 4699 PD
60 W
2870 4941 PD
60 W
2870 4538 PD
60 W
2870 4987 PD
60 W
2870 4779 PD
60 W
2870 4863 PD
60 W
2870 4988 PD
60 W
2870 4946 PD
60 W
2870 4986 PD
60 W
2870 4834 PD
60 W
2870 4953 PD
60 W
2870 4940 PD
60 W
2870 4482 PD
60 W
2870 4970 PD
60 W
2870 4834 PD
60 W
2870 4981 PD
60 W
2870 4829 PD
60 W
2870 4973 PD
60 W
2870 4766 PD
60 W
2870 4842 PD
60 W
2870 4900 PD
60 W
2870 4643 PD
60 W
2870 4770 PD
60 W
2870 4987 PD
60 W
2870 4878 PD
60 W
2870 4567 PD
60 W
2870 4713 PD
60 W
2870 4867 PD
60 W
2870 4897 PD
60 W
2870 4988 PD
60 W
2870 4940 PD
60 W
2870 4950 PD
60 W
2870 4970 PD
60 W
2870 4834 PD
60 W
2870 4728 PD
60 W
2870 4983 PD
60 W
2870 4976 PD
60 W
2870 4945 PD
60 W
2870 4905 PD
60 W
2870 4841 PD
60 W
2870 4934 PD
60 W
2870 4866 PD
60 W
2870 4727 PD
60 W
2870 4700 PD
60 W
2870 4855 PD
60 W
2870 4955 PD
60 W
2870 4987 PD
60 W
2870 4875 PD
60 W
2870 4384 PD
60 W
2870 4947 PD
60 W
2870 4616 PD
60 W
2870 4709 PD
60 W
2870 4712 PD
60 W
2870 4900 PD
60 W
2870 4985 PD
60 W
2870 4737 PD
60 W
2870 4987 PD
60 W
2870 4868 PD
60 W
2870 4512 PD
60 W
2870 4970 PD
60 W
2870 3651 PD
60 W
2870 4841 PD
60 W
2870 4947 PD
60 W
2870 4978 PD
60 W
2870 4632 PD
60 W
2870 4988 PD
60 W
2870 4758 PD
60 W
2870 4924 PD
60 W
2870 4726 PD
60 W
2870 4939 PD
60 W
2870 4935 PD
60 W
2870 4675 PD
60 W
2870 4864 PD
60 W
2870 4770 PD
60 W
2870 4973 PD
60 W
2870 4971 PD
60 W
2870 4983 PD
60 W
2870 4853 PD
60 W
2870 4946 PD
60 W
2870 4678 PD
60 W
2870 4882 PD
60 W
2870 4863 PD
60 W
2870 4896 PD
60 W
2870 4868 PD
60 W
2870 4915 PD
60 W
2870 4971 PD
60 W
2870 4691 PD
60 W
2870 4357 PD
60 W
2870 4972 PD
60 W
2870 4858 PD
60 W
2870 4891 PD
60 W
2870 4030 PD
60 W
2870 4919 PD
60 W
2870 4983 PD
60 W
2870 4937 PD
60 W
2870 4941 PD
60 W
2870 4650 PD
60 W
2870 4639 PD
60 W
2870 4874 PD
60 W
2870 4985 PD
60 W
2870 4820 PD
60 W
2870 4522 PD
60 W
2870 4864 PD
60 W
2870 4963 PD
60 W
2870 4834 PD
60 W
2870 4879 PD
60 W
2870 4985 PD
60 W
2870 4984 PD
60 W
2870 4764 PD
60 W
2870 4946 PD
60 W
2870 4279 PD
60 W
2870 4662 PD
60 W
2870 4787 PD
60 W
2870 4961 PD
60 W
2870 4900 PD
60 W
2870 4909 PD
60 W
2870 4725 PD
60 W
2870 4813 PD
60 W
2870 4969 PD
60 W
2870 4988 PD
60 W
2870 4985 PD
60 W
2870 4954 PD
60 W
2870 4988 PD
60 W
2870 4971 PD
60 W
2870 4871 PD
60 W
2870 4461 PD
60 W
2870 4845 PD
60 W
2870 4646 PD
60 W
2870 4413 PD
60 W
2870 4568 PD
60 W
2870 4974 PD
60 W
2870 4551 PD
60 W
2870 4750 PD
60 W
2870 4988 PD
60 W
2870 4752 PD
60 W
2870 4903 PD
60 W
2870 4815 PD
60 W
2870 4894 PD
60 W
2870 4816 PD
60 W
2870 4988 PD
60 W
2870 4963 PD
60 W
2870 4842 PD
60 W
2870 4981 PD
60 W
2870 4908 PD
60 W
2870 4964 PD
60 W
2870 4988 PD
60 W
2870 4764 PD
60 W
2870 4809 PD
60 W
2870 4538 PD
60 W
2870 4953 PD
60 W
2870 4942 PD
60 W
2870 4716 PD
60 W
2870 4851 PD
60 W
2870 4927 PD
60 W
2870 4731 PD
60 W
2870 4985 PD
60 W
2870 4942 PD
60 W
2870 4946 PD
60 W
2870 4916 PD
60 W
2870 4617 PD
60 W
2870 4454 PD
60 W
2870 4507 PD
60 W
2870 4697 PD
60 W
2870 4960 PD
60 W
2870 4950 PD
60 W
2870 4614 PD
60 W
2870 4855 PD
60 W
2870 4959 PD
60 W
2870 4774 PD
60 W
2870 4962 PD
60 W
2870 4974 PD
60 W
2870 4988 PD
60 W
2870 4963 PD
60 W
2870 4967 PD
60 W
2870 4965 PD
60 W
2870 4929 PD
60 W
2870 4855 PD
60 W
2870 4982 PD
60 W
2870 4987 PD
60 W
2870 4911 PD
60 W
2870 4984 PD
60 W
2870 4981 PD
60 W
2870 4643 PD
60 W
2870 4547 PD
60 W
2870 4816 PD
60 W
2870 4914 PD
60 W
2870 4981 PD
60 W
2870 4444 PD
60 W
2870 4332 PD
60 W
2870 4978 PD
60 W
2870 4985 PD
60 W
2870 4945 PD
60 W
2870 4964 PD
60 W
2870 4693 PD
60 W
2870 4971 PD
60 W
2870 4735 PD
60 W
2870 4926 PD
60 W
2870 4988 PD
60 W
2870 4940 PD
60 W
2870 4981 PD
60 W
2870 4815 PD
60 W
2870 4988 PD
60 W
2870 4944 PD
60 W
2870 4975 PD
60 W
2870 4950 PD
60 W
2870 4980 PD
60 W
2870 4904 PD
60 W
2870 4806 PD
60 W
2870 4783 PD
60 W
2870 4894 PD
60 W
2870 4988 PD
60 W
2870 4870 PD
60 W
2870 4926 PD
60 W
2870 4988 PD
60 W
2870 4968 PD
60 W
2870 3772 PD
60 W
2870 4732 PD
60 W
2870 4841 PD
60 W
2870 4875 PD
60 W
2870 4900 PD
60 W
2870 4816 PD
60 W
2870 4730 PD
60 W
2870 4932 PD
60 W
2870 4856 PD
60 W
2870 4733 PD
60 W
2870 4846 PD
60 W
2870 4929 PD
60 W
2870 4943 PD
60 W
2870 4975 PD
60 W
2870 4934 PD
60 W
2870 4644 PD
60 W
2870 4926 PD
60 W
2870 4960 PD
60 W
2870 4461 PD
60 W
2870 4485 PD
60 W
2870 4662 PD
60 W
2870 4970 PD
60 W
2870 4971 PD
60 W
2870 4878 PD
60 W
2870 4868 PD
60 W
2870 4717 PD
60 W
2870 4958 PD
60 W
2870 4836 PD
60 W
2870 4981 PD
60 W
2870 4745 PD
60 W
2870 4858 PD
60 W
2870 4032 PD
60 W
2870 4896 PD
60 W
2870 4928 PD
60 W
2870 4779 PD
60 W
2870 4980 PD
60 W
2870 4747 PD
60 W
2870 4932 PD
60 W
2870 4979 PD
60 W
2870 4982 PD
60 W
2870 4772 PD
60 W
2870 4903 PD
60 W
2870 4923 PD
60 W
2870 4814 PD
60 W
2870 4940 PD
60 W
2870 4574 PD
60 W
2870 4515 PD
60 W
2870 4988 PD
60 W
2870 4885 PD
60 W
2870 4983 PD
60 W
2870 4980 PD
60 W
2870 4906 PD
60 W
2870 4954 PD
60 W
2870 4865 PD
60 W
2870 4924 PD
60 W
2870 4988 PD
60 W
2870 4955 PD
60 W
2870 4963 PD
60 W
2870 4966 PD
60 W
2870 4979 PD
60 W
2870 4929 PD
60 W
2870 4983 PD
60 W
2870 4883 PD
60 W
2870 4988 PD
60 W
2870 4814 PD
60 W
2870 4941 PD
60 W
2870 4988 PD
60 W
2870 4903 PD
60 W
2870 4653 PD
60 W
2870 4675 PD
60 W
2870 4844 PD
60 W
2870 4788 PD
60 W
2870 4941 PD
60 W
2870 4727 PD
60 W
2870 4930 PD
60 W
2870 4983 PD
60 W
2870 4859 PD
60 W
2870 4568 PD
60 W
2870 4756 PD
60 W
2870 4793 PD
60 W
2870 4967 PD
60 W
2870 4914 PD
60 W
2870 4981 PD
60 W
2870 4976 PD
60 W
2870 4765 PD
60 W
2870 4919 PD
60 W
2870 4964 PD
60 W
2870 4988 PD
60 W
2870 4924 PD
60 W
2870 4988 PD
60 W
2870 4943 PD
60 W
2870 4841 PD
60 W
2870 4916 PD
60 W
2870 4848 PD
60 W
2870 4960 PD
60 W
2870 4907 PD
60 W
2870 4904 PD
60 W
2870 4895 PD
60 W
2870 4871 PD
60 W
2870 4942 PD
60 W
2870 4785 PD
60 W
2870 4802 PD
60 W
2870 4824 PD
60 W
2870 4951 PD
60 W
2870 4984 PD
60 W
2870 4962 PD
60 W
2870 4908 PD
60 W
2870 4266 PD
60 W
2870 4961 PD
60 W
2870 4972 PD
60 W
2870 4804 PD
60 W
2870 4822 PD
60 W
2870 4960 PD
60 W
2870 4985 PD
60 W
2870 4799 PD
60 W
2870 3490 PD
60 W
2870 4984 PD
60 W
2870 4758 PD
60 W
2870 4910 PD
60 W
2870 4984 PD
60 W
2870 4983 PD
60 W
2870 4853 PD
60 W
2870 4840 PD
60 W
2870 4986 PD
60 W
2870 4858 PD
60 W
2870 4951 PD
60 W
2870 4273 PD
60 W
2870 4363 PD
60 W
2870 4867 PD
60 W
2870 4752 PD
60 W
2870 4921 PD
60 W
2870 4949 PD
60 W
2870 4934 PD
60 W
2870 4926 PD
60 W
2870 4975 PD
60 W
2870 4937 PD
60 W
2870 4988 PD
60 W
2870 4916 PD
60 W
2870 4892 PD
60 W
2870 4967 PD
60 W
2870 4968 PD
60 W
2870 4941 PD
60 W
2870 4879 PD
60 W
2870 4987 PD
60 W
2870 4930 PD
60 W
2870 4984 PD
60 W
2870 4926 PD
60 W
2870 4534 PD
60 W
2870 4949 PD
60 W
2870 4979 PD
60 W
2870 4958 PD
60 W
2870 4898 PD
60 W
2870 4730 PD
60 W
2870 4365 PD
60 W
2870 4683 PD
60 W
2870 4686 PD
60 W
2870 4964 PD
60 W
2870 4844 PD
60 W
2870 4907 PD
60 W
2870 4912 PD
60 W
2870 4446 PD
60 W
2870 4984 PD
60 W
2870 4988 PD
60 W
2870 4958 PD
60 W
2870 4436 PD
60 W
2870 4942 PD
60 W
2870 4972 PD
60 W
2870 4450 PD
60 W
2870 4881 PD
60 W
2870 4972 PD
60 W
2870 4894 PD
60 W
2870 4884 PD
60 W
2870 4683 PD
60 W
2870 4888 PD
60 W
2870 4987 PD
60 W
2870 4982 PD
60 W
2870 4869 PD
60 W
2870 4988 PD
60 W
2870 4930 PD
60 W
2870 4965 PD
60 W
2870 4924 PD
60 W
2870 4944 PD
60 W
2870 4918 PD
60 W
2870 4966 PD
60 W
2870 4982 PD
60 W
2870 4833 PD
60 W
2870 4683 PD
60 W
2870 4881 PD
60 W
2870 4693 PD
60 W
2870 4961 PD
60 W
2870 4705 PD
60 W
2870 4814 PD
60 W
2870 4669 PD
60 W
2870 4758 PD
60 W
2870 4512 PD
60 W
2870 4988 PD
60 W
2870 4987 PD
60 W
2870 4717 PD
60 W
2870 4958 PD
60 W
2870 4974 PD
60 W
2870 4584 PD
60 W
2870 4588 PD
60 W
2870 4942 PD
60 W
2870 4974 PD
60 W
2870 4988 PD
60 W
2870 4815 PD
60 W
2870 4978 PD
60 W
2870 4958 PD
60 W
2870 4868 PD
60 W
2870 4987 PD
60 W
2870 4889 PD
60 W
2870 4409 PD
60 W
2870 4575 PD
60 W
2870 4893 PD
60 W
2870 4969 PD
60 W
2870 4780 PD
60 W
2870 4971 PD
60 W
2870 4986 PD
60 W
2870 4887 PD
60 W
2870 4836 PD
60 W
2870 4409 PD
60 W
2870 4939 PD
60 W
2870 4868 PD
60 W
2870 4980 PD
60 W
2870 4839 PD
60 W
2870 4918 PD
60 W
2870 4428 PD
60 W
2870 4568 PD
60 W
2870 4978 PD
60 W
2870 4454 PD
60 W
2870 4948 PD
60 W
2870 4931 PD
60 W
2870 4765 PD
60 W
2870 4948 PD
60 W
2870 4884 PD
60 W
2870 4988 PD
60 W
2870 4926 PD
60 W
2870 4988 PD
60 W
2870 4927 PD
60 W
2870 4802 PD
60 W
2870 4988 PD
60 W
2870 4876 PD
60 W
2870 4936 PD
60 W
2870 4924 PD
60 W
2870 4492 PD
60 W
2870 4432 PD
60 W
2870 4938 PD
60 W
2870 4979 PD
60 W
2870 4966 PD
60 W
2870 4195 PD
60 W
2870 4938 PD
60 W
2870 4427 PD
60 W
2870 4841 PD
60 W
2870 4736 PD
60 W
2870 4883 PD
60 W
2870 4974 PD
60 W
2870 4782 PD
60 W
2870 4980 PD
60 W
2870 4887 PD
60 W
2870 4628 PD
60 W
2870 4964 PD
60 W
2870 4708 PD
60 W
2870 4931 PD
60 W
2870 4860 PD
60 W
2870 4721 PD
60 W
2870 4914 PD
60 W
2870 4979 PD
60 W
2870 4961 PD
60 W
2870 4981 PD
60 W
2870 4916 PD
60 W
2870 4850 PD
60 W
2870 4930 PD
60 W
2870 4985 PD
60 W
2870 4950 PD
60 W
2870 4921 PD
60 W
2870 4742 PD
60 W
2870 4986 PD
60 W
2870 4988 PD
60 W
2870 4984 PD
60 W
2870 4985 PD
60 W
2870 4983 PD
60 W
2870 4912 PD
60 W
2870 4988 PD
60 W
2870 4937 PD
60 W
2870 4932 PD
60 W
2870 4930 PD
60 W
2870 4987 PD
60 W
2870 4964 PD
60 W
2870 4832 PD
60 W
2870 4741 PD
60 W
2870 4764 PD
60 W
2870 4908 PD
60 W
2870 4843 PD
60 W
2870 4793 PD
60 W
2870 4939 PD
60 W
2870 4924 PD
60 W
2870 4893 PD
60 W
2870 4749 PD
60 W
2870 4470 PD
60 W
2870 4798 PD
60 W
2870 4921 PD
60 W
2870 4947 PD
60 W
2870 4975 PD
60 W
2870 4986 PD
60 W
2870 4968 PD
60 W
2870 4957 PD
60 W
2870 4623 PD
60 W
2870 4955 PD
60 W
2870 4903 PD
60 W
2870 4987 PD
60 W
2870 4288 PD
60 W
2870 4988 PD
60 W
2870 4972 PD
60 W
2870 4687 PD
60 W
2870 4981 PD
60 W
2870 4901 PD
60 W
2870 4939 PD
60 W
2870 4988 PD
60 W
2871 4957 PD
60 W
2872 4873 PD
60 W
2872 4923 PD
60 W
2873 4905 PD
60 W
2875 4679 PD
60 W
2875 4513 PD
60 W
2875 4981 PD
60 W
2876 4128 PD
60 W
2876 4723 PD
60 W
2877 4538 PD
60 W
2877 4412 PD
60 W
2878 4532 PD
60 W
2879 4331 PD
60 W
2879 4727 PD
60 W
2880 4898 PD
60 W
2880 4500 PD
60 W
2880 4717 PD
60 W
2880 4790 PD
60 W
2880 4985 PD
60 W
2881 4794 PD
60 W
2882 4922 PD
60 W
2883 4970 PD
60 W
2884 4749 PD
60 W
2885 4819 PD
60 W
2886 4651 PD
60 W
2887 4760 PD
60 W
2887 4986 PD
60 W
2887 4928 PD
60 W
2888 4954 PD
60 W
2888 4794 PD
60 W
2888 4843 PD
60 W
2888 4967 PD
60 W
2890 4859 PD
60 W
2890 4670 PD
60 W
2891 4986 PD
60 W
2891 4980 PD
60 W
2891 4783 PD
60 W
2892 4841 PD
60 W
2892 4678 PD
60 W
2892 4739 PD
60 W
2892 4501 PD
60 W
2893 4812 PD
60 W
2893 4619 PD
60 W
2894 4895 PD
60 W
2896 4650 PD
60 W
2896 4804 PD
60 W
2896 4988 PD
60 W
2899 4988 PD
60 W
2900 4792 PD
60 W
2900 4985 PD
60 W
2900 3486 PD
60 W
2900 4788 PD
60 W
2902 4776 PD
60 W
2902 4983 PD
60 W
2903 4433 PD
60 W
2904 4886 PD
60 W
2904 4958 PD
60 W
2905 4513 PD
60 W
2906 4847 PD
60 W
2906 4568 PD
60 W
2907 4824 PD
60 W
2907 4887 PD
60 W
2908 4891 PD
60 W
2908 4872 PD
60 W
2908 4074 PD
60 W
2910 4723 PD
60 W
2910 4860 PD
60 W
2911 4965 PD
60 W
2911 4740 PD
60 W
2914 4658 PD
60 W
2916 4929 PD
60 W
2917 4641 PD
60 W
2917 4850 PD
60 W
2917 4711 PD
60 W
2917 4694 PD
60 W
2918 4526 PD
60 W
2918 4775 PD
60 W
2919 4987 PD
60 W
2919 4874 PD
60 W
2922 2782 PD
60 W
2922 4750 PD
60 W
2923 4942 PD
60 W
2923 4411 PD
60 W
2924 4806 PD
60 W
2925 4431 PD
60 W
2926 4813 PD
60 W
2926 4988 PD
60 W
2927 4695 PD
60 W
2927 4434 PD
60 W
2928 4539 PD
60 W
2928 4722 PD
60 W
2929 4858 PD
60 W
2932 4588 PD
60 W
2932 4341 PD
60 W
2933 4919 PD
60 W
2934 4823 PD
60 W
2935 4830 PD
60 W
2935 4350 PD
60 W
2937 4628 PD
60 W
2937 4794 PD
60 W
2938 4921 PD
60 W
2938 4903 PD
60 W
2939 4880 PD
60 W
2939 4167 PD
60 W
2941 4475 PD
60 W
2943 4968 PD
60 W
2943 4985 PD
60 W
2943 4944 PD
60 W
2944 4982 PD
60 W
2945 4977 PD
60 W
2945 4380 PD
60 W
2945 4949 PD
60 W
2945 4969 PD
60 W
2948 4656 PD
60 W
2948 4825 PD
60 W
2949 4985 PD
60 W
2949 4238 PD
60 W
2949 4983 PD
60 W
2949 4616 PD
60 W
2952 4567 PD
60 W
2952 4847 PD
60 W
2952 4292 PD
60 W
2953 4834 PD
60 W
2953 4979 PD
60 W
2954 4817 PD
60 W
2957 3286 PD
60 W
2957 4909 PD
60 W
2957 4608 PD
60 W
2958 4440 PD
60 W
2958 4886 PD
60 W
2959 4120 PD
60 W
2960 4953 PD
60 W
2960 4845 PD
60 W
2962 4711 PD
60 W
2964 4791 PD
60 W
2965 4529 PD
60 W
2966 3931 PD
60 W
2967 4100 PD
60 W
2967 4835 PD
60 W
2968 4984 PD
60 W
2968 4924 PD
60 W
2969 4636 PD
60 W
2969 4988 PD
60 W
2970 4867 PD
60 W
2970 4914 PD
60 W
2971 3993 PD
60 W
2971 4936 PD
60 W
2972 4490 PD
60 W
2972 4895 PD
60 W
2973 4917 PD
60 W
2974 4425 PD
60 W
2974 4845 PD
60 W
2974 4718 PD
60 W
2976 4835 PD
60 W
2976 4376 PD
60 W
2976 4610 PD
60 W
2977 4908 PD
60 W
2977 3219 PD
60 W
2978 4755 PD
60 W
2978 4312 PD
60 W
2979 4178 PD
60 W
2980 4657 PD
60 W
2980 4930 PD
60 W
2981 4952 PD
60 W
2984 4871 PD
60 W
2984 4779 PD
60 W
2989 4598 PD
60 W
2989 4729 PD
60 W
2989 4203 PD
60 W
2990 4875 PD
60 W
2990 4988 PD
60 W
2990 4979 PD
60 W
2991 4928 PD
60 W
2992 4839 PD
60 W
2992 4829 PD
60 W
2993 4584 PD
60 W
2993 4861 PD
60 W
2993 4645 PD
60 W
2994 4988 PD
60 W
2994 4945 PD
60 W
2995 4252 PD
60 W
2996 4526 PD
gr

gs 1029 468 6139 5087 MR c np
gr

gs 1158 384 5494 4786 MR c np
60 W
2998 4869 PD
60 W
3000 4953 PD
60 W
3000 4809 PD
60 W
3001 4959 PD
60 W
3004 4892 PD
60 W
3004 4705 PD
60 W
3005 4212 PD
60 W
3006 4776 PD
60 W
3008 4502 PD
60 W
3009 4914 PD
60 W
3010 4902 PD
60 W
3011 4784 PD
60 W
3013 4677 PD
60 W
3013 3537 PD
60 W
3015 4961 PD
60 W
3016 4690 PD
60 W
3017 4249 PD
gr

gs 1029 468 6139 5087 MR c np
gr

gs 1158 384 5494 4786 MR c np
60 W
3018 4834 PD
60 W
3018 3823 PD
60 W
3019 4810 PD
60 W
3021 4973 PD
60 W
3023 4938 PD
60 W
3023 4504 PD
60 W
3024 4703 PD
60 W
3028 4753 PD
60 W
3030 4931 PD
60 W
3031 4877 PD
60 W
3034 4941 PD
60 W
3035 3544 PD
60 W
3035 4686 PD
60 W
3035 4606 PD
60 W
3036 4949 PD
60 W
3037 3579 PD
60 W
3038 4960 PD
60 W
3038 4961 PD
60 W
3038 3839 PD
60 W
3039 2077 PD
60 W
3039 4347 PD
60 W
3040 3082 PD
60 W
3042 4662 PD
60 W
3042 4984 PD
60 W
3044 4924 PD
60 W
3045 4915 PD
60 W
3045 4984 PD
60 W
3046 4263 PD
60 W
3047 4869 PD
60 W
3050 4988 PD
60 W
3052 4771 PD
60 W
3052 4876 PD
60 W
3054 4604 PD
60 W
3054 4248 PD
60 W
3055 4360 PD
60 W
3055 4774 PD
60 W
3055 3511 PD
60 W
3060 4666 PD
60 W
3060 4897 PD
60 W
3060 4984 PD
60 W
3060 3918 PD
60 W
3061 4972 PD
60 W
3064 3075 PD
60 W
3064 4927 PD
60 W
3066 4778 PD
60 W
3067 4670 PD
60 W
3068 4586 PD
60 W
3068 4772 PD
60 W
3069 4977 PD
60 W
3072 4655 PD
60 W
3073 4825 PD
60 W
3075 4664 PD
60 W
3075 4815 PD
60 W
3076 4703 PD
60 W
3077 4625 PD
60 W
3078 4055 PD
60 W
3079 3953 PD
60 W
3084 4757 PD
60 W
3084 4799 PD
60 W
3084 4883 PD
60 W
3085 3171 PD
60 W
3087 4931 PD
60 W
3087 4629 PD
60 W
3089 4582 PD
60 W
3089 4977 PD
60 W
3089 4795 PD
60 W
3090 3480 PD
60 W
3091 3909 PD
60 W
3091 4927 PD
60 W
3091 4516 PD
60 W
3092 3882 PD
60 W
3094 4698 PD
60 W
3094 4532 PD
60 W
3096 4920 PD
60 W
3096 4820 PD
60 W
3097 4091 PD
60 W
3099 4561 PD
60 W
3099 4695 PD
60 W
3104 4760 PD
60 W
3106 4682 PD
60 W
3107 3705 PD
60 W
3107 4930 PD
60 W
3109 4709 PD
60 W
3113 3941 PD
60 W
3113 4988 PD
60 W
3113 3475 PD
60 W
3115 3535 PD
60 W
3115 4558 PD
60 W
3116 4067 PD
60 W
3117 4934 PD
60 W
3117 4678 PD
60 W
3118 4947 PD
60 W
3121 4872 PD
60 W
3122 4160 PD
60 W
3123 4544 PD
60 W
3124 4886 PD
60 W
3126 3479 PD
60 W
3128 4783 PD
60 W
3135 4522 PD
60 W
3135 4983 PD
60 W
3137 4957 PD
60 W
3140 4442 PD
60 W
3141 4181 PD
60 W
3142 4636 PD
60 W
3143 4691 PD
60 W
3143 4881 PD
60 W
3144 4914 PD
60 W
3145 4100 PD
60 W
3146 4775 PD
60 W
3148 4632 PD
60 W
3150 4757 PD
60 W
3150 4787 PD
60 W
3150 4492 PD
60 W
3152 4615 PD
60 W
3152 4525 PD
60 W
3154 4974 PD
60 W
3155 4963 PD
60 W
3156 4475 PD
60 W
3159 3621 PD
60 W
3160 4863 PD
60 W
3163 3979 PD
60 W
3166 4127 PD
60 W
3167 4230 PD
60 W
3168 4495 PD
60 W
3170 565 PD
60 W
3170 4802 PD
60 W
3173 4671 PD
60 W
3174 3885 PD
60 W
3175 4104 PD
60 W
3175 4510 PD
60 W
3175 4924 PD
60 W
3175 4716 PD
60 W
3176 4822 PD
60 W
3177 3893 PD
60 W
3178 3022 PD
60 W
3180 4794 PD
60 W
3181 4726 PD
60 W
3181 4395 PD
60 W
3182 4508 PD
60 W
3187 3961 PD
60 W
3188 4610 PD
60 W
3190 3914 PD
60 W
3191 4670 PD
60 W
3193 4716 PD
60 W
3204 4572 PD
60 W
3204 4007 PD
60 W
3204 4963 PD
60 W
3206 4983 PD
60 W
3206 3624 PD
60 W
3208 3727 PD
60 W
3209 4979 PD
60 W
3212 4529 PD
60 W
3214 4397 PD
60 W
3216 4014 PD
60 W
3217 3748 PD
60 W
3220 4615 PD
60 W
3226 4339 PD
60 W
3229 4693 PD
60 W
3230 4901 PD
60 W
3231 4341 PD
60 W
3232 4295 PD
60 W
3234 4620 PD
60 W
3235 4916 PD
60 W
3237 4418 PD
60 W
3240 4193 PD
60 W
3245 4724 PD
60 W
3245 4486 PD
60 W
3245 4006 PD
60 W
3247 4406 PD
60 W
3248 4797 PD
60 W
3249 4976 PD
60 W
3250 4283 PD
60 W
3255 4548 PD
60 W
3256 3816 PD
60 W
3257 4449 PD
60 W
3257 4265 PD
60 W
3263 4865 PD
60 W
3263 2318 PD
60 W
3264 4629 PD
60 W
3265 4894 PD
60 W
3267 4090 PD
60 W
3268 4743 PD
60 W
3268 4812 PD
60 W
3270 3423 PD
60 W
3274 3805 PD
60 W
3277 4376 PD
60 W
3277 4839 PD
60 W
3278 3195 PD
60 W
3279 4360 PD
60 W
3279 4981 PD
60 W
3280 4867 PD
60 W
3280 4840 PD
60 W
3282 4824 PD
60 W
3284 4820 PD
60 W
3285 4344 PD
60 W
3292 3598 PD
60 W
3293 4802 PD
60 W
3296 4388 PD
60 W
3298 3038 PD
60 W
3308 4658 PD
60 W
3308 4802 PD
60 W
3309 4209 PD
60 W
3318 4121 PD
60 W
3319 4093 PD
60 W
3327 4684 PD
60 W
3328 4224 PD
60 W
3330 4971 PD
60 W
3334 4278 PD
60 W
3334 4080 PD
60 W
3337 4258 PD
60 W
3339 4205 PD
60 W
3345 4167 PD
60 W
3350 565 PD
60 W
3354 3401 PD
60 W
3356 565 PD
60 W
3358 4254 PD
60 W
3359 4469 PD
60 W
3361 4890 PD
60 W
3361 1710 PD
60 W
3375 4019 PD
60 W
3377 4363 PD
60 W
3378 4186 PD
60 W
3379 4286 PD
60 W
3379 4795 PD
60 W
3382 4561 PD
60 W
3386 3533 PD
60 W
3386 2637 PD
60 W
3393 4178 PD
60 W
3394 1965 PD
60 W
3398 3682 PD
60 W
3400 4460 PD
60 W
3400 3560 PD
60 W
3407 4508 PD
60 W
3407 3714 PD
60 W
3408 4409 PD
60 W
3412 4393 PD
60 W
3417 3734 PD
60 W
3422 3561 PD
60 W
3424 4137 PD
60 W
3430 4268 PD
60 W
3433 4988 PD
60 W
3434 4511 PD
60 W
3435 3729 PD
60 W
3447 3680 PD
60 W
3457 4673 PD
60 W
3457 2811 PD
60 W
3459 4828 PD
60 W
3464 4754 PD
60 W
3467 4667 PD
60 W
3475 4404 PD
60 W
3478 4338 PD
60 W
3482 3583 PD
60 W
3485 4571 PD
60 W
3486 3415 PD
60 W
3487 3184 PD
60 W
3488 4108 PD
60 W
3498 565 PD
60 W
3506 4044 PD
60 W
3509 4114 PD
60 W
3511 565 PD
60 W
3514 565 PD
60 W
3519 4290 PD
60 W
3521 4636 PD
60 W
3524 3658 PD
60 W
3540 565 PD
60 W
3543 4265 PD
60 W
3545 4983 PD
60 W
3546 3433 PD
60 W
3555 4413 PD
60 W
3564 4216 PD
60 W
3568 3615 PD
60 W
3582 4504 PD
60 W
3583 2825 PD
60 W
3592 4512 PD
60 W
3595 4645 PD
60 W
3598 3450 PD
60 W
3604 4857 PD
60 W
3606 3338 PD
60 W
3607 4249 PD
60 W
3609 2878 PD
60 W
3624 3035 PD
60 W
3630 4940 PD
60 W
3636 4711 PD
60 W
3646 4244 PD
60 W
3649 4395 PD
60 W
3657 4859 PD
60 W
3674 4487 PD
60 W
3679 4019 PD
60 W
3686 4018 PD
60 W
3693 4835 PD
60 W
3694 3143 PD
60 W
3697 4937 PD
60 W
3725 3608 PD
60 W
3732 4655 PD
60 W
3733 2586 PD
60 W
3751 565 PD
60 W
3756 4727 PD
60 W
3782 3834 PD
60 W
3797 4850 PD
60 W
3804 3284 PD
60 W
3806 4335 PD
60 W
3809 4344 PD
60 W
3817 3923 PD
60 W
3827 2746 PD
60 W
3855 3815 PD
60 W
3855 3525 PD
60 W
3857 4595 PD
60 W
3868 4494 PD
60 W
3893 2629 PD
gr

gs 1029 468 6139 5087 MR c np
gr

gs 1158 384 5494 4786 MR c np
60 W
3898 4892 PD
60 W
3899 2405 PD
60 W
3903 3144 PD
60 W
3922 565 PD
60 W
3935 565 PD
60 W
3936 565 PD
60 W
3937 4283 PD
60 W
3943 2505 PD
60 W
3945 4047 PD
60 W
3947 4418 PD
60 W
3953 2771 PD
60 W
3958 3944 PD
60 W
3960 3483 PD
60 W
3966 2924 PD
60 W
3969 4117 PD
60 W
3970 3749 PD
60 W
3988 3275 PD
60 W
3991 3300 PD
60 W
4000 565 PD
60 W
4015 4574 PD
60 W
4040 4058 PD
60 W
4091 565 PD
60 W
4138 3956 PD
60 W
4143 3094 PD
60 W
4152 3450 PD
60 W
4153 565 PD
60 W
4161 2750 PD
60 W
4197 3602 PD
60 W
4214 3573 PD
60 W
4233 565 PD
60 W
4288 2235 PD
60 W
4296 3960 PD
60 W
4321 4725 PD
60 W
4336 2593 PD
60 W
4348 2204 PD
60 W
4350 565 PD
60 W
4411 1588 PD
60 W
4418 565 PD
60 W
4437 2351 PD
60 W
4458 2710 PD
60 W
4490 2776 PD
60 W
4505 3334 PD
60 W
4541 565 PD
60 W
4544 565 PD
60 W
4553 4151 PD
60 W
4594 3757 PD
60 W
4616 2684 PD
60 W
4617 3757 PD
60 W
4622 565 PD
60 W
4667 2471 PD
60 W
4788 3546 PD
60 W
4815 565 PD
60 W
4931 2352 PD
60 W
4981 565 PD
60 W
5054 565 PD
60 W
5066 565 PD
60 W
5586 2100 PD
60 W
5627 565 PD
60 W
5739 3418 PD
60 W
6470 565 PD
gr

gs 1029 468 6139 5087 MR c np
gr

%%IncludeResource: font Helvetica
/Helvetica /ISOLatin1Encoding 216 FMSR

1512  352 mt 
(Hypergeometric k-mer enrichment p-value versus w1) s
3935 5913 mt 
(W1) s
 755 3790 mt  -90 rotate
(-log10\(p-value\)) s
90 rotate

end %%Color Dict

eplot
%%EndObject

epage
end

showpage

%%Trailer
%%EOF
