%!PS-Adobe-2.0 EPSF-1.2
%%Creator: MATLAB, The Mathworks, Inc. Version 7.6.0.324 (R2008a). Operating System: Linux 2.6.18.8-0.10-default #1 SMP Wed Jun 4 15:46:34 UTC 2008 x86_64.
%%Title: figs1/PCA_PLS2.eps
%%CreationDate: 03/08/2009  18:07:34
%%DocumentNeededFonts: Helvetica
%%DocumentProcessColors: Cyan Magenta Yellow Black
%%Extensions: CMYK
%%Pages: 1
%%BoundingBox:    31   161   595   647
%%EndComments

%%BeginProlog
% MathWorks dictionary
/MathWorks 160 dict begin
% definition operators
/bdef {bind def} bind def
/ldef {load def} bind def
/xdef {exch def} bdef
/xstore {exch store} bdef
% operator abbreviations
/c  /clip ldef
/cc /concat ldef
/cp /closepath ldef
/gr /grestore ldef
/gs /gsave ldef
/mt /moveto ldef
/np /newpath ldef
/cm /currentmatrix ldef
/sm /setmatrix ldef
/rm /rmoveto ldef
/rl /rlineto ldef
/s {show newpath} bdef
/sc {setcmykcolor} bdef
/sr /setrgbcolor ldef
/sg /setgray ldef
/w /setlinewidth ldef
/j /setlinejoin ldef
/cap /setlinecap ldef
/rc {rectclip} bdef
/rf {rectfill} bdef
% page state control
/pgsv () def
/bpage {/pgsv save def} bdef
/epage {pgsv restore} bdef
/bplot /gsave ldef
/eplot {stroke grestore} bdef
% orientation switch
/portraitMode 0 def /landscapeMode 1 def /rotateMode 2 def
% coordinate system mappings
/dpi2point 0 def
% font control
/FontSize 0 def
/FMS {/FontSize xstore findfont [FontSize 0 0 FontSize neg 0 0]
  makefont setfont} bdef
/reencode {exch dup where {pop load} {pop StandardEncoding} ifelse
  exch dup 3 1 roll findfont dup length dict begin
  { 1 index /FID ne {def}{pop pop} ifelse } forall
  /Encoding exch def currentdict end definefont pop} bdef
/isroman {findfont /CharStrings get /Agrave known} bdef
/FMSR {3 1 roll 1 index dup isroman {reencode} {pop pop} ifelse
  exch FMS} bdef
/csm {1 dpi2point div -1 dpi2point div scale neg translate
 dup landscapeMode eq {pop -90 rotate}
  {rotateMode eq {90 rotate} if} ifelse} bdef
% line types: solid, dotted, dashed, dotdash
/SO { [] 0 setdash } bdef
/DO { [.5 dpi2point mul 4 dpi2point mul] 0 setdash } bdef
/DA { [6 dpi2point mul] 0 setdash } bdef
/DD { [.5 dpi2point mul 4 dpi2point mul 6 dpi2point mul 4
  dpi2point mul] 0 setdash } bdef
% macros for lines and objects
/L {lineto stroke} bdef
/MP {3 1 roll moveto 1 sub {rlineto} repeat} bdef
/AP {{rlineto} repeat} bdef
/PDlw -1 def
/W {/PDlw currentlinewidth def setlinewidth} def
/PP {closepath eofill} bdef
/DP {closepath stroke} bdef
/MR {4 -2 roll moveto dup  0 exch rlineto exch 0 rlineto
  neg 0 exch rlineto closepath} bdef
/FR {MR stroke} bdef
/PR {MR fill} bdef
/L1i {{currentfile picstr readhexstring pop} image} bdef
/tMatrix matrix def
/MakeOval {newpath tMatrix currentmatrix pop translate scale
0 0 1 0 360 arc tMatrix setmatrix} bdef
/FO {MakeOval stroke} bdef
/PO {MakeOval fill} bdef
/PD {currentlinewidth 2 div 0 360 arc fill
   PDlw -1 eq not {PDlw w /PDlw -1 def} if} def
/FA {newpath tMatrix currentmatrix pop translate scale
  0 0 1 5 -2 roll arc tMatrix setmatrix stroke} bdef
/PA {newpath tMatrix currentmatrix pop	translate 0 0 moveto scale
  0 0 1 5 -2 roll arc closepath tMatrix setmatrix fill} bdef
/FAn {newpath tMatrix currentmatrix pop translate scale
  0 0 1 5 -2 roll arcn tMatrix setmatrix stroke} bdef
/PAn {newpath tMatrix currentmatrix pop translate 0 0 moveto scale
  0 0 1 5 -2 roll arcn closepath tMatrix setmatrix fill} bdef
/vradius 0 def /hradius 0 def /lry 0 def
/lrx 0 def /uly 0 def /ulx 0 def /rad 0 def
/MRR {/vradius xdef /hradius xdef /lry xdef /lrx xdef /uly xdef
  /ulx xdef newpath tMatrix currentmatrix pop ulx hradius add uly
  vradius add translate hradius vradius scale 0 0 1 180 270 arc 
  tMatrix setmatrix lrx hradius sub uly vradius add translate
  hradius vradius scale 0 0 1 270 360 arc tMatrix setmatrix
  lrx hradius sub lry vradius sub translate hradius vradius scale
  0 0 1 0 90 arc tMatrix setmatrix ulx hradius add lry vradius sub
  translate hradius vradius scale 0 0 1 90 180 arc tMatrix setmatrix
  closepath} bdef
/FRR {MRR stroke } bdef
/PRR {MRR fill } bdef
/MlrRR {/lry xdef /lrx xdef /uly xdef /ulx xdef /rad lry uly sub 2 div def
  newpath tMatrix currentmatrix pop ulx rad add uly rad add translate
  rad rad scale 0 0 1 90 270 arc tMatrix setmatrix lrx rad sub lry rad
  sub translate rad rad scale 0 0 1 270 90 arc tMatrix setmatrix
  closepath} bdef
/FlrRR {MlrRR stroke } bdef
/PlrRR {MlrRR fill } bdef
/MtbRR {/lry xdef /lrx xdef /uly xdef /ulx xdef /rad lrx ulx sub 2 div def
  newpath tMatrix currentmatrix pop ulx rad add uly rad add translate
  rad rad scale 0 0 1 180 360 arc tMatrix setmatrix lrx rad sub lry rad
  sub translate rad rad scale 0 0 1 0 180 arc tMatrix setmatrix
  closepath} bdef
/FtbRR {MtbRR stroke } bdef
/PtbRR {MtbRR fill } bdef
/stri 6 array def /dtri 6 array def
/smat 6 array def /dmat 6 array def
/tmat1 6 array def /tmat2 6 array def /dif 3 array def
/asub {/ind2 exch def /ind1 exch def dup dup
  ind1 get exch ind2 get sub exch } bdef
/tri_to_matrix {
  2 0 asub 3 1 asub 4 0 asub 5 1 asub
  dup 0 get exch 1 get 7 -1 roll astore } bdef
/compute_transform {
  dmat dtri tri_to_matrix tmat1 invertmatrix 
  smat stri tri_to_matrix tmat2 concatmatrix } bdef
/ds {stri astore pop} bdef
/dt {dtri astore pop} bdef
/db {2 copy /cols xdef /rows xdef mul dup 3 mul string
  currentfile exch readhexstring pop
  dup 0 3 index getinterval /rbmap xdef
  dup 2 index dup getinterval /gbmap xdef
  1 index dup 2 mul exch getinterval /bbmap xdef pop pop}bdef
/it {gs np dtri aload pop moveto lineto lineto cp c
  cols rows 8 compute_transform 
  rbmap gbmap bbmap true 3 colorimage gr}bdef
/il {newpath moveto lineto stroke}bdef
currentdict end def
%%EndProlog

%%BeginSetup
MathWorks begin

0 cap

end
%%EndSetup

%%Page: 1 1
%%BeginPageSetup
%%PageBoundingBox:    31   161   595   647
MathWorks begin
bpage
%%EndPageSetup

%%BeginObject: obj1
bplot

/dpi2point 12 def
portraitMode -0288 7872 csm

  667   106  6766  5833 MR c np
76 dict begin %Colortable dictionary
/c0 { 0.000000 0.000000 0.000000 sr} bdef
/c1 { 1.000000 1.000000 1.000000 sr} bdef
/c2 { 0.900000 0.000000 0.000000 sr} bdef
/c3 { 0.000000 0.820000 0.000000 sr} bdef
/c4 { 0.000000 0.000000 0.800000 sr} bdef
/c5 { 0.910000 0.820000 0.320000 sr} bdef
/c6 { 1.000000 0.260000 0.820000 sr} bdef
/c7 { 0.000000 0.820000 0.820000 sr} bdef
c0
1 j
1 sg
   0    0 7920 6241 PR
6 w
0 5086 6138 0 0 -5086 1029 5554 4 MP
PP
-6138 0 0 5086 6138 0 0 -5086 1029 5554 5 MP stroke
4 w
DO
SO
6 w
0 sg
1029 5554 mt 7167 5554 L
1029  468 mt 7167  468 L
1029 5554 mt 1029  468 L
7167 5554 mt 7167  468 L
1029 5554 mt 7167 5554 L
1029 5554 mt 1029  468 L
1029 5554 mt 1029 5492 L
1029  468 mt 1029  529 L
%%IncludeResource: font Helvetica
/Helvetica /ISOLatin1Encoding 120 FMSR

 996 5699 mt 
(1) s
1587 5554 mt 1587 5492 L
1587  468 mt 1587  529 L
1554 5699 mt 
(2) s
2145 5554 mt 2145 5492 L
2145  468 mt 2145  529 L
2112 5699 mt 
(3) s
2703 5554 mt 2703 5492 L
2703  468 mt 2703  529 L
2670 5699 mt 
(4) s
3261 5554 mt 3261 5492 L
3261  468 mt 3261  529 L
3228 5699 mt 
(5) s
3819 5554 mt 3819 5492 L
3819  468 mt 3819  529 L
3786 5699 mt 
(6) s
4377 5554 mt 4377 5492 L
4377  468 mt 4377  529 L
4344 5699 mt 
(7) s
4935 5554 mt 4935 5492 L
4935  468 mt 4935  529 L
4902 5699 mt 
(8) s
5493 5554 mt 5493 5492 L
5493  468 mt 5493  529 L
5460 5699 mt 
(9) s
6051 5554 mt 6051 5492 L
6051  468 mt 6051  529 L
5985 5699 mt 
(10) s
6609 5554 mt 6609 5492 L
6609  468 mt 6609  529 L
6543 5699 mt 
(11) s
7167 5554 mt 7167 5492 L
7167  468 mt 7167  529 L
7101 5699 mt 
(12) s
1029 5554 mt 1090 5554 L
7167 5554 mt 7105 5554 L
 791 5598 mt 
(-40) s
1029 4918 mt 1090 4918 L
7167 4918 mt 7105 4918 L
 791 4962 mt 
(-30) s
1029 4282 mt 1090 4282 L
7167 4282 mt 7105 4282 L
 791 4326 mt 
(-20) s
1029 3646 mt 1090 3646 L
7167 3646 mt 7105 3646 L
 791 3690 mt 
(-10) s
1029 3011 mt 1090 3011 L
7167 3011 mt 7105 3011 L
 928 3055 mt 
(0) s
1029 2375 mt 1090 2375 L
7167 2375 mt 7105 2375 L
 861 2419 mt 
(10) s
1029 1739 mt 1090 1739 L
7167 1739 mt 7105 1739 L
 861 1783 mt 
(20) s
1029 1103 mt 1090 1103 L
7167 1103 mt 7105 1103 L
 861 1147 mt 
(30) s
1029  468 mt 1090  468 L
7167  468 mt 7105  468 L
 861  512 mt 
(40) s
1029 5554 mt 7167 5554 L
1029  468 mt 7167  468 L
1029 5554 mt 1029  468 L
7167 5554 mt 7167  468 L
gs 1029 468 6139 5087 MR c np
60 w
0.5 sg
558 77 558 56 558 -24 558 -85 558 -380 558 -574 558 -547 558 -212 
558 166 558 -264 558 69 1029 2474 12 MP stroke
gr

60 w
0.5 sg
gs 667 261 6863 2645 MR c np
100 W
1029 2474 PD
100 W
1587 2543 PD
100 W
2145 2279 PD
100 W
2703 2445 PD
100 W
3261 2233 PD
100 W
3819 1686 PD
100 W
4377 1112 PD
100 W
4935 732 PD
100 W
5493 647 PD
100 W
6051 623 PD
100 W
6609 679 PD
100 W
7167 756 PD
gr

gs 1029 468 6139 5087 MR c np
0 sg
558 36 558 88 558 124 558 388 558 397 558 201 558 -20 558 -270 
558 -400 558 -395 558 -148 1029 2449 12 MP stroke
gr

0 sg
gs 667 854 6863 1959 MR c np
100 W
1029 2449 PD
100 W
1587 2301 PD
100 W
2145 1906 PD
100 W
2703 1506 PD
100 W
3261 1236 PD
100 W
3819 1216 PD
100 W
4377 1417 PD
100 W
4935 1814 PD
100 W
5493 2202 PD
100 W
6051 2326 PD
100 W
6609 2414 PD
100 W
7167 2450 PD
gr

gs 1029 468 6139 5087 MR c np
/c8 { 0.300000 0.300000 0.700000 sr} bdef
c8
558 7 558 -62 558 -3 558 65 558 135 558 517 558 468 558 308 
558 151 558 53 558 -16 1029 1511 12 MP stroke
gr

c8
gs 667 1133 6863 2422 MR c np
100 W
1029 1511 PD
100 W
1587 1495 PD
100 W
2145 1548 PD
100 W
2703 1699 PD
100 W
3261 2007 PD
100 W
3819 2475 PD
100 W
4377 2992 PD
100 W
4935 3127 PD
100 W
5493 3192 PD
100 W
6051 3189 PD
100 W
6609 3127 PD
100 W
7167 3134 PD
gr

gs 1029 468 6139 5087 MR c np
/c9 { 0.300000 0.700000 0.300000 sr} bdef
c9
558 -10 558 53 558 201 558 476 558 566 558 372 558 322 558 -218 
558 -566 558 -449 558 -102 1029 3650 12 MP stroke
gr

c9
gs 667 1953 6863 2715 MR c np
100 W
1029 3650 PD
100 W
1587 3548 PD
100 W
2145 3099 PD
100 W
2703 2533 PD
100 W
3261 2315 PD
100 W
3819 2637 PD
100 W
4377 3009 PD
100 W
4935 3575 PD
100 W
5493 4051 PD
100 W
6051 4252 PD
100 W
6609 4305 PD
100 W
7167 4295 PD
gr

gs 1029 468 6139 5087 MR c np
gr

0 sg
%%IncludeResource: font Helvetica
/Helvetica /ISOLatin1Encoding 168 FMSR

3705 5877 mt 
(Time point) s
%%IncludeResource: font Helvetica
/Helvetica /ISOLatin1Encoding 192 FMSR

1604  357 mt 
(The first four PLS weight vectors in gene expression space) s
%%IncludeResource: font Helvetica
/Helvetica /ISOLatin1Encoding 120 FMSR

1012 5597 mt 
( ) s
7151  510 mt 
( ) s
6 w
1 sg
0 846 683 0 0 -846 1089 1374 4 MP
PP
-683 0 0 846 683 0 0 -846 1089 1374 5 MP stroke
4 w
DO
SO
6 w
0 sg
1089 1374 mt 1772 1374 L
1089  528 mt 1772  528 L
1089 1374 mt 1089  528 L
1772 1374 mt 1772  528 L
1089 1374 mt 1772 1374 L
1089 1374 mt 1089  528 L
1089 1374 mt 1772 1374 L
1089  528 mt 1772  528 L
1089 1374 mt 1089  528 L
1772 1374 mt 1772  528 L
%%IncludeResource: font Helvetica
/Helvetica /ISOLatin1Encoding 168 FMSR

1549  708 mt 
(c1) s
gs 1089 528 684 847 MR c np
60 w
0.5 sg
353 0 1159 648 2 MP stroke
gr

60 w
0.5 sg
gs 974 286 725 725 MR c np
100 W
1336 648 PD
gr

gs 1089 528 684 847 MR c np
gr

0 sg
1549  910 mt 
(c2) s
gs 1089 528 684 847 MR c np
353 0 1159 850 2 MP stroke
gr

gs 974 488 725 725 MR c np
100 W
1336 850 PD
gr

gs 1089 528 684 847 MR c np
gr

1549 1113 mt 
(c3) s
gs 1089 528 684 847 MR c np
c8
353 0 1159 1051 2 MP stroke
gr

c8
gs 974 689 725 725 MR c np
100 W
1336 1051 PD
gr

gs 1089 528 684 847 MR c np
gr

0 sg
1549 1315 mt 
(c4) s
gs 1089 528 684 847 MR c np
c9
353 0 1159 1253 2 MP stroke
gr

c9
gs 974 891 725 725 MR c np
100 W
1336 1253 PD
gr

gs 1089 528 684 847 MR c np
6 w
gr

6 w

end %%Color Dict

eplot
%%EndObject

epage
end

showpage

%%Trailer
%%EOF
