%!PS-Adobe-2.0 EPSF-1.2
%%Creator: MATLAB, The Mathworks, Inc. Version 7.6.0.324 (R2008a). Operating System: Linux 2.6.18.8-0.10-default #1 SMP Wed Jun 4 15:46:34 UTC 2008 x86_64.
%%Title: figs1/PLS.eps
%%CreationDate: 03/08/2009  17:56:46
%%DocumentNeededFonts: Helvetica
%%DocumentProcessColors: Cyan Magenta Yellow Black
%%Extensions: CMYK
%%Pages: 1
%%BoundingBox:    22   161   592   642
%%EndComments

%%BeginProlog
% MathWorks dictionary
/MathWorks 160 dict begin
% definition operators
/bdef {bind def} bind def
/ldef {load def} bind def
/xdef {exch def} bdef
/xstore {exch store} bdef
% operator abbreviations
/c  /clip ldef
/cc /concat ldef
/cp /closepath ldef
/gr /grestore ldef
/gs /gsave ldef
/mt /moveto ldef
/np /newpath ldef
/cm /currentmatrix ldef
/sm /setmatrix ldef
/rm /rmoveto ldef
/rl /rlineto ldef
/s {show newpath} bdef
/sc {setcmykcolor} bdef
/sr /setrgbcolor ldef
/sg /setgray ldef
/w /setlinewidth ldef
/j /setlinejoin ldef
/cap /setlinecap ldef
/rc {rectclip} bdef
/rf {rectfill} bdef
% page state control
/pgsv () def
/bpage {/pgsv save def} bdef
/epage {pgsv restore} bdef
/bplot /gsave ldef
/eplot {stroke grestore} bdef
% orientation switch
/portraitMode 0 def /landscapeMode 1 def /rotateMode 2 def
% coordinate system mappings
/dpi2point 0 def
% font control
/FontSize 0 def
/FMS {/FontSize xstore findfont [FontSize 0 0 FontSize neg 0 0]
  makefont setfont} bdef
/reencode {exch dup where {pop load} {pop StandardEncoding} ifelse
  exch dup 3 1 roll findfont dup length dict begin
  { 1 index /FID ne {def}{pop pop} ifelse } forall
  /Encoding exch def currentdict end definefont pop} bdef
/isroman {findfont /CharStrings get /Agrave known} bdef
/FMSR {3 1 roll 1 index dup isroman {reencode} {pop pop} ifelse
  exch FMS} bdef
/csm {1 dpi2point div -1 dpi2point div scale neg translate
 dup landscapeMode eq {pop -90 rotate}
  {rotateMode eq {90 rotate} if} ifelse} bdef
% line types: solid, dotted, dashed, dotdash
/SO { [] 0 setdash } bdef
/DO { [.5 dpi2point mul 4 dpi2point mul] 0 setdash } bdef
/DA { [6 dpi2point mul] 0 setdash } bdef
/DD { [.5 dpi2point mul 4 dpi2point mul 6 dpi2point mul 4
  dpi2point mul] 0 setdash } bdef
% macros for lines and objects
/L {lineto stroke} bdef
/MP {3 1 roll moveto 1 sub {rlineto} repeat} bdef
/AP {{rlineto} repeat} bdef
/PDlw -1 def
/W {/PDlw currentlinewidth def setlinewidth} def
/PP {closepath eofill} bdef
/DP {closepath stroke} bdef
/MR {4 -2 roll moveto dup  0 exch rlineto exch 0 rlineto
  neg 0 exch rlineto closepath} bdef
/FR {MR stroke} bdef
/PR {MR fill} bdef
/L1i {{currentfile picstr readhexstring pop} image} bdef
/tMatrix matrix def
/MakeOval {newpath tMatrix currentmatrix pop translate scale
0 0 1 0 360 arc tMatrix setmatrix} bdef
/FO {MakeOval stroke} bdef
/PO {MakeOval fill} bdef
/PD {currentlinewidth 2 div 0 360 arc fill
   PDlw -1 eq not {PDlw w /PDlw -1 def} if} def
/FA {newpath tMatrix currentmatrix pop translate scale
  0 0 1 5 -2 roll arc tMatrix setmatrix stroke} bdef
/PA {newpath tMatrix currentmatrix pop	translate 0 0 moveto scale
  0 0 1 5 -2 roll arc closepath tMatrix setmatrix fill} bdef
/FAn {newpath tMatrix currentmatrix pop translate scale
  0 0 1 5 -2 roll arcn tMatrix setmatrix stroke} bdef
/PAn {newpath tMatrix currentmatrix pop translate 0 0 moveto scale
  0 0 1 5 -2 roll arcn closepath tMatrix setmatrix fill} bdef
/vradius 0 def /hradius 0 def /lry 0 def
/lrx 0 def /uly 0 def /ulx 0 def /rad 0 def
/MRR {/vradius xdef /hradius xdef /lry xdef /lrx xdef /uly xdef
  /ulx xdef newpath tMatrix currentmatrix pop ulx hradius add uly
  vradius add translate hradius vradius scale 0 0 1 180 270 arc 
  tMatrix setmatrix lrx hradius sub uly vradius add translate
  hradius vradius scale 0 0 1 270 360 arc tMatrix setmatrix
  lrx hradius sub lry vradius sub translate hradius vradius scale
  0 0 1 0 90 arc tMatrix setmatrix ulx hradius add lry vradius sub
  translate hradius vradius scale 0 0 1 90 180 arc tMatrix setmatrix
  closepath} bdef
/FRR {MRR stroke } bdef
/PRR {MRR fill } bdef
/MlrRR {/lry xdef /lrx xdef /uly xdef /ulx xdef /rad lry uly sub 2 div def
  newpath tMatrix currentmatrix pop ulx rad add uly rad add translate
  rad rad scale 0 0 1 90 270 arc tMatrix setmatrix lrx rad sub lry rad
  sub translate rad rad scale 0 0 1 270 90 arc tMatrix setmatrix
  closepath} bdef
/FlrRR {MlrRR stroke } bdef
/PlrRR {MlrRR fill } bdef
/MtbRR {/lry xdef /lrx xdef /uly xdef /ulx xdef /rad lrx ulx sub 2 div def
  newpath tMatrix currentmatrix pop ulx rad add uly rad add translate
  rad rad scale 0 0 1 180 360 arc tMatrix setmatrix lrx rad sub lry rad
  sub translate rad rad scale 0 0 1 0 180 arc tMatrix setmatrix
  closepath} bdef
/FtbRR {MtbRR stroke } bdef
/PtbRR {MtbRR fill } bdef
/stri 6 array def /dtri 6 array def
/smat 6 array def /dmat 6 array def
/tmat1 6 array def /tmat2 6 array def /dif 3 array def
/asub {/ind2 exch def /ind1 exch def dup dup
  ind1 get exch ind2 get sub exch } bdef
/tri_to_matrix {
  2 0 asub 3 1 asub 4 0 asub 5 1 asub
  dup 0 get exch 1 get 7 -1 roll astore } bdef
/compute_transform {
  dmat dtri tri_to_matrix tmat1 invertmatrix 
  smat stri tri_to_matrix tmat2 concatmatrix } bdef
/ds {stri astore pop} bdef
/dt {dtri astore pop} bdef
/db {2 copy /cols xdef /rows xdef mul dup 3 mul string
  currentfile exch readhexstring pop
  dup 0 3 index getinterval /rbmap xdef
  dup 2 index dup getinterval /gbmap xdef
  1 index dup 2 mul exch getinterval /bbmap xdef pop pop}bdef
/it {gs np dtri aload pop moveto lineto lineto cp c
  cols rows 8 compute_transform 
  rbmap gbmap bbmap true 3 colorimage gr}bdef
/il {newpath moveto lineto stroke}bdef
currentdict end def
%%EndProlog

%%BeginSetup
MathWorks begin

0 cap

end
%%EndSetup

%%Page: 1 1
%%BeginPageSetup
%%PageBoundingBox:    22   161   592   642
MathWorks begin
bpage
%%EndPageSetup

%%BeginObject: obj1
bplot

/dpi2point 12 def
portraitMode -0288 7872 csm

  555   161  6848  5778 MR c np
76 dict begin %Colortable dictionary
/c0 { 0.000000 0.000000 0.000000 sr} bdef
/c1 { 1.000000 1.000000 1.000000 sr} bdef
/c2 { 0.900000 0.000000 0.000000 sr} bdef
/c3 { 0.000000 0.820000 0.000000 sr} bdef
/c4 { 0.000000 0.000000 0.800000 sr} bdef
/c5 { 0.910000 0.820000 0.320000 sr} bdef
/c6 { 1.000000 0.260000 0.820000 sr} bdef
/c7 { 0.000000 0.820000 0.820000 sr} bdef
c0
1 j
1 sg
   0    0 7920 6241 PR
6 w
0 5086 6138 0 0 -5086 1029 5554 4 MP
PP
-6138 0 0 5086 6138 0 0 -5086 1029 5554 5 MP stroke
4 w
DO
SO
6 w
0 sg
1029 5554 mt 7167 5554 L
1029  468 mt 7167  468 L
1029 5554 mt 1029  468 L
7167 5554 mt 7167  468 L
1029 5554 mt 7167 5554 L
1029 5554 mt 1029  468 L
1029 5554 mt 1029 5492 L
1029  468 mt 1029  529 L
%%IncludeResource: font Helvetica
/Helvetica /ISOLatin1Encoding 120 FMSR

 996 5699 mt 
(0) s
1642 5554 mt 1642 5492 L
1642  468 mt 1642  529 L
1609 5699 mt 
(1) s
2256 5554 mt 2256 5492 L
2256  468 mt 2256  529 L
2223 5699 mt 
(2) s
2870 5554 mt 2870 5492 L
2870  468 mt 2870  529 L
2837 5699 mt 
(3) s
3484 5554 mt 3484 5492 L
3484  468 mt 3484  529 L
3451 5699 mt 
(4) s
4098 5554 mt 4098 5492 L
4098  468 mt 4098  529 L
4065 5699 mt 
(5) s
4711 5554 mt 4711 5492 L
4711  468 mt 4711  529 L
4678 5699 mt 
(6) s
5325 5554 mt 5325 5492 L
5325  468 mt 5325  529 L
5292 5699 mt 
(7) s
5939 5554 mt 5939 5492 L
5939  468 mt 5939  529 L
5906 5699 mt 
(8) s
6553 5554 mt 6553 5492 L
6553  468 mt 6553  529 L
6520 5699 mt 
(9) s
7167 5554 mt 7167 5492 L
7167  468 mt 7167  529 L
7101 5699 mt 
(10) s
1029 5554 mt 1090 5554 L
7167 5554 mt 7105 5554 L
 828 5598 mt 
(0.8) s
1029 4706 mt 1090 4706 L
7167 4706 mt 7105 4706 L
 828 4750 mt 
(0.9) s
1029 3858 mt 1090 3858 L
7167 3858 mt 7105 3858 L
 928 3902 mt 
(1) s
1029 3011 mt 1090 3011 L
7167 3011 mt 7105 3011 L
 828 3055 mt 
(1.1) s
1029 2163 mt 1090 2163 L
7167 2163 mt 7105 2163 L
 828 2207 mt 
(1.2) s
1029 1315 mt 1090 1315 L
7167 1315 mt 7105 1315 L
 828 1359 mt 
(1.3) s
1029 5554 mt 7167 5554 L
1029  468 mt 7167  468 L
1029 5554 mt 1029  468 L
7167 5554 mt 7167  468 L
gs 1029 468 6139 5087 MR c np
24 w
/c8 { 0.000000 0.000000 1.000000 sr} bdef
c8
614 -100 614 -130 614 -58 614 -140 613 -32 614 -217 614 28 614 83 
614 6 613 583 1029 3858 11 MP stroke
gr

24 w
c8
gs 763 3592 6671 1233 MR c np
80 W
1029 3858 PD
80 W
1642 4441 PD
80 W
2256 4447 PD
80 W
2870 4530 PD
80 W
3484 4558 PD
80 W
4098 4341 PD
80 W
4711 4309 PD
80 W
5325 4169 PD
80 W
5939 4111 PD
80 W
6553 3981 PD
80 W
7167 3881 PD
gr

gs 1029 468 6139 5087 MR c np
614 -171 614 -191 614 -108 614 -83 613 -214 614 -100 614 -310 614 -177 
614 -252 613 -555 1029 3903 11 MP stroke
gr

gs 907 1620 6383 2406 MR c np
 996 3870 mt 1062 3936 L
1062 3870 mt  996 3936 L
1609 3315 mt 1675 3381 L
1675 3315 mt 1609 3381 L
2223 3063 mt 2289 3129 L
2289 3063 mt 2223 3129 L
2837 2886 mt 2903 2952 L
2903 2886 mt 2837 2952 L
3451 2576 mt 3517 2642 L
3517 2576 mt 3451 2642 L
4065 2476 mt 4131 2542 L
4131 2476 mt 4065 2542 L
4678 2262 mt 4744 2328 L
4744 2262 mt 4678 2328 L
5292 2179 mt 5358 2245 L
5358 2179 mt 5292 2245 L
5906 2071 mt 5972 2137 L
5972 2071 mt 5906 2137 L
6520 1880 mt 6586 1946 L
6586 1880 mt 6520 1946 L
7134 1709 mt 7200 1775 L
7200 1709 mt 7134 1775 L
gr

gs 1029 468 6139 5087 MR c np
0 sg
614 -29 614 -19 614 7 614 -1 613 22 614 -64 614 78 614 46 
614 125 613 564 1029 3858 11 MP stroke
gr

0 sg
gs 763 3592 6671 1346 MR c np
80 W
1029 3858 PD
80 W
1642 4422 PD
80 W
2256 4547 PD
80 W
2870 4593 PD
80 W
3484 4671 PD
80 W
4098 4607 PD
80 W
4711 4629 PD
80 W
5325 4628 PD
80 W
5939 4635 PD
80 W
6553 4616 PD
80 W
7167 4587 PD
gr

gs 1029 468 6139 5087 MR c np
gr

%%IncludeResource: font Helvetica
/Helvetica /ISOLatin1Encoding 168 FMSR

3432 5877 mt 
(Number of factors) s
 736 4137 mt  -90 rotate
(Mean squared prediction error) s
90 rotate
%%IncludeResource: font Helvetica
/Helvetica /ISOLatin1Encoding 144 FMSR

1348  368 mt 
(Normalized mean squared prediction error on test data versu\
s number of latent factors) s
%%IncludeResource: font Helvetica
/Helvetica /ISOLatin1Encoding 120 FMSR

1012 5597 mt 
( ) s
7151  510 mt 
( ) s
6 w
1 sg
0 645 3079 0 0 -645 4029 1173 4 MP
PP
-3079 0 0 645 3079 0 0 -645 4029 1173 5 MP stroke
4 w
DO
SO
6 w
0 sg
4029 1173 mt 7108 1173 L
4029  528 mt 7108  528 L
4029 1173 mt 4029  528 L
7108 1173 mt 7108  528 L
4029 1173 mt 7108 1173 L
4029 1173 mt 4029  528 L
4029 1173 mt 7108 1173 L
4029  528 mt 7108  528 L
4029 1173 mt 4029  528 L
7108 1173 mt 7108  528 L
%%IncludeResource: font Helvetica
/Helvetica /ISOLatin1Encoding 168 FMSR

4495  708 mt 
(Standard PLS) s
gs 4029 528 3080 646 MR c np
24 w
c8
358 0 4100 648 2 MP stroke
gr

24 w
c8
gs 4013 382 533 533 MR c np
80 W
4279 648 PD
gr

gs 4029 528 3080 646 MR c np
gr

0 sg
4495  911 mt 
(Standard PLS on randomized data) s
gs 4029 528 3080 646 MR c np
c8
358 0 4100 850 2 MP stroke
gs 4157 728 245 245 MR c np
4246  817 mt 4312  883 L
4312  817 mt 4246  883 L
gr

gr

c8
0 sg
4495 1114 mt 
(Graph-regularized PLS) s
gs 4029 528 3080 646 MR c np
358 0 4100 1052 2 MP stroke
gr

gs 4013 786 533 533 MR c np
80 W
4279 1052 PD
gr

gs 4029 528 3080 646 MR c np
6 w
gr

6 w

end %%Color Dict

eplot
%%EndObject

epage
end

showpage

%%Trailer
%%EOF
