%!PS-Adobe-2.0 EPSF-1.2
%%Creator: MATLAB, The Mathworks, Inc. Version 7.6.0.324 (R2008a). Operating System: Linux 2.6.18.8-0.10-default #1 SMP Wed Jun 4 15:46:34 UTC 2008 x86_64.
%%Title: ../figs1/PLS_ind_time.eps
%%CreationDate: 03/26/2009  01:32:09
%%DocumentNeededFonts: Helvetica
%%DocumentProcessColors: Cyan Magenta Yellow Black
%%Extensions: CMYK
%%Pages: 1
%%BoundingBox:    74   183   538   616
%%EndComments

%%BeginProlog
% MathWorks dictionary
/MathWorks 160 dict begin
% definition operators
/bdef {bind def} bind def
/ldef {load def} bind def
/xdef {exch def} bdef
/xstore {exch store} bdef
% operator abbreviations
/c  /clip ldef
/cc /concat ldef
/cp /closepath ldef
/gr /grestore ldef
/gs /gsave ldef
/mt /moveto ldef
/np /newpath ldef
/cm /currentmatrix ldef
/sm /setmatrix ldef
/rm /rmoveto ldef
/rl /rlineto ldef
/s {show newpath} bdef
/sc {setcmykcolor} bdef
/sr /setrgbcolor ldef
/sg /setgray ldef
/w /setlinewidth ldef
/j /setlinejoin ldef
/cap /setlinecap ldef
/rc {rectclip} bdef
/rf {rectfill} bdef
% page state control
/pgsv () def
/bpage {/pgsv save def} bdef
/epage {pgsv restore} bdef
/bplot /gsave ldef
/eplot {stroke grestore} bdef
% orientation switch
/portraitMode 0 def /landscapeMode 1 def /rotateMode 2 def
% coordinate system mappings
/dpi2point 0 def
% font control
/FontSize 0 def
/FMS {/FontSize xstore findfont [FontSize 0 0 FontSize neg 0 0]
  makefont setfont} bdef
/reencode {exch dup where {pop load} {pop StandardEncoding} ifelse
  exch dup 3 1 roll findfont dup length dict begin
  { 1 index /FID ne {def}{pop pop} ifelse } forall
  /Encoding exch def currentdict end definefont pop} bdef
/isroman {findfont /CharStrings get /Agrave known} bdef
/FMSR {3 1 roll 1 index dup isroman {reencode} {pop pop} ifelse
  exch FMS} bdef
/csm {1 dpi2point div -1 dpi2point div scale neg translate
 dup landscapeMode eq {pop -90 rotate}
  {rotateMode eq {90 rotate} if} ifelse} bdef
% line types: solid, dotted, dashed, dotdash
/SO { [] 0 setdash } bdef
/DO { [.5 dpi2point mul 4 dpi2point mul] 0 setdash } bdef
/DA { [6 dpi2point mul] 0 setdash } bdef
/DD { [.5 dpi2point mul 4 dpi2point mul 6 dpi2point mul 4
  dpi2point mul] 0 setdash } bdef
% macros for lines and objects
/L {lineto stroke} bdef
/MP {3 1 roll moveto 1 sub {rlineto} repeat} bdef
/AP {{rlineto} repeat} bdef
/PDlw -1 def
/W {/PDlw currentlinewidth def setlinewidth} def
/PP {closepath eofill} bdef
/DP {closepath stroke} bdef
/MR {4 -2 roll moveto dup  0 exch rlineto exch 0 rlineto
  neg 0 exch rlineto closepath} bdef
/FR {MR stroke} bdef
/PR {MR fill} bdef
/L1i {{currentfile picstr readhexstring pop} image} bdef
/tMatrix matrix def
/MakeOval {newpath tMatrix currentmatrix pop translate scale
0 0 1 0 360 arc tMatrix setmatrix} bdef
/FO {MakeOval stroke} bdef
/PO {MakeOval fill} bdef
/PD {currentlinewidth 2 div 0 360 arc fill
   PDlw -1 eq not {PDlw w /PDlw -1 def} if} def
/FA {newpath tMatrix currentmatrix pop translate scale
  0 0 1 5 -2 roll arc tMatrix setmatrix stroke} bdef
/PA {newpath tMatrix currentmatrix pop	translate 0 0 moveto scale
  0 0 1 5 -2 roll arc closepath tMatrix setmatrix fill} bdef
/FAn {newpath tMatrix currentmatrix pop translate scale
  0 0 1 5 -2 roll arcn tMatrix setmatrix stroke} bdef
/PAn {newpath tMatrix currentmatrix pop translate 0 0 moveto scale
  0 0 1 5 -2 roll arcn closepath tMatrix setmatrix fill} bdef
/vradius 0 def /hradius 0 def /lry 0 def
/lrx 0 def /uly 0 def /ulx 0 def /rad 0 def
/MRR {/vradius xdef /hradius xdef /lry xdef /lrx xdef /uly xdef
  /ulx xdef newpath tMatrix currentmatrix pop ulx hradius add uly
  vradius add translate hradius vradius scale 0 0 1 180 270 arc 
  tMatrix setmatrix lrx hradius sub uly vradius add translate
  hradius vradius scale 0 0 1 270 360 arc tMatrix setmatrix
  lrx hradius sub lry vradius sub translate hradius vradius scale
  0 0 1 0 90 arc tMatrix setmatrix ulx hradius add lry vradius sub
  translate hradius vradius scale 0 0 1 90 180 arc tMatrix setmatrix
  closepath} bdef
/FRR {MRR stroke } bdef
/PRR {MRR fill } bdef
/MlrRR {/lry xdef /lrx xdef /uly xdef /ulx xdef /rad lry uly sub 2 div def
  newpath tMatrix currentmatrix pop ulx rad add uly rad add translate
  rad rad scale 0 0 1 90 270 arc tMatrix setmatrix lrx rad sub lry rad
  sub translate rad rad scale 0 0 1 270 90 arc tMatrix setmatrix
  closepath} bdef
/FlrRR {MlrRR stroke } bdef
/PlrRR {MlrRR fill } bdef
/MtbRR {/lry xdef /lrx xdef /uly xdef /ulx xdef /rad lrx ulx sub 2 div def
  newpath tMatrix currentmatrix pop ulx rad add uly rad add translate
  rad rad scale 0 0 1 180 360 arc tMatrix setmatrix lrx rad sub lry rad
  sub translate rad rad scale 0 0 1 0 180 arc tMatrix setmatrix
  closepath} bdef
/FtbRR {MtbRR stroke } bdef
/PtbRR {MtbRR fill } bdef
/stri 6 array def /dtri 6 array def
/smat 6 array def /dmat 6 array def
/tmat1 6 array def /tmat2 6 array def /dif 3 array def
/asub {/ind2 exch def /ind1 exch def dup dup
  ind1 get exch ind2 get sub exch } bdef
/tri_to_matrix {
  2 0 asub 3 1 asub 4 0 asub 5 1 asub
  dup 0 get exch 1 get 7 -1 roll astore } bdef
/compute_transform {
  dmat dtri tri_to_matrix tmat1 invertmatrix 
  smat stri tri_to_matrix tmat2 concatmatrix } bdef
/ds {stri astore pop} bdef
/dt {dtri astore pop} bdef
/db {2 copy /cols xdef /rows xdef mul dup 3 mul string
  currentfile exch readhexstring pop
  dup 0 3 index getinterval /rbmap xdef
  dup 2 index dup getinterval /gbmap xdef
  1 index dup 2 mul exch getinterval /bbmap xdef pop pop}bdef
/it {gs np dtri aload pop moveto lineto lineto cp c
  cols rows 8 compute_transform 
  rbmap gbmap bbmap true 3 colorimage gr}bdef
/il {newpath moveto lineto stroke}bdef
currentdict end def
%%EndProlog

%%BeginSetup
MathWorks begin

0 cap

end
%%EndSetup

%%Page: 1 1
%%BeginPageSetup
%%PageBoundingBox:    74   183   538   616
MathWorks begin
bpage
%%EndPageSetup

%%BeginObject: obj1
bplot

/dpi2point 12 def
portraitMode 0552 7500 csm

  337   107  5576  5191 MR c np
76 dict begin %Colortable dictionary
/c0 { 0.000000 0.000000 0.000000 sr} bdef
/c1 { 1.000000 1.000000 1.000000 sr} bdef
/c2 { 0.900000 0.000000 0.000000 sr} bdef
/c3 { 0.000000 0.820000 0.000000 sr} bdef
/c4 { 0.000000 0.000000 0.800000 sr} bdef
/c5 { 0.910000 0.820000 0.320000 sr} bdef
/c6 { 1.000000 0.260000 0.820000 sr} bdef
/c7 { 0.000000 0.820000 0.820000 sr} bdef
c0
1 j
1 sg
   0    0 6241 5521 PR
6 w
0 4499 4836 0 0 -4499 811 4913 4 MP
PP
-4836 0 0 4499 4836 0 0 -4499 811 4913 5 MP stroke
4 w
DO
SO
6 w
0 sg
 811 4913 mt 5647 4913 L
 811  414 mt 5647  414 L
 811 4913 mt  811  414 L
5647 4913 mt 5647  414 L
 811 4913 mt 5647 4913 L
 811 4913 mt  811  414 L
1250 4913 mt 1250 4864 L
1250  414 mt 1250  462 L
%%IncludeResource: font Helvetica
/Helvetica /ISOLatin1Encoding 120 FMSR

1217 5058 mt 
(2) s
2129 4913 mt 2129 4864 L
2129  414 mt 2129  462 L
2096 5058 mt 
(4) s
3009 4913 mt 3009 4864 L
3009  414 mt 3009  462 L
2976 5058 mt 
(6) s
3888 4913 mt 3888 4864 L
3888  414 mt 3888  462 L
3855 5058 mt 
(8) s
4767 4913 mt 4767 4864 L
4767  414 mt 4767  462 L
4701 5058 mt 
(10) s
5647 4913 mt 5647 4864 L
5647  414 mt 5647  462 L
5581 5058 mt 
(12) s
 811 4913 mt  859 4913 L
5647 4913 mt 5598 4913 L
 610 4957 mt 
(0.5) s
 811 2663 mt  859 2663 L
5647 2663 mt 5598 2663 L
 710 2707 mt 
(1) s
 811  414 mt  859  414 L
5647  414 mt 5598  414 L
 610  458 mt 
(1.5) s
 811 4913 mt 5647 4913 L
 811  414 mt 5647  414 L
 811 4913 mt  811  414 L
5647 4913 mt 5647  414 L
gs 811 414 4837 4500 MR c np
60 w
/c8 { 0.000000 0.000000 1.000000 sr} bdef
c8
440 -13 440 -75 439 98 440 -83 440 41 439 -5 440 20 440 146 
439 133 440 7 439 58 811 2730 12 MP stroke
gr

60 w
c8
gs 449 2368 5561 1140 MR c np
100 W
811 2730 PD
100 W
1250 2788 PD
100 W
1690 2795 PD
100 W
2129 2928 PD
100 W
2569 3074 PD
100 W
3009 3094 PD
100 W
3448 3089 PD
100 W
3888 3130 PD
100 W
4328 3047 PD
100 W
4767 3145 PD
100 W
5207 3070 PD
100 W
5647 3057 PD
gr

gs 811 414 4837 4500 MR c np
0.5 sg
440 -47 440 -104 439 147 440 20 440 267 439 1014 440 898 440 -319 
439 -160 440 -225 439 174 811 2789 12 MP stroke
gr

0.5 sg
gs 449 1897 5561 3071 MR c np
100 W
811 2789 PD
100 W
1250 2963 PD
100 W
1690 2738 PD
100 W
2129 2578 PD
100 W
2569 2259 PD
100 W
3009 3157 PD
100 W
3448 4171 PD
100 W
3888 4438 PD
100 W
4328 4458 PD
100 W
4767 4605 PD
100 W
5207 4501 PD
100 W
5647 4454 PD
gr

gs 811 414 4837 4500 MR c np
0 sg
440 357 440 -21 439 869 440 -459 440 -1456 439 -432 440 -670 440 315 
439 906 440 506 439 -231 811 2395 12 MP stroke
gr

0 sg
gs 449 512 5561 3742 MR c np
100 W
811 2395 PD
100 W
1250 2164 PD
100 W
1690 2670 PD
100 W
2129 3576 PD
100 W
2569 3891 PD
100 W
3009 3221 PD
100 W
3448 2789 PD
100 W
3888 1333 PD
100 W
4328 874 PD
100 W
4767 1743 PD
100 W
5207 1722 PD
100 W
5647 2079 PD
gr

gs 811 414 4837 4500 MR c np
gr

%%IncludeResource: font Helvetica
/Helvetica /ISOLatin1Encoding 168 FMSR

2836 5236 mt 
(Time point) s
 518 3789 mt  -90 rotate
(Mean squared prediction error) s
90 rotate
%%IncludeResource: font Helvetica
/Helvetica /ISOLatin1Encoding 144 FMSR

1056  314 mt 
(Normalized mean squared prediction error on test data by ti\
me point) s
%%IncludeResource: font Helvetica
/Helvetica /ISOLatin1Encoding 120 FMSR

 794 4956 mt 
( ) s
5631  456 mt 
( ) s
6 w
1 sg
0 645 1729 0 0 -645 871 1119 4 MP
PP
-1729 0 0 645 1729 0 0 -645 871 1119 5 MP stroke
4 w
DO
SO
6 w
0 sg
 871 1119 mt 2600 1119 L
 871  474 mt 2600  474 L
 871 1119 mt  871  474 L
2600 1119 mt 2600  474 L
 871 1119 mt 2600 1119 L
 871 1119 mt  871  474 L
 871 1119 mt 2600 1119 L
 871  474 mt 2600  474 L
 871 1119 mt  871  474 L
2600 1119 mt 2600  474 L
%%IncludeResource: font Helvetica
/Helvetica /ISOLatin1Encoding 168 FMSR

 924  643 mt 
(All genes) s
gs 871 474 1730 646 MR c np
60 w
c8
41 0 879 582 2 MP stroke
gr

60 w
c8
gs 537 220 725 725 MR c np
100 W
899 582 PD
gr

gs 871 474 1730 646 MR c np
gr

0 sg
 924  857 mt 
(Oocyte gene set) s
gs 871 474 1730 646 MR c np
0.5 sg
41 0 879 796 2 MP stroke
gr

0.5 sg
gs 537 434 725 725 MR c np
100 W
899 796 PD
gr

gs 871 474 1730 646 MR c np
gr

0 sg
 924 1071 mt 
(Sperm gene set) s
gs 871 474 1730 646 MR c np
41 0 879 1010 2 MP stroke
gr

gs 537 648 725 725 MR c np
100 W
899 1010 PD
gr

gs 871 474 1730 646 MR c np
6 w
gr

6 w

end %%Color Dict

eplot
%%EndObject

epage
end

showpage

%%Trailer
%%EOF
