%!PS-Adobe-2.0 EPSF-1.2
%%Creator: MATLAB, The Mathworks, Inc. Version 7.6.0.324 (R2008a). Operating System: Linux 2.6.18.8-0.10-default #1 SMP Wed Jun 4 15:46:34 UTC 2008 x86_64.
%%Title: figs1/sperm_oocyte.eps
%%CreationDate: 03/08/2009  17:52:36
%%DocumentNeededFonts: Helvetica
%%DocumentProcessColors: Cyan Magenta Yellow Black
%%Extensions: CMYK
%%Pages: 1
%%BoundingBox:    16   161   592   642
%%EndComments

%%BeginProlog
% MathWorks dictionary
/MathWorks 160 dict begin
% definition operators
/bdef {bind def} bind def
/ldef {load def} bind def
/xdef {exch def} bdef
/xstore {exch store} bdef
% operator abbreviations
/c  /clip ldef
/cc /concat ldef
/cp /closepath ldef
/gr /grestore ldef
/gs /gsave ldef
/mt /moveto ldef
/np /newpath ldef
/cm /currentmatrix ldef
/sm /setmatrix ldef
/rm /rmoveto ldef
/rl /rlineto ldef
/s {show newpath} bdef
/sc {setcmykcolor} bdef
/sr /setrgbcolor ldef
/sg /setgray ldef
/w /setlinewidth ldef
/j /setlinejoin ldef
/cap /setlinecap ldef
/rc {rectclip} bdef
/rf {rectfill} bdef
% page state control
/pgsv () def
/bpage {/pgsv save def} bdef
/epage {pgsv restore} bdef
/bplot /gsave ldef
/eplot {stroke grestore} bdef
% orientation switch
/portraitMode 0 def /landscapeMode 1 def /rotateMode 2 def
% coordinate system mappings
/dpi2point 0 def
% font control
/FontSize 0 def
/FMS {/FontSize xstore findfont [FontSize 0 0 FontSize neg 0 0]
  makefont setfont} bdef
/reencode {exch dup where {pop load} {pop StandardEncoding} ifelse
  exch dup 3 1 roll findfont dup length dict begin
  { 1 index /FID ne {def}{pop pop} ifelse } forall
  /Encoding exch def currentdict end definefont pop} bdef
/isroman {findfont /CharStrings get /Agrave known} bdef
/FMSR {3 1 roll 1 index dup isroman {reencode} {pop pop} ifelse
  exch FMS} bdef
/csm {1 dpi2point div -1 dpi2point div scale neg translate
 dup landscapeMode eq {pop -90 rotate}
  {rotateMode eq {90 rotate} if} ifelse} bdef
% line types: solid, dotted, dashed, dotdash
/SO { [] 0 setdash } bdef
/DO { [.5 dpi2point mul 4 dpi2point mul] 0 setdash } bdef
/DA { [6 dpi2point mul] 0 setdash } bdef
/DD { [.5 dpi2point mul 4 dpi2point mul 6 dpi2point mul 4
  dpi2point mul] 0 setdash } bdef
% macros for lines and objects
/L {lineto stroke} bdef
/MP {3 1 roll moveto 1 sub {rlineto} repeat} bdef
/AP {{rlineto} repeat} bdef
/PDlw -1 def
/W {/PDlw currentlinewidth def setlinewidth} def
/PP {closepath eofill} bdef
/DP {closepath stroke} bdef
/MR {4 -2 roll moveto dup  0 exch rlineto exch 0 rlineto
  neg 0 exch rlineto closepath} bdef
/FR {MR stroke} bdef
/PR {MR fill} bdef
/L1i {{currentfile picstr readhexstring pop} image} bdef
/tMatrix matrix def
/MakeOval {newpath tMatrix currentmatrix pop translate scale
0 0 1 0 360 arc tMatrix setmatrix} bdef
/FO {MakeOval stroke} bdef
/PO {MakeOval fill} bdef
/PD {currentlinewidth 2 div 0 360 arc fill
   PDlw -1 eq not {PDlw w /PDlw -1 def} if} def
/FA {newpath tMatrix currentmatrix pop translate scale
  0 0 1 5 -2 roll arc tMatrix setmatrix stroke} bdef
/PA {newpath tMatrix currentmatrix pop	translate 0 0 moveto scale
  0 0 1 5 -2 roll arc closepath tMatrix setmatrix fill} bdef
/FAn {newpath tMatrix currentmatrix pop translate scale
  0 0 1 5 -2 roll arcn tMatrix setmatrix stroke} bdef
/PAn {newpath tMatrix currentmatrix pop translate 0 0 moveto scale
  0 0 1 5 -2 roll arcn closepath tMatrix setmatrix fill} bdef
/vradius 0 def /hradius 0 def /lry 0 def
/lrx 0 def /uly 0 def /ulx 0 def /rad 0 def
/MRR {/vradius xdef /hradius xdef /lry xdef /lrx xdef /uly xdef
  /ulx xdef newpath tMatrix currentmatrix pop ulx hradius add uly
  vradius add translate hradius vradius scale 0 0 1 180 270 arc 
  tMatrix setmatrix lrx hradius sub uly vradius add translate
  hradius vradius scale 0 0 1 270 360 arc tMatrix setmatrix
  lrx hradius sub lry vradius sub translate hradius vradius scale
  0 0 1 0 90 arc tMatrix setmatrix ulx hradius add lry vradius sub
  translate hradius vradius scale 0 0 1 90 180 arc tMatrix setmatrix
  closepath} bdef
/FRR {MRR stroke } bdef
/PRR {MRR fill } bdef
/MlrRR {/lry xdef /lrx xdef /uly xdef /ulx xdef /rad lry uly sub 2 div def
  newpath tMatrix currentmatrix pop ulx rad add uly rad add translate
  rad rad scale 0 0 1 90 270 arc tMatrix setmatrix lrx rad sub lry rad
  sub translate rad rad scale 0 0 1 270 90 arc tMatrix setmatrix
  closepath} bdef
/FlrRR {MlrRR stroke } bdef
/PlrRR {MlrRR fill } bdef
/MtbRR {/lry xdef /lrx xdef /uly xdef /ulx xdef /rad lrx ulx sub 2 div def
  newpath tMatrix currentmatrix pop ulx rad add uly rad add translate
  rad rad scale 0 0 1 180 360 arc tMatrix setmatrix lrx rad sub lry rad
  sub translate rad rad scale 0 0 1 0 180 arc tMatrix setmatrix
  closepath} bdef
/FtbRR {MtbRR stroke } bdef
/PtbRR {MtbRR fill } bdef
/stri 6 array def /dtri 6 array def
/smat 6 array def /dmat 6 array def
/tmat1 6 array def /tmat2 6 array def /dif 3 array def
/asub {/ind2 exch def /ind1 exch def dup dup
  ind1 get exch ind2 get sub exch } bdef
/tri_to_matrix {
  2 0 asub 3 1 asub 4 0 asub 5 1 asub
  dup 0 get exch 1 get 7 -1 roll astore } bdef
/compute_transform {
  dmat dtri tri_to_matrix tmat1 invertmatrix 
  smat stri tri_to_matrix tmat2 concatmatrix } bdef
/ds {stri astore pop} bdef
/dt {dtri astore pop} bdef
/db {2 copy /cols xdef /rows xdef mul dup 3 mul string
  currentfile exch readhexstring pop
  dup 0 3 index getinterval /rbmap xdef
  dup 2 index dup getinterval /gbmap xdef
  1 index dup 2 mul exch getinterval /bbmap xdef pop pop}bdef
/it {gs np dtri aload pop moveto lineto lineto cp c
  cols rows 8 compute_transform 
  rbmap gbmap bbmap true 3 colorimage gr}bdef
/il {newpath moveto lineto stroke}bdef
currentdict end def
%%EndProlog

%%BeginSetup
MathWorks begin

0 cap

end
%%EndSetup

%%Page: 1 1
%%BeginPageSetup
%%PageBoundingBox:    16   161   592   642
MathWorks begin
bpage
%%EndPageSetup

%%BeginObject: obj1
bplot

/dpi2point 12 def
portraitMode -0288 7872 csm

  488   161  6915  5778 MR c np
76 dict begin %Colortable dictionary
/c0 { 0.000000 0.000000 0.000000 sr} bdef
/c1 { 1.000000 1.000000 1.000000 sr} bdef
/c2 { 0.900000 0.000000 0.000000 sr} bdef
/c3 { 0.000000 0.820000 0.000000 sr} bdef
/c4 { 0.000000 0.000000 0.800000 sr} bdef
/c5 { 0.910000 0.820000 0.320000 sr} bdef
/c6 { 1.000000 0.260000 0.820000 sr} bdef
/c7 { 0.000000 0.820000 0.820000 sr} bdef
c0
1 j
1 sg
   0    0 7920 6241 PR
6 w
0 5086 6138 0 0 -5086 1029 5554 4 MP
PP
-6138 0 0 5086 6138 0 0 -5086 1029 5554 5 MP stroke
4 w
DO
SO
6 w
0 sg
1029 5554 mt 7167 5554 L
1029  468 mt 7167  468 L
1029 5554 mt 1029  468 L
7167 5554 mt 7167  468 L
1029 5554 mt 7167 5554 L
1029 5554 mt 1029  468 L
1029 5554 mt 1029 5492 L
1029  468 mt 1029  529 L
%%IncludeResource: font Helvetica
/Helvetica /ISOLatin1Encoding 120 FMSR

 996 5699 mt 
(0) s
1642 5554 mt 1642 5492 L
1642  468 mt 1642  529 L
1609 5699 mt 
(1) s
2256 5554 mt 2256 5492 L
2256  468 mt 2256  529 L
2223 5699 mt 
(2) s
2870 5554 mt 2870 5492 L
2870  468 mt 2870  529 L
2837 5699 mt 
(3) s
3484 5554 mt 3484 5492 L
3484  468 mt 3484  529 L
3451 5699 mt 
(4) s
4098 5554 mt 4098 5492 L
4098  468 mt 4098  529 L
4065 5699 mt 
(5) s
4711 5554 mt 4711 5492 L
4711  468 mt 4711  529 L
4678 5699 mt 
(6) s
5325 5554 mt 5325 5492 L
5325  468 mt 5325  529 L
5292 5699 mt 
(7) s
5939 5554 mt 5939 5492 L
5939  468 mt 5939  529 L
5906 5699 mt 
(8) s
6553 5554 mt 6553 5492 L
6553  468 mt 6553  529 L
6520 5699 mt 
(9) s
7167 5554 mt 7167 5492 L
7167  468 mt 7167  529 L
7101 5699 mt 
(10) s
1029 5554 mt 1090 5554 L
7167 5554 mt 7105 5554 L
 761 5598 mt 
(0.75) s
1029 4827 mt 1090 4827 L
7167 4827 mt 7105 4827 L
 828 4871 mt 
(0.8) s
1029 4100 mt 1090 4100 L
7167 4100 mt 7105 4100 L
 761 4144 mt 
(0.85) s
1029 3374 mt 1090 3374 L
7167 3374 mt 7105 3374 L
 828 3418 mt 
(0.9) s
1029 2647 mt 1090 2647 L
7167 2647 mt 7105 2647 L
 761 2691 mt 
(0.95) s
1029 1921 mt 1090 1921 L
7167 1921 mt 7105 1921 L
 928 1965 mt 
(1) s
1029 1194 mt 1090 1194 L
7167 1194 mt 7105 1194 L
 761 1238 mt 
(1.05) s
1029  468 mt 1090  468 L
7167  468 mt 7105  468 L
 828  512 mt 
(1.1) s
1029 5554 mt 7167 5554 L
1029  468 mt 7167  468 L
1029 5554 mt 1029  468 L
7167 5554 mt 7167  468 L
gs 1029 468 6139 5087 MR c np
24 w
614 39 614 -71 614 50 614 -128 613 263 614 -211 614 730 614 -175 
614 1582 613 -473 1029 1921 11 MP stroke
gr

24 w
gs 763 1182 6671 2722 MR c np
80 W
1029 1921 PD
80 W
1642 1448 PD
80 W
2256 3030 PD
80 W
2870 2855 PD
80 W
3484 3585 PD
80 W
4098 3374 PD
80 W
4711 3637 PD
80 W
5325 3509 PD
80 W
5939 3559 PD
80 W
6553 3488 PD
80 W
7167 3527 PD
gr

gs 1029 468 6139 5087 MR c np
0.5 sg
614 -19 614 34 614 29 614 -126 613 92 614 -137 614 422 614 321 
614 56 613 2524 1029 1921 11 MP stroke
gr

0.5 sg
gs 763 1655 6671 3856 MR c np
80 W
1029 1921 PD
80 W
1642 4445 PD
80 W
2256 4501 PD
80 W
2870 4822 PD
80 W
3484 5244 PD
80 W
4098 5107 PD
80 W
4711 5199 PD
80 W
5325 5073 PD
80 W
5939 5102 PD
80 W
6553 5136 PD
80 W
7167 5117 PD
gr

gs 1029 468 6139 5087 MR c np
gr

0 sg
%%IncludeResource: font Helvetica
/Helvetica /ISOLatin1Encoding 168 FMSR

3432 5877 mt 
(Number of factors) s
 669 4137 mt  -90 rotate
(Mean squared prediction error) s
90 rotate
%%IncludeResource: font Helvetica
/Helvetica /ISOLatin1Encoding 144 FMSR

1493  368 mt 
(Normalized mean squared prediction error on test data for g\
raph-regularized PLS) s
%%IncludeResource: font Helvetica
/Helvetica /ISOLatin1Encoding 120 FMSR

1012 5597 mt 
( ) s
7151  510 mt 
( ) s
6 w
1 sg
0 444 1729 0 0 -444 5379 972 4 MP
PP
-1729 0 0 444 1729 0 0 -444 5379 972 5 MP stroke
4 w
DO
SO
6 w
0 sg
5379  972 mt 7108  972 L
5379  528 mt 7108  528 L
5379  972 mt 5379  528 L
7108  972 mt 7108  528 L
5379  972 mt 7108  972 L
5379  972 mt 5379  528 L
5379  972 mt 7108  972 L
5379  528 mt 7108  528 L
5379  972 mt 5379  528 L
7108  972 mt 7108  528 L
%%IncludeResource: font Helvetica
/Helvetica /ISOLatin1Encoding 168 FMSR

5844  709 mt 
(Sperm gene set) s
gs 5379 528 1730 445 MR c np
24 w
358 0 5450 648 2 MP stroke
gr

24 w
gs 5363 382 533 533 MR c np
80 W
5629 648 PD
gr

gs 5379 528 1730 445 MR c np
gr

5844  912 mt 
(Oocyte gene set) s
gs 5379 528 1730 445 MR c np
0.5 sg
358 0 5450 851 2 MP stroke
gr

0.5 sg
gs 5363 585 533 533 MR c np
80 W
5629 851 PD
gr

gs 5379 528 1730 445 MR c np
6 w
gr

6 w

end %%Color Dict

eplot
%%EndObject

epage
end

showpage

%%Trailer
%%EOF
