1746.62
678.328
414.731
390.937
386.963
378.239
356.654
222.305
198.86
187.325
186.519
177.45
158.321
141.251
136.555
106.737
105.229
97.7572
91.2068
90.5767
88.274
87.2234
83.604
79.1765
70.5481
63.8724
62.7777
59.8967
57.852
57.1698
47.1888
44.9828
44.7888
37.7469
34.6496
33.4856
33.3613
32.6811
27.2652
23.6002
14.4679
14.227
11.9901
7.91964
5.97299
3.07152
0.99284
