AACGTG   0.17 AACGTA
AACGTG   0.17 CACGTG
ACCGTA   0.17 ACGGTA
ACCGTA   0.29 CCGTAA
ACCGTA   0.17 AACGTA
ACGGTA   0.29 CGGTAA
TACGCA   0.17 TGCGAA
CCGTAA   0.17 CGGTAA
ACCACG   0.17 ACTACG
ACCACG   0.29 CCACGA
TCGCAA   0.29 TGCGAA
TCGCAA   0.29 ATCGCA
CGTGAA   0.17 CGCGAA
CGTGAA   0.14 ACGTGAA
CGCGAA   0.17 TGCGAA
CGCGAA   0.29 ACGTGAA
TGCGAA   0.17 ATCGCA
ATCGAA   0.17 ATCGCA
ATCGCA   0.17 AGCGAT
