CCTAAGC   0.29 CTAAGCC
CCTAAGC   0.29 GATAAGC
CCTAAGC   0.29 GGCCTAA
CTAAGCC   0.29 GATAAGC
CTAAGCC   0.29 GGCCTAA
CTAAGCC   0.29 AAGCCT
CTAAGCC   0.29 AGAAGCC
CTTATC   0.29 GATAAGC
CTTATC   0.29 CTGATAA
GATAAGC   0.29 AGAAGC
GATAAGC   0.29 CTGATAA
GATAAGC   0.29 AAGAAGC
GCCTAC   0.29 AGGTAGG
GCCTAC   0.29 GGCCTAA
GCCTAC   0.29 TAGGCA
GCCTAC   0.29 CGTCGGC
GCAGGTA   0.29 AGGTAGG
GCAGGTA   0.29 AACCGGC
AGGTAGG   0.29 AGGAAG
AACCTT   0.17 AAGGTG
GGCCTAA   0.29 TAGGCA
GCCGCC   0.29 AGCAGCC
GCCGCC   0.29 CGGCTGC
GCCGCC   0.29 CGTCGGC
AGAAGC   0.29 AGAAGCC
AGAAGC   0.29 AGCTTC
AGAAGC   0.29 AGCAGCC
AGAAGC   0.29 AAGAAGC
AGAAGC   0.29 AGAAGCT
ACTTCC   0.29 AGGAAG
AAGCCT   0.29 AGAAGCC
GTGGCA   0.29 GTGCCAC
GTGGCA   0.29 GCCACAC
GTGGCA   0.29 GATGGCA
AACGTG   0.17 AAGGTG
AGAAGCC   0.29 AGCTTC
AGAAGCC   0.14 AGCAGCC
AGAAGCC   0.29 AAGAAGC
AGAAGCC   0.29 AGAAGCT
AGCTTC   0.29 AAGAAGC
AGCTTC   0.29 AGAAGCT
GGAGGA   0.29 CCTCCA
GGAGGA   0.29 AGGAGG
GGAGGA   0.29 CCTCCAC
CTTCAC   0.29 CCTTCA
CTTCAC   0.29 CTTCACC
CTTCAC   0.29 CCTCCAC
GTGCCAC   0.29 GCCACAC
GTGCCAC   0.29 GATGGCA
CCTCCA   0.17 CCTTCA
CCTCCA   0.17 AGGAGG
CCTCCA   0.29 CCTCCAC
AGCAGCC   0.29 CGGCTGC
AGCAGCC   0.29 AGAAGCT
CTTCGGC   0.29 CGTCGGC
CTTCGGC   0.29 TCCGAA
CTTCGGC   0.29 CTTCACC
AGGAAG   0.17 AGGAGG
AGGAAG   0.29 AAGAAGC
CGGCTGC   0.29 CGTCGGC
CGGCTGC   0.29 CGCCAGC
CCACCTC   0.29 AGGAGG
CCACCTC   0.29 AAGGTG
CCACCTC   0.29 AAGTGG
CCACCTC   0.29 AGAGGTG
CCACCTC   0.29 CCTCCAC
CGTCGGC   0.29 CGCCAGC
CCTTCA   0.29 CTTCACC
CCTTCA   0.29 CCTCCAC
AGGAGG   0.29 CCTCCAC
AAGGTG   0.29 AGAGGTG
CGCCAGC   0.29 GATGGCA
CGCCAGC   0.29 CGCAAGA
GGACAGA   0.29 AAGGACA
AAGAAGC   0.29 AGAAGCT
CCTCCAC   0.29 GCGGAGA
