<p>
1
0 0 0 1 0 1
1 0 0 0 0 0
0 0 1 0 0 0
0 1 0 0 1 0
</p>
<p>
2
1 0 0 1 0 0
0 0 1 0 0 0
0 1 0 0 0 1
0 0 0 0 1 0
</p>
<p>
3
0 1 0 0 0 1
0 0 0 0 1 0
0 0 1 1 0 0
1 0 0 0 0 0
</p>
<p>
4
1 1 0 0 0 0
0 0 0 1 0 0
0 0 1 0 0 0
0 0 0 0 1 1
</p>
<p>
5
0 1 0 1 1 0
0 0 0 0 0 1
1 0 0 0 0 0
0 0 1 0 0 0
</p>
<p>
6
0 0 1 0 0 0
0 1 0 0 0 1
1 0 0 0 1 0
0 0 0 1 0 0
</p>
<p>
7
1 1 0 0 0 0
0 0 1 0 0 0
0 0 0 1 0 1
0 0 0 0 1 0
</p>
<p>
8
0 0 1 0 0 1
1 0 0 0 1 0
0 0 0 0 0 0
0 1 0 1 0 0
</p>
<p>
9
1 0 0 0 0 0
0 0 1 0 0 1
0 1 0 0 0 0
0 0 0 1 1 0
</p>
<p>
10
0 0 0 0 1 0
0 1 1 0 0 1
1 0 0 0 0 0
0 0 0 1 0 0
</p>
<p>
11
0 0 1 0 0 0
0 1 0 0 0 1
1 0 0 1 1 0
0 0 0 0 0 0
</p>
<p>
12
0 1 1 0 0 0
0 0 0 0 1 1
1 0 0 1 0 0
0 0 0 0 0 0
</p>
<p>
13
0 1 0 0 0 1
0 0 1 1 0 0
0 0 0 0 0 0
1 0 0 0 1 0
</p>
<p>
14
0 0 0 1 0 0
1 0 0 0 0 1
0 0 0 0 0 0
0 1 1 0 1 0
</p>
<p>
15
0 0 0 0 0 0
1 1 0 0 1 1
0 0 0 1 0 0
0 0 1 0 0 0
</p>
<p>
16
1 0 0 0 1 0
0 0 0 0 0 0
0 1 1 0 0 1
0 0 0 1 0 0
</p>
<p>
17
1 0 0 0 0 0
0 0 0 0 0 0
0 1 1 0 0 1
0 0 0 1 1 0
</p>
<p>
18
1 1 0 0 0 1
0 0 1 1 0 0
0 0 0 0 0 0
0 0 0 0 1 0
</p>
<p>
19
0 1 1 0 0 1
0 0 0 0 1 0
1 0 0 1 0 0
0 0 0 0 0 0
</p>
<p>
20
1 1 0 0 1 0
0 0 0 0 0 1
0 0 1 0 0 0
0 0 0 1 0 0
</p>
<p>
21
1 0 1 0 0 0
0 0 0 0 0 1
0 0 0 1 1 0
0 1 0 0 0 0
</p>
<p>
22
0 1 0 0 1 1
0 0 0 1 0 0
0 0 0 0 0 0
1 0 1 0 0 0
</p>
<p>
23
0 0 0 1 0 1 1
1 0 0 0 0 0 0
0 0 1 0 0 0 0
0 1 0 0 1 0 0
</p>
<p>
24
1 1 0 0 0 0
0 0 1 0 0 1
0 0 0 0 0 0
0 0 0 1 1 0
</p>
<p>
25
1 0 1 1 0 0
0 0 0 0 0 1
0 1 0 0 1 0
0 0 0 0 0 0
</p>
<p>
26
0 1 0 0 0 1
1 0 0 0 0 0
0 0 1 1 0 0
0 0 0 0 1 0
</p>
<p>
27
0 0 0 1 0 1
0 0 0 0 0 0
1 0 1 0 0 0
0 1 0 0 1 0
</p>
<p>
28
0 0 0 0 0 1
0 0 1 0 0 0
1 1 0 0 0 0
0 0 0 1 1 0
</p>
<p>
29
0 1 0 0 1 0
0 0 0 0 0 1
1 0 0 0 0 0
0 0 1 1 0 0
</p>
<p>
30
1 1 0 0 0 0
0 0 0 0 0 0
0 0 1 0 0 1
0 0 0 1 1 0
</p>
<p>
31
1 0 0 0 1 0 1
0 1 0 0 0 0 0
0 0 0 1 0 0 0
0 0 1 0 0 1 0
</p>
<p>
32
0 1 0 0 0 1
1 0 0 0 1 0
0 0 1 1 0 0
0 0 0 0 0 0
</p>
<p>
33
0 0 0 1 0 0
1 1 0 0 0 1
0 0 0 0 0 0
0 0 1 0 1 0
</p>
<p>
34
1 1 0 0 0 0
0 0 0 1 1 0
0 0 1 0 0 0
0 0 0 0 0 1
</p>
<p>
35
1 0 0 0 1 0
0 1 0 0 0 0
0 0 0 1 0 0
0 0 1 0 0 1
</p>
<p>
36
1 0 0 0 1 1
0 1 1 0 0 0
0 0 0 0 0 0
0 0 0 1 0 0
</p>
<p>
37
1 0 1 1 0 0
0 0 0 0 0 1
0 0 0 0 1 0
0 1 0 0 0 0
</p>
<p>
38
1 0 1 1 0 0
0 1 0 0 0 1
0 0 0 0 1 0
0 0 0 0 0 0
</p>
<p>
39
1 0 0 0 1 0
0 1 0 0 0 1
0 0 0 0 0 0
0 0 1 1 0 0
</p>
<p>
40
0 1 1 0 0 0 0
1 0 0 1 0 0 1
0 0 0 0 0 0 0
0 0 0 0 1 1 0
</p>
<p>
41
1 0 0 0 0 0
0 0 1 0 0 0
0 1 0 0 0 1
0 0 0 1 1 0
</p>
<p>
42
0 0 1 0 0 1
1 1 0 0 0 0
0 0 0 1 0 0
0 0 0 0 1 0
</p>
<p>
43
0 1 1 0 0 0
1 0 0 1 0 1
0 0 0 0 0 0
0 0 0 0 1 0
</p>
<p>
44
1 0 0 1 0 1
0 0 0 0 0 0
0 0 1 0 0 0
0 1 0 0 1 0
</p>
<p>
45
1 0 0 0 0 0
0 1 0 0 1 1
0 0 0 0 0 0
0 0 1 1 0 0
</p>
<p>
46
1 0 0 0 0 1
0 0 0 1 1 0
0 0 1 0 0 0
0 1 0 0 0 0
</p>
<p>
47
1 1 0 0 0 0
0 0 0 0 0 1
0 0 1 0 0 0
0 0 0 1 1 0
</p>
<p>
48
0 1 1 0 0 1
1 0 0 0 0 0
0 0 0 1 0 0
0 0 0 0 1 0
</p>
<p>
49
0 0 1 0 0 1
0 1 0 0 0 0
1 0 0 1 0 0
0 0 0 0 1 0
</p>
<p>
50
0 0 0 1 1 0
1 1 0 0 0 1
0 0 1 0 0 0
0 0 0 0 0 0
</p>
