<p>
1
0.37 0.375 0.005 0.02 0.01 0.01 0.025 0.325 0.355
0.14 0.125 0.025 0.97 0.005 0.99 0.005 0.155 0.13
0.245 0.25 0.955 0.005 0.965 0 0.95 0.265 0.19
0.245 0.25 0.015 0.005 0.02 0 0.02 0.255 0.325
</p>
<p>
1
0.33 0.455 0.055 0.01 0.025 0.025 0.01 0.64 0.37
0.11 0.35 0 0.01 0.935 0.005 0.98 0.125 0.125
0.225 0.085 0.925 0.965 0.02 0.95 0.005 0.08 0.15
0.335 0.11 0.02 0.015 0.02 0.02 0.005 0.155 0.355
</p>
<p>
1
0.245 0.97 0.01 0 0.015 0.01 0.98 0.25
0.095 0.005 0.975 0.98 0.005 0.005 0.015 0.135
0.09 0.01 0.005 0.005 0.945 0.005 0.005 0.29
0.57 0.015 0.01 0.015 0.035 0.98 0 0.325
</p>
<p>
2
0.28 0.455 0.77 0.01 0.005 0.005 0.015 0.545 0.475 0.29
0.215 0.11 0.09 0.95 0.005 0.005 0.005 0.065 0.275 0.255
0.115 0.135 0.045 0.02 0.985 0.005 0.97 0.28 0.085 0.215
0.39 0.3 0.095 0.02 0.005 0.985 0.01 0.11 0.165 0.24
</p>
<p>
2
0.32 0.01 0.025 0.015 0.97 0.025 0.005
0.09 0.005 0.95 0.97 0.01 0.945 0.005
0.08 0.005 0.01 0.005 0 0.005 0.98
0.51 0.98 0.015 0.01 0.02 0.025 0.01
</p>
<p>
2
0.055 0.965 0.025 0.97 0.96 0.015 0.22 0.365
0.03 0.005 0 0.01 0.01 0.01 0.44 0.145
0.815 0.01 0.005 0 0.005 0.97 0.1 0.17
0.1 0.02 0.97 0.02 0.025 0.005 0.24 0.32
</p>
<p>
2
0.23 0.365 0.96 0.975 0.02 0 0.98 0.775 0.265
0.275 0.185 0.005 0.005 0 0.03 0.01 0.01 0.245
0.165 0.1 0.01 0.005 0.02 0.015 0.005 0.18 0.15
0.33 0.35 0.025 0.015 0.96 0.955 0.005 0.035 0.34
</p>
<p>
3
0.425 0.645 0.02 0.955 0.965 0.02 0.02 0.145
0.135 0.115 0.005 0.015 0.015 0.01 0.97 0.16
0.11 0.085 0.955 0.01 0.01 0.945 0.01 0.045
0.33 0.155 0.02 0.02 0.01 0.025 0 0.65
</p>
<p>
3
0.295 0.54 0.015 0.015 0.97 0.03 0.005 0.59
0.165 0.04 0.01 0.01 0.01 0 0.02 0.12
0.22 0.08 0.955 0.965 0 0.965 0.945 0.11
0.32 0.34 0.02 0.01 0.02 0.005 0.03 0.18
</p>
<p>
3
0.36 0.125 0.01 0.04 0.07 0.625 0.065 0.13 0.255
0.185 0.15 0.01 0.92 0.91 0.005 0.745 0.615 0.17
0.225 0.055 0.975 0.005 0 0.35 0.095 0.115 0.345
0.23 0.67 0.005 0.035 0.02 0.02 0.095 0.14 0.23
</p>
<p>
3
0.215 0.025 0.015 0.01 0.02 0.985 0.15 0.295
0.505 0.955 0.005 0.01 0.96 0.015 0.61 0.215
0.075 0.005 0.015 0.01 0.005 0 0.05 0.16
0.205 0.015 0.965 0.97 0.015 0 0.19 0.33
</p>
<p>
4
0.285 0.285 0.98 0.025 0.035 0.005 0.005 0.325 0.415
0.215 0.3 0.005 0.97 0.015 0.01 0.005 0.035 0.21
0.15 0.155 0 0 0.925 0.005 0.97 0.25 0.1
0.35 0.26 0.015 0.005 0.025 0.98 0.02 0.39 0.275
</p>
<p>
4
0.315 0.495 0.97 0.005 0.015 0.025 0.015 0.19 0.325
0.22 0.105 0 0.015 0.035 0.95 0.005 0.395 0.185
0.175 0.185 0.02 0.955 0.935 0.005 0.97 0.275 0.175
0.29 0.215 0.01 0.025 0.015 0.02 0.01 0.14 0.315
</p>
<p>
4
0.01 0.01 0.015 0.03 0.61 0.97 0.37
0.96 0 0.005 0.005 0.01 0.005 0.25
0.015 0.985 0.015 0.965 0.36 0.005 0.145
0.015 0.005 0.965 0 0.02 0.02 0.235
</p>
<p>
4
0.25 0.22 0.975 0.935 0.01 0.035 0.02 0.25
0.26 0.135 0.01 0.005 0.02 0.945 0.955 0.015
0.155 0.27 0.01 0.02 0.96 0 0.005 0.025
0.335 0.375 0.005 0.04 0.01 0.02 0.02 0.71
</p>
