hit
AACGTG = 0.13147
CGTGGA = 0.10145
CGTGAA = 0.16253
GATAAGC = 0.02588
ACGTGGA = 0.03416
AATTAA = 0.66563
GGACAGA = 0.02174
GCAGGTA = 0.01242
AACCTT = 0.18841
ACGCAG = 0.17391
CGTGGAA = 0.05072
GTACGCA = 0.07246
CACGTAA = 0.00828
ACGTGAA = 0.05383
AACGTGG = 0.02692
CTTATC = 0.14286
CTTCAC = 0.16046
ATTAAT = 0.32919
CCGTGAA = 0.02795
AATCAA = 0.55694
CTAATTA = 0.07764
AATATT = 0.49275
AACACGC = 0.04969
AACTTC = 0.27950
CGTGAAC = 0.02277
CAGGTAG = 0.01139
ATGTAAT = 0.07350
GGCCTAA = 0.04451
ACGTGGC = 0.02588
CAACGTG = 0.01760
ATCCACG = 0.01656
TATCAA = 0.32712
AGGTAGG = 0.00828
CGTGACA = 0.01553
CTCCAGC = 0.02588
CAATAA = 0.46480
AACGTAA = 0.05280
CGTGACC = 0.02588
AAGATCT = 0.04451
AAGTTC = 0.25155
GTGAAC = 0.13354
CCGATAA = 0.04555
AATCATT = 0.16770
TGATACA = 0.05072
GGAACAC = 0.03623
GACGTGA = 0.02381
ACGCAA = 0.22153
TATTACA = 0.07971
ATAAGCA = 0.03623
AATTAGC = 0.06625
