hit
CGCGCC = 0.17081
CCGCGC = 0.11284
CGCGCA = 0.19255
ACCGTA = 0.21532
GGCGCA = 0.18116
GCGCAC = 0.17391
CGCGAA = 0.23913
GCGCGCC = 0.05072
CGCGCTC = 0.07764
AGGCGC = 0.14286
GTACGCA = 0.07246
TGCGAA = 0.27122
CGCGCCG = 0.04555
TACCGTA = 0.12836
ACGCGCG = 0.04037
CCGCGCG = 0.03623
CGAGACC = 0.13251
ATGCGCC = 0.08385
ACGCGCC = 0.05280
ATCGAT = 0.23810
AAGGCGC = 0.10145
AACGCGC = 0.08385
GCGCAA = 0.19255
GCGCGCA = 0.06936
CGCGCCA = 0.07143
TCGCAA = 0.24534
GGCGCGA = 0.05487
CCGCGCC = 0.02174
ACCGCGC = 0.03727
ACGCGCA = 0.08282
GCGCGAA = 0.11387
ACGCGCT = 0.04451
ACGCAG = 0.17391
GCGAGAC = 0.08592
AATGCG = 0.24120
AGGCGCA = 0.08178
CGCAGCG = 0.04969
CGACGCG = 0.04658
AATTCG = 0.38406
CCGTGCG = 0.02484
CGCCACG = 0.03623
GCGCCGC = 0.05901
CGCGACG = 0.04969
ACCGTAG = 0.05280
GCGCCGA = 0.04141
GCGAGA = 0.18012
AAGCGCG = 0.05901
AGCGCGA = 0.03934
CCGCGAA = 0.04658
AGCGAA = 0.22050
CGCGTGC = 0.03209
CCGCACG = 0.02277
CGAGAC = 0.19979
GGCCTAA = 0.04451
ACCGTAC = 0.08178
TATCGA = 0.29296
AATCGA = 0.42547
GAGACC = 0.18116
ATTGCG = 0.22360
CGTGGC = 0.10870
AATTAA = 0.66563
ACGCAA = 0.22153
CGCTCCG = 0.02899
CCGCGGC = 0.01967
CGCGCAC = 0.05072
CGCAGA = 0.18530
CATGCGC = 0.05694
ACCGCGA = 0.04141
CGCCAGC = 0.03830
GCGCGGA = 0.03209
CGCTCCA = 0.07350
CGCGGCC = 0.01656
AAGGCG = 0.16460
ACGCGGC = 0.02070
GCGCCAA = 0.09110
AGTGCGC = 0.06936
CACGCGA = 0.02899
GCCGCAC = 0.03623
CGGAGC = 0.09420
ATCGAA = 0.33954
GCGGCGA = 0.03002
GTCCGCA = 0.03520
TGCGCCA = 0.04141
AACCGCG = 0.03416
GCCACGA = 0.03002
CGTGCGC = 0.03106
AATCGCG = 0.04141
CCACGAA = 0.05176
CACGCGG = 0.01967
TTCGCAA = 0.13147
CGCCAA = 0.19565
ACGCGAA = 0.04555
CGCTCTA = 0.05280
CCACGCG = 0.01760
CACCGTA = 0.04762
CGCGGAA = 0.04037
CTGCGCC = 0.02899
ATTCGCG = 0.05694
GGCGAGA = 0.05176
GCGCACA = 0.06108
