CGCGCC   0.29 CCGCGC
CGCGCC   0.17 CGCGCA
CGCGCC   0.17 GGCGCA
CGCGCC   0.29 GCGCGCC
CGCGCC   0.29 CGCGCTC
CGCGCC   0.29 AGGCGC
CGCGCC   0.29 CGCGCCG
CGCGCC   0.29 ACGCGCG
CGCGCC   0.29 CCGCGCG
CGCGCC   0.29 ATGCGCC
CGCGCC   0.29 ACGCGCC
CGCGCC   0.29 AAGGCGC
CGCGCC   0.29 AACGCGC
CGCGCC   0.29 GCGCGCA
CGCGCC   0.29 CGCGCCA
CGCGCC   0.29 GGCGCGA
CGCGCC   0.29 CCGCGCC
CGCGCC   0.29 ACCGCGC
CGCGCC   0.29 ACGCGCA
CGCGCC   0.29 GCGCGAA
CGCGCC   0.29 ACGCGCT
CGCGCC   0.29 AGGCGCA
CGCGCC   0.29 CGACGCG
CGCGCC   0.29 GCGCCGC
CGCGCC   0.29 CGCGACG
CGCGCC   0.29 GCGCCGA
CGCGCC   0.29 AAGCGCG
CGCGCC   0.29 AGCGCGA
CCGCGC   0.29 CGCGCA
CCGCGC   0.29 GCGCGCC
CCGCGC   0.29 CGCGCTC
CCGCGC   0.29 CGCGCCG
CCGCGC   0.29 ACGCGCG
CCGCGC   0.29 CCGCGCG
CCGCGC   0.29 ACGCGCC
CCGCGC   0.29 AACGCGC
CCGCGC   0.29 GCGCGCA
CCGCGC   0.29 CGCGCCA
CCGCGC   0.29 GGCGCGA
CCGCGC   0.29 CCGCGCC
CCGCGC   0.29 ACCGCGC
CCGCGC   0.29 ACGCGCA
CCGCGC   0.29 GCGCGAA
CCGCGC   0.29 ACGCGCT
CCGCGC   0.29 CCGTGCG
CCGCGC   0.29 GCGCCGC
CCGCGC   0.29 GCGCCGA
CCGCGC   0.29 AAGCGCG
CCGCGC   0.29 AGCGCGA
CCGCGC   0.29 CCGCGAA
CGCGCA   0.17 GGCGCA
CGCGCA   0.29 GCGCAC
CGCGCA   0.17 CGCGAA
CGCGCA   0.29 GCGCGCC
CGCGCA   0.29 CGCGCTC
CGCGCA   0.29 CGCGCCG
CGCGCA   0.29 ACGCGCG
CGCGCA   0.29 CCGCGCG
CGCGCA   0.29 ATGCGCC
CGCGCA   0.29 ACGCGCC
CGCGCA   0.29 AACGCGC
CGCGCA   0.29 GCGCAA
CGCGCA   0.29 GCGCGCA
CGCGCA   0.29 CGCGCCA
CGCGCA   0.29 GGCGCGA
CGCGCA   0.29 CCGCGCC
CGCGCA   0.29 ACCGCGC
CGCGCA   0.29 ACGCGCA
CGCGCA   0.29 GCGCGAA
CGCGCA   0.29 ACGCGCT
CGCGCA   0.29 AGGCGCA
CGCGCA   0.29 AAGCGCG
CGCGCA   0.29 AGCGCGA
CGCGCA   0.29 CCGCGAA
ACCGTA   0.29 TACCGTA
ACCGTA   0.29 ACCGTAG
GGCGCA   0.29 GCGCAC
GGCGCA   0.29 GCGCGCC
GGCGCA   0.29 AGGCGC
GGCGCA   0.29 CGCGCCG
GGCGCA   0.29 ATGCGCC
GGCGCA   0.29 ACGCGCC
GGCGCA   0.29 AAGGCGC
GGCGCA   0.29 GCGCAA
GGCGCA   0.29 GCGCGCA
GGCGCA   0.29 CGCGCCA
GGCGCA   0.29 GGCGCGA
GGCGCA   0.29 CCGCGCC
GGCGCA   0.29 ACGCGCA
GGCGCA   0.29 AGGCGCA
GGCGCA   0.29 GCGCCGC
GGCGCA   0.29 GCGCCGA
GCGCAC   0.29 GCGCGCC
GCGCAC   0.29 CGCGCTC
GCGCAC   0.29 GTACGCA
GCGCAC   0.29 ATGCGCC
GCGCAC   0.17 GCGCAA
GCGCAC   0.29 GCGCGCA
GCGCAC   0.29 ACGCGCA
GCGCAC   0.29 AGGCGCA
GCGCAC   0.29 CCGTGCG
CGCGAA   0.17 TGCGAA
CGCGAA   0.29 GCGCGCA
CGCGAA   0.29 GGCGCGA
CGCGAA   0.29 ACGCGCA
CGCGAA   0.29 GCGCGAA
CGCGAA   0.29 CGCGACG
CGCGAA   0.29 AGCGCGA
CGCGAA   0.29 CCGCGAA
CGCGAA   0.17 AGCGAA
GCGCGCC   0.29 CGCGCTC
GCGCGCC   0.29 AGGCGC
GCGCGCC   0.29 CGCGCCG
GCGCGCC   0.29 ACGCGCG
GCGCGCC   0.29 CCGCGCG
GCGCGCC   0.29 ATGCGCC
GCGCGCC   0.29 ACGCGCC
GCGCGCC   0.29 AAGGCGC
GCGCGCC   0.29 AACGCGC
GCGCGCC   0.29 GCGCGCA
GCGCGCC   0.29 CGCGCCA
GCGCGCC   0.29 GGCGCGA
GCGCGCC   0.29 CCGCGCC
GCGCGCC   0.29 ACCGCGC
GCGCGCC   0.29 ACGCGCA
GCGCGCC   0.29 GCGCGAA
GCGCGCC   0.29 ACGCGCT
GCGCGCC   0.29 GCGAGAC
GCGCGCC   0.29 AGGCGCA
GCGCGCC   0.29 GCGCCGC
GCGCGCC   0.29 GCGCCGA
GCGCGCC   0.29 AAGCGCG
GCGCGCC   0.29 AGCGCGA
CGCGCTC   0.29 CGCGCCG
CGCGCTC   0.29 ACGCGCG
CGCGCTC   0.29 CCGCGCG
CGCGCTC   0.29 ACGCGCC
CGCGCTC   0.29 AACGCGC
CGCGCTC   0.29 GCGCGCA
CGCGCTC   0.29 CGCGCCA
CGCGCTC   0.29 GGCGCGA
CGCGCTC   0.29 CCGCGCC
CGCGCTC   0.29 ACCGCGC
CGCGCTC   0.29 ACGCGCA
CGCGCTC   0.29 GCGCGAA
CGCGCTC   0.29 ACGCGCT
CGCGCTC   0.29 AAGCGCG
CGCGCTC   0.29 AGCGCGA
AGGCGC   0.29 CGCGCCG
AGGCGC   0.29 ACGCGCG
AGGCGC   0.29 ATGCGCC
AGGCGC   0.29 ACGCGCC
AGGCGC   0.29 AAGGCGC
AGGCGC   0.29 AACGCGC
AGGCGC   0.29 CGCGCCA
AGGCGC   0.29 GGCGCGA
AGGCGC   0.29 CCGCGCC
AGGCGC   0.29 ACGCGCA
AGGCGC   0.29 ACGCGCT
AGGCGC   0.29 AGGCGCA
AGGCGC   0.29 GCGCCGC
AGGCGC   0.29 GCGCCGA
AGGCGC   0.29 AAGCGCG
GTACGCA   0.29 TGCGAA
GTACGCA   0.29 GCGCGCA
GTACGCA   0.29 ACGCAG
TGCGAA   0.29 TCGCAA
TGCGAA   0.29 GCGCGAA
TGCGAA   0.29 CCGCGAA
TGCGAA   0.17 AGCGAA
CGCGCCG   0.29 ACGCGCG
CGCGCCG   0.29 CCGCGCG
CGCGCCG   0.29 ATGCGCC
CGCGCCG   0.29 ACGCGCC
CGCGCCG   0.29 AAGGCGC
CGCGCCG   0.29 AACGCGC
CGCGCCG   0.29 GCGCGCA
CGCGCCG   0.29 CGCGCCA
CGCGCCG   0.29 GGCGCGA
CGCGCCG   0.29 CCGCGCC
CGCGCCG   0.29 ACCGCGC
CGCGCCG   0.29 ACGCGCA
CGCGCCG   0.29 GCGCGAA
CGCGCCG   0.29 ACGCGCT
CGCGCCG   0.29 AGGCGCA
CGCGCCG   0.29 CGCAGCG
CGCGCCG   0.14 CGACGCG
CGCGCCG   0.29 CCGTGCG
CGCGCCG   0.29 CGCCACG
CGCGCCG   0.29 GCGCCGC
CGCGCCG   0.14 CGCGACG
CGCGCCG   0.29 GCGCCGA
CGCGCCG   0.29 AAGCGCG
CGCGCCG   0.29 AGCGCGA
TACCGTA   0.29 ACCGTAG
ACGCGCG   0.29 CCGCGCG
ACGCGCG   0.29 ATGCGCC
ACGCGCG   0.29 ACGCGCC
ACGCGCG   0.29 AACGCGC
ACGCGCG   0.29 GCGCGCA
ACGCGCG   0.29 CGCGCCA
ACGCGCG   0.29 GGCGCGA
ACGCGCG   0.29 CCGCGCC
ACGCGCG   0.29 ACCGCGC
ACGCGCG   0.29 ACGCGCA
ACGCGCG   0.29 GCGCGAA
ACGCGCG   0.29 ACGCGCT
ACGCGCG   0.29 AGGCGCA
ACGCGCG   0.29 CGACGCG
ACGCGCG   0.29 CCGTGCG
ACGCGCG   0.29 AAGCGCG
ACGCGCG   0.29 AGCGCGA
CCGCGCG   0.29 ACGCGCC
CCGCGCG   0.29 AACGCGC
CCGCGCG   0.29 GCGCGCA
CCGCGCG   0.29 CGCGCCA
CCGCGCG   0.29 GGCGCGA
CCGCGCG   0.29 CCGCGCC
CCGCGCG   0.29 ACCGCGC
CCGCGCG   0.29 ACGCGCA
CCGCGCG   0.29 GCGCGAA
CCGCGCG   0.29 ACGCGCT
CCGCGCG   0.29 CGACGCG
CCGCGCG   0.14 CCGTGCG
CCGCGCG   0.29 CGCGACG
CCGCGCG   0.29 AAGCGCG
CCGCGCG   0.29 AGCGCGA
CCGCGCG   0.29 CCGCGAA
CGAGACC   0.29 GCGAGAC
CGAGACC   0.29 CGCGACG
CGAGACC   0.29 GCGAGA
ATGCGCC   0.29 ACGCGCC
ATGCGCC   0.29 AAGGCGC
ATGCGCC   0.29 GCGCAA
ATGCGCC   0.29 GCGCGCA
ATGCGCC   0.29 CGCGCCA
ATGCGCC   0.29 GGCGCGA
ATGCGCC   0.29 CCGCGCC
ATGCGCC   0.29 ACGCGCA
ATGCGCC   0.29 ACGCGCT
ATGCGCC   0.29 AATGCG
ATGCGCC   0.29 AGGCGCA
ATGCGCC   0.29 GCGCCGC
ATGCGCC   0.29 GCGCCGA
ATGCGCC   0.29 AAGCGCG
ACGCGCC   0.29 AAGGCGC
ACGCGCC   0.29 AACGCGC
ACGCGCC   0.29 GCGCGCA
ACGCGCC   0.29 CGCGCCA
ACGCGCC   0.29 GGCGCGA
ACGCGCC   0.29 CCGCGCC
ACGCGCC   0.29 ACCGCGC
ACGCGCC   0.29 ACGCGCA
ACGCGCC   0.29 GCGCGAA
ACGCGCC   0.29 ACGCGCT
ACGCGCC   0.29 AGGCGCA
ACGCGCC   0.29 CGACGCG
ACGCGCC   0.29 GCGCCGC
ACGCGCC   0.29 GCGCCGA
ACGCGCC   0.29 AAGCGCG
ACGCGCC   0.29 AGCGCGA
AAGGCGC   0.14 AACGCGC
AAGGCGC   0.29 CGCGCCA
AAGGCGC   0.29 GGCGCGA
AAGGCGC   0.29 CCGCGCC
AAGGCGC   0.29 ACCGCGC
AAGGCGC   0.29 AATGCG
AAGGCGC   0.29 AGGCGCA
AAGGCGC   0.29 GCGCCGC
AAGGCGC   0.29 GCGCCGA
AACGCGC   0.29 GCGCGCA
AACGCGC   0.29 CGCGCCA
AACGCGC   0.29 GGCGCGA
AACGCGC   0.29 CCGCGCC
AACGCGC   0.29 ACCGCGC
AACGCGC   0.29 ACGCGCA
AACGCGC   0.29 GCGCGAA
AACGCGC   0.29 ACGCGCT
AACGCGC   0.29 AATGCG
AACGCGC   0.29 CGACGCG
AACGCGC   0.29 AAGCGCG
AACGCGC   0.29 AGCGCGA
GCGCAA   0.29 GCGCGCA
GCGCAA   0.29 CGCGCCA
GCGCAA   0.17 TCGCAA
GCGCAA   0.29 GGCGCGA
GCGCAA   0.29 ACGCGCA
GCGCAA   0.29 GCGCGAA
GCGCAA   0.29 AGGCGCA
GCGCAA   0.29 AGCGCGA
GCGCGCA   0.29 CGCGCCA
GCGCGCA   0.29 GGCGCGA
GCGCGCA   0.29 CCGCGCC
GCGCGCA   0.29 ACCGCGC
GCGCGCA   0.29 ACGCGCA
GCGCGCA   0.29 GCGCGAA
GCGCGCA   0.29 ACGCGCT
GCGCGCA   0.29 AGGCGCA
GCGCGCA   0.29 GCGCCGA
GCGCGCA   0.29 AAGCGCG
GCGCGCA   0.29 AGCGCGA
GCGCGCA   0.29 CCGCGAA
CGCGCCA   0.29 GGCGCGA
CGCGCCA   0.29 CCGCGCC
CGCGCCA   0.29 ACCGCGC
CGCGCCA   0.29 ACGCGCA
CGCGCCA   0.29 GCGCGAA
CGCGCCA   0.29 ACGCGCT
CGCGCCA   0.29 AGGCGCA
CGCGCCA   0.29 CGACGCG
CGCGCCA   0.29 CGCCACG
CGCGCCA   0.29 GCGCCGC
CGCGCCA   0.29 CGCGACG
CGCGCCA   0.29 GCGCCGA
CGCGCCA   0.29 AAGCGCG
CGCGCCA   0.29 AGCGCGA
GGCGCGA   0.29 CCGCGCC
GGCGCGA   0.29 ACCGCGC
GGCGCGA   0.29 ACGCGCA
GGCGCGA   0.29 GCGCGAA
GGCGCGA   0.29 ACGCGCT
GGCGCGA   0.29 AGGCGCA
GGCGCGA   0.29 GCGCCGC
GGCGCGA   0.29 CGCGACG
GGCGCGA   0.29 GCGCCGA
GGCGCGA   0.29 GCGAGA
GGCGCGA   0.29 AAGCGCG
GGCGCGA   0.29 AGCGCGA
GGCGCGA   0.29 CCGCGAA
CCGCGCC   0.29 ACCGCGC
CCGCGCC   0.29 ACGCGCA
CCGCGCC   0.29 GCGCGAA
CCGCGCC   0.29 ACGCGCT
CCGCGCC   0.29 AGGCGCA
CCGCGCC   0.29 CCGTGCG
CCGCGCC   0.29 GCGCCGC
CCGCGCC   0.29 GCGCCGA
CCGCGCC   0.29 AAGCGCG
CCGCGCC   0.29 AGCGCGA
CCGCGCC   0.29 CCGCGAA
ACCGCGC   0.29 ACGCGCA
ACCGCGC   0.29 GCGCGAA
ACCGCGC   0.29 ACGCGCT
ACCGCGC   0.29 GCGCCGC
ACCGCGC   0.29 GCGCCGA
ACCGCGC   0.29 AAGCGCG
ACCGCGC   0.29 AGCGCGA
ACCGCGC   0.29 CCGCGAA
ACGCGCA   0.29 GCGCGAA
ACGCGCA   0.29 ACGCGCT
ACGCGCA   0.29 AGGCGCA
ACGCGCA   0.29 CGACGCG
ACGCGCA   0.29 AAGCGCG
ACGCGCA   0.29 AGCGCGA
ACGCGCA   0.29 CCGCGAA
GCGCGAA   0.29 ACGCGCT
GCGCGAA   0.29 GCGAGAC
GCGCGAA   0.29 CGCGACG
GCGCGAA   0.29 GCGCCGA
GCGCGAA   0.29 GCGAGA
GCGCGAA   0.29 AAGCGCG
GCGCGAA   0.29 AGCGCGA
GCGCGAA   0.29 CCGCGAA
GCGCGAA   0.29 AGCGAA
ACGCGCT   0.29 AGGCGCA
ACGCGCT   0.29 CGACGCG
ACGCGCT   0.29 AAGCGCG
ACGCGCT   0.29 AGCGCGA
ACGCAG   0.29 CGCAGCG
GCGAGAC   0.29 GCGAGA
AATGCG   0.17 AATTCG
AGGCGCA   0.29 GCGCCGC
AGGCGCA   0.29 GCGCCGA
AGGCGCA   0.29 AAGCGCG
CGCAGCG   0.29 CGACGCG
CGCAGCG   0.29 CCGTGCG
CGCAGCG   0.29 CGCCACG
CGCAGCG   0.29 CGCGACG
CGACGCG   0.29 CGCCACG
CGACGCG   0.29 CGCGACG
CGCCACG   0.14 CGCGACG
GCGCCGC   0.29 GCGCCGA
CGCGACG   0.29 AGCGCGA
CGCGACG   0.29 CCGCGAA
GCGAGA   0.29 AGCGCGA
AAGCGCG   0.29 AGCGCGA
AGCGCGA   0.29 CCGCGAA
CCGCGAA   0.29 AGCGAA
