hit
CCTAAGC = 0.00828
CTAAGCC = 0.00932
CTTATC = 0.14286
GATAAGC = 0.02588
GCCTAC = 0.06004
GCAGGTA = 0.01242
AGGTAGG = 0.00828
AACCTT = 0.18841
GGCCTAA = 0.04451
GCCGCC = 0.07453
AGAAGC = 0.14286
ACTTCC = 0.12422
AAGCCT = 0.09213
GTGGCA = 0.07660
AACGTG = 0.13147
AGAAGCC = 0.01863
TAGGCA = 0.08178
AGCTTC = 0.13251
GGAGGA = 0.14286
CTTCAC = 0.16046
GTGCCAC = 0.00932
CCGCGC = 0.11284
CCTCCA = 0.10870
AGCAGCC = 0.03520
CTTCGGC = 0.02692
GCCACAC = 0.01760
AGGAAG = 0.15528
CGGCTGC = 0.02692
GCATGCC = 0.01656
CCACCTC = 0.01656
AACCGGC = 0.02174
CGTCGGC = 0.01656
CCTTCA = 0.14596
AGGAGG = 0.11491
AAGGTG = 0.13147
CGCCAGC = 0.03830
TCCGAA = 0.17598
GATGGCA = 0.02588
AAGTGG = 0.16356
GGACAGA = 0.02174
AAGGACA = 0.03106
ACGCAG = 0.17391
CTGATAA = 0.07867
AAGAAGC = 0.05797
AGAGGTG = 0.01967
CTTCACC = 0.03209
AGAAGCT = 0.04451
CCTCCAC = 0.01760
GCGGAGA = 0.03520
CGCAAGA = 0.02070
