WBGene00023532
WBGene00023571
WBGene00000324
WBGene00000343
WBGene00023525
WBGene00023554
WBGene00023583
WBGene00023541
WBGene00023556
WBGene00023527
WBGene00023569
WBGene00023576
WBGene00023562
WBGene00023538
WBGene00023573
WBGene00023546
WBGene00000333
WBGene00023555
WBGene00023536
WBGene00023542
WBGene00023537
WBGene00023575
WBGene00023521
WBGene00023535
WBGene00023552
WBGene00023585
WBGene00023577
WBGene00023681
WBGene00023676
WBGene00023607
WBGene00023641
WBGene00023638
WBGene00023603
WBGene00023633
WBGene00023609
WBGene00023665
WBGene00023589
WBGene00023645
WBGene00023614
WBGene00023636
WBGene00023689
WBGene00023691
WBGene00023668
WBGene00023634
WBGene00023699
WBGene00023586
WBGene00023602
WBGene00023659
WBGene00023597
WBGene00023673
WBGene00023615
WBGene00023804
WBGene00023769
WBGene00023768
WBGene00023764
WBGene00023830
WBGene00023819
WBGene00023713
WBGene00023759
WBGene00023842
WBGene00023777
WBGene00023837
WBGene00023748
WBGene00023792
WBGene00023711
WBGene00023776
WBGene00023756
WBGene00023824
WBGene00023892
WBGene00023889
WBGene00023848
WBGene00023757
WBGene00023812
WBGene00023758
WBGene00023805
WBGene00023783
WBGene00023771
WBGene00023791
WBGene00023862
WBGene00023706
WBGene00023893
WBGene00023841
WBGene00023716
WBGene00023822
WBGene00023729
WBGene00023772
WBGene00023710
WBGene00023835
WBGene00023773
WBGene00023775
WBGene00023831
WBGene00023857
WBGene00023843
WBGene00023782
WBGene00023871
WBGene00023808
WBGene00023838
WBGene00023836
WBGene00023714
WBGene00023720
WBGene00023852
WBGene00023815
WBGene00023834
WBGene00023826
WBGene00023785
WBGene00023849
WBGene00023774
WBGene00023814
WBGene00023846
WBGene00023762
WBGene00024246
WBGene00024177
WBGene00024055
WBGene00024007
WBGene00023945
WBGene00023926
WBGene00024295
WBGene00024228
WBGene00024117
WBGene00024115
WBGene00024213
WBGene00024040
WBGene00024167
WBGene00024075
WBGene00024044
WBGene00023988
WBGene00023965
WBGene00024080
WBGene00024067
WBGene00024008
WBGene00024264
WBGene00024311
WBGene00024253
WBGene00024289
WBGene00023958
WBGene00024182
WBGene00023944
WBGene00024176
WBGene00024104
WBGene00024280
WBGene00023915
WBGene00024328
WBGene00024231
WBGene00023951
WBGene00024046
WBGene00023933
WBGene00024208
WBGene00024303
WBGene00024157
WBGene00024013
WBGene00024034
WBGene00024121
WBGene00024202
WBGene00024315
WBGene00024301
WBGene00024022
WBGene00024021
WBGene00023987
WBGene00023938
WBGene00024251
WBGene00024028
WBGene00024220
WBGene00023947
WBGene00024032
WBGene00024283
WBGene00024294
WBGene00023985
WBGene00024308
WBGene00024019
WBGene00024210
WBGene00024060
WBGene00024296
WBGene00024223
WBGene00024161
WBGene00024053
WBGene00023994
WBGene00024230
WBGene00024199
WBGene00023922
WBGene00024278
WBGene00024054
WBGene00024247
WBGene00024189
WBGene00024025
WBGene00024258
WBGene00024051
WBGene00023941
WBGene00024014
WBGene00023996
WBGene00024178
WBGene00023925
WBGene00023972
WBGene00024226
WBGene00024244
WBGene00024026
WBGene00024190
WBGene00024068
WBGene00024285
WBGene00024103
WBGene00023989
WBGene00023984
WBGene00024191
WBGene00024256
WBGene00024017
WBGene00024145
WBGene00024124
WBGene00023973
WBGene00024260
WBGene00024029
WBGene00024123
WBGene00024077
WBGene00024142
WBGene00023911
WBGene00024069
WBGene00024198
WBGene00024300
WBGene00023990
WBGene00024205
WBGene00024322
WBGene00024056
WBGene00024291
WBGene00024105
WBGene00024002
WBGene00023923
WBGene00024113
WBGene00024090
WBGene00024164
WBGene00024329
WBGene00023937
WBGene00024156
WBGene00024274
WBGene00024272
WBGene00024059
WBGene00024181
WBGene00024035
WBGene00024079
WBGene00024063
WBGene00024012
WBGene00024033
WBGene00024327
WBGene00024326
WBGene00024318
WBGene00024299
WBGene00023986
WBGene00024081
WBGene00024288
WBGene00024307
WBGene00024266
WBGene00023968
WBGene00023931
WBGene00025007
WBGene00024881
WBGene00025134
WBGene00025000
WBGene00024572
WBGene00025120
WBGene00024692
WBGene00025084
WBGene00025029
WBGene00024988
WBGene00025065
WBGene00024794
WBGene00024779
WBGene00024749
WBGene00024744
WBGene00025049
WBGene00025174
WBGene00025051
WBGene00024701
WBGene00024941
WBGene00024770
WBGene00024702
WBGene00024840
WBGene00024826
WBGene00024854
WBGene00024604
WBGene00024433
WBGene00024926
WBGene00024888
WBGene00024342
WBGene00024623
WBGene00024916
WBGene00025116
WBGene00025073
WBGene00024719
WBGene00024852
WBGene00025078
WBGene00024992
WBGene00024808
WBGene00024402
WBGene00025100
WBGene00024897
WBGene00025196
WBGene00025177
WBGene00024366
WBGene00025015
WBGene00024764
WBGene00024474
WBGene00024439
WBGene00024513
WBGene00025076
WBGene00024739
WBGene00024373
WBGene00024923
WBGene00024786
WBGene00024538
WBGene00025103
WBGene00025020
WBGene00024877
WBGene00024614
WBGene00024558
WBGene00024394
WBGene00024393
WBGene00024948
WBGene00024535
WBGene00024890
WBGene00024815
WBGene00024847
WBGene00024775
WBGene00024638
WBGene00024628
WBGene00024383
WBGene00024921
WBGene00024805
WBGene00024347
WBGene00024354
WBGene00024334
WBGene00024658
WBGene00024943
WBGene00024710
WBGene00024453
WBGene00024351
WBGene00025024
WBGene00025204
WBGene00024967
WBGene00024835
WBGene00024695
WBGene00024907
WBGene00024972
WBGene00025105
WBGene00025014
WBGene00025018
WBGene00024431
WBGene00025164
WBGene00025107
WBGene00024917
WBGene00024811
WBGene00024521
WBGene00024332
WBGene00024889
WBGene00025080
WBGene00024408
WBGene00024898
WBGene00024360
WBGene00024356
WBGene00024817
WBGene00024340
WBGene00024900
WBGene00025146
WBGene00024591
WBGene00024548
WBGene00025028
WBGene00025011
WBGene00024804
WBGene00025130
WBGene00024906
WBGene00024843
WBGene00024616
WBGene00024362
WBGene00025041
WBGene00024935
WBGene00024838
WBGene00024527
WBGene00024735
WBGene00024376
WBGene00024705
WBGene00025010
WBGene00025085
WBGene00024947
WBGene00024827
WBGene00025070
WBGene00024975
WBGene00024830
WBGene00024571
WBGene00024565
WBGene00025201
WBGene00024557
WBGene00024753
WBGene00024911
WBGene00024977
WBGene00024832
WBGene00025094
WBGene00024723
WBGene00025052
WBGene00025110
WBGene00025131
WBGene00024927
WBGene00025136
WBGene00024703
WBGene00024781
WBGene00024756
WBGene00025167
WBGene00025012
WBGene00024436
WBGene00024845
WBGene00024807
WBGene00024849
WBGene00024737
WBGene00024330
WBGene00025170
WBGene00024883
WBGene00024848
WBGene00024537
WBGene00024836
WBGene00025079
WBGene00025064
WBGene00024617
WBGene00024922
WBGene00025195
WBGene00024697
WBGene00024825
WBGene00025117
WBGene00024495
WBGene00024352
WBGene00025175
WBGene00024933
WBGene00024800
WBGene00025054
WBGene00025082
WBGene00025030
WBGene00025017
WBGene00024712
WBGene00025199
WBGene00024915
WBGene00024398
WBGene00025135
WBGene00024771
WBGene00025165
WBGene00025001
WBGene00025181
WBGene00025115
WBGene00024787
WBGene00025125
WBGene00024820
WBGene00024929
WBGene00024814
WBGene00024875
WBGene00024713
WBGene00025039
WBGene00024531
WBGene00024384
WBGene00025056
WBGene00024650
WBGene00024532
WBGene00024644
WBGene00025077
WBGene00024861
WBGene00024380
WBGene00025187
WBGene00025066
WBGene00025057
WBGene00025016
WBGene00024698
WBGene00024743
WBGene00024905
WBGene00025176
WBGene00025197
WBGene00024860
WBGene00024355
WBGene00024994
WBGene00024477
WBGene00024990
WBGene00024809
WBGene00024844
WBGene00024745
WBGene00024331
WBGene00024868
WBGene00024341
WBGene00024931
WBGene00025182
WBGene00024562
WBGene00025040
WBGene00024672
WBGene00024382
WBGene00025042
WBGene00024991
WBGene00024803
WBGene00024789
WBGene00024639
WBGene00024353
WBGene00025013
WBGene00024976
WBGene00024637
WBGene00024961
WBGene00024722
WBGene00024878
WBGene00024851
WBGene00025903
WBGene00025739
WBGene00025251
WBGene00026211
WBGene00025582
WBGene00025372
WBGene00026154
WBGene00026059
WBGene00025886
WBGene00026122
WBGene00025647
WBGene00026015
WBGene00025962
WBGene00025366
WBGene00026220
WBGene00026051
WBGene00025948
WBGene00025556
WBGene00026341
WBGene00025321
WBGene00025771
WBGene00025291
WBGene00025399
WBGene00026336
WBGene00026255
WBGene00026055
WBGene00026014
WBGene00026360
WBGene00026325
WBGene00026184
WBGene00026083
WBGene00026205
WBGene00025428
WBGene00025892
WBGene00025282
WBGene00025761
WBGene00025377
WBGene00026000
WBGene00026278
WBGene00026198
WBGene00025810
WBGene00025829
WBGene00025735
WBGene00025356
WBGene00025424
WBGene00025938
WBGene00025659
WBGene00026098
WBGene00026293
WBGene00026216
WBGene00025598
WBGene00025972
WBGene00026245
WBGene00025602
WBGene00025363
WBGene00025304
WBGene00025222
WBGene00025801
WBGene00025627
WBGene00025544
WBGene00025418
WBGene00025326
WBGene00026313
WBGene00026113
WBGene00025429
WBGene00026228
WBGene00026052
WBGene00025849
WBGene00025461
WBGene00026246
WBGene00025343
WBGene00026282
WBGene00025330
WBGene00026049
WBGene00025819
WBGene00025362
WBGene00026179
WBGene00026105
WBGene00025300
WBGene00026127
WBGene00025500
WBGene00025434
WBGene00025725
WBGene00025907
WBGene00025897
WBGene00025861
WBGene00026302
WBGene00026287
WBGene00025833
WBGene00025477
WBGene00025387
WBGene00025593
WBGene00025528
WBGene00025883
WBGene00025564
WBGene00025504
WBGene00026306
WBGene00025784
WBGene00026290
WBGene00025743
WBGene00025858
WBGene00025720
WBGene00025410
WBGene00025469
WBGene00025546
WBGene00025487
WBGene00026347
WBGene00025796
WBGene00025425
WBGene00025922
WBGene00025591
WBGene00025658
WBGene00026259
WBGene00025438
WBGene00026201
WBGene00026157
WBGene00025777
WBGene00026194
WBGene00025214
WBGene00026318
WBGene00025581
WBGene00025957
WBGene00025297
WBGene00025821
WBGene00025728
WBGene00026344
WBGene00025384
WBGene00025887
WBGene00025422
WBGene00026170
WBGene00026195
WBGene00025740
WBGene00025578
WBGene00025531
WBGene00026206
WBGene00025648
WBGene00026108
WBGene00025347
WBGene00026267
WBGene00025653
WBGene00025322
WBGene00025923
WBGene00026021
WBGene00025439
WBGene00026337
WBGene00025630
WBGene00025588
WBGene00025374
WBGene00025351
WBGene00025663
WBGene00026272
WBGene00025625
WBGene00026357
WBGene00026199
WBGene00025750
WBGene00025327
WBGene00026090
WBGene00026124
WBGene00026126
WBGene00025898
WBGene00025398
WBGene00026351
WBGene00025512
WBGene00026168
WBGene00026111
WBGene00025982
WBGene00025878
WBGene00025850
WBGene00025596
WBGene00025609
WBGene00026324
WBGene00025828
WBGene00025912
WBGene00026067
WBGene00025405
WBGene00026017
WBGene00025638
WBGene00025604
WBGene00025723
WBGene00025617
WBGene00026075
WBGene00026063
WBGene00025826
WBGene00026354
WBGene00025997
WBGene00026117
WBGene00026225
WBGene00025610
WBGene00025633
WBGene00025454
WBGene00025301
WBGene00026147
WBGene00025839
WBGene00025551
WBGene00025375
WBGene00025840
WBGene00025978
WBGene00025560
WBGene00025466
WBGene00026288
WBGene00025757
WBGene00025644
WBGene00025495
WBGene00025818
WBGene00026250
WBGene00025318
WBGene00025954
WBGene00026116
WBGene00025565
WBGene00026048
WBGene00025476
WBGene00026209
WBGene00025670
WBGene00025365
WBGene00026256
WBGene00026285
WBGene00025847
WBGene00025569
WBGene00025426
WBGene00025960
WBGene00025798
WBGene00025988
WBGene00025307
WBGene00025441
WBGene00025392
WBGene00025641
WBGene00025608
WBGene00025932
WBGene00025621
WBGene00025524
WBGene00025724
WBGene00025944
WBGene00025456
WBGene00026204
WBGene00026165
WBGene00026104
WBGene00025752
WBGene00026262
WBGene00025555
WBGene00026037
WBGene00025835
WBGene00025538
WBGene00026210
WBGene00026151
WBGene00025857
WBGene00026162
WBGene00025919
WBGene00025306
WBGene00025797
WBGene00025503
WBGene00026087
WBGene00025385
WBGene00025475
WBGene00025328
WBGene00025664
WBGene00026203
WBGene00025323
WBGene00026125
WBGene00025657
WBGene00025830
WBGene00025695
WBGene00025432
WBGene00025590
WBGene00025940
WBGene00025452
WBGene00026081
WBGene00025945
WBGene00025215
WBGene00026174
WBGene00025614
WBGene00025652
WBGene00025741
WBGene00026045
WBGene00025877
WBGene00025419
WBGene00025645
WBGene00025775
WBGene00026085
WBGene00025562
WBGene00025807
WBGene00025600
WBGene00026091
WBGene00025218
WBGene00026196
WBGene00026275
WBGene00025661
WBGene00026323
WBGene00025782
WBGene00025518
WBGene00026110
WBGene00025732
WBGene00025970
WBGene00025913
WBGene00025905
WBGene00025809
WBGene00025841
WBGene00025540
WBGene00025223
WBGene00025534
WBGene00026129
WBGene00025916
WBGene00026119
WBGene00025360
WBGene00025479
WBGene00026213
WBGene00025380
WBGene00025235
WBGene00026137
WBGene00025413
WBGene00025513
WBGene00026343
WBGene00026149
WBGene00026182
WBGene00026062
WBGene00025526
WBGene00025353
WBGene00025924
WBGene00025838
WBGene00025305
WBGene00025975
WBGene00026185
WBGene00025302
WBGene00026321
WBGene00026300
WBGene00025639
WBGene00025492
WBGene00025354
WBGene00026308
WBGene00026092
WBGene00026305
WBGene00026036
WBGene00025444
WBGene00025533
WBGene00025379
WBGene00025800
WBGene00025901
WBGene00025467
WBGene00025635
WBGene00025716
WBGene00025958
WBGene00025244
WBGene00026333
WBGene00026284
WBGene00026221
WBGene00025995
WBGene00025987
WBGene00025489
WBGene00026254
WBGene00026146
WBGene00025332
WBGene00026004
WBGene00025226
WBGene00025368
WBGene00025573
WBGene00025846
WBGene00025378
WBGene00025412
WBGene00025640
WBGene00025971
WBGene00026066
WBGene00026279
WBGene00025620
WBGene00025880
WBGene00025391
WBGene00026338
WBGene00025727
WBGene00025690
WBGene00026013
WBGene00026029
WBGene00026239
WBGene00025921
WBGene00025941
WBGene00025236
WBGene00025721
WBGene00025906
WBGene00026188
WBGene00025925
WBGene00025811
WBGene00026207
WBGene00025646
WBGene00026061
WBGene00026080
WBGene00026277
WBGene00025548
WBGene00025521
WBGene00026031
WBGene00025952
WBGene00026178
WBGene00026114
WBGene00026109
WBGene00025926
WBGene00025759
WBGene00025611
WBGene00025703
WBGene00026226
WBGene00025920
WBGene00026180
WBGene00026035
WBGene00025501
WBGene00025731
WBGene00025381
WBGene00025417
WBGene00025445
WBGene00025299
WBGene00026311
WBGene00025229
WBGene00025744
WBGene00025780
WBGene00026057
WBGene00025893
WBGene00025882
WBGene00025754
WBGene00026237
WBGene00026261
WBGene00026099
WBGene00025963
WBGene00026016
WBGene00026340
WBGene00025530
WBGene00025806
WBGene00025842
WBGene00025463
WBGene00026100
WBGene00025832
WBGene00025245
WBGene00025494
WBGene00026317
WBGene00025416
WBGene00025552
WBGene00025768
WBGene00026139
WBGene00025655
WBGene00026222
WBGene00025529
WBGene00026248
WBGene00026120
WBGene00025896
WBGene00025707
WBGene00026123
WBGene00025747
WBGene00025572
WBGene00025848
WBGene00025632
WBGene00025340
WBGene00026242
WBGene00026253
WBGene00025876
WBGene00025407
WBGene00025303
WBGene00025333
WBGene00025619
WBGene00026271
WBGene00025505
WBGene00025666
WBGene00025959
WBGene00026307
WBGene00025247
WBGene00026265
WBGene00025778
WBGene00025855
WBGene00025612
WBGene00025967
WBGene00026291
WBGene00025824
WBGene00026175
WBGene00025514
WBGene00026276
WBGene00025576
WBGene00026009
WBGene00025691
WBGene00026039
WBGene00025937
WBGene00025733
WBGene00026327
WBGene00026106
WBGene00026128
WBGene00026019
WBGene00025393
WBGene00025348
WBGene00025584
WBGene00025686
WBGene00029447
WBGene00026901
WBGene00029003
WBGene00029340
WBGene00027242
WBGene00029215
WBGene00029337
WBGene00028976
WBGene00029553
WBGene00027740
WBGene00026567
WBGene00026556
WBGene00027608
WBGene00027221
WBGene00026922
WBGene00027662
WBGene00028869
WBGene00027725
WBGene00027400
WBGene00026751
WBGene00027763
WBGene00028398
WBGene00026403
WBGene00028074
WBGene00026854
WBGene00028779
WBGene00027868
WBGene00027630
WBGene00028140
WBGene00027017
WBGene00028505
WBGene00027252
WBGene00029498
WBGene00026811
WBGene00026523
WBGene00027814
WBGene00026650
WBGene00027704
WBGene00026618
WBGene00028811
WBGene00028821
WBGene00026872
WBGene00029570
WBGene00029105
WBGene00028435
WBGene00026772
WBGene00029419
WBGene00028460
WBGene00027871
WBGene00029576
WBGene00029134
WBGene00026843
WBGene00029232
WBGene00026602
WBGene00027086
WBGene00026916
WBGene00029488
WBGene00028438
WBGene00029187
WBGene00029050
WBGene00027621
WBGene00028426
WBGene00026971
WBGene00028447
WBGene00027702
WBGene00026682
WBGene00029023
WBGene00028649
WBGene00028479
WBGene00027366
WBGene00027706
WBGene00029249
WBGene00028308
WBGene00027677
WBGene00027776
WBGene00028201
WBGene00028036
WBGene00027643
WBGene00028834
WBGene00028264
WBGene00026825
WBGene00028113
WBGene00028275
WBGene00028817
WBGene00028444
WBGene00026910
WBGene00029500
WBGene00027459
WBGene00027058
WBGene00026444
WBGene00028358
WBGene00026762
WBGene00028294
WBGene00027635
WBGene00027589
WBGene00029233
WBGene00027613
WBGene00026733
WBGene00029424
WBGene00028637
WBGene00027568
WBGene00026520
WBGene00028469
WBGene00026580
WBGene00028714
WBGene00027122
WBGene00026896
WBGene00026836
WBGene00026572
WBGene00029459
WBGene00027880
WBGene00026561
WBGene00028510
WBGene00028977
WBGene00028181
WBGene00029541
WBGene00027982
WBGene00027838
WBGene00026681
WBGene00027420
WBGene00027208
WBGene00027061
WBGene00028315
WBGene00026741
WBGene00027805
WBGene00027388
WBGene00027365
WBGene00026488
WBGene00028926
WBGene00026706
WBGene00028385
WBGene00029490
WBGene00027775
WBGene00028350
WBGene00027948
WBGene00029437
WBGene00028975
WBGene00029336
WBGene00028528
WBGene00027227
WBGene00026603
WBGene00028436
WBGene00027033
WBGene00028567
WBGene00026571
WBGene00028495
WBGene00026510
WBGene00028101
WBGene00028033
WBGene00027243
WBGene00026915
WBGene00026887
WBGene00027607
WBGene00026465
WBGene00028177
WBGene00028518
WBGene00028014
WBGene00029163
WBGene00029205
WBGene00028630
WBGene00027846
WBGene00027269
WBGene00029434
WBGene00027755
WBGene00027490
WBGene00029476
WBGene00029499
WBGene00028559
WBGene00026842
WBGene00027832
WBGene00029053
WBGene00026921
WBGene00026860
WBGene00026692
WBGene00027251
WBGene00028359
WBGene00029467
WBGene00028822
WBGene00028943
WBGene00027303
WBGene00027464
WBGene00028998
WBGene00029169
WBGene00027774
WBGene00027085
WBGene00027220
WBGene00029584
WBGene00028828
WBGene00028614
WBGene00026661
WBGene00029198
WBGene00028263
WBGene00026869
WBGene00026461
WBGene00027707
WBGene00029301
WBGene00028375
WBGene00026414
WBGene00027741
WBGene00029225
WBGene00029146
WBGene00029452
WBGene00026524
WBGene00027839
WBGene00028276
WBGene00028023
WBGene00029556
WBGene00027003
WBGene00028964
WBGene00027057
WBGene00027975
WBGene00027631
WBGene00028089
WBGene00027069
WBGene00026468
WBGene00027979
WBGene00027308
WBGene00028685
WBGene00026387
WBGene00029119
WBGene00028886
WBGene00028529
WBGene00028348
WBGene00029317
WBGene00027125
WBGene00028122
WBGene00027614
WBGene00027002
WBGene00026643
WBGene00028827
WBGene00029246
WBGene00028108
WBGene00028537
WBGene00028198
WBGene00026592
WBGene00027950
WBGene00026955
WBGene00028990
WBGene00028314
WBGene00028556
WBGene00028368
WBGene00028226
WBGene00029578
WBGene00029438
WBGene00029384
WBGene00029024
WBGene00026511
WBGene00027966
WBGene00028844
WBGene00026611
WBGene00029322
WBGene00028944
WBGene00026888
WBGene00027322
WBGene00026631
WBGene00029268
WBGene00026975
WBGene00028845
WBGene00027232
WBGene00027833
WBGene00027523
WBGene00027390
WBGene00026695
WBGene00027967
WBGene00028361
WBGene00028044
WBGene00027762
WBGene00026581
WBGene00027974
WBGene00028112
WBGene00026701
WBGene00028083
WBGene00028316
WBGene00026546
WBGene00027727
WBGene00027012
WBGene00029089
WBGene00026391
WBGene00028194
WBGene00026891
WBGene00027084
WBGene00028949
WBGene00028585
WBGene00028442
WBGene00026726
WBGene00028092
WBGene00027548
WBGene00026861
WBGene00026640
WBGene00029468
WBGene00028919
WBGene00026648
WBGene00029230
WBGene00028069
WBGene00026720
WBGene00029270
WBGene00029139
WBGene00027065
WBGene00026443
WBGene00026946
WBGene00026492
WBGene00029450
WBGene00026508
WBGene00028411
WBGene00028168
WBGene00029482
WBGene00026770
WBGene00028882
WBGene00028494
WBGene00028241
WBGene00027526
WBGene00026718
WBGene00027030
WBGene00026608
WBGene00029164
WBGene00027893
WBGene00028939
WBGene00028506
WBGene00028450
WBGene00027346
WBGene00028107
WBGene00026664
WBGene00026431
WBGene00028911
WBGene00026977
WBGene00026437
WBGene00028961
WBGene00028538
WBGene00027050
WBGene00028002
WBGene00027255
WBGene00028189
WBGene00029265
WBGene00029048
WBGene00028873
WBGene00028520
WBGene00028959
WBGene00027968
WBGene00028210
WBGene00028106
WBGene00026855
WBGene00026985
WBGene00029034
WBGene00026521
WBGene00029333
WBGene00026574
WBGene00027207
WBGene00029221
WBGene00026386
WBGene00027120
WBGene00026879
WBGene00027570
WBGene00026763
WBGene00027019
WBGene00027816
WBGene00028826
WBGene00027223
WBGene00028131
WBGene00027055
WBGene00028355
WBGene00026908
WBGene00028273
WBGene00027638
WBGene00026954
WBGene00027569
WBGene00027960
WBGene00026768
WBGene00026591
WBGene00026560
WBGene00028360
WBGene00027730
WBGene00027266
WBGene00026813
WBGene00028142
WBGene00028832
WBGene00027715
WBGene00027617
WBGene00028111
WBGene00027222
WBGene00029096
WBGene00028272
WBGene00029192
WBGene00026950
WBGene00026709
WBGene00026512
WBGene00029554
WBGene00027535
WBGene00027825
WBGene00028488
WBGene00028500
WBGene00026471
WBGene00029563
WBGene00026927
WBGene00027382
WBGene00026708
WBGene00028317
WBGene00029047
WBGene00027093
WBGene00028045
WBGene00026745
WBGene00026721
WBGene00026840
WBGene00027123
WBGene00027754
WBGene00029207
WBGene00026395
WBGene00028171
WBGene00026816
WBGene00028903
WBGene00029483
WBGene00026390
WBGene00028963
WBGene00028480
WBGene00028342
WBGene00028441
WBGene00028890
WBGene00027931
WBGene00026522
WBGene00028883
WBGene00028208
WBGene00027391
WBGene00027253
WBGene00027083
WBGene00029478
WBGene00027331
WBGene00026805
WBGene00027929
WBGene00026616
WBGene00027299
WBGene00027239
WBGene00028973
WBGene00026557
WBGene00029011
WBGene00028240
WBGene00029113
WBGene00027988
WBGene00029264
WBGene00028334
WBGene00028318
WBGene00027355
WBGene00028295
WBGene00026489
WBGene00029220
WBGene00026832
WBGene00027768
WBGene00029523
WBGene00029258
WBGene00026899
WBGene00027961
WBGene00027876
WBGene00028157
WBGene00028085
WBGene00027666
WBGene00027942
WBGene00028640
WBGene00028525
WBGene00027609
WBGene00026833
WBGene00028932
WBGene00028638
WBGene00028893
WBGene00028586
WBGene00027561
WBGene00028261
WBGene00027676
WBGene00029156
WBGene00026793
WBGene00027432
WBGene00027073
WBGene00029248
WBGene00028286
WBGene00027844
WBGene00027998
WBGene00027875
WBGene00028947
WBGene00027195
WBGene00028031
WBGene00027731
WBGene00027096
WBGene00027072
WBGene00028150
WBGene00026657
WBGene00027474
WBGene00029250
WBGene00028237
WBGene00026583
WBGene00027651
WBGene00029063
WBGene00027162
WBGene00028569
WBGene00026989
WBGene00028464
WBGene00028105
WBGene00028478
WBGene00026785
WBGene00028820
WBGene00028453
WBGene00026470
WBGene00027736
WBGene00027160
WBGene00029129
WBGene00027906
WBGene00028592
WBGene00027693
WBGene00026651
WBGene00028363
WBGene00029087
WBGene00027082
WBGene00027338
WBGene00027053
WBGene00029314
WBGene00029194
WBGene00028022
WBGene00028427
WBGene00028452
WBGene00027653
WBGene00027826
WBGene00027926
WBGene00027361
WBGene00026752
WBGene00026442
WBGene00028304
WBGene00026900
WBGene00029046
WBGene00028558
WBGene00027748
WBGene00028937
WBGene00028546
WBGene00027344
WBGene00028205
WBGene00029484
WBGene00029442
WBGene00028853
WBGene00028235
WBGene00028891
WBGene00029017
WBGene00028824
WBGene00027341
WBGene00026544
WBGene00027259
WBGene00027000
WBGene00026815
WBGene00028244
WBGene00029357
WBGene00029181
WBGene00028662
WBGene00026577
WBGene00029517
WBGene00029334
WBGene00027861
WBGene00028760
WBGene00028260
WBGene00028627
WBGene00027856
WBGene00029279
WBGene00028956
WBGene00026514
WBGene00029219
WBGene00028012
WBGene00028929
WBGene00028389
WBGene00028364
WBGene00026857
WBGene00027066
WBGene00027652
WBGene00029364
WBGene00028493
WBGene00026399
WBGene00027443
WBGene00026600
WBGene00027716
WBGene00028906
WBGene00026693
WBGene00027867
WBGene00028356
WBGene00027183
WBGene00029210
WBGene00029084
WBGene00027250
WBGene00028001
WBGene00026893
WBGene00029058
WBGene00027098
WBGene00028957
WBGene00028735
WBGene00028279
WBGene00026736
WBGene00026619
WBGene00026636
WBGene00027184
WBGene00027219
WBGene00028463
WBGene00028186
WBGene00026469
WBGene00027126
WBGene00028931
WBGene00027431
WBGene00026979
WBGene00029432
WBGene00027986
WBGene00027753
WBGene00029223
WBGene00026586
WBGene00028547
WBGene00029477
WBGene00026686
WBGene00026553
WBGene00026714
WBGene00028719
WBGene00027212
WBGene00026479
WBGene00029344
WBGene00028522
WBGene00028420
WBGene00027671
WBGene00027818
WBGene00028698
WBGene00026666
WBGene00029100
WBGene00027473
WBGene00026658
WBGene00028344
WBGene00028222
WBGene00027194
WBGene00027874
WBGene00028412
WBGene00028402
WBGene00028257
WBGene00029360
WBGene00026885
WBGene00028075
WBGene00026573
WBGene00029269
WBGene00029242
WBGene00027081
WBGene00028938
WBGene00026415
WBGene00027619
WBGene00028449
WBGene00026609
WBGene00027035
WBGene00026563
WBGene00027981
WBGene00027481
WBGene00026797
WBGene00029441
WBGene00029189
WBGene00027129
WBGene00026578
WBGene00027169
WBGene00028545
WBGene00027991
WBGene00026543
WBGene00028079
WBGene00027374
WBGene00028888
WBGene00028413
WBGene00026551
WBGene00026990
WBGene00029141
WBGene00027203
WBGene00028571
WBGene00029118
WBGene00027353
WBGene00028902
WBGene00026647
WBGene00029416
WBGene00026421
WBGene00026478
WBGene00028439
WBGene00028376
WBGene00026607
WBGene00027020
WBGene00029241
WBGene00026894
WBGene00026932
WBGene00028536
WBGene00027796
WBGene00028922
WBGene00026597
WBGene00027823
WBGene00028206
WBGene00027359
WBGene00028138
WBGene00027842
WBGene00028418
WBGene00026595
WBGene00026968
WBGene00026585
WBGene00029101
WBGene00027566
WBGene00027708
WBGene00026961
WBGene00027954
WBGene00029057
WBGene00028454
WBGene00028345
WBGene00028533
WBGene00029166
WBGene00028195
WBGene00027970
WBGene00026960
WBGene00027460
WBGene00026802
WBGene00028179
WBGene00027224
WBGene00027930
WBGene00028872
WBGene00028011
WBGene00029176
WBGene00028482
WBGene00028659
WBGene00028126
WBGene00027284
WBGene00027278
WBGene00028221
WBGene00027866
WBGene00028736
WBGene00028259
WBGene00026984
WBGene00028508
WBGene00028492
WBGene00028096
WBGene00027310
WBGene00029494
WBGene00029075
WBGene00027100
WBGene00026606
WBGene00029571
WBGene00029174
WBGene00028958
WBGene00026743
WBGene00028396
WBGene00027644
WBGene00026559
WBGene00026435
WBGene00028995
WBGene00027376
WBGene00027962
WBGene00029596
WBGene00026527
WBGene00027610
WBGene00026516
WBGene00026683
WBGene00028718
WBGene00027152
WBGene00028336
WBGene00029343
WBGene00027108
WBGene00027112
WBGene00027969
WBGene00026795
WBGene00028185
WBGene00027815
WBGene00029154
WBGene00029144
WBGene00026875
WBGene00026967
WBGene00028699
WBGene00027110
WBGene00026638
WBGene00027051
WBGene00029229
WBGene00028737
WBGene00029573
WBGene00028549
WBGene00028211
WBGene00028281
WBGene00029321
WBGene00027738
WBGene00027436
WBGene00029161
WBGene00028038
WBGene00027210
WBGene00027109
WBGene00027171
WBGene00027634
WBGene00028945
WBGene00028721
WBGene00028339
WBGene00027675
WBGene00027641
WBGene00028909
WBGene00029391
WBGene00027080
WBGene00027336
WBGene00029202
WBGene00028414
WBGene00028312
WBGene00029010
WBGene00028484
WBGene00028534
WBGene00027273
WBGene00029440
WBGene00028616
WBGene00028867
WBGene00028562
WBGene00029561
WBGene00029486
WBGene00027380
WBGene00029200
WBGene00029240
WBGene00026749
WBGene00026904
WBGene00027681
WBGene00029171
WBGene00029582
WBGene00028992
WBGene00027258
WBGene00028885
WBGene00028901
WBGene00026912
WBGene00028028
WBGene00026549
WBGene00029430
WBGene00026538
WBGene00029022
WBGene00026788
WBGene00029568
WBGene00027124
WBGene00028705
WBGene00028455
WBGene00028581
WBGene00027042
WBGene00028035
WBGene00028366
WBGene00026515
WBGene00028266
WBGene00026844
WBGene00029077
WBGene00028792
WBGene00028728
WBGene00026845
WBGene00027018
WBGene00027645
WBGene00026396
WBGene00026485
WBGene00027855
WBGene00028242
WBGene00026656
WBGene00027858
WBGene00026839
WBGene00026617
WBGene00026837
WBGene00029182
WBGene00026773
WBGene00029461
WBGene00028516
WBGene00028048
WBGene00028116
WBGene00027200
WBGene00029148
WBGene00029362
WBGene00028166
WBGene00027615
WBGene00028664
WBGene00028841
WBGene00028717
WBGene00027153
WBGene00026610
WBGene00027769
WBGene00028321
WBGene00027230
WBGene00026689
WBGene00027118
WBGene00026712
WBGene00027444
WBGene00027772
WBGene00027956
WBGene00026780
WBGene00029592
WBGene00028383
WBGene00027029
WBGene00026484
WBGene00027695
WBGene00028371
WBGene00026547
WBGene00026728
WBGene00028415
WBGene00026755
WBGene00029108
WBGene00029451
WBGene00028432
WBGene00028946
WBGene00028448
WBGene00028914
WBGene00026782
WBGene00028280
WBGene00028582
WBGene00028446
WBGene00026903
WBGene00029203
WBGene00027113
WBGene00027011
WBGene00027394
WBGene00027435
WBGene00029254
WBGene00028224
WBGene00026889
WBGene00026882
WBGene00028916
WBGene00028102
WBGene00029348
WBGene00028617
WBGene00029579
WBGene00028421
WBGene00026662
WBGene00029099
WBGene00027922
WBGene00029324
WBGene00028894
WBGene00028199
WBGene00029255
WBGene00027301
WBGene00028884
WBGene00026446
WBGene00028666
WBGene00028423
WBGene00026588
WBGene00027672
WBGene00026699
WBGene00027343
WBGene00027673
WBGene00026537
WBGene00028697
WBGene00028282
WBGene00029474
WBGene00029196
WBGene00026486
WBGene00026670
WBGene00026534
WBGene00028256
WBGene00026992
WBGene00027396
WBGene00027789
WBGene00027955
WBGene00026828
WBGene00029218
WBGene00028887
WBGene00026525
WBGene00029414
WBGene00026917
WBGene00026911
WBGene00027852
WBGene00027062
WBGene00026639
WBGene00026766
WBGene00027663
WBGene00026941
WBGene00027801
WBGene00029267
WBGene00027987
WBGene00028192
WBGene00027245
WBGene00026653
WBGene00028490
WBGene00028351
WBGene00029183
WBGene00028661
WBGene00026416
WBGene00029025
WBGene00028233
WBGene00027864
WBGene00026881
WBGene00029201
WBGene00028857
WBGene00026817
WBGene00027616
WBGene00028114
WBGene00026649
WBGene00026775
WBGene00026713
WBGene00027348
WBGene00029147
WBGene00028223
WBGene00027553
WBGene00028935
WBGene00028115
WBGene00028006
WBGene00029445
WBGene00028548
WBGene00027859
WBGene00027357
WBGene00027558
WBGene00027946
WBGene00028576
WBGene00027817
WBGene00027978
WBGene00026724
WBGene00032890
WBGene00032093
WBGene00031256
WBGene00033381
WBGene00033469
WBGene00035229
WBGene00034967
WBGene00033986
WBGene00031342
WBGene00029985
WBGene00033083
WBGene00031238
WBGene00035148
WBGene00029683
WBGene00032983
WBGene00032719
WBGene00030712
WBGene00030184
WBGene00035074
WBGene00034705
WBGene00034352
WBGene00034223
WBGene00029655
WBGene00034070
WBGene00032391
WBGene00032109
WBGene00033290
WBGene00033989
WBGene00032315
WBGene00031080
WBGene00031486
WBGene00033397
WBGene00034229
WBGene00031241
WBGene00030776
WBGene00033074
WBGene00032741
WBGene00030045
WBGene00033872
WBGene00033680
WBGene00031800
WBGene00034887
WBGene00035004
WBGene00034198
WBGene00034802
WBGene00034750
WBGene00034800
WBGene00030517
WBGene00031346
WBGene00030998
WBGene00033972
WBGene00032909
WBGene00033561
WBGene00032238
WBGene00031546
WBGene00032452
WBGene00031919
WBGene00034870
WBGene00034771
WBGene00034829
WBGene00034357
WBGene00031197
WBGene00033140
WBGene00030720
WBGene00030500
WBGene00035268
WBGene00030101
WBGene00033574
WBGene00033101
WBGene00032377
WBGene00031178
WBGene00033357
WBGene00032626
WBGene00030926
WBGene00032684
WBGene00031079
WBGene00030409
WBGene00033256
WBGene00032691
WBGene00034145
WBGene00032010
WBGene00033518
WBGene00030155
WBGene00033499
WBGene00032643
WBGene00030949
WBGene00030897
WBGene00031325
WBGene00033597
WBGene00031790
WBGene00031066
WBGene00032248
WBGene00032185
WBGene00033264
WBGene00033044
WBGene00032625
WBGene00029889
WBGene00033757
WBGene00031465
WBGene00030849
WBGene00033866
WBGene00031780
WBGene00029669
WBGene00030484
WBGene00031070
WBGene00030885
WBGene00030678
WBGene00035292
WBGene00033785
WBGene00029663
WBGene00030160
WBGene00034220
WBGene00030444
WBGene00034035
WBGene00035172
WBGene00033098
WBGene00033618
WBGene00033203
WBGene00029924
WBGene00029645
WBGene00035283
WBGene00029830
WBGene00034807
WBGene00032904
WBGene00034828
WBGene00033645
WBGene00030329
WBGene00034432
WBGene00033698
WBGene00029887
WBGene00033845
WBGene00030076
WBGene00034342
WBGene00031158
WBGene00030318
WBGene00029826
WBGene00034792
WBGene00031028
WBGene00034835
WBGene00031825
WBGene00034315
WBGene00029816
WBGene00034128
WBGene00032671
WBGene00032603
WBGene00030656
WBGene00034709
WBGene00034841
WBGene00030020
WBGene00034061
WBGene00031491
WBGene00032443
WBGene00034016
WBGene00033912
WBGene00034911
WBGene00031248
WBGene00033024
WBGene00033300
WBGene00032961
WBGene00030009
WBGene00035035
WBGene00032224
WBGene00029673
WBGene00033502
WBGene00034459
WBGene00033232
WBGene00034365
WBGene00035130
WBGene00034183
WBGene00031724
WBGene00035288
WBGene00029875
WBGene00033908
WBGene00033248
WBGene00035030
WBGene00031591
WBGene00030947
WBGene00030393
WBGene00030139
WBGene00034142
WBGene00034089
WBGene00034980
WBGene00035042
WBGene00030728
WBGene00030426
WBGene00032654
WBGene00033272
WBGene00032748
WBGene00034081
WBGene00031540
WBGene00033620
WBGene00029857
WBGene00032581
WBGene00030700
WBGene00034111
WBGene00031152
WBGene00029719
WBGene00034737
WBGene00033492
WBGene00030795
WBGene00032043
WBGene00033808
WBGene00034754
WBGene00032547
WBGene00032499
WBGene00030461
WBGene00033275
WBGene00031132
WBGene00030977
WBGene00031233
WBGene00032333
WBGene00031980
WBGene00030429
WBGene00034348
WBGene00034644
WBGene00031434
WBGene00030262
WBGene00033656
WBGene00032476
WBGene00034840
WBGene00032910
WBGene00032591
WBGene00029834
WBGene00033679
WBGene00029636
WBGene00029620
WBGene00031296
WBGene00030210
WBGene00032696
WBGene00033729
WBGene00030476
WBGene00034123
WBGene00032686
WBGene00032459
WBGene00034767
WBGene00034363
WBGene00035026
WBGene00034376
WBGene00033258
WBGene00029867
WBGene00030097
WBGene00032906
WBGene00032250
WBGene00032467
WBGene00033063
WBGene00031320
WBGene00031548
WBGene00031441
WBGene00034479
WBGene00032209
WBGene00032067
WBGene00035170
WBGene00033205
WBGene00033801
WBGene00033666
WBGene00034629
WBGene00033585
WBGene00032156
WBGene00034904
WBGene00032214
WBGene00029604
WBGene00032508
WBGene00033013
WBGene00033877
WBGene00029941
WBGene00033613
WBGene00030939
WBGene00033510
WBGene00032632
WBGene00032262
WBGene00035013
WBGene00032717
WBGene00035105
WBGene00034091
WBGene00029982
WBGene00033870
WBGene00033289
WBGene00033266
WBGene00030455
WBGene00031916
WBGene00032243
WBGene00031917
WBGene00031572
WBGene00030225
WBGene00034797
WBGene00032504
WBGene00035122
WBGene00034575
WBGene00032357
WBGene00029854
WBGene00032822
WBGene00030878
WBGene00030203
WBGene00032317
WBGene00033822
WBGene00032090
WBGene00034994
WBGene00033513
WBGene00031410
WBGene00035297
WBGene00033539
WBGene00030159
WBGene00034624
WBGene00033748
WBGene00033605
WBGene00033359
WBGene00030699
WBGene00033366
WBGene00030206
WBGene00032204
WBGene00029726
WBGene00035185
WBGene00030343
WBGene00034072
WBGene00033042
WBGene00030585
WBGene00034641
WBGene00034533
WBGene00032614
WBGene00031846
WBGene00033076
WBGene00032628
WBGene00030496
WBGene00030353
WBGene00030847
WBGene00031382
WBGene00033553
WBGene00032382
WBGene00030661
WBGene00032519
WBGene00029891
WBGene00029819
WBGene00030190
WBGene00033721
WBGene00030832
WBGene00035281
WBGene00030924
WBGene00030895
WBGene00030171
WBGene00035098
WBGene00030770
WBGene00030532
WBGene00033616
WBGene00033026
WBGene00031128
WBGene00032994
WBGene00032017
WBGene00032422
WBGene00030327
WBGene00032065
WBGene00034119
WBGene00033274
WBGene00033225
WBGene00032799
WBGene00030909
WBGene00029686
WBGene00034355
WBGene00034915
WBGene00033481
WBGene00030945
WBGene00032532
WBGene00033114
WBGene00032325
WBGene00031303
WBGene00033320
WBGene00032004
WBGene00035037
WBGene00034809
WBGene00034601
WBGene00030463
WBGene00032966
WBGene00031316
WBGene00033316
WBGene00035279
WBGene00032982
WBGene00030254
WBGene00031564
WBGene00033234
WBGene00030887
WBGene00032183
WBGene00034249
WBGene00029992
WBGene00031415
WBGene00030288
WBGene00033111
WBGene00033001
WBGene00031387
WBGene00029824
WBGene00031270
WBGene00033207
WBGene00033399
WBGene00032110
WBGene00030785
WBGene00030914
WBGene00030088
WBGene00033696
WBGene00034470
WBGene00033459
WBGene00029976
WBGene00032474
WBGene00030904
WBGene00030963
WBGene00034959
WBGene00034889
WBGene00032951
WBGene00033996
WBGene00032397
WBGene00030893
WBGene00035157
WBGene00032229
WBGene00030796
WBGene00035220
WBGene00031074
WBGene00034344
WBGene00033768
WBGene00031549
WBGene00030815
WBGene00033157
WBGene00034973
WBGene00034794
WBGene00030072
WBGene00031082
WBGene00033184
WBGene00032331
WBGene00030710
WBGene00030219
WBGene00033579
WBGene00032435
WBGene00030316
WBGene00031169
WBGene00034448
WBGene00033305
WBGene00033933
WBGene00033136
WBGene00032832
WBGene00030676
WBGene00029847
WBGene00031037
WBGene00034158
WBGene00030990
WBGene00033214
WBGene00032559
WBGene00029609
WBGene00033965
WBGene00032168
WBGene00032267
WBGene00032605
WBGene00031045
WBGene00033096
WBGene00031565
WBGene00029950
WBGene00033029
WBGene00030654
WBGene00029667
WBGene00032124
WBGene00031372
WBGene00031520
WBGene00031134
WBGene00031086
WBGene00034703
WBGene00030738
WBGene00032395
WBGene00033719
WBGene00030172
WBGene00031088
WBGene00031042
WBGene00031061
WBGene00034761
WBGene00030450
WBGene00034752
WBGene00031084
WBGene00035154
WBGene00033947
WBGene00033849
WBGene00032715
WBGene00030955
WBGene00030876
WBGene00032359
WBGene00029883
WBGene00034452
WBGene00032158
WBGene00031038
WBGene00030331
WBGene00030164
WBGene00033885
WBGene00034300
WBGene00032300
WBGene00031379
WBGene00034086
WBGene00032191
WBGene00030265
WBGene00032021
WBGene00032543
WBGene00030194
WBGene00031970
WBGene00030351
WBGene00029828
WBGene00033398
WBGene00030090
WBGene00034825
WBGene00032365
WBGene00034317
WBGene00033930
WBGene00030304
WBGene00032228
WBGene00034912
WBGene00032471
WBGene00033443
WBGene00032296
WBGene00035293
WBGene00032977
WBGene00033453
WBGene00033227
WBGene00031482
WBGene00032921
WBGene00033940
WBGene00033592
WBGene00034969
WBGene00032148
WBGene00030834
WBGene00033754
WBGene00031462
WBGene00031323
WBGene00030018
WBGene00032339
WBGene00033419
WBGene00034647
WBGene00032958
WBGene00034411
WBGene00033515
WBGene00031069
WBGene00035031
WBGene00034488
WBGene00031407
WBGene00029817
WBGene00030825
WBGene00030761
WBGene00030508
WBGene00031193
WBGene00031589
WBGene00030763
WBGene00030692
WBGene00035203
WBGene00031690
WBGene00034748
WBGene00033171
WBGene00034160
WBGene00033881
WBGene00032841
WBGene00031222
WBGene00030561
WBGene00034790
WBGene00034005
WBGene00033347
WBGene00030142
WBGene00032687
WBGene00030937
WBGene00034391
WBGene00031329
WBGene00033319
WBGene00033066
WBGene00032202
WBGene00032788
WBGene00031261
WBGene00032210
WBGene00034774
WBGene00033759
WBGene00030687
WBGene00030653
WBGene00033935
WBGene00031015
WBGene00034107
WBGene00032077
WBGene00029660
WBGene00032945
WBGene00031174
WBGene00030345
WBGene00031579
WBGene00033626
WBGene00035176
WBGene00031351
WBGene00030537
WBGene00031470
WBGene00033486
WBGene00033291
WBGene00032690
WBGene00035029
WBGene00033147
WBGene00031964
WBGene00031511
WBGene00030068
WBGene00035046
WBGene00033676
WBGene00030079
WBGene00035244
WBGene00033599
WBGene00033429
WBGene00033091
WBGene00031555
WBGene00031151
WBGene00032165
WBGene00032574
WBGene00033003
WBGene00032516
WBGene00035215
WBGene00032337
WBGene00033283
WBGene00031330
WBGene00032925
WBGene00033970
WBGene00032905
WBGene00031399
WBGene00031189
WBGene00034084
WBGene00030457
WBGene00035171
WBGene00033164
WBGene00033100
WBGene00033674
WBGene00032384
WBGene00031554
WBGene00033657
WBGene00032695
WBGene00035249
WBGene00033868
WBGene00032487
WBGene00032490
WBGene00031818
WBGene00031054
WBGene00030972
WBGene00030943
WBGene00029687
WBGene00031523
WBGene00031504
WBGene00032637
WBGene00032312
WBGene00033837
WBGene00030772
WBGene00033056
WBGene00035225
WBGene00029981
WBGene00033217
WBGene00032856
WBGene00033282
WBGene00031293
WBGene00035212
WBGene00035054
WBGene00034027
WBGene00030721
WBGene00029723
WBGene00034271
WBGene00034179
WBGene00030672
WBGene00034187
WBGene00033057
WBGene00032440
WBGene00034805
WBGene00032658
WBGene00032811
WBGene00030403
WBGene00030158
WBGene00034015
WBGene00032548
WBGene00030798
WBGene00030109
WBGene00033327
WBGene00032794
WBGene00032360
WBGene00031075
WBGene00034691
WBGene00034855
WBGene00032432
WBGene00035181
WBGene00034897
WBGene00032915
WBGene00032647
WBGene00030217
WBGene00031186
WBGene00033979
WBGene00034190
WBGene00031142
WBGene00034258
WBGene00033960
WBGene00034275
WBGene00033115
WBGene00034276
WBGene00029958
WBGene00033422
WBGene00030582
WBGene00033672
WBGene00032541
WBGene00032031
WBGene00031044
WBGene00032842
WBGene00031395
WBGene00030948
WBGene00032594
WBGene00034527
WBGene00033473
WBGene00030301
WBGene00033726
WBGene00031138
WBGene00030260
WBGene00030503
WBGene00033490
WBGene00034109
WBGene00032009
WBGene00031388
WBGene00030660
WBGene00030077
WBGene00035266
WBGene00034714
WBGene00033395
WBGene00032825
WBGene00031006
WBGene00035304
WBGene00030989
WBGene00030811
WBGene00035291
WBGene00033496
WBGene00031464
WBGene00033383
WBGene00029927
WBGene00034649
WBGene00032651
WBGene00033497
WBGene00031171
WBGene00035146
WBGene00033180
WBGene00031198
WBGene00034386
WBGene00030751
WBGene00033894
WBGene00032226
WBGene00030180
WBGene00031445
WBGene00029721
WBGene00035201
WBGene00030252
WBGene00033815
WBGene00031461
WBGene00033557
WBGene00032556
WBGene00033345
WBGene00030858
WBGene00033368
WBGene00030957
WBGene00034742
WBGene00033827
WBGene00033806
WBGene00033662
WBGene00032188
WBGene00033059
WBGene00032623
WBGene00034739
WBGene00034296
WBGene00033298
WBGene00032697
WBGene00029858
WBGene00034226
WBGene00034150
WBGene00030950
WBGene00033907
WBGene00031157
WBGene00030001
WBGene00029677
WBGene00033017
WBGene00030510
WBGene00033252
WBGene00032974
WBGene00031212
WBGene00032676
WBGene00031273
WBGene00032341
WBGene00033363
WBGene00033038
WBGene00032251
WBGene00030843
WBGene00033916
WBGene00031140
WBGene00034954
WBGene00033550
WBGene00032363
WBGene00032128
WBGene00030680
WBGene00033624
WBGene00033374
WBGene00032155
WBGene00031264
WBGene00031092
WBGene00031318
WBGene00030410
WBGene00033831
WBGene00032620
WBGene00033580
WBGene00033269
WBGene00032640
WBGene00030323
WBGene00030693
WBGene00032635
WBGene00029885
WBGene00033004
WBGene00030711
WBGene00030774
WBGene00035017
WBGene00033969
WBGene00031017
WBGene00033457
WBGene00032689
WBGene00033988
WBGene00033883
WBGene00033688
WBGene00030443
WBGene00034313
WBGene00033280
WBGene00031535
WBGene00035056
WBGene00033839
WBGene00035287
WBGene00034273
WBGene00034192
WBGene00029951
WBGene00032101
WBGene00031125
WBGene00033475
WBGene00031576
WBGene00032028
WBGene00033655
WBGene00033424
WBGene00032601
WBGene00030207
WBGene00031102
WBGene00031409
WBGene00031612
WBGene00035128
WBGene00033048
WBGene00031052
WBGene00033874
WBGene00029625
WBGene00032007
WBGene00033237
WBGene00033173
WBGene00029734
WBGene00032776
WBGene00031345
WBGene00030941
WBGene00029842
WBGene00032070
WBGene00029938
WBGene00029968
WBGene00031755
WBGene00032200
WBGene00031809
WBGene00031525
WBGene00030320
WBGene00035020
WBGene00030040
WBGene00030842
WBGene00034457
WBGene00034132
WBGene00031625
WBGene00031242
WBGene00034573
WBGene00034776
WBGene00032371
WBGene00035101
WBGene00031530
WBGene00034025
WBGene00033406
WBGene00032720
WBGene00031347
WBGene00030064
WBGene00032536
WBGene00031332
WBGene00033192
WBGene00033829
WBGene00033981
WBGene00033962
WBGene00032988
WBGene00034121
WBGene00032288
WBGene00032041
WBGene00035207
WBGene00033271
WBGene00033771
WBGene00029980
WBGene00033734
WBGene00030905
WBGene00030275
WBGene00034977
WBGene00032963
WBGene00031208
WBGene00032445
WBGene00033784
WBGene00030553
WBGene00033200
WBGene00030658
WBGene00029707
WBGene00031924
WBGene00034843
WBGene00035084
WBGene00033717
WBGene00034919
WBGene00034729
WBGene00034040
WBGene00031220
WBGene00032329
WBGene00031049
WBGene00034906
WBGene00029653
WBGene00034996
WBGene00032991
WBGene00032815
WBGene00033538
WBGene00030790
WBGene00033019
WBGene00029679
WBGene00032324
WBGene00033053
WBGene00029598
WBGene00030430
WBGene00033526
WBGene00031517
WBGene00033601
WBGene00033411
WBGene00030432
WBGene00034508
WBGene00034184
WBGene00034236
WBGene00034778
WBGene00034278
WBGene00032590
WBGene00030892
WBGene00034834
WBGene00033851
WBGene00031580
WBGene00031550
WBGene00032713
WBGene00035131
WBGene00031456
WBGene00033342
WBGene00029846
WBGene00032897
WBGene00032607
WBGene00035038
WBGene00033891
WBGene00029727
WBGene00031739
WBGene00032990
WBGene00030670
WBGene00034256
WBGene00029823
WBGene00031247
WBGene00034721
WBGene00034687
WBGene00035085
WBGene00030119
WBGene00032898
WBGene00035064
WBGene00032121
WBGene00033052
WBGene00031267
WBGene00030107
WBGene00031414
WBGene00033470
WBGene00032241
WBGene00033143
WBGene00034633
WBGene00029997
WBGene00030695
WBGene00030411
WBGene00033964
WBGene00033745
WBGene00030055
WBGene00034960
WBGene00034080
WBGene00032740
WBGene00033678
WBGene00031597
WBGene00034947
WBGene00031773
WBGene00031133
WBGene00035050
WBGene00030855
WBGene00034791
WBGene00033932
WBGene00033871
WBGene00032042
WBGene00033245
WBGene00030657
WBGene00033334
WBGene00033177
WBGene00033835
WBGene00029708
WBGene00032600
WBGene00033158
WBGene00032912
WBGene00033838
WBGene00034854
WBGene00030185
WBGene00032144
WBGene00031050
WBGene00033975
WBGene00033858
WBGene00030175
WBGene00031266
WBGene00032458
WBGene00034100
WBGene00029670
WBGene00034008
WBGene00033215
WBGene00030667
WBGene00032762
WBGene00033312
WBGene00030069
WBGene00030099
WBGene00034228
WBGene00030906
WBGene00030797
WBGene00033740
WBGene00033062
WBGene00032421
WBGene00029626
WBGene00030358
WBGene00034986
WBGene00030073
WBGene00032137
WBGene00034842
WBGene00033072
WBGene00033204
WBGene00031255
WBGene00031918
WBGene00032464
WBGene00035025
WBGene00030356
WBGene00029720
WBGene00031868
WBGene00033905
WBGene00034172
WBGene00035110
WBGene00030469
WBGene00031117
WBGene00030997
WBGene00034090
WBGene00032079
WBGene00035285
WBGene00033954
WBGene00031341
WBGene00031547
WBGene00033608
WBGene00033039
WBGene00031908
WBGene00031460
WBGene00032169
WBGene00032633
WBGene00035090
WBGene00034876
WBGene00032438
WBGene00034966
WBGene00032411
WBGene00034320
WBGene00029864
WBGene00033810
WBGene00033577
WBGene00029668
WBGene00029912
WBGene00035142
WBGene00031000
WBGene00032586
WBGene00034442
WBGene00034134
WBGene00031509
WBGene00031851
WBGene00031194
WBGene00034893
WBGene00030683
WBGene00032213
WBGene00033441
WBGene00033073
WBGene00030853
WBGene00031391
WBGene00034329
WBGene00031578
WBGene00030440
WBGene00033555
WBGene00031271
WBGene00032349
WBGene00035175
WBGene00034755
WBGene00035082
WBGene00034197
WBGene00033099
WBGene00033356
WBGene00032507
WBGene00033160
WBGene00031179
WBGene00033640
WBGene00031048
WBGene00030014
WBGene00032182
WBGene00030874
WBGene00030931
WBGene00032203
WBGene00033743
WBGene00033046
WBGene00033584
WBGene00031176
WBGene00032104
WBGene00033079
WBGene00030735
WBGene00032975
WBGene00030788
WBGene00033610
WBGene00029886
WBGene00034293
WBGene00030800
WBGene00034306
WBGene00034034
WBGene00032073
WBGene00034337
WBGene00030485
WBGene00030285
WBGene00030472
WBGene00034566
WBGene00030870
WBGene00032569
WBGene00032627
WBGene00029906
WBGene00030089
WBGene00035099
WBGene00033020
WBGene00032721
WBGene00034785
WBGene00033340
WBGene00032928
WBGene00034837
WBGene00033911
WBGene00032993
WBGene00032672
WBGene00034868
WBGene00032604
WBGene00033582
WBGene00032699
WBGene00033847
WBGene00031161
WBGene00031592
WBGene00034125
WBGene00033036
WBGene00030985
WBGene00033756
WBGene00029975
WBGene00031027
WBGene00033002
WBGene00031501
WBGene00032417
WBGene00032473
WBGene00033997
WBGene00030762
WBGene00029815
WBGene00034528
WBGene00033139
WBGene00035197
WBGene00031662
WBGene00032891
WBGene00034099
WBGene00031349
WBGene00030490
WBGene00030655
WBGene00034118
WBGene00034242
WBGene00033512
WBGene00030271
WBGene00032981
WBGene00034252
WBGene00031437
WBGene00035190
WBGene00031326
WBGene00031159
WBGene00033187
WBGene00030287
WBGene00033261
WBGene00034812
WBGene00033055
WBGene00034251
WBGene00030434
WBGene00030067
WBGene00033934
WBGene00034154
WBGene00033627
WBGene00030971
WBGene00031587
WBGene00033833
WBGene00034162
WBGene00029711
WBGene00032553
WBGene00033531
WBGene00034972
WBGene00034871
WBGene00030647
WBGene00035166
WBGene00030466
WBGene00029689
WBGene00031455
WBGene00034280
WBGene00029614
WBGene00031246
WBGene00032711
WBGene00031076
WBGene00032256
WBGene00033991
WBGene00030860
WBGene00033156
WBGene00030178
WBGene00032318
WBGene00033709
WBGene00030337
WBGene00034182
WBGene00031185
WBGene00033523
WBGene00029915
WBGene00032112
WBGene00032680
WBGene00035278
WBGene00031483
WBGene00030750
WBGene00034689
WBGene00031168
WBGene00029648
WBGene00030944
WBGene00031135
WBGene00031083
WBGene00032139
WBGene00034962
WBGene00031302
WBGene00031822
WBGene00034206
WBGene00031906
WBGene00033736
WBGene00034445
WBGene00033276
WBGene00033174
WBGene00031073
WBGene00034356
WBGene00033925
WBGene00031291
WBGene00030550
WBGene00032167
WBGene00035178
WBGene00030315
WBGene00034331
WBGene00034499
WBGene00029641
WBGene00029970
WBGene00030816
WBGene00032669
WBGene00035048
WBGene00033431
WBGene00032997
WBGene00032984
WBGene00030851
WBGene00032378
WBGene00033864
WBGene00030702
WBGene00035274
WBGene00030804
WBGene00035243
WBGene00031062
WBGene00033629
WBGene00029622
WBGene00034092
WBGene00033987
WBGene00031085
WBGene00030401
WBGene00032058
WBGene00031056
WBGene00032745
WBGene00030739
WBGene00031539
WBGene00034706
WBGene00033594
WBGene00030584
WBGene00034395
WBGene00030474
WBGene00033507
WBGene00029680
WBGene00029605
WBGene00030098
WBGene00032261
WBGene00030369
WBGene00030146
WBGene00033775
WBGene00033489
WBGene00031009
WBGene00032275
WBGene00033681
WBGene00033380
WBGene00030335
WBGene00032390
WBGene00032481
WBGene00033376
WBGene00031204
WBGene00032807
WBGene00031209
WBGene00031298
WBGene00030938
WBGene00030475
WBGene00030872
WBGene00031440
WBGene00033468
WBGene00030003
WBGene00034071
WBGene00033544
WBGene00031426
WBGene00031497
WBGene00034138
WBGene00031281
WBGene00030882
WBGene00033484
WBGene00032199
WBGene00033211
WBGene00030324
WBGene00033402
WBGene00031269
WBGene00034621
WBGene00029664
WBGene00030698
WBGene00031730
WBGene00032087
WBGene00032418
WBGene00034901
WBGene00030574
WBGene00031836
WBGene00032679
WBGene00033615
WBGene00031012
WBGene00033713
WBGene00033075
WBGene00033409
WBGene00034131
WBGene00030154
WBGene00032616
WBGene00035153
WBGene00033683
WBGene00031910
WBGene00030110
WBGene00029818
WBGene00034830
WBGene00031107
WBGene00032724
WBGene00033358
WBGene00034808
WBGene00033162
WBGene00034146
WBGene00032518
WBGene00031443
WBGene00030974
WBGene00033420
WBGene00034764
WBGene00033646
WBGene00034417
WBGene00033447
WBGene00031343
WBGene00032650
WBGene00033206
WBGene00033952
WBGene00033855
WBGene00033328
WBGene00030879
WBGene00032694
WBGene00034269
WBGene00031603
WBGene00034065
WBGene00030987
WBGene00034314
WBGene00034207
WBGene00032482
WBGene00033485
WBGene00033124
WBGene00033720
WBGene00031526
WBGene00035216
WBGene00032913
WBGene00030912
WBGene00031214
WBGene00033971
WBGene00030917
WBGene00033284
WBGene00034701
WBGene00034374
WBGene00032926
WBGene00035265
WBGene00034443
WBGene00033238
WBGene00030515
WBGene00031617
WBGene00031928
WBGene00034856
WBGene00033976
WBGene00035231
WBGene00035226
WBGene00031109
WBGene00029794
WBGene00034166
WBGene00030978
WBGene00032334
WBGene00034782
WBGene00030927
WBGene00032034
WBGene00033923
WBGene00033352
WBGene00031315
WBGene00033047
WBGene00033788
WBGene00030536
WBGene00033667
WBGene00033195
WBGene00030311
WBGene00034777
WBGene00030889
WBGene00030973
WBGene00034740
WBGene00033673
WBGene00032662
WBGene00033197
WBGene00031145
WBGene00031442
WBGene00032502
WBGene00029943
WBGene00030919
WBGene00030189
WBGene00033904
WBGene00030922
WBGene00033338
WBGene00031939
WBGene00030890
WBGene00031478
WBGene00029962
WBGene00034839
WBGene00033495
WBGene00031229
WBGene00030673
WBGene00032387
WBGene00034806
WBGene00031911
WBGene00034632
WBGene00032673
WBGene00033621
WBGene00034041
WBGene00030809
WBGene00033782
WBGene00030246
WBGene00034148
WBGene00030297
WBGene00030552
WBGene00032187
WBGene00032064
WBGene00031439
WBGene00032125
WBGene00032550
WBGene00032433
WBGene00033982
WBGene00033528
WBGene00031024
WBGene00032555
WBGene00032833
WBGene00034164
WBGene00035213
WBGene00033384
WBGene00033326
WBGene00033966
WBGene00031093
WBGene00034699
WBGene00029931
WBGene00033857
WBGene00030386
WBGene00030209
WBGene00032099
WBGene00032743
WBGene00029643
WBGene00031259
WBGene00032340
WBGene00033957
WBGene00033625
WBGene00030722
WBGene00034890
WBGene00034826
WBGene00034903
WBGene00034727
WBGene00033463
WBGene00033064
WBGene00030737
WBGene00032092
WBGene00034124
WBGene00033183
WBGene00032472
WBGene00035250
WBGene00033614
WBGene00030736
WBGene00030731
WBGene00032373
WBGene00033265
WBGene00032892
WBGene00029979
WBGene00030131
WBGene00030339
WBGene00030857
WBGene00033535
WBGene00033378
WBGene00034717
WBGene00030256
WBGene00032149
WBGene00034176
WBGene00032366
WBGene00033060
WBGene00035095
WBGene00029902
WBGene00032645
WBGene00030664
WBGene00032319
WBGene00029804
WBGene00030477
WBGene00032922
WBGene00030465
WBGene00031211
WBGene00032307
WBGene00033294
WBGene00030954
WBGene00029882
WBGene00031378
WBGene00031377
WBGene00034039
WBGene00029799
WBGene00032220
WBGene00029897
WBGene00030867
WBGene00031181
WBGene00029624
WBGene00030688
WBGene00032821
WBGene00033588
WBGene00030509
WBGene00030579
WBGene00032050
WBGene00033939
WBGene00034383
WBGene00033362
WBGene00029674
WBGene00030049
WBGene00031496
WBGene00032534
WBGene00032361
WBGene00031813
WBGene00030344
WBGene00033025
WBGene00033138
WBGene00033747
WBGene00029853
WBGene00032358
WBGene00033814
WBGene00032820
WBGene00033065
WBGene00033603
WBGene00032078
WBGene00034832
WBGene00031406
WBGene00033880
WBGene00033552
WBGene00030799
WBGene00032048
WBGene00031172
WBGene00033896
WBGene00030377
WBGene00034968
WBGene00034267
WBGene00032531
WBGene00033089
WBGene00033915
WBGene00033884
WBGene00032175
WBGene00034872
WBGene00031068
WBGene00032843
WBGene00034798
WBGene00034602
WBGene00031254
WBGene00035071
WBGene00030729
WBGene00032621
WBGene00031262
WBGene00033941
WBGene00029822
WBGene00033260
WBGene00030576
WBGene00034414
WBGene00033304
WBGene00032609
WBGene00029827
WBGene00029632
WBGene00030880
WBGene00030833
WBGene00033170
WBGene00029960
WBGene00035209
WBGene00033920
WBGene00031143
WBGene00034910
WBGene00034316
WBGene00033110
WBGene00032289
WBGene00030649
WBGene00033150
WBGene00032962
WBGene00032194
WBGene00034026
WBGene00030900
WBGene00030841
WBGene00035276
WBGene00034618
WBGene00034168
WBGene00032611
WBGene00032475
WBGene00030458
WBGene00032177
WBGene00031551
WBGene00033658
WBGene00033324
WBGene00029671
WBGene00031072
WBGene00035301
WBGene00032847
WBGene00032027
WBGene00032618
WBGene00029661
WBGene00031308
WBGene00035102
WBGene00032285
WBGene00035036
WBGene00032675
WBGene00031907
WBGene00033950
WBGene00030321
WBGene00035162
WBGene00033423
WBGene00030920
WBGene00034135
WBGene00030884
WBGene00034482
WBGene00035169
WBGene00030708
WBGene00034817
WBGene00035021
WBGene00033546
WBGene00030819
WBGene00033902
WBGene00033434
WBGene00030513
WBGene00033102
WBGene00034129
WBGene00032657
WBGene00033860
WBGene00034862
WBGene00033927
WBGene00032578
WBGene00033103
WBGene00030038
WBGene00030644
WBGene00034010
WBGene00033193
WBGene00034775
WBGene00029654
WBGene00031331
WBGene00032612
WBGene00033641
WBGene00033426
WBGene00032370
WBGene00033980
WBGene00030462
WBGene00030015
WBGene00033382
WBGene00030581
WBGene00030701
WBGene00031032
WBGene00030669
WBGene00030526
WBGene00035264
WBGene00035055
WBGene00033863
WBGene00033700
WBGene00033292
WBGene00031030
WBGene00032414
WBGene00032664
WBGene00034019
WBGene00033836
WBGene00030047
WBGene00032850
WBGene00030875
WBGene00035272
WBGene00033744
WBGene00034305
WBGene00035248
WBGene00032702
WBGene00030814
WBGene00031348
WBGene00033742
WBGene00030459
WBGene00030910
WBGene00030969
WBGene00030766
WBGene00030286
WBGene00030357
WBGene00030719
WBGene00035150
WBGene00032539
WBGene00033889
WBGene00033848
WBGene00032314
WBGene00033895
WBGene00031568
WBGene00032755
WBGene00032540
WBGene00035294
WBGene00035149
WBGene00031784
WBGene00032249
WBGene00032353
WBGene00031257
WBGene00033295
WBGene00030359
WBGene00030483
WBGene00032032
WBGene00033562
WBGene00029814
WBGene00032462
WBGene00029722
WBGene00033344
WBGene00033086
WBGene00029895
WBGene00031196
WBGene00035114
WBGene00030052
WBGene00034605
WBGene00031583
WBGene00029783
WBGene00031767
WBGene00033948
WBGene00033011
WBGene00032218
WBGene00032920
WBGene00030556
WBGene00031909
WBGene00030802
WBGene00031170
WBGene00034369
WBGene00033917
WBGene00029910
WBGene00032826
WBGene00033914
WBGene00034489
WBGene00029862
WBGene00031200
WBGene00032511
WBGene00030491
WBGene00032402
WBGene00031231
WBGene00032342
WBGene00034651
WBGene00030995
WBGene00033430
WBGene00030294
WBGene00033812
WBGene00033199
WBGene00033037
WBGene00030694
WBGene00032145
WBGene00033221
WBGene00035003
WBGene00033687
WBGene00033310
WBGene00033373
WBGene00030899
WBGene00034886
WBGene00034335
WBGene00032949
WBGene00031022
WBGene00031810
WBGene00029634
WBGene00031317
WBGene00033758
WBGene00032973
WBGene00031163
WBGene00033165
WBGene00030925
WBGene00035043
WBGene00030869
WBGene00031091
WBGene00031507
WBGene00032338
WBGene00030300
WBGene00035065
WBGene00033598
WBGene00032291
WBGene00035224
WBGene00034137
WBGene00033092
WBGene00030059
WBGene00031432
WBGene00031284
WBGene00032336
WBGene00030482
WBGene00034955
WBGene00032634
WBGene00034769
WBGene00030264
WBGene00029825
WBGene00033465
WBGene00029836
WBGene00034796
WBGene00031016
WBGene00032020
WBGene00032714
WBGene00030176
WBGene00030562
WBGene00033725
WBGene00034541
WBGene00034799
WBGene00033415
WBGene00029993
WBGene00032154
WBGene00032394
WBGene00032758
WBGene00033005
WBGene00030646
WBGene00038577
WBGene00037335
WBGene00041495
WBGene00039195
WBGene00037116
WBGene00036539
WBGene00042056
WBGene00038051
WBGene00041901
WBGene00041310
WBGene00040626
WBGene00039884
WBGene00040542
WBGene00037569
WBGene00038864
WBGene00039016
WBGene00038944
WBGene00042728
WBGene00039490
WBGene00038375
WBGene00040767
WBGene00040469
WBGene00038897
WBGene00038319
WBGene00035908
WBGene00038016
WBGene00035591
WBGene00042787
WBGene00040403
WBGene00040295
WBGene00038562
WBGene00037557
WBGene00042137
WBGene00042744
WBGene00041741
WBGene00042689
WBGene00038534
WBGene00041869
WBGene00036679
WBGene00036550
WBGene00035896
WBGene00038220
WBGene00042815
WBGene00039072
WBGene00037715
WBGene00041948
WBGene00037239
WBGene00036983
WBGene00037017
WBGene00037859
WBGene00038603
WBGene00039622
WBGene00036493
WBGene00042488
WBGene00041279
WBGene00038848
WBGene00042167
WBGene00040365
WBGene00042756
WBGene00039577
WBGene00037398
WBGene00038237
WBGene00040364
WBGene00036491
WBGene00041564
WBGene00036470
WBGene00042180
WBGene00038323
WBGene00041813
WBGene00040303
WBGene00035339
WBGene00036079
WBGene00041506
WBGene00042800
WBGene00038605
WBGene00038232
WBGene00036543
WBGene00040653
WBGene00040580
WBGene00038870
WBGene00037710
WBGene00036944
WBGene00042103
WBGene00041679
WBGene00037752
WBGene00038280
WBGene00041216
WBGene00042238
WBGene00041608
WBGene00039080
WBGene00036721
WBGene00036905
WBGene00041862
WBGene00037218
WBGene00040592
WBGene00040418
WBGene00038858
WBGene00040337
WBGene00036594
WBGene00037010
WBGene00040926
WBGene00038527
WBGene00041850
WBGene00039892
WBGene00041894
WBGene00041089
WBGene00037489
WBGene00039174
WBGene00041524
WBGene00037989
WBGene00037464
WBGene00036007
WBGene00042716
WBGene00040017
WBGene00040437
WBGene00036601
WBGene00039899
WBGene00038227
WBGene00040238
WBGene00037284
WBGene00037246
WBGene00038097
WBGene00037154
WBGene00040481
WBGene00036314
WBGene00040440
WBGene00036501
WBGene00039824
WBGene00042212
WBGene00037983
WBGene00040432
WBGene00037707
WBGene00038583
WBGene00040671
WBGene00042593
WBGene00041874
WBGene00040470
WBGene00040900
WBGene00039124
WBGene00037508
WBGene00039495
WBGene00041714
WBGene00037149
WBGene00035828
WBGene00035674
WBGene00042682
WBGene00038279
WBGene00037363
WBGene00041553
WBGene00040605
WBGene00038507
WBGene00041826
WBGene00035685
WBGene00035907
WBGene00041996
WBGene00035600
WBGene00038378
WBGene00041523
WBGene00041928
WBGene00035722
WBGene00041238
WBGene00037749
WBGene00041833
WBGene00039561
WBGene00038208
WBGene00037104
WBGene00036422
WBGene00037473
WBGene00042416
WBGene00038463
WBGene00038481
WBGene00035965
WBGene00041739
WBGene00042116
WBGene00037255
WBGene00037957
WBGene00040996
WBGene00040547
WBGene00042265
WBGene00038134
WBGene00037690
WBGene00037402
WBGene00037389
WBGene00041838
WBGene00040650
WBGene00037455
WBGene00040934
WBGene00038240
WBGene00042634
WBGene00041845
WBGene00039277
WBGene00037742
WBGene00036700
WBGene00036430
WBGene00037525
WBGene00039351
WBGene00037046
WBGene00039933
WBGene00039925
WBGene00036963
WBGene00040090
WBGene00037734
WBGene00037685
WBGene00037550
WBGene00037535
WBGene00041261
WBGene00036739
WBGene00042085
WBGene00036888
WBGene00035334
WBGene00035813
WBGene00042446
WBGene00035996
WBGene00036060
WBGene00041704
WBGene00041770
WBGene00038254
WBGene00041589
WBGene00040462
WBGene00037563
WBGene00036124
WBGene00036045
WBGene00040130
WBGene00036504
WBGene00036363
WBGene00035556
WBGene00040660
WBGene00035501
WBGene00041781
WBGene00038660
WBGene00039238
WBGene00038404
WBGene00037521
WBGene00035576
WBGene00040108
WBGene00036177
WBGene00040675
WBGene00035695
WBGene00038393
WBGene00041248
WBGene00038633
WBGene00042780
WBGene00035762
WBGene00037587
WBGene00035917
WBGene00039438
WBGene00038369
WBGene00041798
WBGene00036453
WBGene00035452
WBGene00040898
WBGene00038452
WBGene00042886
WBGene00036171
WBGene00039147
WBGene00038370
WBGene00041490
WBGene00036643
WBGene00042182
WBGene00036921
WBGene00041691
WBGene00038388
WBGene00040715
WBGene00040463
WBGene00037666
WBGene00035528
WBGene00041685
WBGene00035429
WBGene00041876
WBGene00036568
WBGene00036255
WBGene00036088
WBGene00038774
WBGene00040420
WBGene00040110
WBGene00037674
WBGene00038265
WBGene00037030
WBGene00038139
WBGene00041510
WBGene00041271
WBGene00037136
WBGene00037671
WBGene00036031
WBGene00041618
WBGene00037824
WBGene00037761
WBGene00037471
WBGene00040536
WBGene00039837
WBGene00035624
WBGene00041985
WBGene00036210
WBGene00038535
WBGene00037652
WBGene00037611
WBGene00036590
WBGene00038686
WBGene00038253
WBGene00036118
WBGene00039111
WBGene00036823
WBGene00040667
WBGene00037661
WBGene00040466
WBGene00042161
WBGene00041866
WBGene00037496
WBGene00039911
WBGene00037490
WBGene00037016
WBGene00039795
WBGene00036546
WBGene00037813
WBGene00038482
WBGene00035691
WBGene00038522
WBGene00041207
WBGene00040387
WBGene00040814
WBGene00039422
WBGene00041174
WBGene00039521
WBGene00036738
WBGene00040591
WBGene00038070
WBGene00035652
WBGene00041661
WBGene00039843
WBGene00042294
WBGene00040975
WBGene00035477
WBGene00038803
WBGene00042523
WBGene00039170
WBGene00036647
WBGene00040966
WBGene00041550
WBGene00039524
WBGene00038906
WBGene00040670
WBGene00035517
WBGene00038257
WBGene00037618
WBGene00040500
WBGene00036644
WBGene00039383
WBGene00037511
WBGene00036629
WBGene00042053
WBGene00042786
WBGene00038682
WBGene00037222
WBGene00036400
WBGene00037544
WBGene00039073
WBGene00041936
WBGene00042178
WBGene00041464
WBGene00039889
WBGene00037721
WBGene00037124
WBGene00036028
WBGene00042143
WBGene00039361
WBGene00036237
WBGene00042142
WBGene00038984
WBGene00040433
WBGene00037112
WBGene00041184
WBGene00037701
WBGene00039565
WBGene00040031
WBGene00036413
WBGene00039740
WBGene00041485
WBGene00039494
WBGene00036299
WBGene00035751
WBGene00035951
WBGene00035801
WBGene00039569
WBGene00039820
WBGene00039545
WBGene00040165
WBGene00037807
WBGene00039288
WBGene00035453
WBGene00042005
WBGene00037944
WBGene00037166
WBGene00040620
WBGene00036212
WBGene00037992
WBGene00041275
WBGene00039050
WBGene00036480
WBGene00039716
WBGene00036443
WBGene00040711
WBGene00038196
WBGene00036046
WBGene00040271
WBGene00040041
WBGene00035856
WBGene00038178
WBGene00040086
WBGene00035941
WBGene00036563
WBGene00042879
WBGene00039208
WBGene00038758
WBGene00040361
WBGene00041846
WBGene00041703
WBGene00037262
WBGene00042119
WBGene00040951
WBGene00041622
WBGene00039445
WBGene00042043
WBGene00037005
WBGene00040253
WBGene00039608
WBGene00035365
WBGene00038055
WBGene00040819
WBGene00036145
WBGene00037460
WBGene00039590
WBGene00041078
WBGene00039573
WBGene00037449
WBGene00035552
WBGene00039245
WBGene00038580
WBGene00036287
WBGene00040443
WBGene00039369
WBGene00038464
WBGene00038499
WBGene00039730
WBGene00039254
WBGene00041681
WBGene00041602
WBGene00041596
WBGene00036730
WBGene00041399
WBGene00038936
WBGene00038923
WBGene00036967
WBGene00040244
WBGene00040153
WBGene00042578
WBGene00042892
WBGene00038416
WBGene00037804
WBGene00039805
WBGene00041572
WBGene00035653
WBGene00041505
WBGene00039437
WBGene00038530
WBGene00037573
WBGene00036704
WBGene00039465
WBGene00038543
WBGene00037029
WBGene00035417
WBGene00039399
WBGene00040904
WBGene00039897
WBGene00042676
WBGene00041537
WBGene00040877
WBGene00035645
WBGene00037886
WBGene00037675
WBGene00036122
WBGene00040698
WBGene00037608
WBGene00042083
WBGene00039184
WBGene00041004
WBGene00042330
WBGene00035871
WBGene00037694
WBGene00040345
WBGene00041834
WBGene00036910
WBGene00041731
WBGene00038860
WBGene00037777
WBGene00037145
WBGene00041088
WBGene00039764
WBGene00037539
WBGene00041575
WBGene00037659
WBGene00037224
WBGene00036975
WBGene00036259
WBGene00041138
WBGene00036053
WBGene00035817
WBGene00039087
WBGene00039355
WBGene00037529
WBGene00042805
WBGene00041545
WBGene00039471
WBGene00041369
WBGene00039698
WBGene00041019
WBGene00041708
WBGene00040556
WBGene00038994
WBGene00037100
WBGene00041832
WBGene00036497
WBGene00041421
WBGene00038526
WBGene00041756
WBGene00038311
WBGene00037933
WBGene00041655
WBGene00038292
WBGene00040560
WBGene00041964
WBGene00038555
WBGene00038550
WBGene00039768
WBGene00036128
WBGene00036075
WBGene00042248
WBGene00035795
WBGene00040811
WBGene00038305
WBGene00038268
WBGene00041870
WBGene00038780
WBGene00036038
WBGene00039695
WBGene00042783
WBGene00040702
WBGene00040908
WBGene00040014
WBGene00041583
WBGene00037217
WBGene00040408
WBGene00036196
WBGene00042503
WBGene00036982
WBGene00039244
WBGene00038968
WBGene00039540
WBGene00042327
WBGene00037096
WBGene00039008
WBGene00042489
WBGene00038297
WBGene00038244
WBGene00041215
WBGene00042321
WBGene00041292
WBGene00036450
WBGene00038943
WBGene00038353
WBGene00038270
WBGene00039572
WBGene00036953
WBGene00038122
WBGene00038912
WBGene00040629
WBGene00041592
WBGene00040894
WBGene00042097
WBGene00041764
WBGene00038741
WBGene00041217
WBGene00037491
WBGene00039035
WBGene00037278
WBGene00039904
WBGene00040738
WBGene00038392
WBGene00036303
WBGene00040488
WBGene00039380
WBGene00038956
WBGene00041863
WBGene00036132
WBGene00037231
WBGene00040482
WBGene00038569
WBGene00039564
WBGene00038169
WBGene00040778
WBGene00036722
WBGene00041389
WBGene00036559
WBGene00040946
WBGene00038316
WBGene00036129
WBGene00035656
WBGene00041251
WBGene00039867
WBGene00039749
WBGene00036567
WBGene00038349
WBGene00041225
WBGene00041247
WBGene00042858
WBGene00037283
WBGene00037524
WBGene00039722
WBGene00039404
WBGene00041659
WBGene00035309
WBGene00037823
WBGene00037263
WBGene00036697
WBGene00039378
WBGene00041783
WBGene00042449
WBGene00038156
WBGene00038815
WBGene00038937
WBGene00039786
WBGene00040018
WBGene00038859
WBGene00041049
WBGene00041593
WBGene00038626
WBGene00037386
WBGene00041508
WBGene00036091
WBGene00041483
WBGene00038197
WBGene00042874
WBGene00036499
WBGene00038649
WBGene00037592
WBGene00035711
WBGene00035408
WBGene00041087
WBGene00041665
WBGene00037023
WBGene00041116
WBGene00039950
WBGene00037161
WBGene00035446
WBGene00042732
WBGene00042058
WBGene00040541
WBGene00040825
WBGene00037184
WBGene00037245
WBGene00041827
WBGene00036743
WBGene00039257
WBGene00038675
WBGene00037019
WBGene00041623
WBGene00041652
WBGene00037840
WBGene00041842
WBGene00039870
WBGene00039127
WBGene00039101
WBGene00038896
WBGene00041295
WBGene00040842
WBGene00040611
WBGene00037971
WBGene00036654
WBGene00036614
WBGene00039807
WBGene00036471
WBGene00036463
WBGene00039237
WBGene00042138
WBGene00037271
WBGene00036496
WBGene00038678
WBGene00037215
WBGene00040472
WBGene00042390
WBGene00035378
WBGene00037716
WBGene00041285
WBGene00042773
WBGene00036641
WBGene00038449
WBGene00038324
WBGene00035860
WBGene00042575
WBGene00035577
WBGene00036678
WBGene00036201
WBGene00040587
WBGene00041177
WBGene00037969
WBGene00039681
WBGene00037668
WBGene00041890
WBGene00041580
WBGene00036356
WBGene00036713
WBGene00040661
WBGene00038608
WBGene00038264
WBGene00039090
WBGene00038405
WBGene00037706
WBGene00039633
WBGene00038442
WBGene00041607
WBGene00037927
WBGene00036179
WBGene00037711
WBGene00037789
WBGene00039210
WBGene00042574
WBGene00037392
WBGene00039052
WBGene00042767
WBGene00037038
WBGene00036981
WBGene00042006
WBGene00041025
WBGene00040839
WBGene00037920
WBGene00035313
WBGene00038213
WBGene00037640
WBGene00037808
WBGene00037080
WBGene00036172
WBGene00037228
WBGene00042790
WBGene00040769
WBGene00039508
WBGene00035499
WBGene00036959
WBGene00040875
WBGene00041563
WBGene00041160
WBGene00037225
WBGene00039773
WBGene00039339
WBGene00041525
WBGene00036669
WBGene00041209
WBGene00035473
WBGene00036675
WBGene00040464
WBGene00037546
WBGene00038484
WBGene00037235
WBGene00038387
WBGene00039302
WBGene00042841
WBGene00042782
WBGene00035895
WBGene00041672
WBGene00036308
WBGene00036577
WBGene00040883
WBGene00041270
WBGene00040992
WBGene00038067
WBGene00036076
WBGene00042259
WBGene00040789
WBGene00038432
WBGene00037617
WBGene00035909
WBGene00041571
WBGene00037241
WBGene00037606
WBGene00042976
WBGene00041513
WBGene00038927
WBGene00036589
WBGene00041431
WBGene00037474
WBGene00039194
WBGene00042862
WBGene00036227
WBGene00041433
WBGene00038536
WBGene00039928
WBGene00041713
WBGene00039587
WBGene00038508
WBGene00037458
WBGene00039532
WBGene00043000
WBGene00037888
WBGene00036042
WBGene00041522
WBGene00041068
WBGene00037845
WBGene00038997
WBGene00038854
WBGene00035391
WBGene00036520
WBGene00041998
WBGene00036224
WBGene00040604
WBGene00041753
WBGene00041684
WBGene00036634
WBGene00039261
WBGene00036056
WBGene00038511
WBGene00038150
WBGene00041738
WBGene00037696
WBGene00041254
WBGene00038852
WBGene00038064
WBGene00037178
WBGene00040029
WBGene00037877
WBGene00042517
WBGene00041835
WBGene00036873
WBGene00042814
WBGene00038477
WBGene00038836
WBGene00041278
WBGene00035329
WBGene00037735
WBGene00036446
WBGene00042510
WBGene00035648
WBGene00042701
WBGene00038301
WBGene00042645
WBGene00038651
WBGene00041760
WBGene00035349
WBGene00037725
WBGene00040602
WBGene00039048
WBGene00042590
WBGene00039350
WBGene00041419
WBGene00039544
WBGene00040239
WBGene00036432
WBGene00042655
WBGene00037113
WBGene00038123
WBGene00038021
WBGene00039493
WBGene00037700
WBGene00042585
WBGene00037948
WBGene00035912
WBGene00035545
WBGene00037816
WBGene00035992
WBGene00036553
WBGene00041780
WBGene00041823
WBGene00040395
WBGene00040222
WBGene00038891
WBGene00038602
WBGene00037528
WBGene00041660
WBGene00041816
WBGene00041787
WBGene00039469
WBGene00042804
WBGene00041768
WBGene00039905
WBGene00039708
WBGene00038283
WBGene00041860
WBGene00035699
WBGene00042878
WBGene00042154
WBGene00041504
WBGene00036069
WBGene00041182
WBGene00040061
WBGene00038141
WBGene00042597
WBGene00037118
WBGene00036687
WBGene00039341
WBGene00038510
WBGene00039931
WBGene00035832
WBGene00040818
WBGene00042504
WBGene00039463
WBGene00036248
WBGene00037253
WBGene00041502
WBGene00038129
WBGene00042680
WBGene00036887
WBGene00041763
WBGene00040436
WBGene00036582
WBGene00042433
WBGene00041954
WBGene00039055
WBGene00036326
WBGene00039748
WBGene00038998
WBGene00035305
WBGene00035465
WBGene00035372
WBGene00038794
WBGene00038252
WBGene00038474
WBGene00036753
WBGene00039312
WBGene00035498
WBGene00038112
WBGene00039741
WBGene00036117
WBGene00035903
WBGene00039154
WBGene00037502
WBGene00040829
WBGene00040068
WBGene00038738
WBGene00040147
WBGene00038798
WBGene00042197
WBGene00037321
WBGene00037094
WBGene00035622
WBGene00041492
WBGene00041221
WBGene00037238
WBGene00038687
WBGene00039522
WBGene00035324
WBGene00039022
WBGene00042785
WBGene00042524
WBGene00038272
WBGene00041675
WBGene00037404
WBGene00037580
WBGene00037234
WBGene00039834
WBGene00037741
WBGene00039171
WBGene00037481
WBGene00041777
WBGene00036578
WBGene00042213
WBGene00041733
WBGene00039549
WBGene00038058
WBGene00038565
WBGene00035579
WBGene00036357
WBGene00036915
WBGene00042840
WBGene00039537
WBGene00040252
WBGene00037493
WBGene00040945
WBGene00040498
WBGene00041853
WBGene00040228
WBGene00038406
WBGene00038813
WBGene00041226
WBGene00035893
WBGene00036426
WBGene00036080
WBGene00035516
WBGene00041210
WBGene00037483
WBGene00038991
WBGene00040574
WBGene00035794
WBGene00041372
WBGene00035476
WBGene00037357
WBGene00042588
WBGene00041551
WBGene00037120
WBGene00039117
WBGene00038983
WBGene00037825
WBGene00037195
WBGene00039969
WBGene00039136
WBGene00041646
WBGene00035765
WBGene00037034
WBGene00038525
WBGene00040743
WBGene00041234
WBGene00039667
WBGene00038488
WBGene00037205
WBGene00042249
WBGene00042090
WBGene00038239
WBGene00042322
WBGene00038354
WBGene00036610
WBGene00036799
WBGene00041871
WBGene00040950
WBGene00038063
WBGene00038841
WBGene00035708
WBGene00038217
WBGene00036195
WBGene00037676
WBGene00039334
WBGene00038875
WBGene00038911
WBGene00037256
WBGene00038920
WBGene00037814
WBGene00035649
WBGene00042726
WBGene00042818
WBGene00035502
WBGene00037728
WBGene00042861
WBGene00036613
WBGene00040471
WBGene00042813
WBGene00036573
WBGene00042328
WBGene00041597
WBGene00040922
WBGene00037903
WBGene00039815
WBGene00039062
WBGene00040342
WBGene00040699
WBGene00038544
WBGene00040100
WBGene00037503
WBGene00039354
WBGene00037453
WBGene00036591
WBGene00041538
WBGene00037248
WBGene00041650
WBGene00038225
WBGene00036819
WBGene00039519
WBGene00042419
WBGene00041398
WBGene00040897
WBGene00041257
WBGene00037849
WBGene00037510
WBGene00039456
WBGene00039246
WBGene00036382
WBGene00035618
WBGene00041717
WBGene00038373
WBGene00039308
WBGene00039977
WBGene00036252
WBGene00036976
WBGene00039282
WBGene00041082
WBGene00041601
WBGene00040457
WBGene00037364
WBGene00040608
WBGene00040011
WBGene00035933
WBGene00040723
WBGene00036330
WBGene00040853
WBGene00039811
WBGene00037663
WBGene00036648
WBGene00037146
WBGene00037607
WBGene00037830
WBGene00036283
WBGene00041026
WBGene00036655
WBGene00041632
WBGene00041574
WBGene00035586
WBGene00042357
WBGene00038153
WBGene00042250
WBGene00039583
WBGene00041782
WBGene00040392
WBGene00039113
WBGene00036670
WBGene00040150
WBGene00037884
WBGene00041415
WBGene00041521
WBGene00041937
WBGene00037776
WBGene00035352
WBGene00038256
WBGene00036548
WBGene00038934
WBGene00041555
WBGene00037452
WBGene00042079
WBGene00036666
WBGene00036320
WBGene00036763
WBGene00036260
WBGene00037902
WBGene00041721
WBGene00040884
WBGene00040446
WBGene00039568
WBGene00037247
WBGene00040843
WBGene00041831
WBGene00037106
WBGene00040907
WBGene00041533
WBGene00036305
WBGene00037621
WBGene00040768
WBGene00039126
WBGene00038397
WBGene00041076
WBGene00040557
WBGene00036797
WBGene00038618
WBGene00035626
WBGene00041475
WBGene00038659
WBGene00039613
WBGene00038290
WBGene00037393
WBGene00042434
WBGene00038647
WBGene00038420
WBGene00040636
WBGene00042989
WBGene00042501
WBGene00035459
WBGene00038853
WBGene00039510
WBGene00039610
WBGene00036660
WBGene00036997
WBGene00037436
WBGene00037527
WBGene00035967
WBGene00040902
WBGene00038954
WBGene00042807
WBGene00036420
WBGene00039156
WBGene00036043
WBGene00036789
WBGene00042381
WBGene00039563
WBGene00037895
WBGene00038843
WBGene00041737
WBGene00038380
WBGene00041828
WBGene00035482
WBGene00039502
WBGene00035351
WBGene00037499
WBGene00038149
WBGene00037669
WBGene00038300
WBGene00041245
WBGene00039819
WBGene00040166
WBGene00041829
WBGene00035920
WBGene00041581
WBGene00037098
WBGene00040264
WBGene00041641
WBGene00037817
WBGene00038415
WBGene00038458
WBGene00041268
WBGene00039213
WBGene00041453
WBGene00040791
WBGene00036756
WBGene00037277
WBGene00037226
WBGene00039503
WBGene00038286
WBGene00037303
WBGene00039459
WBGene00037561
WBGene00042164
WBGene00039182
WBGene00041394
WBGene00039680
WBGene00040554
WBGene00040209
WBGene00041729
WBGene00035915
WBGene00041255
WBGene00035409
WBGene00037952
WBGene00035671
WBGene00040820
WBGene00038824
WBGene00036674
WBGene00039091
WBGene00038350
WBGene00041847
WBGene00039360
WBGene00038641
WBGene00040978
WBGene00037523
WBGene00041141
WBGene00037387
WBGene00042012
WBGene00035757
WBGene00039497
WBGene00041479
WBGene00041915
WBGene00039274
WBGene00036958
WBGene00037837
WBGene00038839
WBGene00035554
WBGene00042023
WBGene00035869
WBGene00035785
WBGene00041514
WBGene00040409
WBGene00039766
WBGene00042528
WBGene00039014
WBGene00039082
WBGene00040434
WBGene00040589
WBGene00036401
WBGene00039855
WBGene00037244
WBGene00038222
WBGene00036161
WBGene00041046
WBGene00041484
WBGene00039140
WBGene00039965
WBGene00042227
WBGene00041376
WBGene00039789
WBGene00037138
WBGene00036918
WBGene00039084
WBGene00041017
WBGene00037555
WBGene00037240
WBGene00040132
WBGene00038026
WBGene00038895
WBGene00039006
WBGene00042135
WBGene00042810
WBGene00042768
WBGene00036343
WBGene00039793
WBGene00037633
WBGene00035570
WBGene00036109
WBGene00037174
WBGene00037324
WBGene00039366
WBGene00039070
WBGene00041628
WBGene00041441
WBGene00040427
WBGene00041754
WBGene00038435
WBGene00037492
WBGene00040531
WBGene00036561
WBGene00036319
WBGene00036142
WBGene00037558
WBGene00037723
WBGene00038441
WBGene00037331
WBGene00042431
WBGene00040700
WBGene00038627
WBGene00036355
WBGene00039921
WBGene00036903
WBGene00038607
WBGene00035341
WBGene00036658
WBGene00040807
WBGene00041570
WBGene00040603
WBGene00037041
WBGene00041218
WBGene00038791
WBGene00040487
WBGene00041548
WBGene00036408
WBGene00040633
WBGene00035354
WBGene00041381
WBGene00040668
WBGene00037993
WBGene00038955
WBGene00039200
WBGene00038313
WBGene00037221
WBGene00038835
WBGene00038079
WBGene00039027
WBGene00038740
WBGene00037110
WBGene00041694
WBGene00037641
WBGene00041498
WBGene00035319
WBGene00039782
WBGene00042734
WBGene00037264
WBGene00042505
WBGene00035534
WBGene00039696
WBGene00035709
WBGene00038545
WBGene00041434
WBGene00039581
WBGene00038091
WBGene00041786
WBGene00039523
WBGene00038001
WBGene00036266
WBGene00037994
WBGene00042428
WBGene00035816
WBGene00041208
WBGene00037175
WBGene00036541
WBGene00041779
WBGene00038234
WBGene00042506
WBGene00040298
WBGene00040953
WBGene00038719
WBGene00038950
WBGene00041605
WBGene00041864
WBGene00036256
WBGene00037591
WBGene00036576
WBGene00038585
WBGene00036439
WBGene00037709
WBGene00039256
WBGene00042003
WBGene00042363
WBGene00036685
WBGene00035773
WBGene00038451
WBGene00041843
WBGene00041497
WBGene00035520
WBGene00035968
WBGene00042198
WBGene00040518
WBGene00042251
WBGene00039902
WBGene00037795
WBGene00042765
WBGene00036517
WBGene00041230
WBGene00038466
WBGene00040155
WBGene00040579
WBGene00041712
WBGene00042051
WBGene00036066
WBGene00041111
WBGene00039732
WBGene00037766
WBGene00040205
WBGene00036957
WBGene00039314
WBGene00038925
WBGene00042607
WBGene00035798
WBGene00037653
WBGene00041083
WBGene00038364
WBGene00039335
WBGene00038450
WBGene00036991
WBGene00036459
WBGene00038304
WBGene00039924
WBGene00037304
WBGene00039043
WBGene00039511
WBGene00035558
WBGene00036684
WBGene00038235
WBGene00037906
WBGene00038273
WBGene00041677
WBGene00042605
WBGene00038184
WBGene00041711
WBGene00036467
WBGene00037316
WBGene00037211
WBGene00037520
WBGene00036383
WBGene00041836
WBGene00038582
WBGene00037760
WBGene00041645
WBGene00036902
WBGene00037426
WBGene00041970
WBGene00041594
WBGene00035650
WBGene00040795
WBGene00036511
WBGene00041904
WBGene00038935
WBGene00037590
WBGene00036490
WBGene00041404
WBGene00035507
WBGene00041211
WBGene00039725
WBGene00037702
WBGene00039814
WBGene00035764
WBGene00041386
WBGene00041966
WBGene00036929
WBGene00039668
WBGene00038890
WBGene00042487
WBGene00036415
WBGene00035443
WBGene00036003
WBGene00036335
WBGene00036800
WBGene00042791
WBGene00035367
WBGene00041984
WBGene00038124
WBGene00038876
WBGene00041264
WBGene00039295
WBGene00039392
WBGene00041758
WBGene00038104
WBGene00036040
WBGene00042600
WBGene00036448
WBGene00038187
WBGene00039270
WBGene00038599
WBGene00040127
WBGene00041213
WBGene00038945
WBGene00035335
WBGene00036130
WBGene00037486
WBGene00039390
WBGene00039691
WBGene00038921
WBGene00036063
WBGene00040776
WBGene00036175
WBGene00041440
WBGene00041241
WBGene00038203
WBGene00037219
WBGene00036347
WBGene00042121
WBGene00036288
WBGene00037801
WBGene00035544
WBGene00039507
WBGene00036240
WBGene00037267
WBGene00038840
WBGene00040064
WBGene00035614
WBGene00039385
WBGene00038989
WBGene00040790
WBGene00035490
WBGene00038520
WBGene00035877
WBGene00038816
WBGene00036569
WBGene00040467
WBGene00037447
WBGene00035899
WBGene00041084
WBGene00035593
WBGene00036036
WBGene00037923
WBGene00038390
WBGene00038517
WBGene00038226
WBGene00040146
WBGene00041624
WBGene00035594
WBGene00036147
WBGene00036560
WBGene00037220
WBGene00038325
WBGene00037070
WBGene00041629
WBGene00038846
WBGene00039548
WBGene00040036
WBGene00039234
WBGene00040067
WBGene00041726
WBGene00040868
WBGene00035345
WBGene00039638
WBGene00038907
WBGene00037028
WBGene00042473
WBGene00039839
WBGene00041725
WBGene00039306
WBGene00039107
WBGene00041135
WBGene00038694
WBGene00038610
WBGene00040494
WBGene00039994
WBGene00038230
WBGene00035684
WBGene00038288
WBGene00040396
WBGene00039664
WBGene00037717
WBGene00037731
WBGene00040964
WBGene00038342
WBGene00041466
WBGene00036054
WBGene00038179
WBGene00042223
WBGene00042210
WBGene00036230
WBGene00039133
WBGene00039236
WBGene00037342
WBGene00035892
WBGene00040885
WBGene00038162
WBGene00035574
WBGene00035919
WBGene00038154
WBGene00039266
WBGene00038739
WBGene00040358
WBGene00042781
WBGene00039019
WBGene00037797
WBGene00035667
WBGene00038777
WBGene00040937
WBGene00038099
WBGene00041785
WBGene00040534
WBGene00038385
WBGene00041663
WBGene00038211
WBGene00042007
WBGene00038982
WBGene00036433
WBGene00036847
WBGene00039379
WBGene00036612
WBGene00037757
WBGene00036479
WBGene00038371
WBGene00037270
WBGene00036323
WBGene00038018
WBGene00037623
WBGene00039424
WBGene00042764
WBGene00037645
WBGene00035924
WBGene00036169
WBGene00040211
WBGene00036901
WBGene00037976
WBGene00040255
WBGene00039579
WBGene00037466
WBGene00037771
WBGene00037949
WBGene00040459
WBGene00041074
WBGene00036340
WBGene00036586
WBGene00037250
WBGene00041861
WBGene00037755
WBGene00038061
WBGene00037990
WBGene00036350
WBGene00037854
WBGene00036263
WBGene00041312
WBGene00040435
WBGene00036451
WBGene00038215
WBGene00038414
WBGene00036193
WBGene00036044
WBGene00041600
WBGene00036285
WBGene00041640
WBGene00038243
WBGene00038486
WBGene00038269
WBGene00039092
WBGene00035311
WBGene00039737
WBGene00040051
WBGene00037847
WBGene00038231
WBGene00035668
WBGene00038457
WBGene00041639
WBGene00038775
WBGene00040871
WBGene00041269
WBGene00040348
WBGene00041027
WBGene00036364
WBGene00041716
WBGene00037619
WBGene00041609
WBGene00036207
WBGene00042146
WBGene00036616
WBGene00037203
WBGene00037705
WBGene00035342
WBGene00037444
WBGene00042186
WBGene00036008
WBGene00037540
WBGene00042273
WBGene00038878
WBGene00039473
WBGene00042583
WBGene00035463
WBGene00039520
WBGene00039799
WBGene00041582
WBGene00041944
WBGene00037153
WBGene00040104
WBGene00042911
WBGene00041456
WBGene00036182
WBGene00035914
WBGene00041168
WBGene00038598
WBGene00041128
WBGene00041133
WBGene00039827
WBGene00039817
WBGene00042011
WBGene00037091
WBGene00038533
WBGene00037258
WBGene00036584
WBGene00039556
WBGene00040588
WBGene00038808
WBGene00035726
WBGene00039791
WBGene00041774
WBGene00035945
WBGene00039975
WBGene00041368
WBGene00041407
WBGene00035491
WBGene00037401
WBGene00038462
WBGene00040366
WBGene00035921
WBGene00036261
WBGene00040133
WBGene00038825
WBGene00038446
WBGene00041740
WBGene00036719
WBGene00038648
WBGene00039201
WBGene00040905
WBGene00038932
WBGene00038309
WBGene00035672
WBGene00042046
WBGene00037639
WBGene00040873
WBGene00042221
WBGene00035595
WBGene00037441
WBGene00038113
WBGene00040697
WBGene00038294
WBGene00037534
WBGene00041539
WBGene00042690
WBGene00042642
WBGene00037691
WBGene00036920
WBGene00039699
WBGene00042280
WBGene00042806
WBGene00038578
WBGene00037727
WBGene00040770
WBGene00036667
WBGene00038440
WBGene00039088
WBGene00042151
WBGene00037509
WBGene00036950
WBGene00036159
WBGene00037947
WBGene00040714
WBGene00035847
WBGene00036421
WBGene00035658
WBGene00037863
WBGene00040773
WBGene00042761
WBGene00037778
WBGene00041856
WBGene00036434
WBGene00037857
WBGene00038834
WBGene00041812
WBGene00035633
WBGene00042490
WBGene00038255
WBGene00036904
WBGene00038743
WBGene00039309
WBGene00035995
WBGene00038528
WBGene00039557
WBGene00042560
WBGene00039161
WBGene00039700
WBGene00041185
WBGene00042757
WBGene00036374
WBGene00042750
WBGene00036301
WBGene00040669
WBGene00036659
WBGene00038322
WBGene00037310
WBGene00039078
WBGene00037141
WBGene00038127
WBGene00039333
WBGene00035834
WBGene00040160
WBGene00042964
WBGene00036093
WBGene00037753
WBGene00037213
WBGene00037818
WBGene00042362
WBGene00041249
WBGene00036842
WBGene00036235
WBGene00037173
WBGene00039828
WBGene00037039
WBGene00038092
WBGene00035612
WBGene00039567
WBGene00039458
WBGene00041253
WBGene00035318
WBGene00037111
WBGene00039772
WBGene00038541
WBGene00038972
WBGene00037002
WBGene00041686
WBGene00038394
WBGene00041789
WBGene00037064
WBGene00042507
WBGene00039280
WBGene00041839
WBGene00035307
WBGene00039580
WBGene00035989
WBGene00041552
WBGene00039835
WBGene00039893
WBGene00040812
WBGene00037176
WBGene00041219
WBGene00035521
WBGene00037285
WBGene00043013
WBGene00039593
WBGene00036593
WBGene00042257
WBGene00041790
WBGene00037014
WBGene00037243
WBGene00038135
WBGene00039981
WBGene00037530
WBGene00041463
WBGene00041873
WBGene00039384
WBGene00036510
WBGene00039376
WBGene00041200
WBGene00035696
WBGene00038894
WBGene00041997
WBGene00041824
WBGene00038901
WBGene00042136
WBGene00039562
WBGene00039017
WBGene00040258
WBGene00039285
WBGene00042656
WBGene00041825
WBGene00035906
WBGene00038567
WBGene00038689
WBGene00035673
WBGene00041865
WBGene00041886
WBGene00038376
WBGene00038389
WBGene00038721
WBGene00039491
WBGene00039125
WBGene00042057
WBGene00042592
WBGene00038110
WBGene00038888
WBGene00038904
WBGene00035546
WBGene00039081
WBGene00039076
WBGene00041406
WBGene00037660
WBGene00038367
WBGene00039621
WBGene00037984
WBGene00041442
WBGene00037254
WBGene00035509
WBGene00039209
WBGene00035326
WBGene00037568
WBGene00036522
WBGene00037273
WBGene00037604
WBGene00040581
WBGene00036344
WBGene00037612
WBGene00038501
WBGene00041507
WBGene00039578
WBGene00041625
WBGene00041804
WBGene00042474
WBGene00039625
WBGene00041400
WBGene00041063
WBGene00035763
WBGene00037635
WBGene00037695
WBGene00037242
WBGene00040075
WBGene00037827
WBGene00038295
WBGene00038291
WBGene00040876
WBGene00042179
WBGene00042008
WBGene00042388
WBGene00040910
WBGene00042714
WBGene00036780
WBGene00040806
WBGene00036074
WBGene00035918
WBGene00037122
WBGene00036715
WBGene00037600
WBGene00035839
WBGene00036241
WBGene00039391
WBGene00036737
WBGene00037194
WBGene00037292
WBGene00037574
WBGene00040381
WBGene00035706
WBGene00038650
WBGene00038078
WBGene00040149
WBGene00036498
WBGene00041053
WBGene00036611
WBGene00039758
WBGene00039138
WBGene00038905
WBGene00037156
WBGene00036029
WBGene00042591
WBGene00039779
WBGene00036012
WBGene00041214
WBGene00037564
WBGene00039332
WBGene00036062
WBGene00037928
WBGene00035551
WBGene00037570
WBGene00039279
WBGene00038993
WBGene00039609
WBGene00040844
WBGene00035529
WBGene00036455
WBGene00036176
WBGene00037261
WBGene00040519
WBGene00039962
WBGene00035368
WBGene00035647
WBGene00038922
WBGene00038430
WBGene00037938
WBGene00035855
WBGene00042324
WBGene00038417
WBGene00039434
WBGene00038662
WBGene00037268
WBGene00042066
WBGene00041709
WBGene00035654
WBGene00039979
WBGene00036911
WBGene00041313
WBGene00041124
WBGene00037998
WBGene00041573
WBGene00035886
WBGene00037765
WBGene00042194
WBGene00040097
WBGene00036547
WBGene00039488
WBGene00040444
WBGene00042643
WBGene00042260
WBGene00038467
WBGene00042001
WBGene00036646
WBGene00038303
WBGene00038538
WBGene00042715
WBGene00036677
WBGene00041020
WBGene00041457
WBGene00039007
WBGene00036979
WBGene00036987
WBGene00040447
WBGene00039122
WBGene00040394
WBGene00040473
WBGene00040855
WBGene00039060
WBGene00041669
WBGene00035721
WBGene00042898
WBGene00042252
WBGene00039514
WBGene00037714
WBGene00039319
WBGene00038119
WBGene00038559
WBGene00039356
WBGene00042580
WBGene00041355
WBGene00035710
WBGene00035818
WBGene00039278
WBGene00038591
WBGene00037839
WBGene00036596
WBGene00039119
WBGene00041595
WBGene00035350
WBGene00038282
WBGene00038804
WBGene00039731
WBGene00036215
WBGene00036258
WBGene00037429
WBGene00041546
WBGene00041935
WBGene00041719
WBGene00035651
WBGene00036352
WBGene00042685
WBGene00042331
WBGene00039406
WBGene00037719
WBGene00035829
WBGene00037538
WBGene00038212
WBGene00037722
WBGene00041413
WBGene00040164
WBGene00041942
WBGene00037858
WBGene00040306
WBGene00035925
WBGene00039423
WBGene00037596
WBGene00038121
WBGene00040725
WBGene00041542
WBGene00035450
WBGene00036846
WBGene00042141
WBGene00041710
WBGene00042650
WBGene00038075
WBGene00037526
WBGene00040801
WBGene00040237
WBGene00039724
WBGene00040891
WBGene00038310
WBGene00041075
WBGene00041662
WBGene00036002
WBGene00041393
WBGene00041265
WBGene00042016
WBGene00036127
WBGene00037553
WBGene00038131
WBGene00041266
WBGene00038700
WBGene00041634
WBGene00037061
WBGene00040909
WBGene00036405
WBGene00038624
WBGene00040059
WBGene00037114
WBGene00038929
WBGene00035563
WBGene00036551
WBGene00041180
WBGene00042421
WBGene00041820
WBGene00041821
WBGene00036328
WBGene00037913
WBGene00040623
WBGene00042923
WBGene00036885
WBGene00038248
WBGene00041598
WBGene00038612
WBGene00038959
WBGene00036606
WBGene00036699
WBGene00040430
WBGene00037022
WBGene00039574
WBGene00036534
WBGene00037651
WBGene00037754
WBGene00037465
WBGene00040451
WBGene00042152
WBGene00038966
WBGene00040539
WBGene00038563
WBGene00039970
WBGene00042165
WBGene00040144
WBGene00035775
WBGene00039997
WBGene00035374
WBGene00040035
WBGene00040515
WBGene00040419
WBGene00040933
WBGene00039305
WBGene00035514
WBGene00038022
WBGene00037071
WBGene00037305
WBGene00039129
WBGene00042903
WBGene00039144
WBGene00040410
WBGene00040362
WBGene00041621
WBGene00041727
WBGene00038114
WBGene00039466
WBGene00041735
WBGene00038549
WBGene00037973
WBGene00037152
WBGene00037500
WBGene00039831
WBGene00039235
WBGene00038287
WBGene00035478
WBGene00035525
WBGene00036410
WBGene00035680
WBGene00035897
WBGene00039743
WBGene00036965
WBGene00036485
WBGene00038408
WBGene00039861
WBGene00037276
WBGene00042675
WBGene00035620
WBGene00038343
WBGene00040406
WBGene00036664
WBGene00039842
WBGene00039013
WBGene00041808
WBGene00040055
WBGene00037806
WBGene00038753
WBGene00039132
WBGene00039018
WBGene00039310
WBGene00036913
WBGene00038996
WBGene00041085
WBGene00042215
WBGene00043048
