positive regulation of growth rate	0.000000e+00	1.363000e+02
genitalia development	0.000000e+00	141
hermaphrodite genitalia development	0.000000e+00	141
embryonic development	0.000000e+00	1.472667e+02
larval development	0.000000e+00	141
cell division	1.716072e-12	1.363000e+02
cuticle development	2.444933e-12	1.331667e+02
protein-based cuticle development	2.444933e-12	1.331667e+02
collagen and cuticulin-based cuticle development	2.444933e-12	1.331667e+02
sex differentiation	2.795764e-12	1.519667e+02
reproduction	4.460654e-12	1.582333e+02
cytokinesis	5.137557e-12	1.363000e+02
regulation of growth rate	5.806466e-12	1.363000e+02
masculinization of hermaphroditic germ-line	7.703949e-12	1.112333e+02
post-embryonic development	7.984724e-12	141
embryonic development ending in birth or egg hatching	8.089307e-12	1.441333e+02
growth	8.390844e-12	141
establishment of organelle localization	8.847256e-12	1.316000e+02
morphogenesis of an epithelium	9.284240e-12	1.316000e+02
organ development	9.984458e-12	1.425667e+02
fertilization	1.114764e-11	1.300333e+02
single fertilization	1.114764e-11	1.300333e+02
nematode larval development	1.278200e-11	141
molting cycle	1.356049e-11	1.316000e+02
molting cycle, protein-based cuticle	1.356049e-11	1.316000e+02
molting cycle, collagen and cuticulin-based cuticle	1.356049e-11	1.316000e+02
body morphogenesis	1.460509e-11	1.378667e+02
nuclear migration	1.786515e-11	1.300333e+02
reproductive behavior	1.834299e-11	1.363000e+02
locomotion	1.900047e-11	1.363000e+02
reproductive behavior in a multicellular organism	2.115463e-11	1.363000e+02
oviposition	2.115463e-11	1.363000e+02
reproductive process in a multicellular organism	2.144185e-11	1.363000e+02
positive regulation of growth	2.254241e-11	1.363000e+02
reproductive developmental process	2.405753e-11	1.519667e+02
positive regulation of multicellular organism growth	2.743150e-11	1.316000e+02
establishment of nucleus localization	3.175760e-11	1.300333e+02
nucleus localization	3.175760e-11	1.300333e+02
pronuclear migration	3.320066e-11	1.300333e+02
organelle localization	3.350076e-11	1.316000e+02
positive regulation of developmental process	3.553935e-11	1.284667e+02
negative regulation of locomotion	3.869982e-11	1.143667e+02
multicellular organism reproduction	3.995992e-11	1.363000e+02
behavior	4.219303e-11	1.378667e+02
positive regulation of embryonic development	5.264356e-11	1.081000e+02
chromosome segregation	5.575518e-11	1.394333e+02
negative regulation of vulval development	5.743650e-11	1.300333e+02
positive regulation of vulval development	6.311585e-11	1.206333e+02
multicellular organismal development	6.708301e-11	1.645000e+02
regulation of multicellular organism growth	6.966372e-11	1.316000e+02
multicellular organism growth	6.966372e-11	1.316000e+02
meiotic chromosome segregation	7.741086e-11	1.378667e+02
regulation of vulval development	8.799894e-11	1.300333e+02
gonad development	8.979983e-11	1.253333e+02
reproductive structure development	8.979983e-11	1.253333e+02
development of primary sexual characteristics	9.353518e-11	1.253333e+02
regulation of growth	1.011922e-10	1.363000e+02
meiosis	1.104624e-10	1.394333e+02
aging	1.253044e-10	1.300333e+02
multicellular organismal aging	1.269654e-10	1.300333e+02
determination of adult life span	1.269654e-10	1.300333e+02
hermaphrodite germ-line sex determination	1.359221e-10	1.190667e+02
M phase of meiotic cell cycle	1.371271e-10	1.394333e+02
reproductive process	1.456709e-10	1.519667e+02
meiotic cell cycle	1.500163e-10	1.394333e+02
gastrulation with mouth forming first	1.511293e-10	1.096667e+02
system development	1.536550e-10	1.441333e+02
vulval development	2.366647e-10	1.300333e+02
M phase	2.389757e-10	141
cell cycle phase	2.423712e-10	141
anatomical structure morphogenesis	2.553404e-10	1.425667e+02
anatomical structure development	2.765838e-10	1.457000e+02
regulation of embryonic development	3.217230e-10	1.112333e+02
germ-line sex determination	3.414717e-10	1.190667e+02
negative regulation of developmental process	4.520041e-10	1.378667e+02
sex determination	4.642798e-10	1.190667e+02
multicellular organismal process	4.869921e-10	1.660667e+02
cell cycle process	4.969590e-10	1.425667e+02
positive regulation of biological process	5.363434e-10	1.457000e+02
regulation of locomotion	5.660076e-10	1.222000e+02
mitotic spindle organization and biogenesis	5.661421e-10	1.222000e+02
developmental process	5.795672e-10	1.645000e+02
response to stimulus	5.811390e-10	1.551000e+02
centrosomal and pronuclear rotation	6.580949e-10	9.870000e+01
spindle organization and biogenesis	6.958535e-10	1.222000e+02
regulation of cell cycle	7.361847e-10	1.237667e+02
negative regulation of growth	8.043144e-10	1.222000e+02
negative regulation of multicellular organism growth	8.043144e-10	1.222000e+02
cell cycle	8.185602e-10	1.425667e+02
sexual reproduction	2.065437e-09	1.441333e+02
negative regulation of biological process	2.088605e-09	1.425667e+02
regulation of cell cycle process	2.535633e-09	1.206333e+02
establishment of cellular localization	3.792032e-09	1.441333e+02
cellular localization	4.046030e-09	1.441333e+02
regulation of developmental process	4.422103e-09	141
mitotic cell cycle	4.703755e-09	1.316000e+02
cell cycle switching	8.556905e-09	1.002667e+02
cell cycle switching, mitotic to meiotic cell cycle	8.556905e-09	1.002667e+02
germline cell cycle switching, mitotic to meiotic cell cycle	8.556905e-09	1.002667e+02
gastrulation	9.836092e-09	1.128000e+02
cell death	1.730146e-08	1.347333e+02
death	1.730146e-08	1.347333e+02
virus assembly	1.928109e-08	8.616667e+01
viral reproductive process	1.928109e-08	8.616667e+01
viral assembly, maturation, egress, and release	1.928109e-08	8.616667e+01
viral infectious cycle	1.928109e-08	8.616667e+01
microtubule cytoskeleton organization and biogenesis	2.011117e-08	1.253333e+02
cytoplasm organization and biogenesis	3.789778e-08	94
nuclear organization and biogenesis	3.844766e-08	1.096667e+02
response to stress	4.505097e-08	1.316000e+02
cell motility	4.601813e-08	1.284667e+02
localization of cell	4.601813e-08	1.284667e+02
gamete generation	5.219476e-08	1.363000e+02
cellular component organization and biogenesis	6.222180e-08	1.472667e+02
cell development	7.111708e-08	1.347333e+02
oogenesis	7.183788e-08	1.331667e+02
regulation of meiosis	7.427747e-08	1.018333e+02
female gamete generation	7.862820e-08	1.331667e+02
dauer entry	8.886995e-08	8.773333e+01
DNA replication initiation	9.073631e-08	9.086667e+01
positive regulation of locomotion	1.073857e-07	1.096667e+02
defense response	1.441753e-07	1.269000e+02
organelle organization and biogenesis	1.454524e-07	1.363000e+02
viral reproduction	1.485738e-07	8.616667e+01
microtubule-based process	1.492757e-07	1.300333e+02
cytoskeleton organization and biogenesis	1.560002e-07	1.331667e+02
arginine catabolic process	1.620322e-07	8.146667e+01
arginine metabolic process	1.620322e-07	8.146667e+01
urea cycle intermediate metabolic process	1.620322e-07	8.146667e+01
cell differentiation	1.968229e-07	1.347333e+02
vitamin B6 biosynthetic process	1.976150e-07	7.990000e+01
pyridoxine biosynthetic process	1.976150e-07	7.990000e+01
vitamin B6 metabolic process	1.976150e-07	7.990000e+01
pyridoxine metabolic process	1.976150e-07	7.990000e+01
cellular developmental process	2.041965e-07	1.347333e+02
regulation of mitotic metaphase/anaphase transition	2.287220e-07	8.303333e+01
dormancy process	2.355831e-07	8.773333e+01
homophilic cell adhesion	2.584456e-07	94
copper ion homeostasis	2.659438e-07	8.303333e+01
interspecies interaction between organisms	2.678856e-07	8.773333e+01
symbiosis, encompassing mutualism through parasitism	2.678856e-07	8.773333e+01
pathogenesis	2.678856e-07	8.773333e+01
system process	2.686094e-07	1.331667e+02
peptidyl-histidine phosphorylation	2.795719e-07	8.303333e+01
copper ion transport	2.795998e-07	1.065333e+02
extracellular matrix organization and biogenesis	3.753571e-07	1.081000e+02
sphingoid metabolic process	3.840731e-07	9.713333e+01
ceramide metabolic process	3.840731e-07	9.713333e+01
adenine metabolic process	3.921619e-07	7.990000e+01
adenine salvage	3.921619e-07	7.990000e+01
purine base salvage	3.921619e-07	7.990000e+01
N-terminal protein lipidation	3.921619e-07	7.990000e+01
N-terminal protein myristoylation	3.921619e-07	7.990000e+01
protein myristoylation	3.921619e-07	7.990000e+01
protein amino acid myristoylation	3.921619e-07	7.990000e+01
N-terminal protein amino acid modification	3.921619e-07	7.990000e+01
peptide or protein amino-terminal blocking	3.921619e-07	7.990000e+01
protein amino acid acylation	3.921619e-07	7.990000e+01
mitotic metaphase/anaphase transition	3.971649e-07	9.086667e+01
tetracycline transport	4.092063e-07	8.460000e+01
translational termination	4.115341e-07	8.146667e+01
cellular protein complex disassembly	4.115341e-07	8.146667e+01
macromolecular complex disassembly	4.115341e-07	8.146667e+01
protein complex disassembly	4.115341e-07	8.146667e+01
response to external stimulus	4.153429e-07	1.222000e+02
mRNA transport	4.253456e-07	8.146667e+01
sensory perception	4.306588e-07	1.269000e+02
'de novo' IMP biosynthetic process	4.418440e-07	9.086667e+01
regulation of protein complex assembly	4.470212e-07	7.833333e+01
L-cysteine metabolic process	4.624067e-07	7.833333e+01
drug transport	4.651080e-07	8.460000e+01
pyrimidine ribonucleoside monophosphate biosynthetic process	4.713310e-07	7.990000e+01
UMP biosynthetic process	4.713310e-07	7.990000e+01
pyrimidine ribonucleoside monophosphate metabolic process	4.713310e-07	7.990000e+01
UMP metabolic process	4.713310e-07	7.990000e+01
IMP biosynthetic process	4.766390e-07	9.086667e+01
IMP metabolic process	4.766390e-07	9.086667e+01
biological regulation	4.798532e-07	1.535333e+02
protein amino acid alkylation	4.956945e-07	8.460000e+01
protein amino acid methylation	4.956945e-07	8.460000e+01
cell cycle arrest	5.467243e-07	1.002667e+02
purine base metabolic process	5.499849e-07	8.930000e+01
alkene metabolic process	5.795689e-07	9.086667e+01
alkene biosynthetic process	5.795689e-07	9.086667e+01
leukotriene biosynthetic process	5.795689e-07	9.086667e+01
leukotriene metabolic process	5.795689e-07	9.086667e+01
icosanoid biosynthetic process	5.795689e-07	9.086667e+01
icosanoid metabolic process	5.795689e-07	9.086667e+01
ergosterol metabolic process	5.843388e-07	7.990000e+01
ergosterol biosynthetic process	5.843388e-07	7.990000e+01
phospholipid transport	5.971721e-07	9.086667e+01
regulation of cell proliferation	6.212532e-07	1.018333e+02
cell wall modification	6.447079e-07	7.990000e+01
regulation of biological process	6.476064e-07	1.519667e+02
regulation of phosphoprotein phosphatase activity	6.553149e-07	7.990000e+01
nucleobase biosynthetic process	6.627913e-07	9.086667e+01
coenzyme biosynthetic process	6.677987e-07	1.049667e+02
tubulin folding	6.994247e-07	7.990000e+01
glutamine family amino acid catabolic process	7.504463e-07	8.146667e+01
amino acid transport	7.572289e-07	9.086667e+01
localization	7.802644e-07	1.504000e+02
fructose metabolic process	7.961478e-07	8.616667e+01
fructose 2,6-bisphosphate metabolic process	7.961478e-07	8.616667e+01
carotenoid biosynthetic process	8.003617e-07	7.676667e+01
terpenoid biosynthetic process	8.003617e-07	7.676667e+01
tetraterpenoid biosynthetic process	8.003617e-07	7.676667e+01
terpenoid metabolic process	8.003617e-07	7.676667e+01
tetraterpenoid metabolic process	8.003617e-07	7.676667e+01
carotenoid metabolic process	8.003617e-07	7.676667e+01
cAMP metabolic process	8.137797e-07	7.676667e+01
cAMP biosynthetic process	8.137797e-07	7.676667e+01
secretion	8.370041e-07	1.175000e+02
ciliary or flagellar motility	8.827389e-07	8.773333e+01
establishment of localization	8.832915e-07	1.472667e+02
nucleotide catabolic process	9.739277e-07	1.018333e+02
oxidoreduction coenzyme metabolic process	1.000490e-06	1.018333e+02
peptide or protein carboxyl-terminal blocking	1.013595e-06	8.146667e+01
C-terminal protein amino acid methylation	1.013595e-06	8.146667e+01
DNA replication, synthesis of RNA primer	1.061905e-06	7.990000e+01
protein targeting to ER	1.073586e-06	94
SRP-dependent cotranslational protein targeting to membrane	1.073586e-06	94
sterol metabolic process	1.107731e-06	8.930000e+01
protein import into mitochondrial inner membrane	1.141458e-06	8.303333e+01
mitochondrial membrane organization and biogenesis	1.141458e-06	8.303333e+01
inner mitochondrial membrane organization and biogenesis	1.141458e-06	8.303333e+01
deoxyribonucleoside monophosphate metabolic process	1.141458e-06	8.303333e+01
deoxyribonucleoside monophosphate biosynthetic process	1.141458e-06	8.303333e+01
pyrimidine deoxyribonucleoside monophosphate biosynthetic process	1.141458e-06	8.303333e+01
dTMP biosynthetic process	1.141458e-06	8.303333e+01
pyrimidine deoxyribonucleoside monophosphate metabolic process	1.141458e-06	8.303333e+01
dTMP metabolic process	1.141458e-06	8.303333e+01
sterol biosynthetic process	1.145811e-06	8.460000e+01
pyrimidine base biosynthetic process	1.157284e-06	8.930000e+01
'de novo' pyrimidine base biosynthetic process	1.157284e-06	8.930000e+01
vitelline membrane formation	1.160263e-06	9.713333e+01
GMP biosynthetic process	1.161341e-06	8.616667e+01
GMP metabolic process	1.161341e-06	8.616667e+01
cytoskeletal anchoring	1.191476e-06	8.930000e+01
peptide metabolic process	1.232600e-06	9.243333e+01
cotranslational protein targeting to membrane	1.235736e-06	94
GTP biosynthetic process	1.262733e-06	8.930000e+01
pyrimidine ribonucleoside triphosphate biosynthetic process	1.262733e-06	8.930000e+01
CTP biosynthetic process	1.262733e-06	8.930000e+01
UTP biosynthetic process	1.262733e-06	8.930000e+01
GTP metabolic process	1.262733e-06	8.930000e+01
pyrimidine ribonucleoside triphosphate metabolic process	1.262733e-06	8.930000e+01
CTP metabolic process	1.262733e-06	8.930000e+01
UTP metabolic process	1.262733e-06	8.930000e+01
organic acid transport	1.263620e-06	9.870000e+01
carboxylic acid transport	1.263620e-06	9.870000e+01
deoxyribonucleotide metabolic process	1.270836e-06	94
DNA integration	1.308202e-06	8.616667e+01
pyrimidine ribonucleotide biosynthetic process	1.318793e-06	8.930000e+01
vitamin metabolic process	1.377538e-06	1.018333e+02
water-soluble vitamin metabolic process	1.377538e-06	1.018333e+02
histidine family amino acid catabolic process	1.399669e-06	9.243333e+01
histidine catabolic process	1.399669e-06	9.243333e+01
histidine family amino acid metabolic process	1.399669e-06	9.243333e+01
histidine metabolic process	1.399669e-06	9.243333e+01
negative regulation of catalytic activity	1.401199e-06	94
serine family amino acid catabolic process	1.431905e-06	9.086667e+01
glycine catabolic process	1.431905e-06	9.086667e+01
signal peptide processing	1.452426e-06	9.086667e+01
deoxyribonucleoside diphosphate metabolic process	1.479474e-06	8.460000e+01
peptidyl-histidine modification	1.501553e-06	8.303333e+01
protein folding	1.509245e-06	1.081000e+02
neurological system process	1.519148e-06	1.269000e+02
iron ion transport	1.587595e-06	8.146667e+01
cell proliferation	1.677552e-06	1.018333e+02
energy coupled proton transport, against electrochemical gradient	1.685910e-06	8.773333e+01
pyridine nucleotide biosynthetic process	1.696899e-06	9.086667e+01
cellular component assembly	1.745148e-06	1.112333e+02
pyrimidine ribonucleotide metabolic process	1.768292e-06	9.713333e+01
localization within membrane	1.793043e-06	8.146667e+01
protein insertion into membrane	1.793043e-06	8.146667e+01
protein transport within lipid bilayer	1.793043e-06	8.146667e+01
glycine metabolic process	1.795071e-06	9.086667e+01
glutamine family amino acid metabolic process	1.807484e-06	8.930000e+01
isoprenoid metabolic process	1.898544e-06	9.086667e+01
isoprenoid biosynthetic process	1.898544e-06	9.086667e+01
cell migration	1.987224e-06	1.065333e+02
chromatin assembly or disassembly	2.044543e-06	9.556667e+01
cell-cell adhesion	2.106942e-06	1.049667e+02
histidine catabolic process to glutamate and formamide	2.108140e-06	7.676667e+01
nucleotide-sugar transport	2.116510e-06	94
glucan metabolic process	2.122545e-06	9.086667e+01
glycogen metabolic process	2.122545e-06	9.086667e+01
regulation of gene expression, epigenetic	2.234520e-06	1.128000e+02
glycolipid transport	2.306636e-06	9.086667e+01
response to toxin	2.308510e-06	9.713333e+01
G-protein signaling, coupled to IP3 second messenger (phospholipase C activating)	2.337837e-06	9.243333e+01
activation of protein kinase activity	2.369981e-06	9.243333e+01
polyamine biosynthetic process	2.388489e-06	7.676667e+01
polyamine metabolic process	2.388489e-06	7.676667e+01
RNA interference	2.466108e-06	9.556667e+01
sensory perception of mechanical stimulus	2.466108e-06	9.556667e+01
amino acid catabolic process	2.571676e-06	9.243333e+01
nucleoside diphosphate metabolic process	2.606841e-06	9.243333e+01
phosphatidylcholine metabolic process	2.621646e-06	8.773333e+01
transition metal ion transport	2.680806e-06	1.065333e+02
cofactor biosynthetic process	2.782052e-06	1.065333e+02
regulation of body fluid levels	2.802028e-06	7.990000e+01
hemostasis	2.802028e-06	7.990000e+01
blood coagulation	2.802028e-06	7.990000e+01
coagulation	2.802028e-06	7.990000e+01
wound healing	2.802028e-06	7.990000e+01
lipid metabolic process	2.805163e-06	1.206333e+02
neuropeptide signaling pathway	2.807665e-06	1.018333e+02
purine base biosynthetic process	2.844203e-06	7.990000e+01
negative regulation of transferase activity	2.873625e-06	9.086667e+01
negative regulation of kinase activity	2.873625e-06	9.086667e+01
negative regulation of protein kinase activity	2.873625e-06	9.086667e+01
RNA-dependent DNA replication	2.886962e-06	7.990000e+01
energy reserve metabolic process	2.907658e-06	9.870000e+01
folic acid and derivative biosynthetic process	2.940420e-06	8.460000e+01
response to abiotic stimulus	2.955111e-06	1.002667e+02
folic acid and derivative metabolic process	3.025709e-06	8.460000e+01
nucleobase metabolic process	3.067731e-06	1.018333e+02
ATP synthesis coupled proton transport	3.208346e-06	94
energy coupled proton transport, down electrochemical gradient	3.208346e-06	94
mechanosensory behavior	3.212052e-06	9.556667e+01
ATP biosynthetic process	3.338326e-06	94
pyrimidine nucleoside monophosphate biosynthetic process	3.377462e-06	8.303333e+01
pyrimidine nucleoside monophosphate metabolic process	3.377462e-06	8.303333e+01
response to mechanical stimulus	3.429216e-06	9.556667e+01
biopolymer methylation	3.488177e-06	8.460000e+01
gene silencing by RNA	3.519892e-06	9.556667e+01
posttranscriptional gene silencing by RNA	3.519892e-06	9.556667e+01
posttranscriptional gene silencing	3.519892e-06	9.556667e+01
pyridine nucleotide metabolic process	3.521961e-06	9.086667e+01
vitamin biosynthetic process	3.521961e-06	9.086667e+01
water-soluble vitamin biosynthetic process	3.521961e-06	9.086667e+01
nicotinamide metabolic process	3.524899e-06	8.930000e+01
lipid transport	3.567057e-06	1.018333e+02
nucleosome assembly	3.582733e-06	8.616667e+01
chromatin assembly	3.684064e-06	8.616667e+01
purine nucleoside monophosphate biosynthetic process	3.709542e-06	94
purine ribonucleoside monophosphate biosynthetic process	3.709542e-06	94
purine nucleoside monophosphate metabolic process	3.709542e-06	94
purine ribonucleoside monophosphate metabolic process	3.709542e-06	94
ribonucleoside monophosphate biosynthetic process	3.960910e-06	94
ribonucleoside monophosphate metabolic process	3.960910e-06	94
phenol metabolic process	3.963302e-06	1.034000e+02
cell wall metabolic process	3.974433e-06	9.086667e+01
cell wall catabolic process	3.974433e-06	9.086667e+01
regulation of GTPase activity	4.019789e-06	1.049667e+02
dauer larval development	4.030004e-06	8.773333e+01
cellular polysaccharide biosynthetic process	4.037581e-06	8.930000e+01
polysaccharide biosynthetic process	4.037581e-06	8.930000e+01
purine nucleoside triphosphate biosynthetic process	4.065857e-06	94
purine ribonucleoside triphosphate biosynthetic process	4.065857e-06	94
ribonucleoside triphosphate biosynthetic process	4.065857e-06	94
pyrimidine nucleotide biosynthetic process	4.109207e-06	9.243333e+01
deoxyribonucleotide biosynthetic process	4.141737e-06	8.773333e+01
pyrimidine deoxyribonucleotide biosynthetic process	4.141737e-06	8.773333e+01
establishment of RNA localization	4.148167e-06	8.930000e+01
RNA transport	4.148167e-06	8.930000e+01
nucleobase, nucleoside, nucleotide and nucleic acid transport	4.148167e-06	8.930000e+01
nucleic acid transport	4.148167e-06	8.930000e+01
RNA localization	4.148167e-06	8.930000e+01
microspike biogenesis	4.150413e-06	7.520000e+01
filopodium formation	4.150413e-06	7.520000e+01
anion transport	4.211857e-06	1.065333e+02
proline biosynthetic process	4.219463e-06	8.146667e+01
nucleoside triphosphate biosynthetic process	4.228182e-06	94
external encapsulating structure organization and biogenesis	4.305801e-06	9.086667e+01
cell wall organization and biogenesis	4.305801e-06	9.086667e+01
pentose-phosphate shunt	4.314823e-06	8.773333e+01
NADPH regeneration	4.314823e-06	8.773333e+01
DNA-dependent DNA replication	4.372486e-06	1.034000e+02
regulation of actin filament length	4.389021e-06	9.243333e+01
regulation of actin polymerization and/or depolymerization	4.389021e-06	9.243333e+01
regulation of actin filament polymerization	4.389021e-06	9.243333e+01
regulation of cellular component size	4.389021e-06	9.243333e+01
actin filament polymerization	4.389021e-06	9.243333e+01
steroid metabolic process	4.389021e-06	9.243333e+01
pyrimidine deoxyribonucleotide metabolic process	4.433933e-06	8.773333e+01
pyrimidine nucleoside triphosphate metabolic process	4.437209e-06	8.930000e+01
mitosis	4.480801e-06	1.034000e+02
dicarboxylic acid metabolic process	4.488547e-06	7.990000e+01
malate metabolic process	4.488547e-06	7.990000e+01
protein prenylation	4.546213e-06	7.520000e+01
protein amino acid prenylation	4.546213e-06	7.520000e+01
proton transport	4.571285e-06	94
M phase of mitotic cell cycle	4.591661e-06	1.034000e+02
regulation of mitosis	4.601555e-06	9.086667e+01
Mo-molybdopterin cofactor biosynthetic process	4.618551e-06	8.460000e+01
molybdopterin cofactor metabolic process	4.618551e-06	8.460000e+01
Mo-molybdopterin cofactor metabolic process	4.618551e-06	8.460000e+01
molybdopterin cofactor biosynthetic process	4.618551e-06	8.460000e+01
response to chemical stimulus	4.619948e-06	1.143667e+02
pigment biosynthetic process	4.620536e-06	7.990000e+01
pigment metabolic process	4.620536e-06	7.990000e+01
secondary metabolic process	4.620536e-06	7.990000e+01
nucleoside monophosphate metabolic process	4.630950e-06	94
nucleoside monophosphate biosynthetic process	4.630950e-06	94
amino acid activation	4.662941e-06	9.086667e+01
tRNA aminoacylation	4.662941e-06	9.086667e+01
tRNA aminoacylation for protein translation	4.662941e-06	9.086667e+01
response to wounding	4.687847e-06	7.990000e+01
actin polymerization and/or depolymerization	4.748374e-06	9.243333e+01
regulation of Rab protein signal transduction	4.752460e-06	94
regulation of Rab GTPase activity	4.752460e-06	94
Rab protein signal transduction	4.752460e-06	94
group transfer coenzyme metabolic process	4.815109e-06	8.460000e+01
pyrimidine base metabolic process	4.888880e-06	1.002667e+02
organic acid biosynthetic process	4.939567e-06	1.049667e+02
carboxylic acid biosynthetic process	4.939567e-06	1.049667e+02
fatty acid biosynthetic process	4.939567e-06	1.049667e+02
phosphate transport	5.004544e-06	94
pyrimidine nucleotide metabolic process	5.011540e-06	1.002667e+02
cell redox homeostasis	5.247563e-06	9.556667e+01
ER to Golgi vesicle-mediated transport	5.251090e-06	9.086667e+01
pteridine and derivative biosynthetic process	5.343328e-06	8.616667e+01
pteridine and derivative metabolic process	5.343328e-06	8.616667e+01
proline metabolic process	5.376207e-06	8.146667e+01
NADP metabolic process	5.430661e-06	8.773333e+01
amino sugar catabolic process	5.681041e-06	9.086667e+01
glucosamine catabolic process	5.681041e-06	9.086667e+01
N-acetylglucosamine catabolic process	5.681041e-06	9.086667e+01
chitin catabolic process	5.681041e-06	9.086667e+01
cellular polysaccharide catabolic process	5.681041e-06	9.086667e+01
polysaccharide catabolic process	5.681041e-06	9.086667e+01
cellular polysaccharide metabolic process	5.697075e-06	9.243333e+01
polysaccharide metabolic process	5.697075e-06	9.243333e+01
oocyte development	5.729909e-06	8.773333e+01
oocyte differentiation	5.729909e-06	8.773333e+01
negative regulation of translational elongation	5.822337e-06	7.676667e+01
regulation of translational elongation	5.822337e-06	7.676667e+01
chromatin modification	5.841081e-06	1.018333e+02
methylation	5.913148e-06	94
glucan biosynthetic process	6.085076e-06	8.460000e+01
glycogen biosynthetic process	6.085076e-06	8.460000e+01
sulfur compound biosynthetic process	6.155741e-06	9.243333e+01
regulation of protein polymerization	6.235465e-06	9.243333e+01
regulation of hydrolase activity	6.274519e-06	1.049667e+02
regulation of ARF protein signal transduction	6.339395e-06	8.460000e+01
ARF protein signal transduction	6.339395e-06	8.460000e+01
metabolic compound salvage	6.426371e-06	8.460000e+01
purine salvage	6.426371e-06	8.460000e+01
protein targeting to mitochondrion	6.454587e-06	8.303333e+01
protein import into mitochondrion	6.454587e-06	8.303333e+01
glutamine family amino acid biosynthetic process	6.544768e-06	8.146667e+01
protein import	6.592671e-06	1.018333e+02
membrane invagination	6.596334e-06	9.870000e+01
endocytosis	6.596334e-06	9.870000e+01
regulation of actin cytoskeleton organization and biogenesis	6.648826e-06	9.243333e+01
inorganic anion transport	6.657670e-06	1.049667e+02
gas transport	6.734509e-06	9.243333e+01
oxygen transport	6.734509e-06	9.243333e+01
beta-lactam antibiotic metabolic process	6.872791e-06	8.930000e+01
beta-lactam antibiotic catabolic process	6.872791e-06	8.930000e+01
antibiotic catabolic process	6.872791e-06	8.930000e+01
drug metabolic process	6.872791e-06	8.930000e+01
antibiotic metabolic process	6.872791e-06	8.930000e+01
carbohydrate transport	6.887089e-06	94
one-carbon compound metabolic process	7.063322e-06	94
chitin metabolic process	7.085283e-06	9.086667e+01
amino sugar metabolic process	7.177255e-06	9.086667e+01
glucosamine metabolic process	7.177255e-06	9.086667e+01
N-acetylglucosamine metabolic process	7.177255e-06	9.086667e+01
activation of protein kinase C activity	7.214246e-06	8.146667e+01
regulation of Rho protein signal transduction	7.335650e-06	94
spliceosome assembly	7.683168e-06	8.616667e+01
translational initiation	7.686150e-06	1.002667e+02
establishment and/or maintenance of chromatin architecture	7.703245e-06	1.065333e+02
replication fork protection	7.710425e-06	7.206667e+01
cysteine biosynthetic process	7.713661e-06	8.303333e+01
cysteine biosynthetic process from serine	7.713661e-06	8.303333e+01
response to antibiotic	7.930696e-06	8.930000e+01
cysteine metabolic process	8.144990e-06	8.303333e+01
protein targeting	8.163453e-06	1.065333e+02
DNA replication	8.264122e-06	1.081000e+02
sulfur amino acid biosynthetic process	8.483150e-06	8.303333e+01
extracellular structure organization and biogenesis	8.553335e-06	1.081000e+02
di-, tri-valent inorganic cation homeostasis	8.555308e-06	9.556667e+01
regulation of actin filament-based process	8.625524e-06	9.870000e+01
gluconeogenesis	8.655601e-06	8.616667e+01
protein targeting to membrane	8.667340e-06	1.002667e+02
chromosome organization and biogenesis	8.825917e-06	1.096667e+02
Rho protein signal transduction	8.887720e-06	1.018333e+02
protein processing	8.887720e-06	1.018333e+02
acyl-CoA metabolic process	8.982941e-06	7.676667e+01
purine nucleotide biosynthetic process	9.073912e-06	94
purine ribonucleotide biosynthetic process	9.073912e-06	94
positive regulation of transferase activity	9.129314e-06	9.243333e+01
positive regulation of kinase activity	9.129314e-06	9.243333e+01
positive regulation of protein kinase activity	9.129314e-06	9.243333e+01
coenzyme metabolic process	9.135663e-06	1.049667e+02
sodium ion transport	9.135663e-06	1.049667e+02
amine catabolic process	9.242292e-06	1.049667e+02
nitrogen compound catabolic process	9.242292e-06	1.049667e+02
ribonucleotide biosynthetic process	9.302069e-06	94
steroid biosynthetic process	9.497746e-06	8.930000e+01
amine transport	1.000033e-05	1.018333e+02
regulation of Ras GTPase activity	1.001900e-05	94
translational elongation	1.002650e-05	8.146667e+01
sensory perception of chemical stimulus	1.015840e-05	1.065333e+02
sulfate transport	1.017726e-05	7.990000e+01
response to drug	1.028396e-05	9.556667e+01
DNA packaging	1.032979e-05	9.870000e+01
germ cell development	1.034605e-05	8.773333e+01
rRNA processing	1.048479e-05	1.002667e+02
rRNA metabolic process	1.048479e-05	1.002667e+02
vacuole organization and biogenesis	1.099190e-05	1.002667e+02
lysosome organization and biogenesis	1.099190e-05	1.002667e+02
pyruvate metabolic process	1.138915e-05	8.616667e+01
regulation of cellular protein metabolic process	1.164233e-05	1.018333e+02
glycerol metabolic process	1.209005e-05	8.930000e+01
protein polymerization	1.230311e-05	9.243333e+01
RNA splicing, via endonucleolytic cleavage and ligation	1.248693e-05	7.990000e+01
tRNA splicing	1.248693e-05	7.990000e+01
cobalamin biosynthetic process	1.258582e-05	6.893333e+01
cobalamin metabolic process	1.258582e-05	6.893333e+01
cation homeostasis	1.265444e-05	1.002667e+02
ribosome biogenesis and assembly	1.280310e-05	1.002667e+02
DNA metabolic process	1.280561e-05	1.112333e+02
autophagy	1.324385e-05	9.243333e+01
tRNA processing	1.349531e-05	9.086667e+01
sulfur amino acid metabolic process	1.352550e-05	8.303333e+01
nuclear transport	1.376665e-05	1.034000e+02
nucleocytoplasmic transport	1.376665e-05	1.034000e+02
sphingolipid metabolic process	1.389045e-05	1.002667e+02
glycolipid catabolic process	1.397571e-05	6.893333e+01
galactolipid catabolic process	1.397571e-05	6.893333e+01
galactosylceramide catabolic process	1.397571e-05	6.893333e+01
glycosylceramide catabolic process	1.397571e-05	6.893333e+01
sphingoid catabolic process	1.397571e-05	6.893333e+01
ceramide catabolic process	1.397571e-05	6.893333e+01
galactolipid metabolic process	1.397571e-05	6.893333e+01
galactosylceramide metabolic process	1.397571e-05	6.893333e+01
glycosylceramide metabolic process	1.397571e-05	6.893333e+01
deoxyribonucleotide catabolic process	1.397944e-05	7.050000e+01
regulation of organelle organization and biogenesis	1.405122e-05	9.870000e+01
regulation of cytoskeleton organization and biogenesis	1.405122e-05	9.870000e+01
ion homeostasis	1.405265e-05	1.002667e+02
phospholipid biosynthetic process	1.410172e-05	94
fatty acid catabolic process	1.462996e-05	8.303333e+01
fatty acid beta-oxidation	1.462996e-05	8.303333e+01
organic acid catabolic process	1.462996e-05	8.303333e+01
carboxylic acid catabolic process	1.462996e-05	8.303333e+01
biological adhesion	1.468675e-05	1.081000e+02
cell adhesion	1.468675e-05	1.081000e+02
chemical homeostasis	1.471935e-05	1.002667e+02
RNA modification	1.489731e-05	9.870000e+01
catechol metabolic process	1.496234e-05	9.243333e+01
siderophore biosynthetic process from catechol	1.496234e-05	9.243333e+01
enterobactin biosynthetic process	1.496234e-05	9.243333e+01
enterobactin metabolic process	1.496234e-05	9.243333e+01
siderophore biosynthetic process	1.496234e-05	9.243333e+01
siderophore metabolic process	1.496234e-05	9.243333e+01
L-serine metabolic process	1.501635e-05	8.303333e+01
serine family amino acid biosynthetic process	1.521312e-05	8.303333e+01
negative regulation of DNA replication	1.548201e-05	7.990000e+01
gene silencing	1.548328e-05	9.556667e+01
polyol metabolic process	1.552222e-05	8.930000e+01
nucleotide-excision repair	1.573161e-05	8.773333e+01
aspartate family amino acid metabolic process	1.578773e-05	8.146667e+01
regulation of DNA replication	1.581784e-05	8.303333e+01
coenzyme A metabolic process	1.586445e-05	7.363333e+01
mRNA metabolic process	1.613792e-05	1.034000e+02
response to oxidative stress	1.630116e-05	1.065333e+02
peptidyl-asparagine modification	1.632867e-05	7.990000e+01
protein amino acid N-linked glycosylation via asparagine	1.632867e-05	7.990000e+01
DNA topological change	1.651200e-05	8.930000e+01
regulation of transferase activity	1.651765e-05	1.002667e+02
regulation of kinase activity	1.651765e-05	1.002667e+02
regulation of protein kinase activity	1.651765e-05	1.002667e+02
ribonucleoprotein complex biogenesis and assembly	1.688250e-05	1.034000e+02
tRNA metabolic process	1.703891e-05	9.086667e+01
maintenance of cellular localization	1.719151e-05	6.893333e+01
maintenance of cellular protein localization	1.719151e-05	6.893333e+01
protein retention in ER	1.719151e-05	6.893333e+01
regulation of cellular process	1.754361e-05	1.363000e+02
fatty acid metabolic process	1.826121e-05	1.049667e+02
asparagine biosynthetic process	1.938660e-05	7.990000e+01
asparagine metabolic process	1.938660e-05	7.990000e+01
response to DNA damage stimulus	1.974929e-05	1.081000e+02
lipid catabolic process	2.009694e-05	1.065333e+02
rRNA modification	2.016397e-05	7.990000e+01
aspartate family amino acid biosynthetic process	2.042947e-05	7.990000e+01
apoptosis	2.064810e-05	1.034000e+02
mRNA processing	2.131602e-05	1.018333e+02
phosphoinositide biosynthetic process	2.144145e-05	8.773333e+01
GPI anchor biosynthetic process	2.144145e-05	8.773333e+01
GPI anchor metabolic process	2.197294e-05	8.773333e+01
amino acid biosynthetic process	2.235891e-05	8.303333e+01
regulation of protein metabolic process	2.251829e-05	1.049667e+02
macromolecular complex assembly	2.276619e-05	1.049667e+02
calcium ion transport	2.323043e-05	8.930000e+01
energy derivation by oxidation of organic compounds	2.332705e-05	9.870000e+01
glutamate metabolic process	2.389504e-05	8.146667e+01
cellular protein catabolic process	2.404437e-05	1.049667e+02
proteolysis involved in cellular protein catabolic process	2.404437e-05	1.049667e+02
modification-dependent protein catabolic process	2.404437e-05	1.049667e+02
ubiquitin-dependent protein catabolic process	2.404437e-05	1.049667e+02
modification-dependent macromolecule catabolic process	2.404437e-05	1.049667e+02
monocarboxylic acid metabolic process	2.404437e-05	1.049667e+02
intracellular protein transport	2.417844e-05	1.065333e+02
phosphoinositide-mediated signaling	2.442837e-05	9.556667e+01
amine metabolic process	2.450206e-05	1.096667e+02
cell projection biogenesis	2.457904e-05	8.616667e+01
serine family amino acid metabolic process	2.473195e-05	9.086667e+01
ubiquitin cycle	2.491189e-05	1.034000e+02
mitochondrion organization and biogenesis	2.496351e-05	9.870000e+01
amino acid and derivative metabolic process	2.502802e-05	1.096667e+02
nitrogen compound metabolic process	2.529495e-05	1.096667e+02
glycerophospholipid biosynthetic process	2.557259e-05	8.930000e+01
negative regulation of translation	2.573731e-05	8.773333e+01
negative regulation of macromolecule biosynthetic process	2.573731e-05	8.773333e+01
negative regulation of cellular biosynthetic process	2.605039e-05	8.773333e+01
negative regulation of biosynthetic process	2.605039e-05	8.773333e+01
DNA repair	2.607404e-05	1.065333e+02
DNA recombination	2.607650e-05	94
regulation of signal transduction	2.611176e-05	1.096667e+02
lipoprotein metabolic process	2.650613e-05	8.930000e+01
lipoprotein biosynthetic process	2.650613e-05	8.930000e+01
protein amino acid lipidation	2.650613e-05	8.930000e+01
hydrogen transport	2.668676e-05	94
heterocycle metabolic process	2.691161e-05	1.018333e+02
cofactor metabolic process	2.751197e-05	1.065333e+02
aromatic amino acid family metabolic process	2.762707e-05	94
protein-RNA complex assembly	2.775868e-05	1.002667e+02
oxidative phosphorylation	2.778995e-05	1.034000e+02
acetyl-CoA catabolic process	2.813263e-05	8.930000e+01
tricarboxylic acid cycle	2.813263e-05	8.930000e+01
ATP metabolic process	2.892882e-05	94
protein amino acid dephosphorylation	2.905851e-05	1.081000e+02
cofactor catabolic process	2.915252e-05	8.930000e+01
coenzyme catabolic process	2.915252e-05	8.930000e+01
dephosphorylation	2.936781e-05	1.081000e+02
mannose metabolic process	2.943607e-05	9.243333e+01
protein catabolic process	2.985702e-05	1.049667e+02
thiamin and derivative metabolic process	3.017450e-05	7.050000e+01
thiamin and derivative biosynthetic process	3.017450e-05	7.050000e+01
thiamin metabolic process	3.017450e-05	7.050000e+01
cellular homeostasis	3.031418e-05	1.081000e+02
hexose metabolic process	3.050521e-05	1.049667e+02
organic acid metabolic process	3.063589e-05	1.081000e+02
carboxylic acid metabolic process	3.063589e-05	1.081000e+02
di-, tri-valent inorganic cation transport	3.092894e-05	8.930000e+01
monosaccharide metabolic process	3.116653e-05	1.049667e+02
acetyl-CoA metabolic process	3.129606e-05	8.930000e+01
regulation of Ras protein signal transduction	3.160419e-05	1.065333e+02
protein transport	3.228195e-05	1.065333e+02
purine nucleoside triphosphate metabolic process	3.280848e-05	94
purine ribonucleoside triphosphate metabolic process	3.280848e-05	94
ribonucleoside triphosphate metabolic process	3.280848e-05	94
protein import into nucleus	3.333280e-05	8.303333e+01
nuclear import	3.333280e-05	8.303333e+01
Golgi vesicle transport	3.356380e-05	94
purine nucleotide metabolic process	3.385243e-05	1.018333e+02
purine ribonucleotide metabolic process	3.385243e-05	1.018333e+02
lipid biosynthetic process	3.431111e-05	1.049667e+02
nucleoside triphosphate metabolic process	3.433527e-05	94
homeostatic process	3.439140e-05	1.081000e+02
programmed cell death	3.449850e-05	1.034000e+02
multi-organism process	3.449850e-05	1.034000e+02
ribonucleotide metabolic process	3.459384e-05	1.018333e+02
membrane lipid biosynthetic process	3.459384e-05	1.018333e+02
cellular respiration	3.478696e-05	8.930000e+01
aerobic respiration	3.478696e-05	8.930000e+01
regulation of small GTPase mediated signal transduction	3.587861e-05	1.065333e+02
amino acid metabolic process	3.612216e-05	1.018333e+02
G-protein coupled receptor protein signaling pathway	3.810543e-05	1.159333e+02
biogenic amine biosynthetic process	3.859876e-05	8.773333e+01
biogenic amine metabolic process	3.966715e-05	9.243333e+01
phosphoinositide metabolic process	4.018510e-05	9.556667e+01
glycerol-3-phosphate metabolic process	4.116871e-05	7.990000e+01
regulation of gene expression	4.117212e-05	1.269000e+02
transmembrane receptor protein tyrosine kinase signaling pathway	4.189875e-05	8.930000e+01
aromatic compound biosynthetic process	4.224634e-05	9.086667e+01
cyclic nucleotide metabolic process	4.224634e-05	9.086667e+01
cyclic nucleotide biosynthetic process	4.224634e-05	9.086667e+01
regulation of DNA metabolic process	4.253235e-05	8.303333e+01
negative regulation of DNA metabolic process	4.272817e-05	7.990000e+01
regulation of ARF GTPase activity	4.328891e-05	7.363333e+01
second-messenger-mediated signaling	4.371298e-05	9.713333e+01
mitochondrial electron transport, ubiquinol to cytochrome c	4.389529e-05	8.773333e+01
pseudouridine synthesis	4.389529e-05	8.773333e+01
thiamin biosynthetic process	4.557128e-05	6.736667e+01
actin cytoskeleton organization and biogenesis	4.571191e-05	1.018333e+02
neurotransmitter transport	4.669187e-05	1.018333e+02
amino acid derivative biosynthetic process	4.760791e-05	8.773333e+01
regulation of catalytic activity	4.804552e-05	1.049667e+02
Ras protein signal transduction	4.853024e-05	1.065333e+02
protein ubiquitination	4.872083e-05	8.773333e+01
cellular carbohydrate catabolic process	4.874667e-05	9.713333e+01
regulation of molecular function	4.956615e-05	1.049667e+02
positive regulation of catalytic activity	4.968354e-05	9.243333e+01
protein complex assembly	5.081010e-05	1.018333e+02
carbohydrate catabolic process	5.090661e-05	9.713333e+01
actin filament-based process	5.189107e-05	1.018333e+02
tryptophan catabolic process	5.211750e-05	6.580000e+01
indolalkylamine catabolic process	5.211750e-05	6.580000e+01
indole derivative catabolic process	5.211750e-05	6.580000e+01
nucleobase, nucleoside and nucleotide metabolic process	5.220029e-05	1.049667e+02
exocytosis	5.258448e-05	9.713333e+01
nucleotide biosynthetic process	5.266088e-05	1.034000e+02
phospholipid metabolic process	5.496390e-05	1.049667e+02
biopolymer catabolic process	5.553267e-05	1.049667e+02
potassium ion transport	5.668664e-05	1.049667e+02
cellular carbohydrate metabolic process	5.845939e-05	1.049667e+02
regulation of translation	5.852931e-05	8.773333e+01
regulation of macromolecule biosynthetic process	5.852931e-05	8.773333e+01
membrane lipid metabolic process	5.906164e-05	1.049667e+02
regulation of cellular biosynthetic process	5.919914e-05	8.773333e+01
regulation of biosynthetic process	5.919914e-05	8.773333e+01
glycoprotein catabolic process	6.014885e-05	7.990000e+01
aromatic amino acid family catabolic process	6.236112e-05	6.580000e+01
aromatic compound catabolic process	6.236112e-05	6.580000e+01
glycerophospholipid metabolic process	6.514701e-05	9.713333e+01
porphyrin biosynthetic process	6.548317e-05	6.893333e+01
porphyrin metabolic process	6.548317e-05	6.893333e+01
tetrapyrrole metabolic process	6.548317e-05	6.893333e+01
tetrapyrrole biosynthetic process	6.548317e-05	6.893333e+01
protein homooligomerization	6.548317e-05	6.893333e+01
electron transport chain	6.655940e-05	1.065333e+02
oxidation reduction	6.655940e-05	1.065333e+02
regulation of cellular component organization and biogenesis	6.701654e-05	1.002667e+02
nucleotide metabolic process	6.746749e-05	1.034000e+02
nucleoside phosphate metabolic process	6.746749e-05	1.034000e+02
intracellular transport	6.791327e-05	1.065333e+02
nucleobase, nucleoside and nucleotide biosynthetic process	6.886119e-05	1.034000e+02
vesicle-mediated transport	6.929263e-05	1.065333e+02
carbohydrate biosynthetic process	6.986260e-05	1.002667e+02
generation of precursor metabolites and energy	7.212963e-05	1.065333e+02
establishment of protein localization	7.285549e-05	1.065333e+02
monosaccharide biosynthetic process	7.396269e-05	9.713333e+01
hexose biosynthetic process	7.396269e-05	9.713333e+01
secretion by cell	7.474500e-05	9.713333e+01
sulfur metabolic process	7.543924e-05	9.243333e+01
peptidyl-amino acid modification	7.633262e-05	9.713333e+01
regulation of biological quality	7.686265e-05	1.081000e+02
nuclear mRNA splicing, via spliceosome	7.708794e-05	9.243333e+01
RNA splicing, via transesterification reactions	7.708794e-05	9.243333e+01
RNA splicing, via transesterification reactions with bulged adenosine as nucleophile	7.708794e-05	9.243333e+01
cellular macromolecule catabolic process	7.766973e-05	1.049667e+02
alcohol biosynthetic process	7.795138e-05	9.713333e+01
mitochondrial transport	7.842903e-05	8.773333e+01
small GTPase mediated signal transduction	7.969980e-05	1.065333e+02
negative regulation of cellular protein metabolic process	8.019278e-05	8.773333e+01
negative regulation of protein metabolic process	8.019278e-05	8.773333e+01
protein localization	8.155260e-05	1.081000e+02
translation	8.166170e-05	1.049667e+02
macromolecule localization	8.317394e-05	1.081000e+02
vesicle docking during exocytosis	8.322682e-05	8.930000e+01
ion transport	8.355306e-05	1.128000e+02
membrane docking	8.414355e-05	8.930000e+01
vesicle docking	8.414355e-05	8.930000e+01
protein modification by small protein conjugation	8.476328e-05	8.773333e+01
aromatic compound metabolic process	8.670254e-05	1.049667e+02
enzyme linked receptor protein signaling pathway	8.790440e-05	8.930000e+01
thiamin diphosphate biosynthetic process	8.946735e-05	6.266667e+01
thiamin diphosphate metabolic process	8.946735e-05	6.266667e+01
gene expression	8.981928e-05	1.269000e+02
RNA processing	9.112153e-05	1.049667e+02
macromolecule catabolic process	9.294677e-05	1.049667e+02
cell surface receptor linked signal transduction	9.852077e-05	1.159333e+02
response to biotic stimulus	9.912340e-05	9.556667e+01
inflammatory response	1.004722e-04	6.893333e+01
amino acid derivative metabolic process	1.017726e-04	9.243333e+01
glycolysis	1.061599e-04	9.243333e+01
cholesterol metabolic process	1.084251e-04	6.893333e+01
ATP-dependent proteolysis	1.098051e-04	6.893333e+01
intracellular signaling cascade	1.101300e-04	1.096667e+02
regulation of translational initiation	1.126134e-04	6.893333e+01
respiratory electron transport chain	1.133755e-04	9.556667e+01
ATP synthesis coupled electron transport	1.133755e-04	9.556667e+01
alcohol metabolic process	1.142616e-04	1.049667e+02
cation transport	1.179690e-04	1.081000e+02
cellular lipid catabolic process	1.193987e-04	94
monosaccharide catabolic process	1.203879e-04	9.243333e+01
hexose catabolic process	1.203879e-04	9.243333e+01
glucose catabolic process	1.203879e-04	9.243333e+01
alcohol catabolic process	1.229231e-04	9.243333e+01
protein-DNA complex assembly	1.238054e-04	8.616667e+01
proteolysis	1.258164e-04	1.096667e+02
protein oligomerization	1.263651e-04	7.676667e+01
membrane organization and biogenesis	1.282187e-04	9.870000e+01
protein amino acid glycosylation	1.284026e-04	1.002667e+02
glycoprotein biosynthetic process	1.284026e-04	1.002667e+02
glucose metabolic process	1.294772e-04	9.243333e+01
glycoprotein metabolic process	1.296807e-04	1.002667e+02
biopolymer glycosylation	1.309707e-04	1.002667e+02
transposition, DNA-mediated	1.333945e-04	8.146667e+01
transposition	1.333945e-04	8.146667e+01
catabolic process	1.335380e-04	1.081000e+02
pentose-phosphate shunt, non-oxidative branch	1.359276e-04	6.266667e+01
regulation of protein localization	1.360340e-04	7.990000e+01
cellular catabolic process	1.428630e-04	1.065333e+02
tryptophan metabolic process	1.444814e-04	7.363333e+01
lipopolysaccharide biosynthetic process	1.470708e-04	6.580000e+01
lipopolysaccharide metabolic process	1.470708e-04	6.580000e+01
amine biosynthetic process	1.480608e-04	94
nitrogen compound biosynthetic process	1.480608e-04	94
metal ion transport	1.483954e-04	1.065333e+02
cell projection morphogenesis	1.486673e-04	8.616667e+01
cell projection organization and biogenesis	1.486673e-04	8.616667e+01
cell part morphogenesis	1.486673e-04	8.616667e+01
monovalent inorganic cation transport	1.511567e-04	1.049667e+02
cellular lipid metabolic process	1.540676e-04	1.049667e+02
membrane lipid catabolic process	1.609012e-04	7.990000e+01
sphingolipid catabolic process	1.609012e-04	7.990000e+01
RNA splicing	1.690405e-04	9.243333e+01
metallo-sulfur cluster assembly	1.779054e-04	6.893333e+01
iron-sulfur cluster assembly	1.779054e-04	6.893333e+01
negative regulation of apoptosis	1.797164e-04	7.990000e+01
negative regulation of programmed cell death	1.837123e-04	7.990000e+01
nervous system development	1.956372e-04	8.616667e+01
protein amino acid N-linked glycosylation	1.971855e-04	8.773333e+01
nucleoside metabolic process	1.981852e-04	8.930000e+01
negative regulation of nucleotide metabolic process	2.007793e-04	6.266667e+01
regulation of nucleotide metabolic process	2.007793e-04	6.266667e+01
NAD biosynthetic process	2.011712e-04	6.580000e+01
NAD metabolic process	2.011712e-04	6.580000e+01
tRNA 5'-leader removal	2.059661e-04	6.266667e+01
phosphorus metabolic process	2.095699e-04	1.096667e+02
phosphate metabolic process	2.095699e-04	1.096667e+02
carbohydrate metabolic process	2.181349e-04	1.049667e+02
mitochondrial electron transport, NADH to ubiquinone	2.309431e-04	9.086667e+01
signal transduction	2.314542e-04	1.190667e+02
cytolysis	2.342748e-04	5.640000e+01
defense response to Gram-negative bacterium	2.342748e-04	5.640000e+01
indolalkylamine metabolic process	2.374604e-04	7.363333e+01
indole and derivative metabolic process	2.374604e-04	7.363333e+01
indole derivative metabolic process	2.374604e-04	7.363333e+01
cellular structure morphogenesis	2.455787e-04	8.616667e+01
cell morphogenesis	2.455787e-04	8.616667e+01
glutamate biosynthetic process	2.472747e-04	5.640000e+01
polyol biosynthetic process	2.478183e-04	5.483333e+01
inositol biosynthetic process	2.478183e-04	5.483333e+01
negative regulation of cellular process	2.525499e-04	9.086667e+01
organelle ATP synthesis coupled electron transport	2.525499e-04	9.086667e+01
tetrahydrobiopterin biosynthetic process	2.575249e-04	6.110000e+01
tetrahydrobiopterin metabolic process	2.575249e-04	6.110000e+01
post-translational protein modification	2.601755e-04	1.096667e+02
Gene_Ontology	2.673548e-04	1.895667e+02
biological_process	2.673548e-04	1.895667e+02
maintenance of localization	2.717125e-04	7.363333e+01
maintenance of protein localization	2.717125e-04	7.363333e+01
phosphatidylserine biosynthetic process	2.813267e-04	6.110000e+01
phosphatidylserine metabolic process	2.813267e-04	6.110000e+01
cellular biosynthetic process	2.884978e-04	1.065333e+02
protein amino acid phosphorylation	2.990395e-04	1.065333e+02
pentose metabolic process	2.997548e-04	6.266667e+01
regulation of localization	3.011601e-04	7.990000e+01
fatty acid oxidation	3.026138e-04	8.303333e+01
negative regulation of cellular metabolic process	3.078063e-04	8.773333e+01
negative regulation of metabolic process	3.078063e-04	8.773333e+01
negative regulation of nucleobase, nucleoside, nucleotide and nucleic acid metabolic process	3.194362e-04	8.616667e+01
inositol metabolic process	3.206192e-04	5.483333e+01
carbon utilization	3.296855e-04	5.953333e+01
protein modification process	3.303530e-04	1.096667e+02
regulation of transcription	3.325382e-04	1.112333e+02
biogenic amine catabolic process	3.395961e-04	7.833333e+01
amino acid derivative catabolic process	3.395961e-04	7.833333e+01
glycolipid metabolic process	3.512625e-04	6.893333e+01
transcription	3.595027e-04	1.112333e+02
biopolymer modification	3.636134e-04	1.096667e+02
regulation of nucleobase, nucleoside, nucleotide and nucleic acid metabolic process	3.657602e-04	1.112333e+02
riboflavin biosynthetic process	3.703385e-04	5.013333e+01
riboflavin and derivative metabolic process	3.703385e-04	5.013333e+01
riboflavin and derivative biosynthetic process	3.703385e-04	5.013333e+01
riboflavin metabolic process	3.703385e-04	5.013333e+01
biopolymer biosynthetic process	3.721171e-04	1.112333e+02
phenylalanyl-tRNA aminoacylation	3.761738e-04	5.796667e+01
phosphorylation	3.900566e-04	1.065333e+02
cell-substrate adhesion	4.109004e-04	7.990000e+01
cell-matrix adhesion	4.109004e-04	7.990000e+01
cell communication	4.290834e-04	1.190667e+02
regulation of transcription, DNA-dependent	4.357466e-04	1.096667e+02
RNA biosynthetic process	4.508841e-04	1.096667e+02
transcription, DNA-dependent	4.508841e-04	1.096667e+02
regulation of RNA metabolic process	4.547427e-04	1.096667e+02
phosphoenolpyruvate-dependent sugar phosphotransferase system	4.653865e-04	5.796667e+01
aspartyl-tRNA aminoacylation	4.770376e-04	5.796667e+01
base-excision repair	4.829604e-04	5.796667e+01
regulation of cellular metabolic process	4.844699e-04	1.112333e+02
integrin-mediated signaling pathway	4.898805e-04	7.050000e+01
transcription initiation from RNA polymerase II promoter	5.014790e-04	6.266667e+01
transcription initiation	5.132938e-04	6.266667e+01
mRNA catabolic process	5.283178e-04	7.050000e+01
DNA methylation	5.307177e-04	5.640000e+01
DNA alkylation	5.307177e-04	5.640000e+01
galactose metabolic process	5.361630e-04	6.110000e+01
deoxyribonucleoside diphosphate biosynthetic process	5.517374e-04	5.013333e+01
pyrimidine deoxyribonucleoside diphosphate biosynthetic process	5.517374e-04	5.013333e+01
dTDP biosynthetic process	5.517374e-04	5.013333e+01
pyrimidine deoxyribonucleoside diphosphate metabolic process	5.517374e-04	5.013333e+01
dTDP metabolic process	5.517374e-04	5.013333e+01
deoxyribonucleoside triphosphate biosynthetic process	5.517374e-04	5.013333e+01
pyrimidine deoxyribonucleoside triphosphate biosynthetic process	5.517374e-04	5.013333e+01
dTTP biosynthetic process	5.517374e-04	5.013333e+01
dTTP metabolic process	5.517374e-04	5.013333e+01
nucleoside diphosphate biosynthetic process	5.517374e-04	5.013333e+01
pyrimidine nucleoside diphosphate biosynthetic process	5.517374e-04	5.013333e+01
pyrimidine nucleoside triphosphate biosynthetic process	5.517374e-04	5.013333e+01
RNA elongation	5.537459e-04	6.893333e+01
methionine metabolic process	5.566334e-04	6.266667e+01
regulation of metabolic process	5.678141e-04	1.112333e+02
RNA catabolic process	5.831041e-04	7.363333e+01
deoxyribonucleoside triphosphate metabolic process	5.899607e-04	5.013333e+01
pyrimidine deoxyribonucleoside triphosphate metabolic process	5.899607e-04	5.013333e+01
heme biosynthetic process	5.931779e-04	5.640000e+01
heme metabolic process	5.931779e-04	5.640000e+01
methionyl-tRNA aminoacylation	6.160672e-04	5.796667e+01
DNA unwinding during replication	6.306354e-04	5.640000e+01
L-serine biosynthetic process	6.540741e-04	5.796667e+01
DNA modification	6.621014e-04	5.640000e+01
macromolecule biosynthetic process	6.860576e-04	1.112333e+02
tyrosyl-tRNA aminoacylation	7.628363e-04	5.796667e+01
lipid glycosylation	7.705652e-04	4.856667e+01
transport	8.424482e-04	1.143667e+02
cellular process	8.745599e-04	1.645000e+02
RNA metabolic process	8.809679e-04	1.096667e+02
nucleobase, nucleoside, nucleotide and nucleic acid metabolic process	9.218853e-04	1.128000e+02
nucleoside salvage	9.398692e-04	5.796667e+01
purine ribonucleoside salvage	9.398692e-04	5.796667e+01
