F44D12.3
C24A11.9
C17F3.1
M05B5.1
F39H11.5
F36A2.3
K07A12.5
B0207.11
K07A12.5
T15D6.10
K05C4.2
W09B6.1
F21H12.5
C30B5.3
C08B11.4
AH6.2
E02H1.3
W02B12.7
F54D5.2
ZK20.3
VW02B12L.1
C01B9.1
C36E8.5
C47A4.4
F40H6.1
K07D8.1
Y116A8C.24
C15H7.3
Y119D3A.4
Y39A3CL.6
R11E3.8
Y59E9AR.7
R11E3.8
T08B6.3
ZC477.7
ZC477.1
Y40C5A.3
ZC477.1
C34D4.14
T27A3.2
T09B4.8
D2030.2
T22C1.8
K08C9.1
C01A2.5
K07E8.10
R52.2
W10G11.1
C27D6.3
T07D4.3
R166.1
F59B10.5
H19M22.3
R13F6.10
F37A4.4
T07C4.5
ZK1010.7
ZK1010.5
C17B7.7
K08D10.8
W03D2.6
C31H1.5
Y23H5A.5
W03D8.10
Y108F1.3
T23B3.4
ZK354.3
F55H12.5
F36A2.14
C35E7.5
B0511.11
T15D6.12
F47F6.4
F47F6.1
F41C3.3
C01G5.3
B0495.4
ZK1320.1
Y53C12B.2
B0334.5
B0491.8
Y39G8B.9
E03A3.4
R13A5.4
C24H11.7
M70.2
T28H11.5
ZC477.1
H06H21.9
C02B10.1
F36H12.8
F42C5.9
F42C5.3
F42C5.9
C34D4.2
T21E12.4
T09B4.4
B0207.7
H15N14.1
F58D5.7
Y67A6A.1
C04F12.6
F26E4.7
F32B4.5
F35E2.5
F56A6.1
C27H5.5
F07H5.9
C09G5.5
Y41E3.13
C09F9.3
Y53F4B.29
D2045.2
D2045.2
W09D10.4
F45G2.2
F56A8.8
W02C12.3
C01G5.4
C11D2.6
T13A10.10
B0218.6
K07H8.9
F21F3.1
C55B7.4
K02B12.5
B0379.7
Y106G6A.4
Y106G6G.4
K02F6.5
F59E12.4
R06C7.1
ZK1290.5
ZK1290.3
F40F8.10
F38A3.1
F54A3.4
Y46G5A.36
F43C11.3
F34D10.4
F42A6.3
F09F7.7
ZK418.2
K01G5.9
Y79H2A.2
F38A5.6
ZK381.4
C43G2.2
K04D7.7
C50F2.7
C09D4.3
C15A11.6
ZK858.2
C41G7.6
C50D2.3
K01A2.10
C17F4.3
C56C10.10
T25D10.5
F56F3.4
T04A8.5
F17C8.7
B0393.1
T16H12.9
ZK757.3
T16H12.6
K11H3.2
T16A9.5
F32A7.5
CC8.2
CC8.2
F36H12.10
F36H12.8
F36H12.3
F13B6.3
T10E9.4
T02E1.6
F10D11.4
F32A7.5
F16C3.2
Y71G12B.4
C17B7.7
Y53F4B.45
F32A5.3
F35D2.3
C01G6.4
F15D4.2
Y51H7C.9
H17B01.2
R10E9.2
C14B1.1
ZK637.12
C44B12.1
C17B7.7
W09G12.7
F58H7.7
B0218.8
ZC376.8
M05B5.1
R06C7.6
F52A8.4
C12C8.2
W06D4.3
C47B2.4
C47B2.2
C52E2.4
F09C12.8
Y51B9A.3
T05C12.3
K09E4.4
Y71D11A.5
R10E9.2
M88.1
C23G10.6
C16A3.6
T16G12.1
K03H1.1
M04D8.2
Y37D8A.23
Y37D8A.21
Y37D8A.15
Y49E10.24
ZK354.6
M01D7.5
F32B5.3
F23C8.5
C24A11.9
B0261.6
ZC581.2
W02D3.7
Y106G6H.13
B0511.6
W02D9.10
T26E3.7
K05C4.1
H17B01.2
C32D5.2
F21H12.5
C06A8.6
F18A1.3
F10D11.4
ZK1320.10
AH6.3
M176.3
VW02B12L.1
T19C3.4
R10E4.2
F40H6.2
C28H8.6
ZK328.5
C18H2.5
C18H2.1
C27D11.1
K07D8.1
K04H4.5
Y82E9BL.3
Y77E11A.2
C34H4.2
F36H12.11
R11E3.7
C09B9.2
ZC477.7
Y40C5A.3
T27A3.5
Y67A6A.1
F27D4.1
T22C1.11
T22C1.9
ZK1025.5
T02G6.5
W09C5.1
W07E6.2
F19B10.1
Y49F6B.10
EGAP2.3
ZK1127.2
T01B7.3
ZK970.2
C17B7.7
Y53F4B.19
F37A4.5
F37A4.3
T20G5.6
Y66H1B.3
C17B7.13
Y105C5B.12
C31H1.6
C31H1.1
T06C10.3
F20D12.1
W01B11.6
Y23H5A.5
W03D8.9
C55C2.5
C32E12.1
F27C1.1
T23B3.5
F36A2.13
F36A2.11
ZC204.1
ZK355.3
T10D4.3
B0491.8
B0334.2
R13H9.1
Y39G8B.7
F08G2.5
F40G9.10
T17H7.1
C24A1.1
C29F9.1
F55H2.5
M70.3
D2024.1
F42C5.4
C06E4.8
C09G9.4
Y47D9A.2
C41D11.1
T08B2.9
C54G4.2
Y106G6A.4
K07A1.8
F52F12.5
T27A1.2
C17B7.7
Y49F6B.10
T02G5.8
C27H5.2
F07H5.4
C14A4.1
Y54G2A.24
Y53F4B.29
C49A9.9
C35D10.12
C45G9.4
C13B9.1
C06E1.6
Y57A10A.7
T27E9.5
F56A11.6
T21D12.9
C35B1.8
C01G5.3
C11D2.6
C44E4.6
C10H11.6
F10G8.1
ZK265.3
T02E1.7
B0379.3
R06C1.6
W09G3.6
F47G4.3
Y71G12B.4
Y71F9B.14
Y71F9B.15
Y71F9AL.17
C18A3.7
R06C7.1
ZK1248.5
E04F6.8
ZK1290.6
C07H4.2
T24B8.5
F37H8.2
F33A8.2
C09G5.5
R03D7.8
F35C5.6
K06B9.2
F56C9.7
ZK520.5
ZK525.1
T28A8.6
C44B12.2
E04A4.4
C08F11.10
R08C7.5
T22B11.5
C32E8.11
R06C7.1
C15A11.5
F22D6.10
M05B5.6
C17E4.2
C17E4.10
Y18D10A.21
C17F4.2
F18A12.1
C04G2.3
F33G12.5
H43E16.1
T19D12.1
F35C11.1
F52H3.7
ZK938.1
ZK930.4
ZK930.2
Y57A10A.7
Y57A10A.6
Y17G7B.2
M88.6
R13A5.11
F40F12.1
K03H1.12
F36H12.14
F55G1.9
R05G6.10
C53D5.5
F37E3.3
Y105C5A.14
C17B7.13
K05F1.9
K05F1.3
R07G3.3
F15D4.5
M01F1.3
T15B12.2
Y69F12A.2
Y57G11C.14
Y47D3A.15
W05B2.5
Y73B3A.18
F23C8.7
T08D2.5
T28F4.6
T28F4.3
F55F8.7
W06D4.2
F36D1.4
Y53F4B.45
F08A8.1
Y39G10AR.6
C03H5.6
F09C12.7
H43E16.1
T14B4.8
T13H5.3
F49E12.9
R05H5.8
W03C9.5
C01G12.8
R155.2
Y71D11A.5
F23H11.7
F23H11.3
F10F2.8
F17C8.1
K12H4.7
K03H1.6
T16G12.1
Y37D8A.21
Y55B1AR.4
C39H7.1
ZK354.1
ZK354.1
ZK354.3
C55C3.3
T14A8.2
C33H5.18
C50F7.3
F23B2.12
C53D6.6
R11A8.7
Y43C5B.2
ZK795.2
C25G4.2
F08G5.6
F56A4.2
F56A4.2
B0213.4
F25B4.2
F07G11.3
K01D12.9
K01D12.15
F47B8.6
AH10.1
F47B8.2
T20B3.12
Y39B6A.21
Y39B6A.30
Y46H3C.4
T08D2.5
C16E9.1
T25C12.3
Y71H9A.3
BE0003N10.3
C47E12.5
K07F5.5
C04G2.4
K08D9.2
T10H9.5
T25F10.6
F32H5.1
C56A3.7
C01G10.10
F14H8.1
C14A6.2
B0310.5
F53B3.5
Y48D7A.2
F45E1.6
C46E1.1
C01A2.5
C53D6.2
C07D10.2
K08E7.9
T04A11.4
C17B7.13
C14C6.5
T27C4.1
C02G6.2
C29A12.4
C35A5.3
E02A10.3
F45D3.4
K10C8.1
Y39H10A.1
F15A8.1
C30G4.4
T23C6.4
F58B3.5
T01G1.1
C27D6.11
Y116A8A.4
Y116A8A.4
Y116A8C.43
ZK550.5
Y46H3C.4
T08B1.4
C17B7.4
H23N18.1
K03B4.2
T19H12.3
T15B7.5
ZC487.1
T15B7.3
W01A11.7
ZC443.6
F40F9.3
T01G5.2
Y113G7C.1
M6.1
F53H8.3
T22B7.4
K07E3.7
C34E7.1
Y38C1AA.7
T14G10.5
Y37A1C.1
C47A4.5
F52B11.8
C47A4.2
K07C5.4
F57F5.1
F58G11.2
T26H5.5
ZK228.3
F53F8.4
R193.2
R193.2
ZK813.2
C01C4.1
C04F6.3
C15H9.1
T13C5.5
H05L03.3
C29F7.3
Y7A5A.5
Y11D7A.11
C08F8.2
F55G11.2
M02B1.4
C32H11.10
F31A3.1
Y7A9D.1
Y69A2AR.19
Y59E9AR.8
Y59E9AL.6
C02E11.1
R09B5.6
R09B5.2
F32D1.8
T28C12.4
T18H9.2
F58B4.3
C15C8.3
R90.4
F15B9.4
Y50E8A.10
F35E8.13
F36G9.12
F47H4.10
Y105C5A.14
T01B6.3
C05E11.8
K03A1.5
F15G9.4
C23H4.1
Y16B4A.2
C18B12.4
C04G2.5
K08F4.5
T12A7.2
C49C3.9
ZK6.10
F15E11.12
R09F10.2
R04B5.9
B0024.2
F58H1.5
T06E6.1
T08G3.4
Y51A2D.9
Y38H6C.1
Y44A6D.3
F22F4.2
W05H9.3
C03A3.1
F15A2.1
F38E9.1
F49C12.6
R07H5.8
R07H5.4
C36H8.3
Y51H4A.9
Y69A2AR.32
C30G7.3
F57F4.4
K06A4.5
K07B1.6
F25B3.3
H19N07.3
R90.2
C44H9.8
C06C6.6
K02E10.4
T24D8.5
T07F12.4
T06H11.1
W07E11.2
F21G4.4
AH10.4
C44H4.2
T23E7.4
C47B2.4
C47B2.2
F23B2.11
C27B7.6
F23B2.7
T25B9.6
Y43C5B.3
T27E7.1
B0213.4
F25B4.1
F44E7.3
C53A3.2
F07G11.4
F07G11.2
Y32F6A.2
K01D12.8
ZC116.2
F58E10.7
F47B8.1
T16A9.5
Y39B6A.5
F31D4.5
T08D2.4
F22A3.6
C53B7.2
W02D9.10
T26E3.7
T28H11.5
C47E12.4
T13F2.1
F27C8.5
C05C12.5
R07H5.9
C49C3.4
Y51H4A.18
C15H7.2
Y73C8B.2
C37H5.6
H23N18.1
K04A8.1
ZC487.4
F58E6.1
T06E4.7
Y73B6BL.34
B0240.1
C25D7.2
C01G10.9
F13A7.1
F11A5.5
C25F9.6
F28B4.3
C41G11.3
F41E7.7
F11C1.5
Y87G2A.4
W09C5.1
C53B4.5
ZC410.5
F01D4.2
R102.3
T04A11.4
Y57G11A.2
F55B11.1
Y57G11B.7
Y41D4B.16
C17B7.7
W08A12.4
C54D10.9
C54D10.5
F45D3.3
Y49A3A.2
T05E12.6
Y39B6A.18
Y39B6A.22
Y39H10A.2
Y39B6A.5
D1009.4
C35B8.1
W08D2.1
ZK550.6
Y116A8C.37
Y46H3A.4
T08B1.1
F41F3.4
W01A11.7
T15B7.3
W02F12.5
C50B8.4
C31A11.5
C14A6.5
M6.1
F40F4.6
F53B3.5
C34E7.1
K01H12.2
F42A9.3
T04B2.6
Y43C5A.1
T04B2.2
K08F4.11
F01G10.5
F01G10.1
ZK757.3
C08F11.10
Y37A1C.1
R02C2.3
R11G11.14
F15E11.14
Y5H2B.1
Y5H2B.3
C17B7.7
R09F10.2
C13F10.4
F45F2.11
C12D8.5
F58H1.6
F58G11.1
F35E12.7
F35E12.5
F26D2.10
ZK228.4
F16H6.7
R193.2
C02F12.3
ZK563.4
R09F10.2
F41D9.1
C05C9.3
T05A10.6
C40C9.2
T25D1.3
F38E9.6
R06C1.6
F38E11.2
F56H11.3
T16A9.5
Y5F2A.1
C32H11.10
Y69A2AR.19
Y59E9AR.1
Y69A2AR.19
K10C9.1
Y73B3A.12
W07B8.4
F32D1.9
F13H6.3
T28C12.3
C50F4.2
T16G1.6
ZC443.6
ZC443.4
F35E8.10
F36G9.13
Y97E10AR.1
F43C9.2
C01C10.4
T10A3.1
R07B1.3
C49C8.1
R09E10.3
Y43C5A.5
T12A7.5
C49C3.8
Y37E11AR.2
C49C3.4
Y37E11AR.4
Y38C9A.1
B0554.6
F56A4.2
T20D4.11
F08F3.3
F52E1.8
C08B6.1
B0024.2
C27A7.4
T22G5.6
T22G5.2
T23F1.5
T09F5.10
Y44A6D.2
M02D8.4
C09G1.1
T09E11.8
E03H4.3
C33A12.4
C10C5.5
F56H11.6
K10D11.1
ZK896.7
K12B6.3
F57F4.4
H19N07.2
C34B4.1
C06C6.7
Y20C6A.2
C25F9.6
C09B7.2
K02G10.4
F46H5.2
F42F12.13
T18D3.6
C47B2.5
F08A8.1
